1324.6
1323.65
1321.75
1310.8
1308.35
1308.35
1308.35
1314.85
1313.8
1326.1
1339.1
1338.65
1338.65
1338.65
1340.5
1327
1322.5
1318.1
1322.5
1322.5
1322.5
1313.3
1283.3
1269.4
1254.5
1258.75
1258.75
1258.75
1259.5
1253.45
1256.5
1261.05
1251.75
1251.75
1251.75
1254.8
1258.2
1269.05
1271.65
1266.05
1266.05
1266.05
1265.55
1269.4
1270.5
1266.25
1273
1273
1273
1272
1288.45
1303.75
1301
1302.8
1302.8
1302.8
1283.05
1282.35
1281.4
1267.5
1236.45
1236.45
1236.45
1213.6
1226.95
1229.2
1226.75
1211
1211
1211
1214.25
1212.25
1185.35
1186.1
1187.7
1187.7
1187.7
1187
1186.55
1178.1
1161.85
1173.5
1173.5
1173.5
1162.2
1172.5
1177.65
1171.05
1163.6
1163.6
1163.6
1156.1
1158.55
1162.25
1126.95
1131.6
1131.6
1131.6
1136.25
1125.7
1133.65
1131.35
1131.35
1131.35
1131.35
1131.35
1131.35
1134.6
1145.9
1145.9
1145.9
1145.9
1145.9
1151
1164.25
1176.7
1175.85
1175.85
1175.85
1178.5
1189.5
1178.55
1205.05
1190.35
1190.35
1190.35
1203
1216.05
1214.75
1196.05
1200.55
1200.55
1200.55
1212.85
1216.8
1195
1189.7
1184.85
1184.85
1184.85
1192.8
1212.8
1203.65
1221.95
1215.2
1215.2
1215.2
1226.75
1231
1242.1
1236.8
1228.3
1228.3
1228.3
1222.25
1230.75
1224.4
1240.55
1241.95
1241.95
1241.95
1237.3
1233.2
1236.65
1247.9
1253.65
1253.65
1253.65
1257.2
1255.6
1240.4
1238.1
1226.5
1226.5
1226.5
1230.95
1216.65
1209.2
1206.55
1202.65
1202.65
1202.65
1204.2
1204.6
1198.8
1229.35
1229.6
1229.6
1229.6
1232.4
1241.6
1249.05
1247.5
1247.5
1247.5
1247.5
1257.55
1257.25
1251.1
1248.8
1244.85
1244.85
1244.85
1247.25
1257.65
1245.8
1252.5
1266.45
1266.45
1266.45
1250.05
1252.9
1274.3
1284.15
1284.15
1284.15
1284.15
1284.15
1278.95
1279.05
1282.1
1281.85
1281.85
1281.85
1269.4
1267.8
1261.85
1262.8
1266.45
1266.45
1266.45
1266.45
1255.45
1250.3
1228.45
1228.05
1228.05
1228.05
1229.8
1220.4
1222.95
1223.15
1231.25
1231.25
1231.25
1233.3
1234.2
1257.4
1255.9
1252
1252
1252
1258.85
1260.2
1252.55
1256.95
1265.05
1265.05
1265.05
1265.05
1262.7
1266.2
1264.85
1274.95
1274.95
1274.95
1279.95
1293.5
1291
1273.1
1266.55
1266.55
1266.55
1266.4
1262
1275.5
1254.55
1255.4
1255.4
1255.4
1248.15
1242.2
1242.5
1250.8
1255.7
1255.7
1255.7
1245.25
1249.55
1248
1243.5
1242.25
1242.25
1242.25
1229.25
1223.75
1220.3
1224.9
1215.65
1215.65
1215.65
1211.9
1211.05
1218.8
1218.9
1230.3
1230.3
1230.3
1234.1
1240.75
1242.15
1238.7
1248.55
1248.55
1248.55
1255.55
1254.4
1248.1
1261.1
1264.9
1264.9
1264.9
1267.55
1270.95
1269.6
1268.1
1257.7
1257.7
1257.7
1258
1261.8
1271.05
1284.4
1286.1
1286.1
1286.1
1282.3
1270.3
1272.75
1285.15
1295.8
1295.8
1295.8
1292.9
1284.2
1286.65
1289
1285.3
1285.3
1285.3
1285.3
1318.65
1308.5
1311.75
1320.4
1320.4
1320.4
1333.1
1335.55
1337.85
1343.5
1346.25
1346.25
1346.25
1334.2
1326.5
1327.55
1324.55
1322.85
1322.85
1322.85
1312.1
1309.6
1311.3
1292.1
1294.8
1294.8
1294.8
1293.3
1300.05
1282.55
1283.35
1283.1
1283.1
1283.1
1273.7
1271.25
1274.25
1274.5
1261.8
1261.8
1261.8
1278.75
1291.4
1289.25
1290.25
1299.6
1299.6
1299.6
1303.3
1284.75
1280.2
1286.4
1281.2
1281.2
1281.2
1274.9
1276.45
1275
1273.75
1266.45
1266.45
1266.45
1272
1270.15
1277.05
1279.2
1267.2
1267.2
1267.2
1270.9
1275.6
1284
1284.8
1284.3
1284.3
1284.3
1277.95
1274.6
1282.2
1280
1284.35
1284.35
1284.35
1286.2
1283.3
1286.95
1290.35
1290.5
1290.5
1290.5
1294.9
1291.85
1283.85
1280.2
1275.5
1275.5
1275.5
1273.45
1266.3
1263.7
1255
1250.65
1250.65
1250.65
1247.15
1240.9
1242.65
1251
1254.6
1254.6
1254.6
1260.6
1260.35
1264.55
1264.55
1264.55
1264.55
1264.55
1264.55
1264.55
1279.4
1291
1291
1291
1291
1291
1312.05
1314.9
1314.5
1317.15
1317.15
1317.15
1319.95
1311
1319.75
1323.05
1326.8
1326.8
1326.8
1339.25
1333.85
1335.65
1332.2
1334.95
1334.95
1334.95
1332.6
1333.4
1353.7
1354.95
1353.15
1353.15
1353.15
1343.85
1344.9
1345.05
1341.35
1331.15
1331.15
1331.15
1333.6
1331.4
1324.65
1315.45
1314.1
1314.1
1314.1
1322.3
1325.35
1336.25
1352.45
1352.1
1352.1
1352.1
1346.6
1339.85
1330.5
1328.35
1327.95
1327.95
1327.95
1333.5
1325.75
1317.85
1307.75
1322.3
1322.3
1322.3
1320.4
1331.4
1329.4
1321
1320.6
1320.6
1320.6
1319.15
1322.75
1323.55
1318.75
1310.1
1310.1
1310.1
1312.4
1311
1321.35
1329.15
1346.6
1346.6
1352.4
1341.45
1332.45
1323.85
1333.45
1333.45
1333.45
1333.45
1333.45
1337.3
1327.7
1331.2
1331.95
1331.95
1331.95
1338.95
1350.75
1341.35
1343.7
1349.35
1349.35
1349.35
1342.1
1351.45
1348.6
1336.75
1324.3
1324.3
1324.3
1328.85
1321.65
1320.7
1321.5
1313.2
1313.2
1313.2
1307.1
1304.2
1315.05
1309.4
1306.6
1306.6
1306.6
1306.6
1313.85
1318.8
1324.35
1319.85
1319.85
1319.85
1295
1291.25
1289.5
1288.3
1288.35
1288.35
1288.35
1293.05
1289
1304.85
1303.5
1295.5
1295.5
1295.5
1295.5
1300.7
1305.35
1294.6
1295.45
1295.45
1295.45
1292.05
1300.1
1297.25
1298.25
1299.6
1299.6
1299.6
1298.65
1296.15
1302.75
1285.25
1281.55
1281.55
1281.55
1276.15
1274.2
1266.15
1269.15
1268.7
1268.7
1268.7
1260.3
1254.6
1251.55
1250.45
1247.8
1247.8
1247.8
1251.75
1255.65
1255.5
1255.35
1262.05
1262.05
1254
1251.4
1245.9
1241.7
1241.1
1232.8
1232.8
1232.8
1224.5
1217.55
1228.75
1224.95
1228.35
1228.35
1228.35
1231.5
1228.25
1223.95
1223.8
1220.95
1220.95
1220.95
1219
1215.45
1216.3
1209.65
1212.35
1212.35
1212.35
1209.55
1214.35
1214.4
1200.35
1197
1197
1197
1182
1180.4
1178.4
1184.35
1190.95
1190.95
1190.95
1196.65
1192.35
1197.7
1212.25
1204.2
1204.2
1204.2
1204.2
1197.3
1202.45
1200.05
1190.85
1196.7
1205.15
1198.9
1196.6
1189.85
1195.6
1209.8
1209.8
1209.8
1201.95
1201.9
1200.2
1203.3
1208.35
1208.35
1208.35
1198.7
1202.75
1201.9
1194.25
1185.4
1185.4
1185.4
1187.25
1189.35
1204.7
1201.2
1203.45
1203.45
1203.45
1203.8
1186.95
1185.55
1188.6
1205.55
1205.55
1205.55
1219.75
1229.95
1230.7
1229.05
1223
1223
1223
1227.85
1222.3
1235.95
1230.55
1230.8
1230.8
1230.8
1233.85
1230.8
1225.4
1214.95
1231.15
1231.15
1231.15
1232.1
1232.25
1231.6
1229.95
1224.15
1224.15
1224.15
1211.4
1205.55
1202.1
1203.25
1211.85
1211.85
1211.85
1222.4
1221.6
1223
1226.1
1227.05
1227.05
1227.05
1223.65
1223.4
1221.2
1213.25
1226.25
1226.25
1226.25
1217.55
1230.3
1240.3
1235.9
1242.55
1242.55
1242.55
1243.3
1245.35
1245.3
1245.75
1242.75
1242.75
1242.75
1235.35
1241.65
1246.3
1255
1259.75
1259.75
1259.75
1258.15
1258.15
1268
1279
1279
1279
1279
1282.9
1282.9
1282.9
1290.45
1279.9
1292.2
1292.2
1286.45
1288.6
1291.9
1291.9
1291.9
1288.95
1292.75
1294.4
1292.3
1290.7
1290.7
1290.7
1284.2
1279.55
1282.1
1279.8
1283.7
1283.7
1283.7
1293.9
1302.15
1307.55
1310.7
1323.25
1323.25
1323.25
1318.7
1312.15
1314.2
1312.4
1310
1310
1310
1314.85
1306.4
1310
1312.8
1311.45
1311.45
1311.45
1316.55
1325.5
1334.15
1343.75
1331.25
1331.25
1331.25
1329.05
1331.05
1325.05
1322.85
1319.15
1319.15
1319.15
1311.95
1285.4
1283.8
1285.85
1285.3
1285.3
1285.3
1296.75
1292.75
1297.05
1306.95
1295.55
1295.55
1295.55
1303.5
1305.6
1307.7
1303.7
1309.6
1309.6
1309.6
1311.3
1319.55
1316.3
1309.7
1295.15
1295.15
1295.15
1295.4
1293.5
1290.3
1290.45
1283.15
1283.15
1283.15
1288.45
1300
1303
1305.45
1298.8
1298.8
1298.8
1294.3
1285.65
1276.35
1275.85
1275.7
1275.7
1275.7
1269.5
1271.65
1280.8
1284.2
1284.2
1284.2
1284.2
1284.2
1279.5
1282.3
1283.8
1270.95
1270.95
1270.95
1278.55
1281.2
1285.2
1286.1
1287.1
1287.1
1287.1
1287.1
1295.6
1298.4
1299.1
1291.7
1291.7
1291.7
1280.8
1276.85
1271.15
1273.8
1283.65
1283.65
1283.65
1282.5
1278.3
1281.65
1280.95
1295.55
1295.55
1295.55
1295.55
1317.1
1324.25
1335.05
1335.5
1335.5
1335.5
1340.65
1328.6
1324.3
1332.35
1335.9
1335.9
1335.9
1351.25
1341.3
1341.35
1344.05
1379.5
1379.5
1379.5
1397.15
1405.7
1431.4
1403.95
1402.5
1402.5
1402.5
1409
1390.1
1391.05
1413.5
1414.9
1414.9
1414.9
1388.65
1400.1
1391.55
1408.3
1413.75
1413.75
1413.75
1407.6
1412.4
1409.85
1410.35
1417.45
1417.45
1417.45
1439.7
1427.75
1425.55
1426.95
1416.1
1416.1
1416.1
1420.4
1419.05
1425.9
1427.55
1406.8
1406.8
1406.8
1441.75
1465.25
1465.25
1506.05
1495.75
1495.75
1495.75
1497.7
1504.7
1498.4
1513.25
1515.65
1515.65
1515.65
1515.25
1496.6
1504.55
1503.25
1502.05
1502.05
1502.05
1503.8
1532.95
1537.15
1540.2
1528.4
1528.4
1528.4
1528.4
1525.95
1537.85
1546.1
1529.1
1529.1
1529.1
1523.7
1509.2
1498.25
1490.65
1515.2
1515.2
1515.2
1503.1
1497.2
1502.1
1503.5
1500.7
1500.7
1500.7
1501.9
1522.1
1520.65
1528.75
1506.4
1506.4
1506.4
1489.9
1485.3
1473.45
1492.6
1517.1
1517.1
1517.1
1499.15
1501.25
1505.85
1507.25
1494.8
1494.8
1494.8
1479.15
1490.6
1487.8
1485.1
1492.65
1492.65
1492.65
1490
1491.65
1485.35
1494.45
1496.55
1496.55
1496.55
1513.45
1492.4
1486.75
1492.1
1510.95
1510.95
1510.95
1508.8
1509.45
1488.95
1486.05
1484.25
1484.25
1484.25
1464.15
1458.7
1452.05
1462.9
1466.65
1466.65
1466.65
1466.9
1467.65
1468.45
1471.7
1467.05
1467.05
1467.05
1464.45
1458.4
1454.65
1454.35
1454.65
1454.65
1454.65
1460.15
1461.15
1477.3
1475.1
1475.95
1475.95
1475.95
1459.65
1461.7
1464.95
1466.8
1467.8
1467.8
1467.8
1466.6
1477.9
1475.8
1474.05
1476.7
1476.7
1476.7
1479
1482.1
1482.1
1511.5
1514.75
1514.75
1514.75
1514.75
1527.1
1527.1
1527.1
1548.75
1548.75
1548.75
1573.1
1567.85
1567.85
1571.95
1550.75
1550.75
1550.75
1553.6
1549.9
1545.1
1549
1554.55
1554.55
1554.55
1557.6
1560.15
1551.3
1556.9
1562.9
1562.9
1562.9
1564.3
1580.1
1574
1573.45
1578.25
1578.25
1578.25
1584.2
1574.75
1558.35
1553.3
1563.3
1563.3
1563.3
1572.65
1573.2
1570.5
1563.7
1575.05
1575.05
1575.05
1581.4
1580.8
1589.85
1604.2
1619
1619
1619
1643.3
1671.65
1650.3
1634.9
1652
1652
1652
1609.85
1599.65
1615.5
1641.85
1659.6
1659.6
1659.6
1683.65
1672.5
1655.7
1653.75
1570.7
1570.7
1570.7
1562.8
1487.7
1536.2
1498.2
1474.25
1474.25
1474.25
1494.4
1525.4
1605.75
1605.45
1634.8
1634.8
1634.8
1617.3
1618.3
1608.95
1576.55
1616.8
1616.8
1616.8
1613.1
1648.3
1649.25
1647.8
1680.65
1680.65
1680.65
1741.9
1718.65
1729.5
1692.55
1692.55
1692.55
1692.55
1692.55
1686.2
1682.05
1710.55
1736.25
1736.25
1736.25
1715.9
1714.95
1691.55
1703.35
1702.75
1702.75
1702.75
1686.25
1709.1
1699.55
1691.5
1704.05
1704.05
1704.05
1702.75
1702.4
1708.4
1731.6
1731.6
1731.6
1731.6
1735.35
1734.7
1737.95
1748.3
1724.9
1724.9
1724.9
1733.55
1720.25
1694.6
1717.35
1728.7
1728.7
1728.7
1728.7
1730.6
1742.15
1705.35
1700.05
1700.05
1700.05
1683.45
1690.35
1713.5
1722.05
1738.25
1738.25
1738.25
1733.5
1710.45
1719.85
1724.35
1719.5
1719.5
1719.5
1734.75
1761.85
1768.9
1766.05
1756.55
1756.55
1756.55
1747.6
1771.6
1768.1
1771.05
1777.45
1777.45
1777.45
1772.9
1787.9
1789.55
1811.1
1812.1
1812.1
1812.1
1803.1
1807.5
1801.9
1804.6
1807.7
1807.7
1807.7
1807.35
1815.65
1842.55
1852.4
1878.3
1878.3
1878.3
1902.1
1936.65
1940.9
1950.9
1957.65
1957.65
1957.65
1964.9
1958.55
1977.9
2048.15
2067.15
2067.15
2067.15
2031.15
2044.5
1939.65
1931.9
1944.25
1944.25
1944.25
1944.75
1972.85
2008.75
1981
1927.15
1927.15
1927.15
1924.35
1943.95
1911.15
1932.95
1923.85
1923.85
1923.85
1923.85
1957.35
1972.35
1947.05
1940.45
1926.3
1926.3
1926.3
1926.3
1928.45
1910.95
1947.2
1966.25
1966.25
1966.25
1947.4
1958.7
1949.35
1961.8
1936.25
1936.25
1936.25
1950.85
1909.35
1906
1873.4
1861.75
1861.75
1861.75
1859.7
1864.3
1883.95
1886.9
1902
1902
1902
1903.05
1909.6
1913.4
1884.5
1887.45
1887.45
1887.45
1923.25
1925.5
1891.3
1910.05
1891.9
1891.9
1891.9
1905.05
1905.6
1898.4
1924.15
1900.95
1900.95
1900.95
1903.65
1898.45
1905.7
1869.95
1870.3
1870.3
1870.3
1881.85
1889.9
1908.3
1900.15
1938.45
1938.45
1938.45
1940.8
1867.3
1878.7
1860.95
1874.85
1874.85
1874.85
1890.9
1885.6
1889.05
1876.1
1857.35
1857.35
1857.35
1875.7
1840.2
1799.6
1810.2
1807.4
1807.4
1807.4
1779.3
1762.55
1810.75
1822.6
1832.35
1832.35
1832.35
1843
1859.95
1868.15
1841.75
1844.35
1844.35
1844.35
1842
1831.15
1850.65
1851.95
1890.75
1890.75
1890.75
1879.75
1880
1877.1
1875
1875
1875
1875
1874.3
1887.6
1887.6
1943.2
1943.2
1943.2
1943.2
1943.2
1940.35
1931.95
1920.1
1920.1
1920.1
1920.1
1862.9
1847.25
1841.25
1858.85
1841.75
1841.75
1841.75
1839
1833.05
1834.7
1856.6
1862.1
1862.1
1862.1
1852.7
1856.85
1856.6
1843
1853.7
1853.7
1853.7
1863.8
1862.95
1833.1
1835.45
1785.9
1785.9
1785.9
1802.95
1835.25
1839.6
1842.65
1840.1
1840.1
1840.1
1816.35
1817.3
1794.25
1780.7
1773.15
1773.15
1773.15
1786.2
1807.45
1799.65
1788
1779.65
1779.65
1779.65
1742.85
1734.15
1723.85
1711.4
1712.1
1712.1
1712.1
1696.25
1687.05
1716.9
1716.2
1724.25
1724.25
1724.25
1704.8
1723.65
1735
1729.65
1725.9
1725.9
1725.9
1735.2
1736.15
1726.2
1730.5
1737.3
1737.3
1737.3
1731.8
1705.95
1683.95
1691.05
1726.05
1726.05
1726.05
1744.65
1738.05
1755.5
1741.2
1741.2
1741.2
1741.2
1741.2
1732.85
1747.95
1735.55
1757.2
1757.2
1757.2
1774.45
1774.5
1777.85
1798.2
1787.75
1787.75
1787.75
1781.8
1773.35
1784.15
1772.2
1762.65
1762.65
1762.65
1767.65
1797.75
1782.25
1813.15
1836.55
1836.55
1836.55
1836.55
1840.45
1829.1
1830.7
1821.8
1821.8
1821.8
1838.1
1853.7
1866.75
1888.45
1878.3
1878.3
1878.3
1875.9
1880.15
1887
1899.75
1891.45
1891.45
1891.45
1899.95
1899.35
1902.75
1866.55
1890.6
1890.6
1890.6
1890.6
1888.4
1893.15
1894.6
1888.65
1888.65
1888.65
1881.05
1865.6
1865.1
1860.75
1778.7
1778.7
1778.7
1773.1
1775.05
1775.05
1791.6
1784.85
1784.85
1784.85
1786.65
1780.3
1755.45
1763.15
1781.5
1781.5
1781.5
1786.15
1791.35
1809.85
1804.65
1807.7
1807.7
1807.7
1806
1792.4
1813.85
1823.2
1823.75
1823.75
1823.75
1824.3
1814.9
1823.05
1802.15
1799.45
1799.45
1799.45
1799.6
1800.2
1800.35
1796.6
1829.3
1829.3
1829.3
1825.75
1811.45
1812.65
1829.1
1800.75
1800.75
1800.75
1762.9
1738.85
1723.35
1743.6
1747.4
1747.4
1747.4
1773.85
1786.35
1789.45
1783.45
1782.05
1782.05
1782.05
1779.05
1802
1808.45
1788.7
1786.6
1786.6
1786.6
1798.5
1814.85
1811.8
1812.55
1823.7
1823.7
1823.7
1823.7
1821.6
1802.15
1786
1788.25
1788.25
1788.25
1794.6
1794.6
1794.6
1794.6
1794.6
