728.44464111
728.84979248
730.32940674
736.70373535
744.06713867
750.41986084
753.70098877
756.58422852
753.64929199
753.72155762
754.85375977
757.82354736
761.30712891
764.69885254
766.26312256
767.51452637
768.96130371
768.76910400
770.03308105
771.82916260
774.56170654
777.51605225
784.43078613
791.99218750
808.72680664
828.60894775
848.68585205
863.21289062
879.26837158
884.25811768
895.84759521
908.03381348
919.93347168
930.08508301
944.58190918
954.38366699
980.01409912
995.64910889
998.90222168
984.20324707
963.99182129
920.43212891
902.49365234
870.07135010
850.30249023
830.20684814
810.64471436
793.52111816
801.84808350
819.88061523
833.87371826
850.33746338
865.96868896
878.81842041
879.72705078
881.95007324
886.88409424
889.20562744
892.01055908
890.78674316
889.87664795
889.45092773
893.67614746
899.12261963
909.43713379
921.34765625
938.44805908
959.96990967
973.13165283
982.90924072
994.36236572
1001.43487549
996.79516602
989.94116211
984.19702148
973.68389893
963.27557373
968.16949463
969.86035156
975.16851807
981.51818848
991.11779785
1001.32366943
1009.26470947
1020.99560547
1036.76940918
1050.87597656
1071.71936035
1092.50158691
1098.48095703
1108.81530762
1119.40759277
1122.43469238
1138.54870605
1161.55383301
1180.01745605
1198.34423828
1215.31079102
1218.84216309
1203.38110352
1184.63037109
1168.03491211
1149.29455566
1135.45666504
1148.24450684
1157.26232910
1169.12768555
1184.37646484
1171.17492676
1131.99938965
1078.65490723
1028.91186523
992.79510498
996.10223389
1020.20251465
1025.34790039
1004.63946533
969.82867432
946.75567627
944.88555908
964.71496582
987.32684326
1003.18634033
1008.80285645
1018.07012939
1027.24340820
1043.54479980
1062.38842773
1071.77026367
1085.55725098
1105.03222656
1113.51794434
1126.67309570
1142.99707031
1148.90673828
1152.27832031
1153.13806152
1146.72766113
1137.57702637
1132.96240234
1134.21252441
1138.11755371
1149.43200684
1159.03222656
1168.45532227
1184.39733887
1190.45495605
1195.31555176
1206.29919434
1212.58422852
1224.34680176
1241.88952637
1252.53967285
1267.35949707
1295.09118652
1317.83044434
1347.92724609
1384.45178223
1405.30444336
1421.30419922
1450.73645020
1475.68457031
1512.02551270
1565.29699707
1621.72924805
1653.14855957
1679.42675781
1682.40710449
1669.07031250
1660.12219238
1662.80920410
1685.28588867
1728.11706543
1783.28906250
1835.06872559
1917.43957520
1973.75341797
2030.83081055
2083.79858398
2119.90698242
2107.27490234
2105.35791016
2083.21997070
2097.47290039
2112.44458008
2152.04882812
2191.94091797
2235.62207031
2283.33715820
2350.57958984
2410.82373047
2446.24609375
2497.62329102
2554.06420898
2552.55468750
2570.69726562
2582.04833984
2559.32299805
2500.75195312
2419.58569336
2381.72021484
2329.54003906
2302.26635742
2332.47509766
2368.24291992
2412.07617188
2452.77636719
2458.33081055
2450.57910156
2419.47558594
2375.96875000
2344.07250977
2338.52856445
2339.13012695
2339.32519531
2325.92504883
2310.97607422
2312.73437500
2335.63134766
2357.25439453
2380.95117188
2371.23217773
2355.51538086
2321.85180664
2273.06542969
2248.20532227
2218.85058594
2181.47509766
2144.31103516
2082.68969727
1992.64514160
1950.43505859
1929.76525879
1972.37573242
2089.54638672
2247.03393555
2343.43139648
2448.58007812
2525.65722656
2506.54687500
2467.13623047
2444.17041016
2447.38134766
2487.91625977
2539.69042969
2579.81933594
2576.33203125
2574.64453125
2581.11743164
2614.66113281
2679.56372070
2785.19482422
2900.00488281
3015.01098633
3043.02075195
3095.99755859
3197.50561523
3272.60742188
3423.27709961
3593.59765625
3706.91357422
3791.99169922
3855.97998047
3827.54418945
3812.81347656
3792.79418945
3732.53613281
3727.37548828
3755.06689453
3786.03515625
3847.73876953
3921.15844727
3954.88330078
3986.10791016
4032.64648438
4077.92358398
4162.63037109
4229.41210938
4232.66992188
4204.58007812
4177.91308594
4079.09082031
4072.74487305
4041.22900391
4042.59448242
4011.09350586
3988.27880859
3904.41967773
3856.14501953
3717.93139648
3521.00854492
3380.45947266
3275.37744141
3225.42358398
3332.01928711
3473.29101562
3505.08007812
3508.40600586
3522.49853516
3485.53173828
3463.58740234
3466.33935547
3517.84619141
3577.21704102
3652.25512695
3698.83886719
3774.27343750
3867.20776367
3903.92871094
3925.08984375
3954.32373047
3944.84814453
3937.58471680
3959.40307617
4028.71826172
4102.11572266
4194.91113281
4281.77490234
4411.12744141
4602.12792969
4796.35595703
4982.92236328
5148.22460938
5157.88085938
5144.17480469
5149.91552734
5197.26611328
5272.46142578
5337.60546875
5371.83935547
5329.48144531
5297.94580078
5274.70703125
5263.42871094
5286.38134766
5369.90234375
5446.09912109
5570.89355469
5746.97509766
5912.74951172
6136.38183594
6326.05419922
6423.16259766
6490.40380859
6471.02539062
6411.94970703
6322.56787109
6264.05175781
6069.99755859
5908.04980469
5762.81103516
5807.47265625
5993.24365234
6392.90039062
6644.57666016
6923.71142578
7059.14990234
7103.92089844
7164.36572266
7242.18310547
7288.27978516
7377.90332031
7496.85693359
7695.10937500
7980.72900391
8291.83984375
8549.00195312
8880.55566406
9078.49414062
9298.96679688
9578.14941406
9834.98144531
10168.79296875
10903.12109375
11774.03222656
12509.86621094
13134.96582031
13384.98925781
13346.53906250
13320.12011719
13551.31738281
13941.66992188
14501.27148438
14790.57812500
15157.15527344
15483.73046875
15473.37597656
15033.60156250
14468.69238281
13745.53222656
13134.21582031
12568.33789062
12192.86035156
12135.79785156
12286.64160156
12367.94628906
12298.23144531
12319.18359375
12017.63378906
12040.17382812
12157.98535156
12467.22070312
12826.97460938
13357.26562500
13716.87695312
13895.41796875
13922.47265625
13506.56152344
12916.38281250
12347.67382812
12089.99218750
11934.52050781
11850.92773438
11924.77441406
11627.29101562
11236.99023438
10769.32910156
10439.52539062
10141.91015625
10244.69628906
10253.34277344
10267.44921875
9977.00390625
9908.10156250
9877.83593750
9910.64746094
9914.67968750
9781.26660156
9649.95214844
9280.12695312
8844.63671875
8413.05957031
8110.07714844
7630.54638672
7249.28613281
6997.57226562
6833.48486328
6801.66308594
7085.69287109
7352.97314453
7368.24853516
7400.91113281
7536.82519531
7725.57373047
8010.16894531
8462.61523438
8890.56347656
9214.58105469
9548.26367188
9758.29296875
9696.00000000
9540.87597656
9361.79492188
9079.86230469
8876.00878906
8935.09570312
8967.99414062
9075.53417969
9294.07031250
9445.18066406
9634.52734375
9833.95214844
9846.70507812
9765.44433594
9538.78417969
9173.23437500
8702.88476562
8336.92285156
8124.74658203
7972.07128906
7985.33935547
7977.03906250
7935.03662109
7782.02001953
7607.16943359
7451.52685547
7476.19140625
7523.21630859
7611.50537109
7720.75146484
7773.93554688
7779.68652344
7700.95117188
7596.03173828
7457.40478516
7319.76367188
7070.97167969
6800.88330078
6618.51318359
6426.80810547
6290.92871094
6385.83593750
6413.50195312
6383.16650391
6308.03759766
6197.12939453
6072.18652344
6065.16406250
6116.03613281
6270.89160156
6420.47314453
6669.28710938
6946.28662109
7212.80957031
7259.51855469
7293.30517578
7312.51220703
7353.37451172
7426.26708984
7614.27734375
7760.33105469
7971.12402344
8100.77880859
8214.76074219
8261.75878906
8273.11328125
8199.49121094
8119.94580078
8119.48876953
8163.18847656
8263.61523438
8323.38378906
8418.57031250
8506.16210938
8587.04492188
8542.03417969
8462.59960938
8369.16406250
8215.58984375
8018.85644531
7875.51171875
7730.12695312
7586.02685547
7592.89550781
7551.96484375
7506.58349609
7424.78515625
7400.83349609
7388.84960938
7446.11376953
7383.85058594
7273.69042969
7094.78125000
6909.23242188
6715.22460938
6675.52148438
6644.96777344
6611.63427734
6621.66308594
6643.63671875
6688.63525391
6720.85888672
6754.95117188
6793.39794922
6806.40332031
6807.04931641
6807.64062500
6831.43847656
6737.95898438
6606.38330078
6449.86328125
6238.82519531
6038.95947266
6004.52636719
5941.17480469
5869.43798828
5896.98095703
5890.56298828
5900.27880859
5945.93847656
5955.55078125
5921.85742188
5814.04150391
5709.70703125
5601.82373047
5565.98681641
5561.66210938
5526.54345703
5507.31591797
5517.95166016
5577.82177734
5665.50488281
5798.29296875
5872.62548828
5912.17968750
5934.79687500
5945.68408203
5969.41699219
5969.75244141
5951.87939453
5915.49707031
5827.64843750
5737.19287109
5685.80078125
5689.80957031
5745.45166016
5909.76220703
6118.60009766
6344.37304688
6511.78466797
6616.78271484
6665.78173828
6718.91552734
6834.04199219
6991.09082031
7106.08349609
7189.40576172
7274.82812500
7266.14208984
7239.86914062
7204.17578125
7099.55468750
6958.64306641
6787.16748047
6635.87402344
6529.88134766
6410.81396484
6301.09814453
6168.98388672
6057.44140625
5911.92578125
5769.92724609
5690.77441406
5668.16455078
5655.95947266
5694.65869141
5697.39746094
5706.12597656
5735.20703125
5753.29248047
5770.34033203
5809.06445312
5807.30029297
5823.89941406
5851.26513672
5909.80957031
5940.10107422
6043.86083984
6134.43017578
6185.64599609
6233.82373047
6287.79687500
6315.51171875
6344.69384766
6408.50439453
6447.18408203
6392.46875000
6258.71240234
6093.69042969
5910.02099609
5746.87304688
5715.99462891
5671.80078125
5660.07714844
5686.45654297
5734.64941406
5778.24072266
5813.74902344
5819.37402344
5787.62060547
5760.16552734
5766.15478516
5822.63232422
5905.19775391
5971.05957031
6009.56640625
5980.80029297
5934.90576172
5916.05908203
5905.67285156
5907.81835938
5933.71386719
5941.68164062
5908.75976562
5896.95751953
5884.66699219
5875.39892578
5878.02929688
5903.80566406
5929.29052734
5940.08837891
5906.25097656
5853.43847656
5781.87011719
5713.19140625
5665.85742188
5718.45751953
5780.88183594
5846.53027344
5893.49316406
5903.49316406
5887.21533203
5870.29199219
5855.94140625
5854.29296875
5855.15966797
5845.56250000
5839.17675781
5835.23974609
5816.99902344
5789.62109375
5758.44140625
5730.83544922
5712.29052734
5712.51562500
5728.61962891
5751.47949219
5768.90185547
5790.08984375
5810.82958984
5825.77978516
5823.64013672
5814.48828125
5786.98437500
5766.78710938
5731.20361328
5645.05468750
5515.33056641
5355.01708984
5196.20605469
5046.41162109
4891.69726562
4704.63037109
4503.86962891
4269.91748047
4083.86987305
3959.13281250
3849.53808594
3708.29443359
3642.01562500
3604.36718750
3688.83544922
3742.64404297
3817.14648438
3825.38745117
3780.14086914
3710.14184570
3648.09399414
3526.90722656
3392.29638672
3288.53686523
3214.07495117
3157.57470703
3161.96875000
3157.12207031
3132.37719727
3082.50927734
3050.13745117
3035.67333984
3048.74096680
3129.33007812
3256.48730469
3412.04028320
3531.18823242
3621.21606445
3658.75561523
3639.79052734
3582.61914062
3567.65356445
3518.54956055
3490.88500977
3489.99877930
3484.47290039
3469.11645508
3482.79711914
3470.43237305
3483.96069336
3495.70166016
3522.89697266
3547.26196289
3578.02197266
3620.27197266
3630.44897461
3595.15405273
3521.81347656
3438.59790039
3344.95458984
3305.40893555
3300.07080078
3295.69531250
3301.96289062
3328.06616211
3334.93408203
3333.15063477
3321.79150391
3309.07934570
3284.15063477
3259.72192383
3266.02905273
3273.42407227
3268.86791992
3254.73754883
3226.84399414
3201.89794922
3176.10815430
3158.40625000
3166.82031250
3176.92089844
3175.14477539
3178.58789062
3169.21142578
3149.50024414
3168.42333984
3203.42382812
3245.12548828
3295.23217773
3343.39965820
3335.66015625
3324.22753906
3308.46166992
3305.25000000
3308.26831055
3345.96386719
3403.64282227
3473.81323242
3541.67163086
3601.45532227
3633.22680664
3628.42480469
3603.52270508
3581.10546875
3549.45776367
3491.31298828
3505.46997070
3502.78955078
3501.00341797
3487.96801758
3482.66381836
3487.09179688
3496.75830078
3510.43066406
3547.98364258
3559.16162109
3564.41992188
3566.15209961
3567.25659180
3553.80371094
3551.11083984
3569.92871094
3590.12133789
3614.61499023
3640.91821289
3661.51049805
3661.52905273
3663.52490234
3664.99902344
3658.85888672
3640.32275391
3631.97265625
3632.99780273
3636.21533203
3654.22900391
3688.34252930
3721.26806641
3739.13745117
3845.04199219
3987.98046875
4148.17919922
4324.23730469
4496.90625000
4545.22705078
4596.91992188
4654.83251953
4702.13671875
4718.16699219
4698.26660156
4658.55712891
4645.37158203
4599.30273438
4620.68505859
4644.32373047
4680.17675781
4704.22607422
4755.29931641
4773.80761719
4797.43261719
4831.23535156
4865.47412109
4865.35058594
4865.92822266
4844.91162109
4799.69580078
4769.11572266
4783.79443359
4785.65673828
4800.45019531
4846.99902344
4931.75878906
5021.68994141
5097.29248047
5164.28027344
5202.11083984
5253.99755859
5356.24755859
5584.09033203
5823.71582031
6128.93457031
6456.54443359
6791.50000000
6939.23437500
7062.74316406
6976.89501953
6941.32080078
6893.45263672
6915.07861328
6997.98974609
7101.57031250
7049.04785156
7051.40625000
7148.82617188
7349.67578125
7513.26953125
7647.69628906
7717.87890625
7668.32519531
7620.48535156
7607.54296875
7552.63232422
7489.74169922
7346.40917969
7195.75537109
7036.24755859
6998.89257812
7017.10107422
7039.40136719
7059.99902344
7074.03173828
7123.54492188
7285.92138672
7423.13525391
7611.69042969
7802.22900391
7972.96435547
8074.02832031
8177.59912109
8347.75781250
8547.63671875
8850.22851562
9155.60937500
9505.90429688
9895.76074219
10091.27246094
10322.90039062
10493.87695312
10397.91796875
10018.37207031
9942.74902344
9771.48828125
9674.08593750
9749.48632812
9857.78515625
9950.42968750
9939.64453125
10158.81347656
10396.62304688
10489.72558594
10532.52734375
10385.66699219
10049.69726562
9804.81445312
9542.72363281
9158.37792969
8942.65136719
8985.24218750
8951.66992188
9184.85156250
9328.12890625
9226.13769531
9100.87988281
8928.76171875
8789.12988281
8660.76464844
8607.05664062
8557.25390625
8495.77832031
8499.44042969
8636.52929688
8805.85546875
9026.68750000
9265.40234375
9512.27539062
9713.17773438
9943.62890625
10147.45996094
10313.47753906
10271.52441406
10281.35839844
10184.43164062
10020.08105469
9763.50097656
9581.02343750
9346.39453125
9136.68750000
9034.00292969
9151.54882812
9233.53906250
9244.12207031
9244.06445312
9237.01464844
9104.84179688
8996.15917969
9023.06445312
9042.13281250
8954.45410156
8861.92675781
8755.49121094
8607.99316406
8518.28906250
8591.38769531
8770.33203125
8955.30566406
9140.35644531
9262.60253906
9273.73730469
9236.48242188
9194.38183594
9125.96875000
9096.68750000
9062.31054688
9051.77734375
9062.46582031
9106.44042969
9130.33691406
9094.77929688
9060.68457031
9036.27148438
9015.75292969
8980.06738281
8951.85937500
8889.30273438
8664.04199219
8374.72460938
8043.73144531
7688.78759766
7406.30859375
7322.51171875
7283.67333984
7327.54101562
7357.48144531
7371.24853516
7399.86279297
7372.16650391
7307.33105469
7253.81835938
7238.63671875
7288.49267578
7364.80566406
7466.04101562
7490.78076172
7509.32812500
7458.16650391
7391.32470703
7357.51953125
7311.62158203
7255.72070312
7182.33935547
7174.14794922
7209.76611328
7216.23095703
7174.17333984
7089.04443359
7073.24707031
7191.79785156
7445.18164062
7803.25927734
8174.30810547
8285.11523438
8269.89843750
8207.22265625
8214.98339844
8178.72753906
8212.42187500
8246.59667969
8262.98437500
8256.06542969
8210.44433594
8103.02197266
8031.86181641
7931.65185547
7856.97460938
7858.50976562
7834.50000000
7742.36328125
7699.66796875
7640.31152344
7553.74218750
7468.85791016
7401.75634766
7273.00781250
7077.65429688
6918.95898438
6716.00048828
6523.37792969
6428.22900391
6442.03808594
6463.06103516
6602.94628906
6695.41308594
6757.97558594
6729.65380859
6705.76708984
6605.07128906
6559.62988281
6570.42041016
6607.37353516
6651.58251953
6694.52636719
6674.26464844
6612.18896484
6551.85693359
6494.47167969
6455.78417969
6435.46337891
6391.07763672
6305.65185547
6264.21044922
6273.73388672
6287.97949219
6345.50439453
6489.73779297
6503.99951172
6533.42041016
6542.20263672
6552.03125000
6495.59619141
6485.50097656
6503.37841797
6520.20605469
6523.54101562
6511.35498047
6460.07177734
6423.19433594
6437.13330078
6470.58544922
6552.27880859
6744.74511719
6882.64501953
6995.95507812
7133.17919922
7186.74316406
7179.02880859
7194.87939453
7331.99072266
7437.51562500
7578.36523438
7707.96337891
7854.86914062
7844.33691406
7820.81640625
7814.99560547
7771.01904297
7694.72167969
7646.25634766
7596.13476562
7551.00830078
7565.72265625
7708.17187500
7867.58740234
8075.63476562
8226.24609375
8316.46191406
8308.24609375
8298.67187500
8238.69433594
8255.47558594
8303.88671875
8388.98046875
8521.57812500
8686.35449219
8749.28125000
8820.69726562
8907.46289062
8974.82714844
9007.99609375
9050.46679688
8995.53417969
8893.07031250
8847.57421875
8739.83593750
8696.54296875
8647.05859375
8637.57812500
8577.84863281
8607.33398438
8586.92382812
8467.45996094
8314.28906250
8079.57958984
7880.38574219
7780.07958984
7794.75976562
7796.98730469
7811.18994141
7887.21289062
7918.05761719
7933.80029297
7874.23193359
7746.54101562
7527.01904297
7287.79003906
6755.12304688
6296.86474609
5776.98339844
5262.03417969
4720.25439453
4801.60351562
4751.40185547
4886.00830078
5038.80419922
5269.36425781
5395.42138672
5561.55419922
5634.94433594
5724.52343750
5836.53466797
5974.20214844
5945.00292969
5806.65869141
5714.11865234
5634.04687500
5668.75000000
5760.41113281
5928.53955078
6011.38134766
6084.31347656
6174.03369141
6249.12744141
6359.63623047
6446.10986328
6499.16894531
6421.42675781
6362.40234375
6266.26904297
6185.27294922
6156.80078125
6165.57080078
6183.37060547
6243.62988281
6301.39208984
6369.08105469
6325.96875000
6320.81591797
6326.89843750
6389.43652344
6523.75634766
6675.44921875
6791.32812500
6846.69482422
7010.29150391
7204.96240234
7407.42089844
7621.02734375
7837.53515625
7862.17822266
7927.73583984
7978.14501953
8102.79687500
8270.73437500
8419.05468750
8438.85058594
8362.45312500
8125.74267578
7981.54248047
7980.98144531
8112.64013672
8264.47753906
8402.69921875
8466.82812500
8460.27148438
8520.38574219
8501.03417969
8409.34179688
8303.10351562
8137.79589844
8020.73681641
7980.71875000
7957.47900391
7994.54833984
8127.74121094
8261.53320312
8390.31835938
8524.32812500
8553.17382812
8600.59570312
8608.69531250
8647.36328125
8549.16601562
8584.77050781
8602.89355469
8599.50488281
8640.96484375
8614.06640625
8559.69726562
8497.42871094
8422.04394531
8331.85742188
8366.66308594
8368.24707031
8358.83886719
8361.69531250
8345.66503906
8304.46972656
8318.25195312
8359.83789062
8383.78613281
8374.87890625
8357.47070312
8240.61816406
8141.62158203
8116.58251953
8098.46875000
8107.72607422
8133.00927734
8127.06933594
8113.15429688
8105.84960938
8107.52783203
8140.70703125
8197.27929688
8230.26269531
8267.74609375
8250.39941406
8253.22070312
8218.80371094
8221.67968750
8208.78808594
8195.08984375
8168.20019531
8153.79443359
8142.38916016
8140.03613281
8172.48583984
8227.90625000
8300.56640625
8367.94628906
8459.50878906
8540.08886719
8728.26562500
8956.98144531
9234.08593750
9493.34765625
9731.50781250
9832.52246094
9904.44921875
9935.40917969
9952.08984375
9980.71386719
9958.03906250
10065.53027344
10154.65039062
10245.68750000
10256.62402344
10222.04492188
10213.42187500
10196.70214844
10206.06347656
10196.08300781
10285.71875000
10385.52539062
10436.31054688
10454.30468750
10450.13574219
10401.22363281
10286.13964844
10228.53710938
10224.50683594
10159.85937500
10149.50878906
10090.78808594
10053.37109375
10001.75878906
10051.93945312
10086.37402344
10179.29980469
10189.50976562
10058.81347656
9841.36035156
9582.42285156
9270.66308594
9071.90039062
9074.53613281
9028.21484375
9052.29003906
9070.78027344
9080.99902344
9128.01367188
9186.64257812
9250.10253906
9336.06054688
9425.72558594
9537.35351562
9601.30175781
9634.69824219
9581.17871094
9509.99511719
9401.85058594
9303.88281250
9254.42285156
9306.30664062
9349.22363281
9438.29101562
9448.82324219
9466.04101562
9458.52539062
9429.81347656
9406.47460938
9366.15625000
9356.26660156
9364.91308594
9382.19335938
9429.90625000
9483.79394531
9556.60156250
9687.80468750
9832.51367188
9930.17187500
9999.54101562
10031.16601562
10033.45117188
10003.12109375
10006.30664062
10042.31542969
10100.31640625
10299.31445312
10558.85644531
10815.28320312
11049.72070312
11249.11816406
11290.97167969
11364.33593750
11438.04882812
11491.32421875
11574.65625000
11680.22949219
11697.86523438
11762.54296875
11832.81542969
11915.13085938
12112.52050781
12395.75195312
12664.56738281
12888.46777344
13083.20214844
13037.98437500
13032.07910156
13223.89941406
13348.05859375
13491.59765625
13615.35937500
13732.40136719
13873.98242188
14079.63183594
14355.54785156
14732.69921875
15024.63476562
15157.63671875
15261.71386719
15420.89257812
15440.07714844
15313.37011719
15151.79785156
15009.53515625
14806.29003906
14844.22070312
15131.53710938
15445.66210938
15692.92675781
15809.30175781
15710.55078125
15777.23828125
15774.93457031
15663.25097656
15649.66406250
15526.61718750
15336.27636719
15232.04687500
15321.72656250
15415.72949219
15587.74511719
15967.26367188
16433.70507812
16962.29101562
17570.60937500
18150.64062500
18390.62109375
18477.69140625
18505.21679688
18463.33984375
18562.17187500
18931.00390625
19222.08398438
19666.84570312
20100.78320312
20525.73632812
20796.98437500
21143.58398438
21590.27343750
22130.68554688
22501.69726562
22965.04882812
23576.60742188
24116.19335938
24729.67578125
25468.07226562
25923.00390625
25951.93554688
25588.84375000
25201.97070312
24980.98632812
24898.16406250
25007.56835938
25211.49023438
25118.67187500
24842.30078125
24747.89257812
24459.08398438
24176.61328125
23753.52148438
23370.61718750
23029.08007812
23199.75585938
23022.58007812
23055.27343750
23179.85742188
23362.04492188
23472.95703125
23796.66406250
23917.29101562
24111.38671875
24350.49218750
24784.13867188
25257.37500000
25555.47460938
25996.35937500
26654.03710938
27193.35351562
27754.78125000
28362.97851562
28420.69726562
28517.62109375
28734.74609375
28774.43750000
28970.38476562
29224.16796875
29526.55468750
29948.85351562
30364.55664062
30539.06835938
30560.19335938
30297.65820312
29881.52343750
29266.82031250
28783.32226562
28575.47656250
28376.99414062
28464.12890625
28667.39843750
28854.15234375
29111.06445312
29064.71093750
29178.00195312
29223.62109375
29516.62109375
29867.60156250
30303.34765625
30623.15820312
30993.27148438
31217.54101562
31292.34179688
31262.72851562
31311.18750000
31136.62890625
31069.90234375
31189.09375000
31235.10546875
31077.85546875
30946.47265625
30716.04101562
30407.52539062
30201.80078125
30237.33789062
30280.60937500
30504.55859375
30853.56445312
31021.89843750
31159.65234375
31317.19726562
31334.23632812
31301.80859375
31294.73242188
31271.64257812
31168.67773438
31196.37109375
31179.89257812
31165.62890625
31232.21484375
31420.91406250
31596.70507812
31801.56054688
31942.60351562
32043.79492188
32108.24414062
31878.40820312
31597.99414062
31279.17968750
30955.54882812
30588.74218750
30359.33789062
30093.22070312
29704.39257812
29595.30859375
29705.83203125
29888.98828125
30116.37304688
30518.74804688
30679.74609375
30771.20898438
30885.14648438
30971.36328125
30894.66015625
30815.23437500
30828.03906250
30860.35937500
31123.98242188
31096.99804688
31122.06445312
30875.43554688
30446.46289062
29999.78515625
29550.76953125
28951.43554688
28701.15820312
28305.00390625
27588.67382812
27099.82812500
26473.65429688
25999.12695312
25409.26757812
25454.10546875
25201.12304688
25328.54882812
25426.99414062
25636.48828125
25364.26171875
25108.10156250
24849.82031250
24675.63085938
24814.49804688
25152.75781250
25327.00195312
25251.27734375
25197.81640625
24923.38867188
24423.83593750
24308.73632812
24380.73632812
24484.49023438
24744.75976562
25145.53515625
25317.96875000
25596.72265625
25754.87890625
26024.62890625
25844.25976562
25454.82031250
25053.62304688
24597.69335938
24088.44921875
23836.62695312
23678.39843750
23387.79492188
23463.33203125
23579.23632812
23619.48828125
23664.35351562
24019.29296875
24232.42773438
24171.86328125
24160.94531250
24063.59179688
23988.75781250
24059.71093750
24075.14062500
23943.59570312
23770.48046875
23749.20312500
23718.53320312
23686.78125000
23705.50000000
23611.68554688
23480.00585938
23222.96679688
23057.48632812
22949.00781250
22776.15039062
22631.90625000
22617.66015625
22653.55859375
22767.33789062
23075.75000000
23585.20117188
23992.08007812
24546.06640625
25070.91210938
25565.43750000
26067.46484375
26418.23828125
26527.39257812
26519.47070312
26429.58789062
26186.80664062
26056.52539062
26188.33203125
26523.70703125
26971.00781250
27389.43945312
27735.24414062
27937.61718750
27962.58398438
28155.46484375
28189.50781250
28284.49023438
28344.86523438
28424.66992188
28233.23437500
28149.84765625
28192.83203125
28357.86914062
28652.92187500
28958.97070312
29078.22460938
29040.30468750
28966.91015625
28907.94726562
28850.65625000
28917.49414062
28843.29101562
28880.70703125
28824.04882812
28815.78125000
28855.31250000
29030.71484375
29268.88671875
29454.60742188
29446.90625000
29287.84179688
