%!PS-Adobe-3.0 EPSF-3.0
%%Title: Figure_1.eps
%%Creator: Matplotlib v3.5.1, https://matplotlib.org/
%%CreationDate: Sun Feb 20 01:32:47 2022
%%Orientation: portrait
%%BoundingBox: 75 223 537 569
%%HiResBoundingBox: 75.600000 223.200000 536.400000 568.800000
%%EndComments
%%BeginProlog
/mpldict 11 dict def
mpldict begin
/_d { bind def } bind def
/m { moveto } _d
/l { lineto } _d
/r { rlineto } _d
/c { curveto } _d
/cl { closepath } _d
/ce { closepath eofill } _d
/box {
      m
      1 index 0 r
      0 exch r
      neg 0 r
      cl
    } _d
/clipbox {
      box
      clip
      newpath
    } _d
/sc { setcachedevice } _d
%!PS-Adobe-3.0 Resource-Font
%%Creator: Converted from TrueType to Type 3 by Matplotlib.
10 dict begin
/FontName /DejaVuSans def
/PaintType 0 def
/FontMatrix [0.00048828125 0 0 0.00048828125 0 0] def
/FontBBox [-2090 -948 3673 2524] def
/FontType 3 def
/Encoding [/zero /one /two /four /five /six /seven /eight] def
/CharStrings 9 dict dup begin
/.notdef 0 def
/zero{1303 0 135 -29 1167 1520 sc
651 1360 m
547 1360 469 1309 416 1206 c
364 1104 338 950 338 745 c
338 540 364 387 416 284 c
469 182 547 131 651 131 c
756 131 834 182 886 284 c
939 387 965 540 965 745 c
965 950 939 1104 886 1206 c
834 1309 756 1360 651 1360 c

651 1520 m
818 1520 946 1454 1034 1321 c
1123 1189 1167 997 1167 745 c
1167 494 1123 302 1034 169 c
946 37 818 -29 651 -29 c
484 -29 356 37 267 169 c
179 302 135 494 135 745 c
135 997 179 1189 267 1321 c
356 1454 484 1520 651 1520 c

ce} _d
/one{1303 0 225 0 1114 1493 sc
254 170 m
584 170 l
584 1309 l
225 1237 l
225 1421 l
582 1493 l
784 1493 l
784 170 l
1114 170 l
1114 0 l
254 0 l
254 170 l

ce} _d
/two{1303 0 150 0 1098 1520 sc
393 170 m
1098 170 l
1098 0 l
150 0 l
150 170 l
227 249 331 356 463 489 c
596 623 679 709 713 748 c
778 821 823 882 848 932 c
874 983 887 1032 887 1081 c
887 1160 859 1225 803 1275 c
748 1325 675 1350 586 1350 c
523 1350 456 1339 385 1317 c
315 1295 240 1262 160 1217 c
160 1421 l
241 1454 317 1478 388 1495 c
459 1512 523 1520 582 1520 c
737 1520 860 1481 952 1404 c
1044 1327 1090 1223 1090 1094 c
1090 1033 1078 974 1055 919 c
1032 864 991 800 930 725 c
913 706 860 650 771 557 c
682 465 556 336 393 170 c

ce} _d
/four{1303 0 100 0 1188 1493 sc
774 1317 m
264 520 l
774 520 l
774 1317 l

721 1493 m
975 1493 l
975 520 l
1188 520 l
1188 352 l
975 352 l
975 0 l
774 0 l
774 352 l
100 352 l
100 547 l
721 1493 l

ce} _d
/five{1303 0 158 -29 1124 1493 sc
221 1493 m
1014 1493 l
1014 1323 l
406 1323 l
406 957 l
435 967 465 974 494 979 c
523 984 553 987 582 987 c
749 987 881 941 978 850 c
1075 759 1124 635 1124 479 c
1124 318 1074 193 974 104 c
874 15 733 -29 551 -29 c
488 -29 424 -24 359 -13 c
294 -2 227 14 158 35 c
158 238 l
218 205 280 181 344 165 c
408 149 476 141 547 141 c
662 141 754 171 821 232 c
888 293 922 375 922 479 c
922 583 888 665 821 726 c
754 787 662 817 547 817 c
493 817 439 811 385 799 c
332 787 277 768 221 743 c
221 1493 l

ce} _d
/six{1303 0 143 -29 1174 1520 sc
676 827 m
585 827 513 796 460 734 c
407 672 381 587 381 479 c
381 372 407 287 460 224 c
513 162 585 131 676 131 c
767 131 838 162 891 224 c
944 287 971 372 971 479 c
971 587 944 672 891 734 c
838 796 767 827 676 827 c

1077 1460 m
1077 1276 l
1026 1300 975 1318 923 1331 c
872 1344 821 1350 770 1350 c
637 1350 535 1305 464 1215 c
394 1125 354 989 344 807 c
383 865 433 909 492 940 c
551 971 617 987 688 987 c
838 987 956 941 1043 850 c
1130 759 1174 636 1174 479 c
1174 326 1129 203 1038 110 c
947 17 827 -29 676 -29 c
503 -29 371 37 280 169 c
189 302 143 494 143 745 c
143 981 199 1169 311 1309 c
423 1450 573 1520 762 1520 c
813 1520 864 1515 915 1505 c
967 1495 1021 1480 1077 1460 c

ce} _d
/seven{1303 0 168 0 1128 1493 sc
168 1493 m
1128 1493 l
1128 1407 l
586 0 l
375 0 l
885 1323 l
168 1323 l
168 1493 l

ce} _d
/eight{1303 0 139 -29 1163 1520 sc
651 709 m
555 709 479 683 424 632 c
369 581 342 510 342 420 c
342 330 369 259 424 208 c
479 157 555 131 651 131 c
747 131 823 157 878 208 c
933 260 961 331 961 420 c
961 510 933 581 878 632 c
823 683 748 709 651 709 c

449 795 m
362 816 295 857 246 916 c
198 975 174 1048 174 1133 c
174 1252 216 1347 301 1416 c
386 1485 503 1520 651 1520 c
800 1520 916 1485 1001 1416 c
1086 1347 1128 1252 1128 1133 c
1128 1048 1104 975 1055 916 c
1007 857 940 816 854 795 c
951 772 1027 728 1081 662 c
1136 596 1163 515 1163 420 c
1163 275 1119 164 1030 87 c
942 10 816 -29 651 -29 c
486 -29 360 10 271 87 c
183 164 139 275 139 420 c
139 515 166 596 221 662 c
276 728 352 772 449 795 c

375 1114 m
375 1037 399 976 447 933 c
496 890 564 868 651 868 c
738 868 805 890 854 933 c
903 976 928 1037 928 1114 c
928 1191 903 1252 854 1295 c
805 1338 738 1360 651 1360 c
564 1360 496 1338 447 1295 c
399 1252 375 1191 375 1114 c

ce} _d
end readonly def

/BuildGlyph {
 exch begin
 CharStrings exch
 2 copy known not {pop /.notdef} if
 true 3 1 roll get exec
 end
} _d

/BuildChar {
 1 index /Encoding get exch get
 1 index /BuildGlyph get exec
} _d

FontName currentdict end definefont pop
end
%%EndProlog
mpldict begin
75.6 223.2 translate
460.8 345.6 0 0 clipbox
gsave
0 0 m
460.8 0 l
460.8 345.6 l
0 345.6 l
cl
1.000 setgray
fill
grestore
gsave
57.6 38.016 m
414.72 38.016 l
414.72 304.128 l
57.6 304.128 l
cl
1.000 setgray
fill
grestore
0.800 setlinewidth
1 setlinejoin
0 setlinecap
[] 0 setdash
0.000 setgray
gsave
/o {
gsave
newpath
translate
0.8 setlinewidth
1 setlinejoin

0 setlinecap

0 0 m
0 -3.5 l

gsave
0.000 setgray
fill
grestore
stroke
grestore
} bind def
73.8327 38.016 o
grestore
/DejaVuSans 10.000 selectfont
gsave

70.653040 23.422250 translate
0.000000 rotate
0.000000 0 m /zero glyphshow
grestore
gsave
/o {
gsave
newpath
translate
0.8 setlinewidth
1 setlinejoin

0 setlinecap

0 0 m
0 -3.5 l

gsave
0.000 setgray
fill
grestore
stroke
grestore
} bind def
123.232 38.016 o
grestore
gsave

113.693322 23.422250 translate
0.000000 rotate
0.000000 0 m /two glyphshow
6.362305 0 m /five glyphshow
12.724609 0 m /zero glyphshow
grestore
gsave
/o {
gsave
newpath
translate
0.8 setlinewidth
1 setlinejoin

0 setlinecap

0 0 m
0 -3.5 l

gsave
0.000 setgray
fill
grestore
stroke
grestore
} bind def
172.632 38.016 o
grestore
gsave

163.092979 23.422250 translate
0.000000 rotate
0.000000 0 m /five glyphshow
6.362305 0 m /zero glyphshow
12.724609 0 m /zero glyphshow
grestore
gsave
/o {
gsave
newpath
translate
0.8 setlinewidth
1 setlinejoin

0 setlinecap

0 0 m
0 -3.5 l

gsave
0.000 setgray
fill
grestore
stroke
grestore
} bind def
222.032 38.016 o
grestore
gsave

212.492636 23.422250 translate
0.000000 rotate
0.000000 0 m /seven glyphshow
6.362305 0 m /five glyphshow
12.724609 0 m /zero glyphshow
grestore
gsave
/o {
gsave
newpath
translate
0.8 setlinewidth
1 setlinejoin

0 setlinecap

0 0 m
0 -3.5 l

gsave
0.000 setgray
fill
grestore
stroke
grestore
} bind def
271.431 38.016 o
grestore
gsave

258.712605 23.422250 translate
0.000000 rotate
0.000000 0 m /one glyphshow
6.362305 0 m /zero glyphshow
12.724609 0 m /zero glyphshow
19.086914 0 m /zero glyphshow
grestore
gsave
/o {
gsave
newpath
translate
0.8 setlinewidth
1 setlinejoin

0 setlinecap

0 0 m
0 -3.5 l

gsave
0.000 setgray
fill
grestore
stroke
grestore
} bind def
320.831 38.016 o
grestore
gsave

308.112262 23.422250 translate
0.000000 rotate
0.000000 0 m /one glyphshow
6.362305 0 m /two glyphshow
12.724609 0 m /five glyphshow
19.086914 0 m /zero glyphshow
grestore
gsave
/o {
gsave
newpath
translate
0.8 setlinewidth
1 setlinejoin

0 setlinecap

0 0 m
0 -3.5 l

gsave
0.000 setgray
fill
grestore
stroke
grestore
} bind def
370.231 38.016 o
grestore
gsave

357.511919 23.422250 translate
0.000000 rotate
0.000000 0 m /one glyphshow
6.362305 0 m /five glyphshow
12.724609 0 m /zero glyphshow
19.086914 0 m /zero glyphshow
grestore
gsave
/o {
gsave
newpath
translate
0.8 setlinewidth
1 setlinejoin

0 setlinecap

-0 0 m
-3.5 0 l

gsave
0.000 setgray
fill
grestore
stroke
grestore
} bind def
57.6 64.6005 o
grestore
gsave

25.162500 60.803655 translate
0.000000 rotate
0.000000 0 m /one glyphshow
6.362305 0 m /two glyphshow
12.724609 0 m /zero glyphshow
19.086914 0 m /zero glyphshow
grestore
gsave
/o {
gsave
newpath
translate
0.8 setlinewidth
1 setlinejoin

0 setlinecap

-0 0 m
-3.5 0 l

gsave
0.000 setgray
fill
grestore
stroke
grestore
} bind def
57.6 117.055 o
grestore
gsave

25.162500 113.258587 translate
0.000000 rotate
0.000000 0 m /one glyphshow
6.362305 0 m /four glyphshow
12.724609 0 m /zero glyphshow
19.086914 0 m /zero glyphshow
grestore
gsave
/o {
gsave
newpath
translate
0.8 setlinewidth
1 setlinejoin

0 setlinecap

-0 0 m
-3.5 0 l

gsave
0.000 setgray
fill
grestore
stroke
grestore
} bind def
57.6 169.51 o
grestore
gsave

25.162500 165.713518 translate
0.000000 rotate
0.000000 0 m /one glyphshow
6.362305 0 m /six glyphshow
12.724609 0 m /zero glyphshow
19.086914 0 m /zero glyphshow
grestore
gsave
/o {
gsave
newpath
translate
0.8 setlinewidth
1 setlinejoin

0 setlinecap

-0 0 m
-3.5 0 l

gsave
0.000 setgray
fill
grestore
stroke
grestore
} bind def
57.6 221.965 o
grestore
gsave

25.162500 218.168450 translate
0.000000 rotate
0.000000 0 m /one glyphshow
6.362305 0 m /eight glyphshow
12.724609 0 m /zero glyphshow
19.086914 0 m /zero glyphshow
grestore
gsave
/o {
gsave
newpath
translate
0.8 setlinewidth
1 setlinejoin

0 setlinecap

-0 0 m
-3.5 0 l

gsave
0.000 setgray
fill
grestore
stroke
grestore
} bind def
57.6 274.42 o
grestore
gsave

25.162500 270.623382 translate
0.000000 rotate
0.000000 0 m /two glyphshow
6.362305 0 m /zero glyphshow
12.724609 0 m /zero glyphshow
19.086914 0 m /zero glyphshow
grestore
1.500 setlinewidth
2 setlinecap
0.000 0.000 1.000 setrgbcolor
gsave
357.12 266.112 57.6 38.016 clipbox
73.832727 57.250212 m
74.425523 54.86544 l
74.623122 54.257649 l
74.82072 54.3277 l
75.215918 55.337547 l
75.808714 57.483448 l
76.599108 61.169188 l
77.587101 64.121283 l
77.982298 64.2205 l
78.377496 64.049279 l
78.575094 64.172092 l
78.970292 64.167482 l
79.365489 64.927829 l
79.563087 65.38873 l
79.760686 65.486091 l
79.958285 65.440948 l
80.155883 65.740138 l
81.341475 69.447809 l
81.736672 69.814615 l
82.13187 69.947738 l
82.329468 69.939926 l
82.724666 69.187295 l
83.712659 66.269329 l
84.107856 65.315894 l
84.305455 64.609975 l
85.886244 55.902341 l
86.281441 55.239578 l
86.479039 55.147565 l
86.874237 55.35903 l
87.467033 57.731988 l
88.455026 61.236358 l
90.035815 64.843467 l
90.826209 66.567078 l
91.419005 68.353824 l
91.616604 68.299332 l
92.011801 67.703996 l
92.802196 66.135823 l
93.790189 62.95808 l
94.185386 61.664379 l
94.580583 61.246987 l
94.778182 61.210201 l
95.963774 59.936286 l
96.161372 59.690116 l
96.556569 58.563442 l
97.544563 55.106712 l
97.93976 53.979975 l
98.334957 53.55301 l
98.532556 53.759001 l
98.927753 54.60451 l
99.32295 55.881658 l
101.298937 63.227878 l
102.089331 65.802889 l
102.484528 66.723155 l
102.682127 66.812864 l
103.077324 66.554527 l
103.472521 66.152983 l
103.67012 66.198862 l
104.065317 67.195487 l
104.658113 68.854873 l
104.855712 68.929374 l
105.05331 68.850647 l
105.250909 68.928542 l
106.238902 70.579284 l
106.634099 70.502606 l
107.226895 69.906885 l
107.424494 69.661195 l
108.01729 71.160182 l
109.202882 75.753414 l
109.993276 78.781194 l
110.190875 79.004698 l
110.388473 78.843657 l
110.783671 77.971991 l
111.574065 75.264915 l
112.166861 72.323001 l
112.957256 68.077654 l
113.550051 65.797254 l
114.340446 63.196758 l
114.933242 61.516497 l
115.526038 59.763656 l
115.723636 59.640427 l
116.118834 60.571227 l
116.514031 62.104919 l
117.304425 65.25135 l
117.699623 65.441685 l
118.09482 65.224873 l
118.490017 64.788527 l
119.280412 63.51727 l
119.873208 62.475407 l
120.070806 62.317569 l
120.268405 62.356948 l
120.466003 62.545042 l
120.861201 62.525576 l
121.256398 62.453892 l
121.453997 62.593642 l
121.849194 63.457048 l
122.44199 64.881982 l
122.837187 65.223816 l
123.82518 66.021238 l
125.801166 67.898717 l
125.998765 67.709599 l
126.78916 65.98903 l
127.381955 63.953808 l
128.369949 59.82263 l
128.765146 58.687984 l
128.962744 58.51529 l
129.357942 58.571254 l
129.753139 59.166463 l
131.333928 62.627579 l
132.51952 68.157246 l
133.309914 72.493518 l
133.705111 73.989751 l
135.483499 77.325429 l
135.878696 77.644212 l
136.273894 77.722843 l
136.669091 77.493897 l
137.064288 78.120737 l
137.657084 79.154372 l
137.854683 79.163785 l
138.24988 78.826465 l
138.447479 78.494235 l
139.435472 75.19989 l
139.830669 73.607033 l
140.621063 70.34227 l
140.818662 70.013498 l
141.016261 70.050157 l
141.411458 71.351605 l
142.004254 73.542617 l
142.201852 73.857301 l
142.399451 73.812991 l
142.794648 73.153046 l
143.387444 72.061271 l
143.782642 71.245184 l
144.177839 69.996786 l
144.573036 69.388259 l
144.770635 69.180315 l
145.561029 69.370106 l
146.351424 69.119677 l
146.746621 69.135237 l
147.141818 68.624679 l
147.734614 67.858121 l
147.932213 67.890329 l
148.129811 68.204981 l
148.525009 69.972294 l
148.920206 72.010877 l
149.117804 72.555789 l
149.7106 72.898167 l
150.500995 73.058888 l
151.488988 72.573366 l
151.686587 72.632179 l
152.872178 74.682833 l
153.464974 75.28025 l
153.662573 75.186539 l
154.05777 74.046548 l
155.045763 70.921183 l
156.231355 67.361713 l
157.02175 66.179781 l
157.219348 65.999595 l
157.416947 66.016371 l
157.614545 66.240163 l
158.40494 67.885975 l
158.602539 67.721829 l
158.997736 66.579788 l
159.78813 64.110782 l
160.183328 63.569872 l
160.380926 63.706196 l
160.776123 64.226648 l
161.566518 64.911405 l
161.961715 65.47274 l
162.554511 65.754609 l
162.75211 65.743371 l
163.542504 66.304963 l
164.1353 66.830793 l
164.530497 67.08612 l
164.728096 66.944353 l
165.320892 65.700022 l
166.111286 63.286115 l
166.704082 61.871906 l
167.296878 60.216266 l
168.087273 57.994967 l
168.284871 57.721391 l
168.48247 57.652492 l
168.877667 57.843724 l
169.668062 58.986853 l
169.86566 58.966363 l
170.260858 58.5434 l
171.051252 56.658685 l
171.446449 55.517893 l
171.841647 54.928608 l
172.236844 54.820746 l
172.82964 55.109177 l
173.224837 55.098292 l
174.015232 54.865152 l
174.410429 54.559175 l
175.003225 54.163586 l
175.398422 54.081305 l
175.596021 54.166436 l
175.793619 54.016345 l
176.386415 53.016519 l
177.374408 50.200396 l
177.769605 50.140302 l
178.362401 50.943294 l
179.152796 53.417263 l
179.547993 54.176041 l
179.94319 54.640784 l
180.338388 54.5918 l
180.733585 54.857212 l
180.931184 54.90245 l
181.326381 54.696172 l
181.721578 55.286482 l
182.116775 55.958977 l
182.511973 56.179247 l
182.90717 56.411842 l
183.302367 56.813547 l
183.895163 56.735716 l
184.092762 56.516695 l
185.080755 54.107911 l
185.278353 54.14252 l
185.673551 54.581971 l
186.266346 55.499196 l
186.463945 55.431034 l
186.859142 54.864416 l
187.056741 54.910647 l
187.451938 55.418003 l
187.847136 56.902007 l
188.439931 59.564133 l
189.032727 60.894556 l
189.427925 61.516209 l
190.02072 62.302169 l
190.613516 62.668111 l
190.811115 62.572576 l
191.206312 61.981753 l
191.601509 61.816359 l
192.391904 61.723705 l
192.9847 60.961693 l
193.379897 59.682176 l
193.972693 57.372897 l
194.36789 56.624588 l
194.565489 56.614375 l
194.960686 56.973466 l
196.146278 58.744685 l
196.343877 58.79479 l
196.541475 58.631732 l
196.936672 58.707482 l
197.134271 58.822868 l
197.33187 58.771642 l
197.529468 58.896984 l
198.122264 60.239957 l
198.912659 62.167638 l
199.505455 63.092867 l
199.900652 63.291942 l
200.295849 63.064244 l
200.493448 63.067382 l
200.691046 63.288388 l
202.074237 66.313511 l
202.864631 68.851544 l
203.457427 70.218817 l
203.852624 70.758766 l
204.247822 71.229432 l
205.038216 71.49843 l
206.026209 71.093172 l
206.421407 70.708853 l
206.816604 69.870419 l
207.606998 68.072179 l
207.804597 67.770205 l
208.002196 67.716674 l
208.199794 67.94879 l
208.594991 69.015657 l
209.385386 72.424427 l
209.780583 73.086037 l
209.978182 73.186855 l
210.373379 72.998794 l
211.954168 71.506914 l
212.151767 71.456489 l
212.349365 71.635683 l
212.546964 72.083746 l
212.942161 73.383689 l
213.337358 74.134912 l
213.732556 74.437174 l
213.930154 74.391712 l
214.325352 73.875646 l
214.918148 72.550442 l
216.301338 65.022244 l
216.696535 64.480854 l
217.091732 64.744538 l
217.48693 64.889794 l
217.882127 65.443702 l
219.660515 69.143049 l
219.858113 69.042839 l
220.450909 67.97738 l
221.241304 66.192747 l
221.834099 64.849262 l
222.031698 64.87353 l
222.426895 65.567091 l
223.019691 66.473655 l
223.21729 66.597012 l
223.414889 66.475608 l
223.810086 65.513016 l
224.798079 62.995634 l
224.995678 62.807797 l
225.193276 62.84167 l
225.588473 63.217025 l
226.181269 63.846714 l
226.576467 64.153715 l
226.774065 64.064039 l
227.366861 63.503952 l
227.56446 63.550279 l
227.959657 64.045181 l
229.145249 66.332144 l
229.540446 67.246296 l
229.935643 67.671756 l
230.133242 67.564182 l
230.528439 66.726229 l
230.923636 65.883857 l
231.318834 65.630835 l
232.109228 65.313557 l
232.504425 65.940141 l
232.899623 66.781905 l
233.29482 68.677825 l
234.282813 75.005841 l
234.67801 76.051899 l
235.270806 76.830494 l
235.468405 76.989294 l
235.863602 77.665599 l
236.258799 77.978907 l
236.653997 79.818799 l
237.049194 82.240358 l
238.037187 88.974816 l
238.432384 89.783507 l
238.629983 89.646287 l
238.827581 89.255436 l
239.02518 89.168865 l
239.617976 89.39048 l
240.605969 86.855809 l
241.396364 86.300236 l
241.98916 85.744119 l
242.384357 85.6328 l
242.779554 86.33222 l
243.174751 86.670084 l
243.37235 86.527261 l
244.360343 85.142027 l
244.557942 85.105785 l
244.953139 84.15299 l
245.150738 83.551058 l
245.348336 83.651717 l
245.743533 85.761888 l
246.731527 95.281478 l
247.324322 98.710515 l
247.917118 101.120227 l
248.114717 101.566369 l
248.312316 101.487386 l
248.707513 100.918975 l
249.497907 99.034324 l
249.695506 99.16005 l
250.485901 100.923105 l
250.881098 101.063047 l
251.078696 100.954929 l
251.276295 100.996293 l
251.473894 101.239743 l
251.671492 101.202028 l
252.06669 100.748714 l
252.264288 100.332827 l
252.659485 98.479103 l
253.054683 96.235009 l
254.042676 93.365964 l
254.635472 92.085774 l
255.030669 91.538654 l
255.228268 91.759756 l
256.018662 93.120786 l
256.216261 93.08035 l
256.611458 92.007751 l
257.006655 90.390754 l
257.204254 90.413517 l
257.79705 91.534716 l
258.587444 91.847031 l
258.982642 91.432137 l
259.575437 90.118138 l
259.970635 89.556258 l
260.365832 89.46815 l
261.156226 89.46671 l
261.749022 90.114264 l
262.14422 90.948312 l
262.539417 90.925708 l
262.934614 91.721337 l
263.52741 93.095877 l
263.725009 93.035335 l
264.120206 92.195077 l
264.713002 90.244473 l
265.503396 86.286981 l
265.898593 85.443841 l
266.293791 85.120096 l
266.491389 85.105657 l
267.281784 85.478579 l
267.479383 85.52212 l
267.87458 85.207884 l
268.664974 84.310285 l
268.862573 84.29751 l
269.060172 84.398553 l
269.652967 86.091108 l
270.048165 87.257161 l
270.245763 87.429214 l
271.233756 87.530577 l
271.628954 87.630083 l
273.407341 89.989594 l
273.802539 91.917434 l
274.790532 97.056475 l
275.185729 99.033043 l
276.371321 105.92438 l
276.568919 106.30457 l
276.766518 106.330439 l
277.161715 105.866335 l
277.556913 104.933743 l
277.95211 104.010755 l
278.544906 103.204753 l
278.742504 103.092826 l
279.137702 102.644955 l
279.532899 102.571286 l
279.928096 102.60772 l
280.916089 104.101584 l
281.508885 104.721317 l
281.706484 104.387102 l
282.29928 102.715486 l
282.694477 102.111697 l
283.68247 101.988339 l
284.077667 102.33853 l
284.472864 103.02127 l
284.868062 104.86731 l
285.460858 108.675863 l
285.856055 112.435688 l
286.448851 115.438464 l
286.646449 116.113488 l
286.844048 115.803702 l
287.239245 113.85678 l
287.436844 113.439676 l
287.634443 113.643362 l
288.02964 114.675108 l
288.424837 116.559951 l
288.622436 116.989605 l
288.820034 117.101661 l
289.215232 113.043319 l
289.808027 103.864698 l
290.993619 84.925247 l
291.191218 84.005973 l
291.388816 85.370269 l
291.784014 91.222784 l
292.37681 101.288631 l
292.772007 105.290112 l
293.364803 107.398715 l
293.957599 109.610249 l
294.550395 113.61221 l
295.14319 119.474202 l
295.735986 125.154152 l
295.933585 125.723172 l
296.131184 125.880594 l
296.328782 125.771644 l
296.526381 125.494866 l
297.119177 124.102876 l
297.514374 125.344007 l
297.909571 126.489954 l
298.10717 126.544605 l
299.095163 123.444596 l
299.49036 122.118208 l
300.280755 120.530089 l
300.873551 120.143112 l
301.071149 120.145161 l
301.466346 121.31957 l
302.256741 123.910877 l
302.849537 125.263358 l
303.047136 125.215207 l
303.639931 124.675354 l
304.035129 123.190518 l
304.430326 122.815771 l
304.825523 122.883293 l
305.023122 122.996501 l
305.22072 123.33952 l
305.418319 123.07017 l
306.011115 120.892093 l
306.406312 118.942097 l
306.603911 118.578236 l
306.801509 118.68152 l
307.196707 120.186589 l
307.591904 121.860543 l
307.987101 122.156179 l
308.382298 122.256132 l
308.777496 122.132807 l
308.975094 122.339438 l
309.370292 124.356443 l
309.765489 126.508235 l
310.160686 127.766301 l
310.358285 127.985675 l
312.334271 132.951284 l
312.927067 135.595834 l
313.322264 136.421077 l
313.717461 136.576578 l
314.310257 136.550421 l
314.507856 136.477073 l
314.705455 136.529643 l
314.903053 137.121618 l
315.100652 138.086195 l
315.891046 144.626637 l
317.076638 157.879415 l
317.471835 160.239919 l
317.669434 161.234142 l
318.064631 166.157011 l
318.459828 171.44755 l
318.855026 173.835652 l
319.052624 172.511248 l
320.040617 160.500657 l
320.238216 159.305918 l
320.633413 159.234362 l
321.028611 156.977013 l
321.621407 153.417896 l
322.016604 151.546724 l
322.6094 149.932352 l
322.806998 149.621317 l
323.004597 150.015465 l
323.399794 151.715352 l
323.597393 152.158677 l
323.794991 152.174301 l
324.190189 151.71865 l
324.782985 150.720393 l
324.980583 150.817657 l
325.37578 152.475475 l
325.770978 154.050916 l
326.166175 154.897802 l
326.363774 155.276198 l
326.561372 155.181015 l
327.154168 154.332336 l
327.549365 152.503745 l
328.932556 141.298483 l
329.130154 141.140004 l
329.327753 141.520866 l
329.920549 143.624954 l
330.315746 145.322215 l
330.513345 145.617178 l
330.710943 145.678937 l
331.106141 145.501889 l
331.896535 147.490624 l
332.094134 147.500549 l
332.68693 147.131437 l
333.082127 147.274932 l
333.477324 147.930331 l
333.872521 147.975089 l
334.465317 147.871197 l
334.860515 146.420106 l
335.45331 144.204186 l
335.650909 144.040009 l
336.046106 144.847515 l
336.836501 150.131619 l
337.034099 149.947303 l
337.231698 149.277434 l
337.824494 145.989748 l
338.219691 144.777752 l
338.614889 144.483461 l
338.812487 144.278271 l
339.80048 141.232242 l
341.183671 130.560942 l
341.381269 129.736051 l
341.578868 129.659052 l
341.974065 130.95573 l
342.369262 132.913954 l
343.159657 137.810089 l
343.554854 138.834183 l
343.752453 139.104942 l
343.950051 139.068988 l
344.345249 139.521213 l
345.53084 145.289719 l
345.926038 145.675831 l
346.321235 145.655213 l
346.518834 145.557436 l
346.914031 145.868696 l
347.309228 148.695384 l
347.902024 153.104044 l
348.297221 154.670937 l
348.49482 154.760741 l
348.890017 154.257419 l
349.087616 153.869001 l
349.482813 150.295669 l
350.075609 143.944793 l
350.668405 139.421035 l
351.063602 137.344609 l
351.261201 137.020159 l
351.458799 137.135609 l
352.446792 138.828036 l
352.84199 138.925525 l
353.237187 139.176882 l
353.632384 139.874189 l
353.829983 139.69983 l
354.027581 139.332768 l
355.015575 133.017397 l
355.213173 133.270163 l
356.201166 136.006214 l
356.398765 135.910487 l
356.596364 135.284991 l
357.18916 131.54985 l
357.584357 129.529932 l
357.781955 129.406254 l
358.177153 129.492153 l
358.769949 128.842582 l
359.165146 126.709839 l
360.548336 116.559022 l
360.745935 115.919055 l
360.943533 115.670804 l
361.141132 115.823968 l
362.129125 117.858325 l
362.721921 119.588371 l
363.117118 120.538893 l
363.512316 121.461977 l
364.105111 122.568864 l
364.500309 123.167178 l
364.697907 122.819997 l
365.290703 120.285455 l
365.488302 120.231572 l
365.685901 120.376828 l
366.081098 121.603903 l
366.476295 123.292873 l
366.871492 124.350168 l
367.26669 124.973806 l
367.464288 125.012097 l
367.661887 125.214182 l
367.859485 125.23416 l
368.254683 126.014549 l
368.452281 126.474778 l
369.045077 128.861919 l
369.637873 131.796405 l
370.03307 132.814032 l
370.428268 132.900763 l
370.625866 132.707067 l
371.416261 130.487369 l
371.811458 130.793922 l
372.009057 131.519499 l
373.194648 139.240722 l
373.392247 139.774171 l
373.589846 139.942831 l
373.787444 139.899098 l
373.985043 139.729765 l
374.182642 139.792869 l
374.38024 140.226717 l
374.577839 141.025291 l
375.170635 144.57682 l
375.565832 146.05839 l
376.751424 148.809296 l
377.34422 149.576046 l
377.739417 148.778305 l
378.529811 147.816194 l
379.517804 147.053574 l
379.715403 146.728164 l
380.308199 144.494059 l
380.900995 136.622073 l
381.493791 129.758014 l
381.888988 127.665259 l
382.284185 126.715346 l
382.679383 126.436007 l
383.07458 125.409928 l
383.272178 125.323645 l
383.667376 125.743534 l
384.062573 126.756742 l
385.248165 132.122936 l
385.643362 132.875727 l
386.631355 136.151535 l
387.026552 136.65649 l
387.224151 136.476305 l
387.816947 135.006356 l
388.409743 133.745632 l
388.607341 133.39224 l
388.80494 133.676638 l
389.595334 135.710739 l
389.792933 135.7765 l
389.990532 136.050716 l
390.18813 135.866369 l
390.583328 135.027167 l
390.780926 133.86931 l
391.768919 125.05359 l
391.966518 124.150676 l
392.164117 123.982817 l
392.361715 124.434049 l
393.349708 128.041062 l
393.547307 128.474974 l
394.337702 131.199788 l
394.930497 131.787473 l
395.720892 134.517249 l
396.313688 136.580516 l
396.511286 137.012476 l
396.708885 136.957376 l
397.104082 135.586357 l
397.696878 133.420254 l
398.092075 132.663429 l
398.487273 132.243348 l
398.487273 132.243348 l
stroke
grestore
1.000 0.647 0.000 setrgbcolor
gsave
357.12 266.112 57.6 38.016 clipbox
73.832727 65.295558 m
74.030326 65.702083 l
74.227925 65.806993 l
74.425523 64.2858 l
74.623122 72.298291 l
75.018319 72.36386 l
75.215918 72.36386 l
75.413516 73.098229 l
75.808714 77.465102 l
76.006312 77.058576 l
76.599108 77.058576 l
76.796707 79.694436 l
76.994305 79.615754 l
77.191904 78.002765 l
77.389503 77.399533 l
77.587101 76.363548 l
77.982298 76.363548 l
78.179897 76.993007 l
78.377496 79.720664 l
78.575094 76.612709 l
78.772693 78.369949 l
78.970292 82.028681 l
79.365489 82.028681 l
79.563087 77.727376 l
79.760686 78.474859 l
80.155883 86.670942 l
80.946278 86.670942 l
81.143877 85.307114 l
81.341475 85.333342 l
81.539074 86.133279 l
81.934271 86.067711 l
82.13187 86.067711 l
82.329468 82.802391 l
82.527067 82.382752 l
82.724666 80.822217 l
82.922264 81.071378 l
83.119863 82.028681 l
83.712659 82.028681 l
84.503053 71.957334 l
84.89825 71.957334 l
85.095849 72.416315 l
85.293448 69.950933 l
85.491046 70.619733 l
85.688645 70.672188 l
85.886244 72.796613 l
86.281441 72.796613 l
86.676638 73.570323 l
86.874237 79.655095 l
87.071835 79.261683 l
87.269434 78.238812 l
87.664631 78.238812 l
87.86223 80.035393 l
88.059828 80.389464 l
88.257427 78.383063 l
88.455026 79.537072 l
88.652624 81.661496 l
89.24542 81.661496 l
89.443019 81.045151 l
89.640617 81.963112 l
89.838216 81.609041 l
90.035815 84.258015 l
90.431012 84.258015 l
90.628611 85.569389 l
90.826209 89.12321 l
91.023808 88.467524 l
91.221407 83.772807 l
91.419005 82.054908 l
92.011801 82.015567 l
92.2094 80.861559 l
92.406998 84.402267 l
92.604597 78.907612 l
92.802196 79.130546 l
93.197393 79.130546 l
93.59259 75.66852 l
93.790189 75.747203 l
94.185386 79.209228 l
94.580583 79.209228 l
94.778182 76.468458 l
94.97578 77.596239 l
95.173379 77.189713 l
95.370978 76.009477 l
95.568576 75.681634 l
95.963774 75.681634 l
96.161372 72.272064 l
96.556569 69.924705 l
96.754168 71.131169 l
96.951767 68.705128 l
97.346964 68.705128 l
97.544563 67.721598 l
97.742161 67.498665 l
97.93976 69.531293 l
98.137358 69.557521 l
98.334957 72.547452 l
98.730154 72.547452 l
98.927753 73.544096 l
99.125352 75.288222 l
99.32295 75.655407 l
99.520549 74.750559 l
99.718148 77.333964 l
100.113345 77.333964 l
100.310943 79.169887 l
100.508542 78.868271 l
100.706141 77.215941 l
100.903739 80.625511 l
101.101338 81.622155 l
101.496535 81.622155 l
101.891732 83.208917 l
102.28693 82.461434 l
102.484528 79.733778 l
103.077324 79.81246 l
103.274923 80.809104 l
103.867719 87.182378 l
104.262916 87.182378 l
104.460515 86.185734 l
104.658113 83.038438 l
104.855712 83.681011 l
105.250909 89.726442 l
105.646106 89.726442 l
105.843705 88.965846 l
106.041304 86.684056 l
106.436501 87.942974 l
106.634099 86.972558 l
107.226895 86.972558 l
107.424494 95.719418 l
107.622093 93.05733 l
107.819691 93.909723 l
108.01729 96.178399 l
108.412487 96.178399 l
108.610086 99.509287 l
109.005283 100.755092 l
109.40048 102.958199 l
109.795678 102.958199 l
110.190875 97.778274 l
110.388473 98.053663 l
110.783671 96.820972 l
111.178868 96.820972 l
111.376467 94.001519 l
111.574065 93.345832 l
111.771664 93.791699 l
111.969262 88.756026 l
112.166861 89.464167 l
112.562058 89.464167 l
112.759657 89.070755 l
112.957256 90.841109 l
113.154854 86.251303 l
113.352453 86.461123 l
113.74765 86.395554 l
113.945249 86.395554 l
114.142847 83.930172 l
114.340446 83.287599 l
114.538045 84.074423 l
114.735643 84.139992 l
114.933242 80.809104 l
115.328439 80.809104 l
115.723636 88.572434 l
115.921235 88.008543 l
116.118834 88.270818 l
116.316432 90.723086 l
116.71163 90.723086 l
116.909228 91.693502 l
117.106827 86.828307 l
117.304425 85.634957 l
117.502024 87.26106 l
117.699623 85.897232 l
118.09482 85.897232 l
118.292419 84.244902 l
118.490017 84.651427 l
118.885214 83.943286 l
119.082813 82.028681 l
119.47801 82.028681 l
119.675609 83.484305 l
119.873208 82.999097 l
120.070806 84.808792 l
120.268405 85.372683 l
120.466003 82.225387 l
120.861201 82.225387 l
121.256398 84.428494 l
121.453997 86.631601 l
121.651595 86.841421 l
122.046792 86.710284 l
122.244391 86.710284 l
122.639588 84.166219 l
122.837187 86.159507 l
123.034786 85.582503 l
123.232384 86.723397 l
123.627581 86.723397 l
123.82518 87.208605 l
124.022779 86.448009 l
124.417976 88.297045 l
125.010772 88.336386 l
125.20837 89.490395 l
125.405969 88.690457 l
125.801166 85.634957 l
125.998765 84.402267 l
126.393962 84.402267 l
126.591561 83.864603 l
126.78916 81.98934 l
126.986758 81.307426 l
127.381955 77.884741 l
127.777153 77.884741 l
127.974751 76.96678 l
128.17235 75.327563 l
128.369949 75.786544 l
128.567547 77.976537 l
128.765146 78.920726 l
129.160343 78.920726 l
129.357942 80.494374 l
129.55554 80.428805 l
129.753139 81.530359 l
130.938731 81.530359 l
131.333928 88.467524 l
132.124322 88.467524 l
132.321921 93.988405 l
132.51952 94.735888 l
132.717118 94.630978 l
132.914717 95.326006 l
133.309914 95.326006 l
133.507513 96.060375 l
133.705111 93.713017 l
133.90271 96.00792 l
134.297907 97.856957 l
134.693105 97.856957 l
134.890703 101.122276 l
135.088302 99.705993 l
135.285901 100.178087 l
135.483499 99.27324 l
135.681098 99.994495 l
136.076295 99.994495 l
136.273894 99.37815 l
136.471492 99.587969 l
136.669091 104.912145 l
136.86669 105.239988 l
137.064288 104.767894 l
137.459485 104.767894 l
137.657084 102.328739 l
137.854683 102.604128 l
138.052281 102.643469 l
138.24988 101.673053 l
138.447479 98.997851 l
138.842676 98.997851 l
139.040274 99.640424 l
139.237873 99.06342 l
139.830669 94.526068 l
140.225866 94.526068 l
140.423465 96.676721 l
140.621063 97.476658 l
141.016261 104.584302 l
141.213859 104.492505 l
141.609057 104.492505 l
142.004254 101.279641 l
142.201852 98.827373 l
142.399451 98.263482 l
142.794648 98.158572 l
142.992247 98.158572 l
143.189846 99.614197 l
143.782642 92.860624 l
143.98024 96.676721 l
144.375437 96.676721 l
144.573036 96.178399 l
144.770635 99.06342 l
144.968233 98.538871 l
145.165832 96.335764 l
145.561029 96.230854 l
145.758628 96.230854 l
145.956226 95.850555 l
146.153825 96.794744 l
146.351424 97.004564 l
146.549022 95.745646 l
146.746621 93.47697 l
147.141818 93.47697 l
147.339417 94.080201 l
147.537015 93.713017 l
148.32741 103.049995 l
148.525009 104.571188 l
149.117804 97.083246 l
149.315403 99.601083 l
150.105798 99.601083 l
150.303396 100.61084 l
150.500995 98.093004 l
150.698593 99.010965 l
150.896192 99.207671 l
151.291389 99.207671 l
151.488988 101.043594 l
151.686587 104.138435 l
151.884185 101.673053 l
152.081784 102.289398 l
152.279383 103.77125 l
152.67458 103.77125 l
152.872178 101.869759 l
153.069777 104.322027 l
153.267376 103.574544 l
153.662573 97.20127 l
154.05777 97.20127 l
154.255369 98.39462 l
154.452967 96.506242 l
154.650566 96.257081 l
154.848165 96.466901 l
155.045763 94.290021 l
155.440961 94.290021 l
155.836158 91.929549 l
156.033756 94.775229 l
156.428954 92.559008 l
157.02175 92.559008 l
157.614545 97.214384 l
157.812144 96.034148 l
158.207341 96.034148 l
158.40494 89.516622 l
158.800137 88.074112 l
158.997736 87.759382 l
159.590532 87.772496 l
159.78813 89.005187 l
159.985729 87.942974 l
160.183328 92.100028 l
160.380926 91.745957 l
160.578525 89.64776 l
161.171321 89.64776 l
161.566518 92.231165 l
161.764117 89.411713 l
161.961715 89.634646 l
162.356913 89.634646 l
162.554511 88.742912 l
162.75211 90.854223 l
162.949708 90.10674 l
163.542504 90.723086 l
163.740103 90.723086 l
163.937702 90.473925 l
164.1353 89.818238 l
164.332899 91.549251 l
164.530497 86.959444 l
164.728096 85.989028 l
165.123293 85.989028 l
165.320892 84.572745 l
165.518491 84.061309 l
165.716089 81.949998 l
165.913688 82.736822 l
166.308885 82.618799 l
166.506484 82.618799 l
166.901681 78.920726 l
167.09928 78.120788 l
167.296878 77.832286 l
167.494477 77.137258 l
167.889674 77.137258 l
168.284871 79.196115 l
168.680069 79.117432 l
168.877667 80.874672 l
169.075266 80.874672 l
169.272864 78.763361 l
169.470463 78.081447 l
169.86566 75.537383 l
170.063259 75.380018 l
170.260858 73.203139 l
170.656055 73.203139 l
171.051252 69.20345 l
171.248851 72.140926 l
171.446449 71.144283 l
171.644048 72.036016 l
172.039245 72.036016 l
172.236844 72.862182 l
172.632041 70.882008 l
172.82964 70.842667 l
173.027238 70.095184 l
173.422436 70.095184 l
173.620034 69.583748 l
173.817633 68.652673 l
174.015232 68.875607 l
174.21283 67.13148 l
174.410429 67.839622 l
174.805626 67.839622 l
175.003225 67.105253 l
175.200823 68.364171 l
175.398422 68.377285 l
175.596021 64.692326 l
175.793619 63.813706 l
176.188816 63.813706 l
176.386415 59.879586 l
176.781612 58.935397 l
177.17681 62.226944 l
177.572007 62.226944 l
177.769605 63.72191 l
177.967204 62.594129 l
178.164803 63.997298 l
178.362401 67.813394 l
178.56 65.702083 l
179.152796 65.702083 l
179.350395 63.892388 l
179.547993 65.243103 l
179.745592 64.613644 l
179.94319 62.200717 l
180.338388 65.951244 l
180.535986 64.312028 l
180.733585 63.708796 l
180.931184 61.938442 l
181.128782 63.446521 l
181.326381 67.170821 l
181.721578 67.170821 l
181.919177 65.111965 l
182.116775 65.098852 l
182.314374 64.652985 l
182.511973 65.466036 l
182.709571 66.790523 l
183.104768 66.790523 l
183.302367 64.259573 l
183.499966 65.321785 l
183.697564 65.098852 l
184.092762 60.77132 l
184.487959 60.77132 l
184.883156 61.807305 l
185.080755 65.833221 l
185.278353 64.915259 l
185.475952 65.505377 l
186.068748 65.597174 l
186.266346 61.177846 l
186.463945 60.810661 l
186.661544 61.610599 l
186.859142 66.056154 l
187.25434 66.056154 l
187.649537 72.455656 l
187.847136 72.652362 l
188.044734 72.219609 l
188.242333 70.632847 l
188.63753 70.632847 l
188.835129 71.904879 l
189.032727 70.449255 l
189.230326 74.029304 l
189.427925 72.613021 l
189.823122 72.678589 l
190.02072 72.678589 l
190.218319 73.478527 l
190.415918 72.678589 l
190.613516 71.262306 l
190.811115 68.521536 l
191.008714 72.770385 l
191.403911 72.770385 l
191.601509 73.019546 l
191.799108 73.058888 l
191.996707 72.888409 l
192.194305 72.455656 l
192.391904 70.934463 l
192.787101 70.934463 l
193.182298 66.056154 l
193.379897 65.151307 l
193.577496 65.452922 l
193.775094 67.708485 l
194.170292 67.708485 l
194.36789 70.475482 l
194.565489 70.265662 l
194.763087 70.632847 l
194.960686 71.445898 l
195.158285 71.695059 l
195.553482 71.695059 l
195.751081 70.803325 l
195.948679 70.737757 l
196.146278 70.160753 l
196.343877 68.075669 l
196.541475 71.48524 l
196.936672 71.48524 l
197.134271 69.20345 l
197.529468 75.170199 l
197.727067 74.01619 l
197.924666 75.760317 l
198.319863 75.760317 l
198.517461 75.957023 l
198.71506 76.494686 l
198.912659 76.481572 l
199.110257 76.599595 l
199.307856 75.812771 l
199.703053 75.812771 l
199.900652 73.871939 l
200.691046 80.271441 l
201.086244 80.271441 l
201.283842 79.851801 l
201.481441 79.851801 l
201.876638 85.320228 l
202.469434 85.320228 l
202.667033 86.343099 l
203.06223 86.343099 l
203.259828 88.323273 l
203.457427 85.556275 l
203.655026 88.782253 l
203.852624 88.782253 l
204.050223 87.274174 l
204.643019 88.703571 l
204.840617 88.703571 l
205.038216 87.929861 l
205.433413 89.359258 l
205.828611 88.388841 l
206.223808 88.388841 l
206.619005 85.464479 l
206.816604 86.133279 l
207.014202 85.530048 l
207.211801 86.552919 l
207.606998 86.552919 l
208.002196 91.391886 l
208.397393 93.634335 l
208.594991 96.925881 l
208.990189 96.925881 l
209.385386 94.014633 l
209.582985 94.552296 l
209.978182 93.450742 l
210.373379 93.450742 l
210.570978 94.722774 l
210.768576 92.506553 l
211.163774 94.185111 l
211.361372 93.831041 l
211.756569 93.831041 l
211.954168 95.168641 l
212.546964 102.302512 l
212.744563 99.024079 l
213.13976 99.024079 l
213.337358 98.447075 l
213.534957 98.971624 l
213.732556 97.397976 l
213.930154 96.820972 l
214.127753 95.850555 l
214.52295 95.850555 l
214.720549 93.962178 l
214.918148 86.998786 l
215.115746 86.579146 l
215.313345 87.116809 l
215.510943 86.972558 l
215.906141 86.972558 l
216.103739 89.975603 l
216.301338 88.926504 l
216.498937 90.054285 l
216.696535 92.650805 l
216.894134 89.660873 l
217.289331 89.660873 l
217.48693 91.745957 l
217.882127 92.847511 l
218.079726 91.798412 l
218.277324 93.345832 l
218.672521 93.345832 l
218.87012 93.791699 l
219.067719 95.955465 l
219.265317 95.103073 l
219.462916 93.37206 l
219.660515 89.555964 l
220.25331 89.621532 l
220.450909 89.12321 l
220.648508 88.283931 l
220.846106 88.323273 l
221.043705 86.408668 l
221.438902 86.408668 l
221.636501 87.798723 l
221.834099 90.827996 l
222.229297 92.257393 l
222.426895 90.513266 l
222.822093 90.513266 l
223.019691 89.33303 l
223.414889 84.6252 l
223.810086 84.454721 l
224.205283 84.454721 l
224.402882 82.828619 l
224.60048 83.392509 l
224.798079 85.792322 l
224.995678 86.684056 l
225.786072 86.684056 l
225.983671 85.451365 l
226.378868 86.579146 l
226.576467 83.208917 l
226.971664 83.208917 l
227.169262 85.202204 l
227.762058 87.182378 l
227.959657 87.444653 l
228.552453 87.444653 l
228.750051 89.673987 l
228.94765 90.408356 l
229.145249 90.591948 l
229.342847 88.651116 l
229.738045 88.651116 l
229.935643 85.792322 l
230.33084 83.261372 l
230.528439 83.9564 l
230.726038 86.539805 l
231.121235 86.539805 l
231.318834 86.238189 l
231.516432 85.136636 l
231.714031 86.015256 l
231.91163 85.831663 l
232.109228 89.660873 l
232.702024 89.660873 l
232.899623 95.312892 l
233.492419 100.138746 l
233.887616 100.138746 l
234.085214 101.489461 l
234.282813 98.329051 l
234.480412 97.20127 l
234.875609 100.243656 l
235.270806 100.243656 l
235.468405 104.269572 l
235.666003 101.659939 l
235.863602 101.673053 l
236.061201 102.381194 l
236.258799 111.678831 l
236.653997 111.678831 l
237.246792 125.290886 l
237.444391 118.091446 l
237.64199 117.711148 l
238.037187 117.711148 l
238.234786 119.415933 l
238.432384 114.458942 l
238.629983 114.708103 l
238.827581 120.596169 l
239.02518 120.963354 l
239.420377 120.963354 l
239.617976 114.078644 l
239.815575 117.081689 l
240.013173 114.839241 l
240.210772 119.232341 l
240.40837 120.661738 l
240.803568 120.661738 l
241.001166 119.048749 l
241.198765 120.307667 l
241.396364 119.638867 l
241.593962 119.770004 l
241.791561 121.632154 l
242.186758 121.632154 l
242.384357 127.467765 l
242.581955 124.333583 l
242.779554 123.756579 l
242.977153 124.123764 l
243.174751 121.278084 l
243.569949 121.278084 l
243.767547 122.405865 l
243.965146 122.051794 l
244.162744 123.848375 l
244.360343 124.281128 l
244.557942 118.838929 l
244.953139 118.838929 l
245.348336 134.168883 l
245.545935 134.168883 l
245.743533 144.869689 l
245.941132 142.16826 l
246.336329 142.16826 l
246.533928 142.679696 l
246.731527 144.515618 l
246.929125 142.863288 l
247.126724 146.758067 l
247.324322 147.387526 l
247.917118 147.282616 l
248.114717 142.391194 l
248.312316 144.476277 l
248.707513 143.82059 l
249.10271 143.82059 l
249.300309 144.279571 l
249.497907 151.924877 l
249.893105 153.826369 l
250.090703 150.731528 l
250.683499 150.731528 l
250.881098 150.088955 l
251.276295 155.373789 l
251.473894 150.91512 l
251.869091 150.91512 l
252.06669 149.498837 l
252.461887 142.823947 l
252.659485 140.830659 l
252.857084 147.269502 l
253.252281 147.269502 l
253.647479 142.548558 l
253.845077 143.833704 l
254.042676 144.200889 l
254.240274 143.46652 l
254.635472 143.46652 l
254.83307 143.781249 l
255.030669 149.079197 l
255.228268 148.698899 l
255.425866 150.823324 l
255.623465 144.961485 l
256.018662 144.961485 l
256.216261 140.633953 l
256.413859 139.42749 l
256.611458 136.319535 l
257.006655 147.767824 l
257.401852 147.767824 l
257.599451 143.059994 l
257.79705 143.610771 l
257.994648 144.817234 l
258.192247 145.184419 l
258.389846 141.919099 l
258.785043 141.919099 l
258.982642 137.814501 l
259.18024 140.817546 l
259.575437 139.375035 l
259.773036 141.355209 l
260.168233 141.355209 l
260.365832 140.660181 l
260.563431 141.092934 l
260.761029 139.440604 l
260.958628 141.827303 l
261.156226 142.37808 l
261.551424 142.37808 l
261.749022 146.810522 l
261.946621 141.28964 l
262.14422 139.807788 l
262.341818 141.210958 l
262.539417 146.154835 l
262.934614 146.154835 l
263.132213 145.590944 l
263.329811 145.761423 l
263.52741 140.384792 l
263.922607 139.152102 l
264.317804 139.152102 l
264.515403 133.880381 l
264.9106 130.706858 l
265.108199 133.552538 l
265.305798 134.536068 l
265.898593 134.601636 l
266.293791 135.008162 l
266.491389 135.860555 l
266.688988 134.640977 l
267.084185 134.640977 l
267.281784 133.959063 l
267.676981 131.388772 l
267.87458 131.310089 l
268.269777 131.388772 l
268.467376 131.388772 l
268.664974 132.831282 l
268.862573 133.093557 l
269.060172 137.329293 l
269.25777 136.752288 l
269.455369 136.975222 l
269.850566 136.975222 l
270.048165 132.700145 l
270.838559 134.837683 l
271.233756 134.837683 l
271.431355 134.522954 l
271.628954 137.486657 l
272.024151 136.4769 l
272.22175 137.171928 l
272.616947 137.171928 l
273.012144 138.588211 l
273.209743 138.588211 l
273.407341 146.299086 l
273.60494 147.151479 l
274.197736 147.151479 l
274.395334 150.390571 l
274.790532 150.390571 l
274.98813 156.068817 l
275.383328 156.068817 l
275.580926 162.455205 l
275.778525 161.078263 l
275.976123 161.078263 l
276.173722 162.153589 l
276.371321 156.593366 l
276.766518 156.593366 l
276.964117 157.340849 l
277.359314 155.111514 l
277.754511 157.59001 l
278.149708 157.59001 l
278.544906 159.058748 l
278.742504 156.737617 l
279.137702 159.780003 l
279.532899 159.780003 l
279.730497 160.147188 l
279.928096 164.291128 l
280.125695 162.691252 l
280.323293 162.547001 l
280.520892 163.805919 l
280.916089 163.805919 l
281.113688 165.366454 l
281.311286 162.887958 l
281.508885 158.586654 l
281.706484 157.262167 l
281.904082 159.884913 l
282.29928 159.884913 l
282.496878 162.337181 l
282.694477 162.481432 l
282.892075 161.773291 l
283.089674 159.989823 l
283.287273 162.966641 l
283.68247 162.966641 l
283.880069 164.632085 l
284.077667 164.47472 l
284.275266 166.848305 l
284.670463 174.493612 l
285.06566 174.493612 l
285.460858 188.302373 l
285.856055 178.663779 l
286.053654 183.148675 l
286.448851 183.148675 l
286.646449 172.093799 l
286.844048 169.418597 l
287.041647 173.57565 l
287.436844 185.141963 l
287.832041 185.141963 l
288.02964 191.449668 l
288.622436 183.607656 l
288.820034 161.825746 l
289.215232 161.825746 l
289.41283 159.753776 l
289.610429 140.056949 l
289.808027 152.77727 l
290.203225 136.529355 l
290.598422 136.529355 l
290.993619 149.944704 l
291.191218 171.018473 l
291.388816 170.93979 l
291.586415 178.637551 l
291.981612 178.637551 l
292.179211 174.047745 l
292.37681 174.310019 l
292.574408 171.857751 l
292.772007 163.360053 l
292.969605 173.916608 l
293.364803 173.916608 l
293.562401 172.946191 l
293.76 182.178259 l
293.957599 182.42742 l
294.155197 182.047122 l
294.352796 190.662844 l
294.747993 190.662844 l
294.945592 206.727167 l
295.14319 200.629281 l
295.340789 203.474962 l
295.538388 193.783913 l
296.328782 193.783913 l
296.723979 191.030029 l
297.119177 205.245315 l
297.514374 205.245315 l
297.711973 199.908026 l
297.909571 199.658865 l
298.10717 193.521638 l
298.304768 196.616479 l
298.502367 196.459114 l
298.897564 196.459114 l
299.095163 192.131583 l
299.292762 198.124558 l
299.687959 193.508525 l
299.885557 196.800071 l
300.280755 196.800071 l
300.478353 196.459114 l
300.675952 196.367318 l
300.873551 197.940966 l
301.071149 204.025738 l
301.663945 204.025738 l
301.861544 205.009268 l
302.059142 204.83879 l
302.256741 205.691182 l
302.45434 208.405725 l
302.651938 202.268498 l
303.047136 202.268498 l
303.244734 204.537174 l
303.442333 201.048921 l
303.639931 194.321576 l
304.035129 203.265142 l
304.627925 203.265142 l
304.825523 203.763464 l
305.023122 206.792736 l
305.22072 197.141029 l
305.418319 195.750973 l
305.813516 195.750973 l
306.011115 191.397214 l
306.208714 193.206909 l
306.406312 199.278567 l
306.603911 201.521015 l
306.801509 205.769865 l
307.196707 205.769865 l
307.394305 204.52406 l
307.591904 198.478629 l
307.987101 202.124247 l
308.1847 200.852215 l
308.579897 200.852215 l
308.777496 204.851903 l
308.975094 211.959547 l
309.172693 213.808583 l
309.370292 213.0611 l
309.56789 210.569491 l
309.963087 210.569491 l
310.160686 208.222133 l
310.358285 214.516725 l
310.555883 213.598763 l
310.753482 214.372474 l
310.951081 216.051031 l
311.346278 216.051031 l
311.543877 214.857682 l
311.741475 218.791802 l
311.939074 219.224555 l
312.136672 224.876574 l
312.334271 225.138848 l
312.729468 225.138848 l
312.927067 222.778376 l
313.124666 223.932385 l
313.322264 222.463647 l
313.717461 223.98484 l
314.310257 223.893044 l
314.507856 226.069923 l
314.705455 233.125112 l
314.903053 235.708517 l
315.100652 242.501431 l
315.495849 242.501431 l
316.088645 258.919824 l
316.483842 263.312925 l
316.879039 263.312925 l
317.076638 265.214416 l
317.274237 263.548972 l
317.471835 268.623987 l
317.669434 287.048781 l
317.867033 292.032 l
318.26223 292.032 l
318.459828 282.590112 l
318.657427 286.091479 l
318.855026 258.591981 l
319.052624 256.559352 l
319.250223 259.798444 l
319.64542 259.798444 l
319.843019 259.929582 l
320.238216 276.71516 l
320.435815 269.437038 l
320.633413 255.313548 l
321.028611 255.313548 l
321.226209 254.579179 l
321.423808 259.719762 l
321.621407 251.117153 l
321.819005 256.834741 l
322.016604 254.448041 l
322.6094 254.448041 l
323.004597 267.168362 l
323.202196 260.532814 l
323.399794 258.801801 l
323.597393 255.090614 l
324.190189 255.090614 l
324.387787 255.654505 l
324.585386 251.064698 l
324.980583 265.568487 l
325.37578 265.568487 l
325.573379 260.62461 l
325.770978 263.588313 l
325.968576 261.136045 l
326.166175 264.401365 l
326.363774 257.700247 l
326.758971 257.700247 l
326.956569 261.529457 l
327.154168 250.645059 l
327.351767 249.766439 l
327.549365 241.216285 l
327.746964 238.160785 l
328.142161 238.160785 l
328.33976 237.623122 l
328.537358 238.829586 l
328.734957 243.983283 l
328.932556 244.756993 l
329.130154 248.71734 l
329.525352 248.71734 l
329.72295 248.992729 l
330.118148 251.707271 l
330.315746 244.127534 l
330.513345 244.901244 l
330.908542 244.901244 l
331.106141 254.290677 l
331.303739 254.880795 l
331.501338 245.911001 l
331.698937 250.828651 l
331.896535 246.068366 l
332.291732 246.068366 l
332.489331 249.517278 l
332.68693 249.661529 l
332.884528 247.773151 l
333.082127 254.526724 l
333.279726 248.441952 l
333.674923 248.441952 l
333.872521 249.150093 l
334.07012 247.786265 l
334.267719 249.687756 l
334.465317 240.311437 l
334.860515 240.403233 l
335.058113 240.403233 l
335.650909 250.36967 l
335.848508 248.232132 l
336.046106 258.277251 l
336.441304 258.277251 l
336.638902 258.893597 l
336.836501 239.616409 l
337.034099 242.606341 l
337.231698 237.950965 l
337.429297 241.596583 l
337.824494 241.596583 l
338.022093 245.806091 l
338.219691 244.416036 l
338.41729 245.320883 l
339.010086 237.006777 l
339.207684 237.006777 l
339.405283 241.819517 l
339.80048 221.860415 l
339.998079 224.640526 l
340.195678 223.906157 l
340.590875 223.906157 l
340.986072 212.143139 l
341.183671 224.784778 l
341.578868 230.44991 l
341.974065 230.44991 l
342.171664 233.243135 l
342.566861 239.839343 l
342.76446 232.915292 l
342.962058 233.597206 l
343.357256 233.597206 l
343.554854 232.980861 l
343.752453 230.135181 l
343.950051 235.249536 l
344.14765 235.590493 l
344.345249 245.76675 l
344.740446 245.76675 l
344.938045 242.881729 l
345.135643 242.947298 l
345.53084 241.635924 l
346.123636 241.635924 l
346.321235 241.452332 l
346.518834 244.940585 l
346.716432 244.940585 l
346.914031 259.523056 l
347.704425 259.523056 l
347.902024 258.775573 l
348.297221 253.464511 l
348.890017 253.464511 l
349.087616 238.462401 l
349.285214 234.357803 l
349.482813 232.784155 l
349.680412 237.400189 l
349.87801 232.915292 l
350.273208 232.915292 l
350.470806 232.194037 l
350.668405 230.633502 l
350.866003 231.066256 l
351.063602 236.810071 l
351.261201 238.252581 l
351.656398 238.252581 l
351.853997 235.787199 l
352.051595 236.875639 l
352.249194 236.810071 l
352.446792 233.243135 l
352.644391 236.049474 l
353.039588 236.049474 l
353.237187 238.698448 l
353.434786 238.475515 l
353.632384 230.646616 l
353.829983 231.262962 l
354.027581 218.267252 l
354.422779 218.267252 l
354.620377 222.739035 l
354.817976 231.210507 l
355.213173 233.151339 l
355.410772 232.482539 l
355.805969 232.482539 l
356.003568 226.253516 l
356.201166 226.502677 l
356.596364 216.903424 l
356.793962 214.92325 l
357.18916 214.92325 l
357.386758 218.345935 l
357.584357 223.919271 l
358.374751 216.628036 l
358.57235 216.628036 l
358.769949 206.976328 l
359.165146 201.99311 l
359.362744 198.72779 l
359.560343 198.911382 l
359.95554 198.911382 l
360.350738 192.341402 l
360.548336 200.170301 l
360.745935 199.986709 l
360.943533 202.09802 l
361.338731 202.09802 l
361.536329 196.996777 l
361.931527 204.917472 l
362.326724 202.530773 l
362.721921 202.530773 l
362.91952 204.969927 l
363.117118 205.219088 l
363.314717 202.609455 l
363.512316 203.737236 l
363.709914 205.520704 l
364.105111 205.520704 l
364.30271 204.078193 l
364.697907 191.528351 l
364.895506 193.390501 l
365.093105 202.570114 l
365.488302 202.570114 l
365.685901 207.448423 l
365.883499 205.71741 l
366.081098 210.294103 l
366.278696 206.543575 l
367.069091 206.543575 l
367.26669 204.353582 l
367.464288 208.313929 l
367.661887 205.061723 l
367.859485 210.73997 l
368.254683 210.73997 l
368.452281 215.264207 l
368.64988 215.277321 l
368.847479 216.155941 l
369.045077 221.493231 l
369.242676 218.75246 l
369.637873 218.75246 l
370.03307 214.975705 l
370.230669 217.808272 l
370.625866 212.169366 l
371.021063 212.169366 l
371.218662 213.48074 l
371.416261 221.375207 l
371.613859 217.30995 l
372.009057 231.551464 l
372.601852 231.551464 l
372.799451 232.574335 l
372.99705 229.597518 l
373.194648 230.017157 l
373.392247 227.682913 l
373.787444 227.682913 l
374.577839 245.163519 l
374.775437 242.501431 l
375.170635 242.501431 l
375.368233 241.871972 l
375.565832 242.986639 l
375.763431 244.78322 l
375.961029 248.127222 l
376.158628 245.950342 l
376.553825 245.950342 l
376.751424 248.179677 l
376.949022 248.022312 l
377.146621 248.914046 l
377.34422 239.419703 l
377.541818 245.727409 l
378.134614 245.727409 l
378.332213 245.150405 l
378.529811 246.396209 l
378.72741 246.776508 l
378.925009 245.215973 l
379.320206 245.215973 l
379.517804 243.222686 l
379.715403 239.170543 l
379.913002 239.039405 l
380.1106 237.89851 l
380.308199 216.378875 l
380.703396 216.378875 l
380.900995 214.910137 l
381.098593 215.421572 l
381.296192 215.421572 l
381.493791 219.762218 l
381.691389 217.991864 l
382.086587 217.991864 l
382.284185 218.463958 l
382.481784 216.798514 l
382.679383 210.280989 l
382.876981 212.300504 l
383.07458 217.113244 l
383.469777 217.113244 l
383.864974 219.696649 l
384.062573 224.54873 l
384.260172 223.184902 l
384.45777 223.98484 l
384.852967 223.98484 l
385.050566 223.538973 l
385.248165 219.972038 l
385.445763 225.597829 l
385.643362 228.050097 l
385.840961 228.194348 l
386.236158 228.194348 l
386.433756 228.338599 l
386.631355 225.873217 l
386.828954 228.010756 l
387.026552 222.529215 l
387.224151 221.821074 l
387.816947 221.860415 l
388.212144 222.057121 l
388.409743 221.073591 l
388.607341 229.649972 l
389.002539 229.649972 l
389.200137 228.718897 l
389.397736 224.96837 l
389.595334 225.283099 l
389.792933 229.597518 l
389.990532 222.162031 l
390.385729 222.162031 l
390.780926 205.92723 l
390.978525 201.861972 l
391.176123 207.173034 l
391.373722 208.169678 l
391.768919 208.169678 l
392.164117 218.385276 l
392.361715 219.198327 l
392.559314 217.624679 l
392.756913 217.257495 l
393.15211 217.257495 l
393.349708 216.470671 l
393.547307 222.489874 l
393.744906 224.181546 l
393.942504 219.001621 l
394.140103 218.450845 l
394.5353 218.450845 l
394.930497 225.860104 l
395.128096 225.060166 l
395.325695 225.256872 l
395.523293 228.181234 l
396.116089 228.181234 l
396.313688 227.630458 l
396.708885 218.29348 l
396.906484 218.883598 l
397.301681 218.883598 l
397.49928 220.549042 l
398.487273 220.549042 l
398.487273 220.549042 l
stroke
grestore
0.800 setlinewidth
0 setlinejoin
0.000 setgray
gsave
57.6 38.016 m
57.6 304.128 l
stroke
grestore
gsave
414.72 38.016 m
414.72 304.128 l
stroke
grestore
gsave
57.6 38.016 m
414.72 38.016 l
stroke
grestore
gsave
57.6 304.128 m
414.72 304.128 l
stroke
grestore

end
showpage
