%!PS-Adobe-3.0 EPSF-3.0
%%Title: 50-100-GOL-2.eps
%%Creator: Matplotlib v3.5.1, https://matplotlib.org/
%%CreationDate: Sun Feb 20 23:54:16 2022
%%Orientation: portrait
%%BoundingBox: 75 223 537 569
%%HiResBoundingBox: 75.600000 223.200000 536.400000 568.800000
%%EndComments
%%BeginProlog
/mpldict 11 dict def
mpldict begin
/_d { bind def } bind def
/m { moveto } _d
/l { lineto } _d
/r { rlineto } _d
/c { curveto } _d
/cl { closepath } _d
/ce { closepath eofill } _d
/box {
      m
      1 index 0 r
      0 exch r
      neg 0 r
      cl
    } _d
/clipbox {
      box
      clip
      newpath
    } _d
/sc { setcachedevice } _d
%!PS-Adobe-3.0 Resource-Font
%%Creator: Converted from TrueType to Type 3 by Matplotlib.
10 dict begin
/FontName /DejaVuSans def
/PaintType 0 def
/FontMatrix [0.00048828125 0 0 0.00048828125 0 0] def
/FontBBox [-2090 -948 3673 2524] def
/FontType 3 def
/Encoding [/space /dollar /period /zero /one /two /four /five /six /seven /eight /nine /a /c /d /e /f /g /i /l /m /n /o /p /r /s /t /u /v /y] def
/CharStrings 31 dict dup begin
/.notdef 0 def
/space{651 0 0 0 0 0 sc
ce} _d
/dollar{1303 0 170 -301 1133 1556 sc
692 -301 m
592 -301 l
591 0 l
521 1 451 9 381 24 c
311 39 241 62 170 92 c
170 272 l
238 229 307 197 376 175 c
446 154 518 143 592 142 c
592 598 l
445 622 337 663 270 720 c
203 777 170 856 170 956 c
170 1065 206 1150 279 1213 c
352 1276 456 1312 592 1321 c
592 1556 l
692 1556 l
692 1324 l
754 1321 814 1315 872 1304 c
930 1294 987 1280 1042 1262 c
1042 1087 l
987 1115 930 1137 871 1152 c
813 1167 753 1176 692 1179 c
692 752 l
843 729 955 687 1026 627 c
1097 567 1133 485 1133 381 c
1133 268 1095 179 1019 114 c
944 49 835 12 692 2 c
692 -301 l

592 770 m
592 1180 l
515 1171 456 1149 415 1114 c
374 1079 354 1032 354 973 c
354 916 373 871 410 839 c
448 807 509 784 592 770 c

692 578 m
692 145 l
777 156 840 180 883 217 c
926 254 948 302 948 362 c
948 421 927 467 886 502 c
845 537 781 562 692 578 c

ce} _d
/period{651 0 219 0 430 254 sc
219 254 m
430 254 l
430 0 l
219 0 l
219 254 l

ce} _d
/zero{1303 0 135 -29 1167 1520 sc
651 1360 m
547 1360 469 1309 416 1206 c
364 1104 338 950 338 745 c
338 540 364 387 416 284 c
469 182 547 131 651 131 c
756 131 834 182 886 284 c
939 387 965 540 965 745 c
965 950 939 1104 886 1206 c
834 1309 756 1360 651 1360 c

651 1520 m
818 1520 946 1454 1034 1321 c
1123 1189 1167 997 1167 745 c
1167 494 1123 302 1034 169 c
946 37 818 -29 651 -29 c
484 -29 356 37 267 169 c
179 302 135 494 135 745 c
135 997 179 1189 267 1321 c
356 1454 484 1520 651 1520 c

ce} _d
/one{1303 0 225 0 1114 1493 sc
254 170 m
584 170 l
584 1309 l
225 1237 l
225 1421 l
582 1493 l
784 1493 l
784 170 l
1114 170 l
1114 0 l
254 0 l
254 170 l

ce} _d
/two{1303 0 150 0 1098 1520 sc
393 170 m
1098 170 l
1098 0 l
150 0 l
150 170 l
227 249 331 356 463 489 c
596 623 679 709 713 748 c
778 821 823 882 848 932 c
874 983 887 1032 887 1081 c
887 1160 859 1225 803 1275 c
748 1325 675 1350 586 1350 c
523 1350 456 1339 385 1317 c
315 1295 240 1262 160 1217 c
160 1421 l
241 1454 317 1478 388 1495 c
459 1512 523 1520 582 1520 c
737 1520 860 1481 952 1404 c
1044 1327 1090 1223 1090 1094 c
1090 1033 1078 974 1055 919 c
1032 864 991 800 930 725 c
913 706 860 650 771 557 c
682 465 556 336 393 170 c

ce} _d
/four{1303 0 100 0 1188 1493 sc
774 1317 m
264 520 l
774 520 l
774 1317 l

721 1493 m
975 1493 l
975 520 l
1188 520 l
1188 352 l
975 352 l
975 0 l
774 0 l
774 352 l
100 352 l
100 547 l
721 1493 l

ce} _d
/five{1303 0 158 -29 1124 1493 sc
221 1493 m
1014 1493 l
1014 1323 l
406 1323 l
406 957 l
435 967 465 974 494 979 c
523 984 553 987 582 987 c
749 987 881 941 978 850 c
1075 759 1124 635 1124 479 c
1124 318 1074 193 974 104 c
874 15 733 -29 551 -29 c
488 -29 424 -24 359 -13 c
294 -2 227 14 158 35 c
158 238 l
218 205 280 181 344 165 c
408 149 476 141 547 141 c
662 141 754 171 821 232 c
888 293 922 375 922 479 c
922 583 888 665 821 726 c
754 787 662 817 547 817 c
493 817 439 811 385 799 c
332 787 277 768 221 743 c
221 1493 l

ce} _d
/six{1303 0 143 -29 1174 1520 sc
676 827 m
585 827 513 796 460 734 c
407 672 381 587 381 479 c
381 372 407 287 460 224 c
513 162 585 131 676 131 c
767 131 838 162 891 224 c
944 287 971 372 971 479 c
971 587 944 672 891 734 c
838 796 767 827 676 827 c

1077 1460 m
1077 1276 l
1026 1300 975 1318 923 1331 c
872 1344 821 1350 770 1350 c
637 1350 535 1305 464 1215 c
394 1125 354 989 344 807 c
383 865 433 909 492 940 c
551 971 617 987 688 987 c
838 987 956 941 1043 850 c
1130 759 1174 636 1174 479 c
1174 326 1129 203 1038 110 c
947 17 827 -29 676 -29 c
503 -29 371 37 280 169 c
189 302 143 494 143 745 c
143 981 199 1169 311 1309 c
423 1450 573 1520 762 1520 c
813 1520 864 1515 915 1505 c
967 1495 1021 1480 1077 1460 c

ce} _d
/seven{1303 0 168 0 1128 1493 sc
168 1493 m
1128 1493 l
1128 1407 l
586 0 l
375 0 l
885 1323 l
168 1323 l
168 1493 l

ce} _d
/eight{1303 0 139 -29 1163 1520 sc
651 709 m
555 709 479 683 424 632 c
369 581 342 510 342 420 c
342 330 369 259 424 208 c
479 157 555 131 651 131 c
747 131 823 157 878 208 c
933 260 961 331 961 420 c
961 510 933 581 878 632 c
823 683 748 709 651 709 c

449 795 m
362 816 295 857 246 916 c
198 975 174 1048 174 1133 c
174 1252 216 1347 301 1416 c
386 1485 503 1520 651 1520 c
800 1520 916 1485 1001 1416 c
1086 1347 1128 1252 1128 1133 c
1128 1048 1104 975 1055 916 c
1007 857 940 816 854 795 c
951 772 1027 728 1081 662 c
1136 596 1163 515 1163 420 c
1163 275 1119 164 1030 87 c
942 10 816 -29 651 -29 c
486 -29 360 10 271 87 c
183 164 139 275 139 420 c
139 515 166 596 221 662 c
276 728 352 772 449 795 c

375 1114 m
375 1037 399 976 447 933 c
496 890 564 868 651 868 c
738 868 805 890 854 933 c
903 976 928 1037 928 1114 c
928 1191 903 1252 854 1295 c
805 1338 738 1360 651 1360 c
564 1360 496 1338 447 1295 c
399 1252 375 1191 375 1114 c

ce} _d
/nine{1303 0 129 -29 1159 1520 sc
225 31 m
225 215 l
276 191 327 173 379 160 c
431 147 482 141 532 141 c
665 141 767 186 837 275 c
908 365 948 501 958 684 c
919 627 870 583 811 552 c
752 521 686 506 614 506 c
465 506 346 551 259 641 c
172 732 129 855 129 1012 c
129 1165 174 1288 265 1381 c
356 1474 476 1520 627 1520 c
800 1520 931 1454 1022 1321 c
1113 1189 1159 997 1159 745 c
1159 510 1103 322 991 181 c
880 41 730 -29 541 -29 c
490 -29 439 -24 387 -14 c
335 -4 281 11 225 31 c

627 664 m
718 664 789 695 842 757 c
895 819 922 904 922 1012 c
922 1119 895 1204 842 1266 c
789 1329 718 1360 627 1360 c
536 1360 464 1329 411 1266 c
358 1204 332 1119 332 1012 c
332 904 358 819 411 757 c
464 695 536 664 627 664 c

ce} _d
/a{1255 0 123 -29 1069 1147 sc
702 563 m
553 563 450 546 393 512 c
336 478 307 420 307 338 c
307 273 328 221 371 182 c
414 144 473 125 547 125 c
649 125 731 161 792 233 c
854 306 885 402 885 522 c
885 563 l
702 563 l

1069 639 m
1069 0 l
885 0 l
885 170 l
843 102 791 52 728 19 c
665 -13 589 -29 498 -29 c
383 -29 292 3 224 67 c
157 132 123 218 123 326 c
123 452 165 547 249 611 c
334 675 460 707 627 707 c
885 707 l
885 725 l
885 810 857 875 801 921 c
746 968 668 991 567 991 c
503 991 441 983 380 968 c
319 953 261 930 205 899 c
205 1069 l
272 1095 338 1114 401 1127 c
464 1140 526 1147 586 1147 c
748 1147 869 1105 949 1021 c
1029 937 1069 810 1069 639 c

ce} _d
/c{1126 0 113 -29 999 1147 sc
999 1077 m
999 905 l
947 934 895 955 842 969 c
790 984 737 991 684 991 c
565 991 472 953 406 877 c
340 802 307 696 307 559 c
307 422 340 316 406 240 c
472 165 565 127 684 127 c
737 127 790 134 842 148 c
895 163 947 184 999 213 c
999 43 l
948 19 894 1 839 -11 c
784 -23 726 -29 664 -29 c
495 -29 361 24 262 130 c
163 236 113 379 113 559 c
113 742 163 885 263 990 c
364 1095 501 1147 676 1147 c
733 1147 788 1141 842 1129 c
896 1118 948 1100 999 1077 c

ce} _d
/d{1300 0 113 -29 1114 1556 sc
930 950 m
930 1556 l
1114 1556 l
1114 0 l
930 0 l
930 168 l
891 101 842 52 783 19 c
724 -13 654 -29 571 -29 c
436 -29 325 25 240 133 c
155 241 113 383 113 559 c
113 735 155 877 240 985 c
325 1093 436 1147 571 1147 c
654 1147 724 1131 783 1098 c
842 1066 891 1017 930 950 c

303 559 m
303 424 331 317 386 240 c
442 163 519 125 616 125 c
713 125 790 163 846 240 c
902 317 930 424 930 559 c
930 694 902 800 846 877 c
790 954 713 993 616 993 c
519 993 442 954 386 877 c
331 800 303 694 303 559 c

ce} _d
/e{1260 0 113 -29 1151 1147 sc
1151 606 m
1151 516 l
305 516 l
313 389 351 293 419 226 c
488 160 583 127 705 127 c
776 127 844 136 910 153 c
977 170 1043 196 1108 231 c
1108 57 l
1042 29 974 8 905 -7 c
836 -22 765 -29 694 -29 c
515 -29 374 23 269 127 c
165 231 113 372 113 549 c
113 732 162 878 261 985 c
360 1093 494 1147 662 1147 c
813 1147 932 1098 1019 1001 c
1107 904 1151 773 1151 606 c

967 660 m
966 761 937 841 882 901 c
827 961 755 991 664 991 c
561 991 479 962 417 904 c
356 846 320 764 311 659 c
967 660 l

ce} _d
/f{721 0 47 0 760 1556 sc
760 1556 m
760 1403 l
584 1403 l
518 1403 472 1390 446 1363 c
421 1336 408 1288 408 1219 c
408 1120 l
711 1120 l
711 977 l
408 977 l
408 0 l
223 0 l
223 977 l
47 977 l
47 1120 l
223 1120 l
223 1198 l
223 1323 252 1413 310 1470 c
368 1527 460 1556 586 1556 c
760 1556 l

ce} _d
/g{1300 0 113 -426 1114 1147 sc
930 573 m
930 706 902 810 847 883 c
792 956 715 993 616 993 c
517 993 440 956 385 883 c
330 810 303 706 303 573 c
303 440 330 337 385 264 c
440 191 517 154 616 154 c
715 154 792 191 847 264 c
902 337 930 440 930 573 c

1114 139 m
1114 -52 1072 -193 987 -286 c
902 -379 773 -426 598 -426 c
533 -426 472 -421 415 -411 c
358 -402 302 -387 248 -367 c
248 -188 l
302 -217 355 -239 408 -253 c
461 -267 514 -274 569 -274 c
690 -274 780 -242 840 -179 c
900 -116 930 -21 930 106 c
930 197 l
892 131 843 82 784 49 c
725 16 654 0 571 0 c
434 0 323 52 239 157 c
155 262 113 400 113 573 c
113 746 155 885 239 990 c
323 1095 434 1147 571 1147 c
654 1147 725 1131 784 1098 c
843 1065 892 1016 930 950 c
930 1120 l
1114 1120 l
1114 139 l

ce} _d
/i{569 0 193 0 377 1556 sc
193 1120 m
377 1120 l
377 0 l
193 0 l
193 1120 l

193 1556 m
377 1556 l
377 1323 l
193 1323 l
193 1556 l

ce} _d
/l{569 0 193 0 377 1556 sc
193 1556 m
377 1556 l
377 0 l
193 0 l
193 1556 l

ce} _d
/m{1995 0 186 0 1821 1147 sc
1065 905 m
1111 988 1166 1049 1230 1088 c
1294 1127 1369 1147 1456 1147 c
1573 1147 1663 1106 1726 1024 c
1789 943 1821 827 1821 676 c
1821 0 l
1636 0 l
1636 670 l
1636 777 1617 857 1579 909 c
1541 961 1483 987 1405 987 c
1310 987 1234 955 1179 892 c
1124 829 1096 742 1096 633 c
1096 0 l
911 0 l
911 670 l
911 778 892 858 854 909 c
816 961 757 987 678 987 c
584 987 509 955 454 891 c
399 828 371 742 371 633 c
371 0 l
186 0 l
186 1120 l
371 1120 l
371 946 l
413 1015 463 1065 522 1098 c
581 1131 650 1147 731 1147 c
812 1147 881 1126 938 1085 c
995 1044 1038 984 1065 905 c

ce} _d
/n{1298 0 186 0 1124 1147 sc
1124 676 m
1124 0 l
940 0 l
940 670 l
940 776 919 855 878 908 c
837 961 775 987 692 987 c
593 987 514 955 457 892 c
400 829 371 742 371 633 c
371 0 l
186 0 l
186 1120 l
371 1120 l
371 946 l
415 1013 467 1064 526 1097 c
586 1130 655 1147 733 1147 c
862 1147 959 1107 1025 1027 c
1091 948 1124 831 1124 676 c

ce} _d
/o{1253 0 113 -29 1141 1147 sc
627 991 m
528 991 450 952 393 875 c
336 798 307 693 307 559 c
307 425 335 319 392 242 c
449 165 528 127 627 127 c
725 127 803 166 860 243 c
917 320 946 426 946 559 c
946 692 917 797 860 874 c
803 952 725 991 627 991 c

627 1147 m
787 1147 913 1095 1004 991 c
1095 887 1141 743 1141 559 c
1141 376 1095 232 1004 127 c
913 23 787 -29 627 -29 c
466 -29 340 23 249 127 c
158 232 113 376 113 559 c
113 743 158 887 249 991 c
340 1095 466 1147 627 1147 c

ce} _d
/p{1300 0 186 -426 1188 1147 sc
371 168 m
371 -426 l
186 -426 l
186 1120 l
371 1120 l
371 950 l
410 1017 458 1066 517 1098 c
576 1131 647 1147 729 1147 c
865 1147 975 1093 1060 985 c
1145 877 1188 735 1188 559 c
1188 383 1145 241 1060 133 c
975 25 865 -29 729 -29 c
647 -29 576 -13 517 19 c
458 52 410 101 371 168 c

997 559 m
997 694 969 800 913 877 c
858 954 781 993 684 993 c
587 993 510 954 454 877 c
399 800 371 694 371 559 c
371 424 399 317 454 240 c
510 163 587 125 684 125 c
781 125 858 163 913 240 c
969 317 997 424 997 559 c

ce} _d
/r{842 0 186 0 842 1147 sc
842 948 m
821 960 799 969 774 974 c
750 980 723 983 694 983 c
590 983 510 949 454 881 c
399 814 371 717 371 590 c
371 0 l
186 0 l
186 1120 l
371 1120 l
371 946 l
410 1014 460 1064 522 1097 c
584 1130 659 1147 748 1147 c
761 1147 775 1146 790 1144 c
805 1143 822 1140 841 1137 c
842 948 l

ce} _d
/s{1067 0 111 -29 967 1147 sc
907 1087 m
907 913 l
855 940 801 960 745 973 c
689 986 631 993 571 993 c
480 993 411 979 365 951 c
320 923 297 881 297 825 c
297 782 313 749 346 724 c
379 700 444 677 543 655 c
606 641 l
737 613 829 573 884 522 c
939 471 967 400 967 309 c
967 205 926 123 843 62 c
761 1 648 -29 504 -29 c
444 -29 381 -23 316 -11 c
251 0 183 18 111 41 c
111 231 l
179 196 246 169 312 151 c
378 134 443 125 508 125 c
595 125 661 140 708 169 c
755 199 778 241 778 295 c
778 345 761 383 727 410 c
694 437 620 462 506 487 c
442 502 l
328 526 246 563 195 612 c
144 662 119 730 119 817 c
119 922 156 1004 231 1061 c
306 1118 412 1147 549 1147 c
617 1147 681 1142 741 1132 c
801 1122 856 1107 907 1087 c

ce} _d
/t{803 0 55 0 754 1438 sc
375 1438 m
375 1120 l
754 1120 l
754 977 l
375 977 l
375 369 l
375 278 387 219 412 193 c
437 167 488 154 565 154 c
754 154 l
754 0 l
565 0 l
423 0 325 26 271 79 c
217 132 190 229 190 369 c
190 977 l
55 977 l
55 1120 l
190 1120 l
190 1438 l
375 1438 l

ce} _d
/u{1298 0 174 -29 1112 1147 sc
174 442 m
174 1120 l
358 1120 l
358 449 l
358 343 379 263 420 210 c
461 157 523 131 606 131 c
705 131 784 163 841 226 c
899 289 928 376 928 485 c
928 1120 l
1112 1120 l
1112 0 l
928 0 l
928 172 l
883 104 831 53 772 20 c
713 -13 645 -29 567 -29 c
438 -29 341 11 274 91 c
207 171 174 288 174 442 c

637 1147 m
637 1147 l

ce} _d
/v{1212 0 61 0 1151 1120 sc
61 1120 m
256 1120 l
606 180 l
956 1120 l
1151 1120 l
731 0 l
481 0 l
61 1120 l

ce} _d
/y{1212 0 61 -426 1151 1120 sc
659 -104 m
607 -237 556 -324 507 -365 c
458 -406 392 -426 309 -426 c
162 -426 l
162 -272 l
270 -272 l
321 -272 360 -260 388 -236 c
416 -212 447 -155 481 -66 c
514 18 l
61 1120 l
256 1120 l
606 244 l
956 1120 l
1151 1120 l
659 -104 l

ce} _d
end readonly def

/BuildGlyph {
 exch begin
 CharStrings exch
 2 copy known not {pop /.notdef} if
 true 3 1 roll get exec
 end
} _d

/BuildChar {
 1 index /Encoding get exch get
 1 index /BuildGlyph get exec
} _d

FontName currentdict end definefont pop
end
%%EndProlog
mpldict begin
75.6 223.2 translate
460.8 345.6 0 0 clipbox
gsave
0 0 m
460.8 0 l
460.8 345.6 l
0 345.6 l
cl
1.000 setgray
fill
grestore
gsave
57.6 38.016 m
414.72 38.016 l
414.72 304.128 l
57.6 304.128 l
cl
1.000 setgray
fill
grestore
0.800 setlinewidth
1 setlinejoin
0 setlinecap
[] 0 setdash
0.000 setgray
gsave
/o {
gsave
newpath
translate
0.8 setlinewidth
1 setlinejoin

0 setlinecap

0 0 m
0 -3.5 l

gsave
0.000 setgray
fill
grestore
stroke
grestore
} bind def
73.8327 38.016 o
grestore
/DejaVuSans 10.000 selectfont
gsave

70.653040 23.422250 translate
0.000000 rotate
0.000000 0 m /zero glyphshow
grestore
gsave
/o {
gsave
newpath
translate
0.8 setlinewidth
1 setlinejoin

0 setlinecap

0 0 m
0 -3.5 l

gsave
0.000 setgray
fill
grestore
stroke
grestore
} bind def
120.884 38.016 o
grestore
gsave

111.345048 23.422250 translate
0.000000 rotate
0.000000 0 m /two glyphshow
6.362305 0 m /five glyphshow
12.724609 0 m /zero glyphshow
grestore
gsave
/o {
gsave
newpath
translate
0.8 setlinewidth
1 setlinejoin

0 setlinecap

0 0 m
0 -3.5 l

gsave
0.000 setgray
fill
grestore
stroke
grestore
} bind def
167.935 38.016 o
grestore
gsave

158.396432 23.422250 translate
0.000000 rotate
0.000000 0 m /five glyphshow
6.362305 0 m /zero glyphshow
12.724609 0 m /zero glyphshow
grestore
gsave
/o {
gsave
newpath
translate
0.8 setlinewidth
1 setlinejoin

0 setlinecap

0 0 m
0 -3.5 l

gsave
0.000 setgray
fill
grestore
stroke
grestore
} bind def
214.987 38.016 o
grestore
gsave

205.447815 23.422250 translate
0.000000 rotate
0.000000 0 m /seven glyphshow
6.362305 0 m /five glyphshow
12.724609 0 m /zero glyphshow
grestore
gsave
/o {
gsave
newpath
translate
0.8 setlinewidth
1 setlinejoin

0 setlinecap

0 0 m
0 -3.5 l

gsave
0.000 setgray
fill
grestore
stroke
grestore
} bind def
262.038 38.016 o
grestore
gsave

249.319511 23.422250 translate
0.000000 rotate
0.000000 0 m /one glyphshow
6.362305 0 m /zero glyphshow
12.724609 0 m /zero glyphshow
19.086914 0 m /zero glyphshow
grestore
gsave
/o {
gsave
newpath
translate
0.8 setlinewidth
1 setlinejoin

0 setlinecap

0 0 m
0 -3.5 l

gsave
0.000 setgray
fill
grestore
stroke
grestore
} bind def
309.09 38.016 o
grestore
gsave

296.370894 23.422250 translate
0.000000 rotate
0.000000 0 m /one glyphshow
6.362305 0 m /two glyphshow
12.724609 0 m /five glyphshow
19.086914 0 m /zero glyphshow
grestore
gsave
/o {
gsave
newpath
translate
0.8 setlinewidth
1 setlinejoin

0 setlinecap

0 0 m
0 -3.5 l

gsave
0.000 setgray
fill
grestore
stroke
grestore
} bind def
356.141 38.016 o
grestore
gsave

343.422278 23.422250 translate
0.000000 rotate
0.000000 0 m /one glyphshow
6.362305 0 m /five glyphshow
12.724609 0 m /zero glyphshow
19.086914 0 m /zero glyphshow
grestore
gsave
/o {
gsave
newpath
translate
0.8 setlinewidth
1 setlinejoin

0 setlinecap

0 0 m
0 -3.5 l

gsave
0.000 setgray
fill
grestore
stroke
grestore
} bind def
403.192 38.016 o
grestore
gsave

390.473661 23.422250 translate
0.000000 rotate
0.000000 0 m /one glyphshow
6.362305 0 m /seven glyphshow
12.724609 0 m /five glyphshow
19.086914 0 m /zero glyphshow
grestore
gsave

163.120937 9.750375 translate
0.000000 rotate
0.000000 0 m /d glyphshow
6.347656 0 m /a glyphshow
12.475586 0 m /y glyphshow
18.393555 0 m /s glyphshow
23.603516 0 m /space glyphshow
26.782227 0 m /s glyphshow
31.992188 0 m /t glyphshow
35.913086 0 m /a glyphshow
42.041016 0 m /r glyphshow
46.152344 0 m /t glyphshow
50.073242 0 m /i glyphshow
52.851562 0 m /n glyphshow
59.189453 0 m /g glyphshow
65.537109 0 m /space glyphshow
68.715820 0 m /f glyphshow
72.236328 0 m /r glyphshow
76.097656 0 m /o glyphshow
82.215820 0 m /m glyphshow
91.957031 0 m /space glyphshow
95.135742 0 m /two glyphshow
101.498047 0 m /zero glyphshow
107.860352 0 m /one glyphshow
114.222656 0 m /six glyphshow
120.584961 0 m /period glyphshow
123.763672 0 m /nine glyphshow
130.125977 0 m /period glyphshow
133.304688 0 m /one glyphshow
139.666992 0 m /one glyphshow
grestore
gsave
/o {
gsave
newpath
translate
0.8 setlinewidth
1 setlinejoin

0 setlinecap

-0 0 m
-3.5 0 l

gsave
0.000 setgray
fill
grestore
stroke
grestore
} bind def
57.6 67.8755 o
grestore
gsave

25.162500 64.078645 translate
0.000000 rotate
0.000000 0 m /one glyphshow
6.362305 0 m /two glyphshow
12.724609 0 m /zero glyphshow
19.086914 0 m /zero glyphshow
grestore
gsave
/o {
gsave
newpath
translate
0.8 setlinewidth
1 setlinejoin

0 setlinecap

-0 0 m
-3.5 0 l

gsave
0.000 setgray
fill
grestore
stroke
grestore
} bind def
57.6 115.691 o
grestore
gsave

25.162500 111.894311 translate
0.000000 rotate
0.000000 0 m /one glyphshow
6.362305 0 m /four glyphshow
12.724609 0 m /zero glyphshow
19.086914 0 m /zero glyphshow
grestore
gsave
/o {
gsave
newpath
translate
0.8 setlinewidth
1 setlinejoin

0 setlinecap

-0 0 m
-3.5 0 l

gsave
0.000 setgray
fill
grestore
stroke
grestore
} bind def
57.6 163.507 o
grestore
gsave

25.162500 159.709977 translate
0.000000 rotate
0.000000 0 m /one glyphshow
6.362305 0 m /six glyphshow
12.724609 0 m /zero glyphshow
19.086914 0 m /zero glyphshow
grestore
gsave
/o {
gsave
newpath
translate
0.8 setlinewidth
1 setlinejoin

0 setlinecap

-0 0 m
-3.5 0 l

gsave
0.000 setgray
fill
grestore
stroke
grestore
} bind def
57.6 211.323 o
grestore
gsave

25.162500 207.525643 translate
0.000000 rotate
0.000000 0 m /one glyphshow
6.362305 0 m /eight glyphshow
12.724609 0 m /zero glyphshow
19.086914 0 m /zero glyphshow
grestore
gsave
/o {
gsave
newpath
translate
0.8 setlinewidth
1 setlinejoin

0 setlinecap

-0 0 m
-3.5 0 l

gsave
0.000 setgray
fill
grestore
stroke
grestore
} bind def
57.6 259.138 o
grestore
gsave

25.162500 255.341309 translate
0.000000 rotate
0.000000 0 m /two glyphshow
6.362305 0 m /zero glyphshow
12.724609 0 m /zero glyphshow
19.086914 0 m /zero glyphshow
grestore
gsave

19.084375 128.892312 translate
90.000000 rotate
0.000000 0 m /p glyphshow
6.347656 0 m /r glyphshow
10.458984 0 m /i glyphshow
13.237305 0 m /c glyphshow
18.735352 0 m /e glyphshow
24.887695 0 m /space glyphshow
28.066406 0 m /o glyphshow
34.184570 0 m /f glyphshow
37.705078 0 m /space glyphshow
40.883789 0 m /g glyphshow
47.231445 0 m /o glyphshow
53.349609 0 m /l glyphshow
56.127930 0 m /d glyphshow
62.475586 0 m /space glyphshow
65.654297 0 m /i glyphshow
68.432617 0 m /n glyphshow
74.770508 0 m /space glyphshow
77.949219 0 m /dollar glyphshow
grestore
1.500 setlinewidth
2 setlinecap
0.000 0.000 1.000 setrgbcolor
gsave
357.12 266.112 57.6 38.016 clipbox
73.832727 51.859811 m
74.020933 51.393795 l
74.773755 51.48091 l
75.338372 51.435791 l
75.526577 51.694861 l
76.091194 54.586594 l
76.279399 54.844642 l
76.467605 54.857191 l
76.65581 55.265714 l
77.032221 59.064847 l
77.408632 61.693425 l
77.785043 62.150306 l
77.973249 63.253008 l
78.161455 63.391021 l
78.34966 65.295505 l
78.537866 65.915148 l
78.726071 65.885584 l
78.914277 65.698921 l
79.102482 66.420241 l
79.478893 70.113056 l
80.231715 67.718887 l
80.608126 70.130859 l
80.796332 69.319796 l
81.360949 64.582093 l
81.549154 64.189651 l
81.73736 64.720777 l
82.301976 70.263239 l
82.490182 71.172011 l
82.678387 71.40105 l
82.866593 71.449116 l
83.243004 73.54111 l
83.619415 76.36785 l
83.995826 75.20675 l
84.372237 73.953485 l
84.560443 74.152581 l
84.748648 74.003303 l
85.313265 77.245628 l
85.50147 77.679483 l
85.689676 77.338697 l
86.066087 76.324598 l
86.254292 77.211803 l
86.630704 79.838863 l
87.007115 80.832065 l
87.19532 80.994447 l
87.571731 78.353554 l
87.948142 74.95912 l
88.136348 74.283473 l
88.324553 74.386669 l
88.512759 73.566413 l
89.077375 69.307247 l
89.453787 68.402093 l
89.641992 68.438545 l
89.830198 68.593368 l
90.018403 68.234575 l
90.58302 74.028577 l
90.771225 74.726667 l
90.959431 74.986203 l
91.712253 78.998528 l
92.088664 79.060312 l
92.465075 80.690171 l
92.653281 80.690784 l
92.841486 80.206265 l
93.217897 78.7795 l
93.406103 78.514155 l
93.594308 78.622079 l
93.782514 79.676073 l
93.970719 79.675635 l
94.158925 79.865625 l
94.723542 83.305966 l
95.099953 81.160331 l
95.288158 82.296887 l
95.664569 86.670515 l
95.852775 87.682774 l
96.04098 87.916716 l
96.229186 87.921678 l
96.605597 87.065875 l
96.793802 87.050933 l
97.358419 87.367671 l
98.111241 83.097735 l
98.299447 83.119507 l
98.864063 83.630846 l
99.240474 81.388115 l
99.616885 76.23579 l
99.805091 74.924245 l
99.993296 74.409112 l
100.181502 74.528476 l
100.557913 73.435054 l
100.746119 73.201229 l
101.498941 75.314761 l
101.687146 75.562069 l
102.063557 79.526795 l
102.251763 80.336982 l
102.439968 80.461103 l
102.628174 80.234895 l
103.004585 81.385226 l
103.380996 81.189224 l
103.945613 83.104506 l
104.133818 83.289681 l
104.322024 83.099136 l
104.698435 83.247188 l
105.263051 85.458167 l
105.451257 86.101945 l
105.827668 88.831296 l
106.015874 87.965308 l
106.392285 84.569561 l
106.58049 83.817393 l
106.768696 83.648327 l
106.956901 83.266567 l
107.145107 84.019027 l
107.897929 80.956507 l
108.086134 80.362722 l
108.462545 78.429462 l
108.650751 78.660778 l
109.027162 80.469245 l
109.215368 80.917313 l
109.591779 79.669885 l
109.96819 78.83317 l
110.344601 77.996075 l
110.532806 77.827506 l
110.909217 75.209726 l
111.097423 73.790228 l
111.473834 72.604438 l
112.038451 71.114518 l
112.226656 70.733282 l
112.603067 71.608726 l
112.979478 74.046554 l
113.544095 76.094217 l
113.7323 76.954455 l
113.920506 77.222922 l
114.673328 79.884799 l
114.861534 80.370194 l
115.049739 80.126562 l
115.42615 81.808574 l
115.802561 83.162466 l
116.555383 84.293419 l
117.12 81.75972 l
117.308206 81.549826 l
117.496411 81.883549 l
117.684617 82.979976 l
118.061028 86.886245 l
118.249233 87.952088 l
118.437439 88.349287 l
118.625644 88.07653 l
119.002055 85.772366 l
119.190261 86.282508 l
119.566672 89.650092 l
119.754877 90.502247 l
119.943083 90.505224 l
120.319494 88.870432 l
121.260522 88.202635 l
121.636933 92.912292 l
122.201549 96.020894 l
122.389755 96.556047 l
123.330783 102.165983 l
123.707194 103.031241 l
123.895399 102.068945 l
124.27181 99.200939 l
124.648221 97.834936 l
125.024632 97.394164 l
125.589249 94.696449 l
125.96566 91.509925 l
126.153866 90.742347 l
126.342071 90.45599 l
126.530277 90.382941 l
126.718482 90.825989 l
127.283099 88.044048 l
127.471304 87.67577 l
127.65951 87.672122 l
128.224126 85.447806 l
128.412332 85.373824 l
128.976949 82.801631 l
129.165154 83.925141 l
129.541565 88.142457 l
130.294387 91.463113 l
130.482593 91.985163 l
131.235415 87.67218 l
131.611826 87.322347 l
131.988237 86.289104 l
132.364648 85.676787 l
132.929265 83.801954 l
133.305676 84.397724 l
133.682087 85.89065 l
134.058498 84.677573 l
134.246704 84.089653 l
134.434909 84.128731 l
134.623115 84.818241 l
134.999526 87.198781 l
135.187731 87.780425 l
135.375937 87.973713 l
135.564142 87.96919 l
136.128759 86.641797 l
136.316964 86.763788 l
136.693375 87.684175 l
137.069787 88.122729 l
137.257992 88.03538 l
137.446198 88.199717 l
138.010814 89.372753 l
138.19902 89.459139 l
138.387225 89.832728 l
138.575431 89.941732 l
138.951842 88.22324 l
139.328253 86.270689 l
139.704664 85.655307 l
140.081075 83.973646 l
140.645692 80.352479 l
141.022103 79.531493 l
141.398514 78.17264 l
141.586719 78.594996 l
141.96313 80.301085 l
142.339542 81.265745 l
143.092364 83.076693 l
143.468775 83.173527 l
143.845186 83.173527 l
144.033391 84.408785 l
144.409802 88.354307 l
144.598008 89.310941 l
144.786213 89.580283 l
144.974419 89.585741 l
145.539036 94.67494 l
145.727241 95.493737 l
146.291858 96.195942 l
146.480063 95.67468 l
146.668269 95.817858 l
147.04468 97.270393 l
147.985708 100.333001 l
148.362119 100.103261 l
148.73853 100.257676 l
149.114941 99.991106 l
149.679557 104.524518 l
149.867763 104.899041 l
150.055968 104.83358 l
150.432379 103.308055 l
150.808791 102.451435 l
151.373407 99.620289 l
151.749818 99.613635 l
151.938024 98.989527 l
152.50264 95.53045 l
152.690846 95.248967 l
153.067257 96.848767 l
153.255462 98.467799 l
153.631874 103.095476 l
153.820079 104.190123 l
154.008285 104.539285 l
154.19649 104.065418 l
154.572901 101.36998 l
154.949312 99.046408 l
155.137518 98.685339 l
155.325723 98.612962 l
155.513929 99.073695 l
155.702134 98.880845 l
155.89034 97.86342 l
156.078545 96.058658 l
156.266751 95.847801 l
157.207779 98.478509 l
157.395984 98.150214 l
157.772395 97.026704 l
158.148806 96.681511 l
158.525217 97.154736 l
158.713423 96.976886 l
159.27804 94.437496 l
159.654451 94.505612 l
159.842656 95.385492 l
160.030862 96.88408 l
160.407273 101.658204 l
160.595478 103.275368 l
160.783684 103.225667 l
161.3483 99.278511 l
161.536506 99.41308 l
161.912917 99.948818 l
162.101123 99.951415 l
162.289328 100.278192 l
162.665739 99.48715 l
163.04215 99.448889 l
163.230356 99.565539 l
163.418561 100.177302 l
163.606767 101.76677 l
163.794972 102.33534 l
163.983178 102.542257 l
164.547794 103.728631 l
164.736 103.238742 l
165.112411 103.577864 l
165.300617 102.671836 l
165.677028 98.932676 l
165.865233 97.995625 l
166.053439 98.098062 l
166.241644 97.865141 l
166.806261 96.285392 l
167.559083 93.72925 l
167.935494 94.207873 l
168.311905 93.724084 l
168.500111 93.450481 l
168.688316 93.385429 l
168.876522 93.994827 l
169.441138 96.799679 l
169.629344 96.837093 l
169.817549 96.721494 l
170.382166 90.354399 l
170.570372 89.350602 l
170.946783 88.966215 l
171.134988 88.941058 l
171.323194 89.335193 l
171.511399 89.385157 l
171.88781 91.720548 l
172.076016 91.697609 l
172.640632 90.683569 l
172.828838 91.116578 l
173.017043 91.938643 l
173.205249 91.700557 l
173.58166 90.847498 l
173.958071 90.382503 l
174.334482 91.022429 l
174.899099 91.553234 l
175.087304 91.646945 l
175.27551 91.598003 l
175.463715 91.309807 l
175.651921 91.60562 l
176.592949 86.841593 l
176.781154 86.231261 l
177.157565 84.472465 l
177.345771 84.206157 l
177.722182 84.185962 l
177.910387 83.478941 l
178.475004 80.313488 l
178.851415 79.361115 l
179.039621 79.193626 l
179.227826 79.459933 l
179.604237 80.622346 l
179.792443 80.89414 l
180.168854 82.061077 l
180.357059 81.746557 l
180.73347 79.928167 l
181.298087 76.981013 l
182.050909 73.594547 l
182.239115 73.509037 l
182.42732 73.55471 l
182.803731 74.27714 l
182.991937 74.380015 l
183.180142 74.712687 l
183.368348 74.704837 l
184.12117 72.906379 l
184.497581 72.524998 l
185.250403 70.689418 l
185.81502 70.393926 l
186.191431 70.807265 l
187.132458 65.745499 l
187.50887 63.324743 l
187.697075 63.224845 l
188.261692 65.36152 l
188.449897 65.978828 l
188.638103 66.095682 l
188.826308 66.483192 l
189.202719 68.714687 l
189.390925 68.946411 l
189.767336 68.685386 l
189.955542 68.116145 l
190.331953 67.835187 l
190.520158 67.008015 l
190.708364 66.723905 l
191.084775 67.62433 l
191.27298 67.500005 l
191.461186 66.63104 l
191.649391 66.299068 l
192.214008 69.678618 l
192.402213 69.362755 l
192.778625 68.178366 l
192.96683 68.114277 l
193.531447 69.548806 l
193.907858 68.430548 l
194.096063 68.18073 l
194.284269 67.485121 l
194.66068 65.053129 l
194.848885 64.41583 l
195.037091 64.360205 l
195.225296 64.671631 l
195.601708 67.2937 l
195.978119 68.397103 l
196.35453 68.526331 l
196.919146 64.984692 l
197.671968 70.145889 l
198.048379 73.792329 l
198.236585 74.578585 l
198.801202 73.315573 l
198.989407 73.576336 l
199.177613 73.511138 l
199.554024 74.921151 l
199.930435 75.140589 l
200.11864 75.042208 l
200.306846 75.294828 l
200.495051 75.292902 l
200.683257 74.761659 l
200.871462 73.370907 l
201.059668 73.497742 l
201.624285 75.194142 l
202.000696 75.305188 l
202.188901 75.145813 l
202.941723 72.408085 l
203.50634 68.680279 l
204.070957 70.303805 l
204.447368 72.160631 l
205.011984 73.726548 l
205.388395 74.120099 l
205.953012 73.187162 l
206.141217 72.266775 l
206.329423 72.561303 l
206.705834 73.656038 l
206.89404 73.228692 l
207.082245 73.576686 l
207.458656 75.910589 l
207.835067 77.455492 l
208.587889 78.363652 l
208.776095 78.522502 l
209.340711 77.984984 l
209.528917 77.307265 l
209.717123 77.219945 l
209.905328 77.726061 l
210.469945 81.446192 l
210.65815 81.898433 l
211.034561 81.749534 l
211.222767 82.481916 l
211.599178 85.602688 l
211.787383 86.412817 l
212.540206 87.528477 l
212.728411 88.247521 l
212.916617 87.991632 l
213.293028 89.175059 l
213.669439 89.094101 l
214.04585 89.505221 l
214.234055 89.727694 l
214.422261 89.555856 l
214.610466 89.631385 l
214.986877 90.024236 l
215.551494 89.550457 l
216.304316 87.147095 l
216.868933 87.723837 l
217.057138 88.663602 l
218.186372 97.16422 l
218.374577 97.063564 l
218.750988 95.51723 l
219.315605 94.438167 l
219.50381 94.269482 l
219.692016 94.623546 l
220.068427 94.174983 l
220.633043 94.605948 l
220.821249 94.597806 l
221.009455 94.998361 l
221.385866 97.931711 l
221.574071 100.067131 l
221.762277 100.480849 l
222.138688 99.694038 l
222.326893 99.228606 l
222.515099 99.211008 l
222.89151 98.121818 l
223.267921 96.784824 l
223.456126 96.534451 l
223.644332 95.84249 l
224.208949 88.740941 l
224.397154 88.180251 l
224.773565 88.2125 l
225.149976 89.772229 l
225.338182 90.414723 l
225.526387 91.646099 l
225.714593 91.655963 l
226.091004 90.949614 l
226.279209 91.364411 l
226.655621 92.973783 l
226.843826 93.103858 l
227.596648 94.257312 l
227.973059 95.601193 l
228.161265 95.255563 l
228.725881 90.930615 l
229.478704 89.716399 l
229.855115 88.23503 l
230.04332 87.846586 l
230.231526 88.125501 l
230.796142 92.214785 l
230.984348 92.283339 l
231.548964 91.108435 l
231.925375 88.272357 l
232.301787 86.152259 l
232.489992 85.899931 l
232.678198 85.875941 l
233.054609 85.023495 l
233.242814 85.632339 l
233.619225 87.461528 l
233.807431 87.850789 l
234.183842 87.933847 l
234.560253 87.386553 l
234.748458 87.491967 l
235.313075 85.016782 l
235.501281 85.361712 l
236.254103 88.316513 l
236.630514 88.614573 l
236.818719 88.637541 l
237.383336 91.035066 l
237.571542 90.813877 l
237.947953 89.925389 l
238.700775 85.522635 l
239.453597 87.699205 l
239.641802 87.258259 l
240.018213 87.09754 l
240.58283 90.35685 l
240.771036 90.685758 l
241.147447 94.897763 l
241.523858 99.381503 l
241.712063 100.171319 l
242.088474 100.891589 l
242.27668 100.299964 l
242.464885 99.204791 l
242.653091 98.993672 l
243.217708 100.469467 l
243.405913 101.856104 l
243.594119 102.298247 l
243.97053 102.339251 l
244.723352 112.815475 l
244.911557 115.054908 l
245.099763 118.973931 l
245.287968 119.650862 l
245.852585 117.035885 l
246.040791 117.569404 l
246.417202 115.316459 l
246.793613 118.1127 l
247.170024 120.065251 l
247.546435 116.574363 l
247.73464 115.377396 l
247.922846 116.133183 l
248.299257 119.010732 l
248.487462 119.686993 l
248.675668 119.274442 l
249.240285 118.967627 l
249.804901 120.571483 l
250.181312 123.530866 l
250.369518 123.535681 l
250.557723 123.314872 l
250.934134 121.197867 l
251.12234 120.636039 l
251.498751 121.01742 l
251.875162 122.486153 l
252.439779 118.540105 l
252.627984 121.110052 l
253.380806 138.951739 l
253.569012 140.310242 l
253.757217 140.658061 l
253.945423 140.578972 l
254.133628 141.376901 l
254.321834 141.534234 l
254.886451 144.945624 l
255.074656 145.416718 l
255.262862 145.425853 l
255.639273 142.78458 l
256.015684 142.12084 l
256.203889 142.133389 l
256.392095 142.033083 l
256.5803 142.16272 l
257.144917 150.248803 l
257.333123 150.346395 l
257.709534 148.96294 l
258.085945 148.484958 l
258.27415 149.33755 l
258.462356 150.986613 l
258.650561 150.792449 l
259.215178 148.38649 l
259.591589 144.08308 l
259.779794 141.526851 l
259.968 142.121774 l
260.344411 144.803759 l
260.532617 144.280133 l
260.909028 141.934877 l
261.850055 141.770628 l
262.414672 147.128118 l
262.602877 146.210212 l
263.3557 139.79721 l
263.543905 137.434152 l
263.732111 137.478483 l
264.296727 145.301907 l
264.861344 142.443998 l
265.049549 142.68366 l
265.614166 140.444023 l
265.802372 138.774794 l
266.178783 138.317592 l
266.366988 138.117358 l
266.931605 139.459284 l
267.308016 139.307321 l
267.496221 138.744968 l
267.684427 139.03687 l
268.060838 140.248313 l
268.249043 140.572551 l
268.437249 142.118826 l
268.625455 141.716345 l
269.001866 139.515464 l
269.566482 143.855705 l
269.754688 144.085152 l
269.942893 143.944396 l
270.50751 138.470547 l
270.695715 137.694301 l
270.883921 137.540412 l
271.636743 130.970019 l
272.20136 132.983332 l
272.765976 133.321316 l
272.954182 133.724177 l
273.142387 133.655885 l
273.707004 132.932055 l
274.459826 130.098778 l
274.836237 130.036936 l
275.212648 131.089412 l
275.589059 134.283408 l
275.96547 135.396062 l
276.153676 135.386868 l
276.530087 132.739204 l
276.718292 132.30389 l
276.906498 132.494639 l
277.282909 133.235047 l
277.471115 133.330684 l
277.65932 133.246604 l
278.035731 134.865694 l
278.412142 135.347791 l
278.788553 135.536672 l
278.976759 135.800294 l
279.35317 136.668675 l
279.917787 144.334095 l
280.105992 145.177319 l
280.294198 145.233382 l
280.858814 148.104336 l
281.235225 152.219156 l
281.423431 153.429198 l
281.799842 157.772999 l
282.176253 159.298058 l
282.74087 154.870585 l
283.117281 154.585045 l
283.305486 153.985511 l
283.493692 153.771502 l
284.434719 156.157907 l
284.622925 155.753996 l
284.81113 155.690286 l
285.375747 157.397601 l
285.563953 157.654131 l
285.940364 160.127915 l
286.693186 161.359554 l
286.881391 162.008439 l
287.069597 161.672439 l
287.634213 156.701583 l
287.822419 156.94358 l
288.010625 157.40478 l
288.387036 159.348372 l
288.575241 159.676666 l
288.763447 159.061723 l
288.951652 159.341338 l
289.704474 161.725701 l
289.89268 162.852392 l
290.833708 174.228634 l
291.021913 179.01128 l
291.210119 180.968063 l
291.398324 179.773926 l
291.58653 179.360383 l
291.774735 179.5108 l
291.962941 180.166076 l
292.527557 170.105408 l
292.715763 172.425711 l
293.092174 180.60533 l
293.280379 182.18724 l
293.656791 185.897827 l
294.033202 182.90033 l
294.409613 165.955333 l
295.35064 145.157853 l
295.727051 137.682365 l
295.915257 135.481309 l
296.103462 136.749107 l
296.291668 141.264571 l
296.856285 169.470356 l
297.04449 173.876495 l
297.232696 175.451108 l
297.609107 172.986635 l
297.797312 171.229619 l
297.985518 167.096879 l
298.173723 167.406233 l
298.550134 170.514398 l
298.73834 171.112502 l
299.867573 187.335157 l
300.243984 197.15631 l
300.43219 199.567376 l
301.185012 191.080679 l
301.373217 191.14074 l
301.561423 190.546926 l
301.749628 189.582967 l
301.937834 191.508785 l
302.314245 200.037098 l
302.502451 202.158014 l
302.878862 198.765973 l
303.255273 193.786566 l
303.443478 193.481181 l
303.631684 193.581896 l
303.819889 193.848437 l
304.008095 192.270088 l
304.1963 192.911006 l
304.384506 193.151923 l
304.572711 192.466936 l
305.325534 194.056784 l
305.513739 193.885267 l
305.701945 194.341944 l
306.266561 200.944265 l
306.642972 201.764696 l
307.019383 202.509686 l
307.207589 203.832876 l
307.772206 200.140148 l
307.960411 200.418013 l
308.148617 199.996415 l
308.336822 196.862511 l
308.525028 196.092744 l
309.089644 200.451371 l
309.466055 200.824901 l
309.654261 202.089868 l
310.595289 191.545236 l
310.783494 190.691622 l
311.159905 195.472634 l
311.536316 201.766768 l
311.724522 202.849333 l
311.912727 202.745845 l
312.289138 198.612872 l
312.665549 198.458866 l
312.853755 198.522547 l
313.04196 198.328646 l
313.230166 199.650114 l
313.794783 209.935823 l
313.982988 209.751115 l
314.547605 207.137392 l
315.300427 212.348961 l
315.676838 213.427148 l
315.865043 213.128884 l
316.241455 215.409788 l
316.617866 220.928931 l
316.806071 222.276782 l
316.994277 222.808988 l
317.370688 221.502083 l
317.558893 220.851476 l
317.747099 220.646544 l
318.311715 221.550617 l
318.499921 221.579597 l
318.688126 222.33839 l
319.064538 229.623246 l
319.440949 238.402225 l
319.629154 240.069702 l
319.81736 242.94375 l
320.381976 257.57145 l
320.758387 261.364922 l
321.323004 262.848071 l
321.511209 264.593267 l
322.075826 289.425778 l
322.264032 292.032 l
322.640443 286.334336 l
323.205059 258.868725 l
323.393265 257.274791 l
323.58147 258.159632 l
323.769676 258.502636 l
323.957881 261.300308 l
324.146087 267.594558 l
324.334292 269.944775 l
324.898909 254.692734 l
325.087115 253.331721 l
325.27532 255.161055 l
325.463526 253.621376 l
325.651731 253.746722 l
326.028142 253.070667 l
326.216348 253.108402 l
326.404553 252.846122 l
326.96917 261.761333 l
327.157375 260.310053 l
327.533787 254.685262 l
327.721992 253.78618 l
327.910198 253.496204 l
328.098403 253.749641 l
328.286609 252.228172 l
328.474814 254.268364 l
328.851225 262.189234 l
329.039431 264.162769 l
329.415842 261.859509 l
329.604047 260.89911 l
329.792253 261.496572 l
330.35687 256.759629 l
330.545075 257.608281 l
330.921486 251.558449 l
331.486103 237.617253 l
331.674308 236.232892 l
331.862514 235.862601 l
332.050719 236.147265 l
332.991747 246.668871 l
333.368158 247.797343 l
333.556364 248.85265 l
334.12098 243.355308 l
334.309186 242.883717 l
334.685597 250.140527 l
335.250213 246.550441 l
335.626625 244.621034 l
335.81483 245.460143 l
336.003036 246.807089 l
336.191241 246.923359 l
336.379447 249.093392 l
336.567652 248.804729 l
336.944063 247.183567 l
337.320474 246.677656 l
337.50868 247.055623 l
338.073296 239.075975 l
338.261502 238.292929 l
338.637913 241.394381 l
339.578941 256.08547 l
339.767146 257.182744 l
340.331763 239.454992 l
340.519968 238.193877 l
340.896379 239.303438 l
341.272791 242.181892 l
341.460996 242.958838 l
341.649202 242.060689 l
342.025613 236.625743 l
342.213818 235.239486 l
342.402024 236.646172 l
342.590229 234.963022 l
342.96664 224.356869 l
343.154846 221.898319 l
343.343051 221.442255 l
343.531257 221.605483 l
343.907668 214.625459 l
344.095874 216.061767 l
344.66049 227.309043 l
344.848696 228.032902 l
345.036901 229.251321 l
345.413312 234.874039 l
345.601518 234.301792 l
345.977929 231.750436 l
346.166134 231.300297 l
346.35434 231.194591 l
346.542545 229.917658 l
346.730751 230.65468 l
346.918957 231.922274 l
347.295368 240.906418 l
347.483573 243.159364 l
347.671779 242.935753 l
348.236395 240.212793 l
348.612806 239.69302 l
348.989217 239.591575 l
349.365628 242.037021 l
349.930245 257.068925 l
350.118451 258.292888 l
350.494862 257.848381 l
350.683067 256.745941 l
351.059478 252.927021 l
351.247684 252.055839 l
351.435889 251.820992 l
352.000506 233.930829 l
352.376917 232.359456 l
353.317945 229.062585 l
354.070767 236.132586 l
354.447178 234.793023 l
354.635383 234.609979 l
354.823589 233.300593 l
355.011794 233.165002 l
355.388206 233.68393 l
355.764617 235.77391 l
356.141028 230.988783 l
356.517439 219.527177 l
356.705644 216.786648 l
356.89385 217.321773 l
357.458466 229.49536 l
357.646672 230.465069 l
358.023083 230.333243 l
358.5877 222.34735 l
358.964111 215.206899 l
359.152316 213.217313 l
359.340522 212.531714 l
359.528727 213.638035 l
359.905138 218.871901 l
360.093344 218.551369 l
360.469755 215.000507 l
360.65796 214.277785 l
361.598988 197.318633 l
361.787194 196.457227 l
361.975399 196.238578 l
362.35181 192.481178 l
362.540016 193.53631 l
363.104632 198.910115 l
363.292838 199.306205 l
363.481043 197.654895 l
363.669249 197.639253 l
364.04566 200.497774 l
364.233866 200.758857 l
364.610277 199.974673 l
364.986688 201.726173 l
365.363099 201.163527 l
365.927715 202.783668 l
366.115921 202.407336 l
366.304126 199.452565 l
366.680538 191.780316 l
367.245154 199.236746 l
367.43336 201.76277 l
367.621565 202.783406 l
367.809771 204.899039 l
367.997976 205.180843 l
368.562593 203.918415 l
368.750798 203.945031 l
368.939004 203.155098 l
369.127209 203.81805 l
369.315415 203.549846 l
370.821059 216.418108 l
371.009265 216.70143 l
371.19747 216.541266 l
372.138498 211.940584 l
372.514909 209.79066 l
372.703115 210.079001 l
373.832348 228.930147 l
374.208759 229.701343 l
374.58517 228.288908 l
374.961581 226.008412 l
375.149787 225.55372 l
375.337992 226.926844 l
375.714403 233.65673 l
376.090814 240.389943 l
376.27902 240.952209 l
376.467225 240.803135 l
376.655431 240.288527 l
376.843636 240.504287 l
377.031842 241.433663 l
377.408253 244.415225 l
377.596458 244.517721 l
377.784664 244.293585 l
378.349281 246.451506 l
378.537486 243.377575 l
378.725692 242.478288 l
378.913897 242.705226 l
379.290308 243.933508 l
379.478514 243.654185 l
379.666719 243.911562 l
379.854925 244.373258 l
380.231336 243.79068 l
380.419542 243.461451 l
380.607747 242.583294 l
381.172364 236.888548 l
381.73698 215.495824 l
381.925186 213.170034 l
382.301597 212.873433 l
382.678008 215.382647 l
382.866213 215.71065 l
383.242625 215.675483 l
383.43083 215.249012 l
383.807241 210.509646 l
383.995447 211.391101 l
384.371858 214.271832 l
384.748269 215.9987 l
385.12468 220.144543 l
385.312885 221.132288 l
385.501091 221.513057 l
385.877502 221.449726 l
386.065708 219.978951 l
386.253913 220.677362 l
386.81853 225.715489 l
387.194941 225.950102 l
387.383146 225.09357 l
387.571352 225.035405 l
388.135968 220.049227 l
388.324174 219.413212 l
388.700585 219.491514 l
388.888791 219.570224 l
389.076996 219.262417 l
389.641613 226.723342 l
389.829818 227.113449 l
390.206229 223.905737 l
390.394435 224.694619 l
390.959051 220.352161 l
391.335462 210.338976 l
391.523668 204.484329 l
391.711874 202.765662 l
392.27649 205.54378 l
393.029312 215.72781 l
393.782134 214.483243 l
394.158545 218.975739 l
394.346751 218.942118 l
394.911368 215.982999 l
395.099573 217.117803 l
395.475984 221.710109 l
396.228806 225.663044 l
396.417012 225.907959 l
396.605217 225.679825 l
396.793423 223.610041 l
397.169834 217.676246 l
397.35804 216.527345 l
397.546245 216.342842 l
397.922656 217.61849 l
398.299067 218.126561 l
398.487273 218.11302 l
398.487273 218.11302 l
stroke
grestore
1.000 0.647 0.000 setrgbcolor
gsave
357.12 266.112 57.6 38.016 clipbox
73.832727 50.112 m
74.020933 52.012673 l
74.209138 51.462793 l
75.150166 51.462793 l
75.338372 52.239797 l
75.526577 54.941382 l
76.279399 54.941382 l
76.467605 56.160682 l
76.844016 62.304995 l
77.032221 62.101778 l
77.408632 62.101778 l
77.596838 62.735336 l
77.785043 65.365197 l
77.973249 62.74729 l
78.161455 69.082865 l
78.34966 65.568414 l
78.726071 65.568414 l
79.102482 71.712727 l
79.290688 71.401925 l
79.478893 66.931161 l
79.667099 68.007013 l
80.04351 68.007013 l
80.231715 70.947676 l
80.419921 71.892036 l
80.608126 66.680128 l
80.984538 64.253483 l
81.360949 64.253483 l
81.549154 66.154156 l
81.73736 70.935723 l
81.925565 68.748156 l
82.113771 73.123289 l
82.301976 71.509511 l
82.678387 71.509511 l
82.866593 74.270865 l
83.054798 75.286948 l
83.243004 77.940718 l
83.431209 76.673602 l
83.619415 74.641437 l
83.995826 74.641437 l
84.184032 73.195013 l
84.372237 75.227179 l
84.560443 73.709031 l
84.748648 77.570146 l
84.936854 77.904856 l
85.313265 77.904856 l
85.689676 75.81292 l
85.877881 76.637741 l
86.254292 80.702072 l
86.630704 80.702072 l
86.818909 81.5508 l
87.007115 81.168275 l
87.19532 77.534284 l
87.383526 76.984404 l
87.571731 74.211096 l
87.948142 74.211096 l
88.136348 75.274994 l
88.512759 70.075041 l
89.077375 68.509077 l
89.265581 68.509077 l
89.453787 68.879649 l
89.641992 68.97528 l
89.830198 67.588626 l
90.018403 74.892469 l
90.394814 74.952238 l
90.58302 74.952238 l
90.771225 75.621658 l
91.147636 79.602312 l
91.335842 79.231741 l
91.900458 79.231741 l
92.088664 81.634478 l
92.27687 81.562754 l
92.465075 80.092423 l
92.653281 79.542542 l
92.841486 78.598183 l
93.217897 78.598183 l
93.406103 79.171971 l
93.594308 81.658386 l
93.782514 78.825307 l
93.970719 80.427132 l
94.158925 83.762275 l
94.535336 83.762275 l
94.723542 79.84139 l
94.911747 80.522764 l
95.288158 87.993961 l
96.04098 87.993961 l
96.229186 86.750754 l
96.417391 86.774662 l
96.605597 87.503851 l
96.982008 87.444081 l
97.170213 87.444081 l
97.358419 84.467556 l
97.546625 84.085031 l
97.73483 82.662515 l
97.923036 82.889639 l
98.111241 83.762275 l
98.675858 83.762275 l
99.42868 74.581667 l
99.805091 74.581667 l
99.993296 75.000054 l
100.181502 72.752718 l
100.369708 73.362368 l
100.557913 73.410183 l
100.746119 75.346718 l
101.12253 75.346718 l
101.498941 76.051999 l
101.687146 81.598616 l
101.875352 81.239999 l
102.063557 80.307593 l
102.439968 80.307593 l
102.628174 81.94528 l
102.816379 82.268035 l
103.004585 80.439086 l
103.192791 81.491031 l
103.380996 83.427565 l
103.945613 83.427565 l
104.133818 82.865731 l
104.322024 83.702505 l
104.510229 83.37975 l
104.698435 85.794441 l
105.074846 85.794441 l
105.263051 86.989832 l
105.451257 90.229344 l
105.639462 89.631648 l
105.827668 85.352146 l
106.015874 83.786183 l
106.58049 83.750321 l
106.768696 82.698376 l
106.956901 85.925934 l
107.145107 80.917243 l
107.333312 81.120459 l
107.709723 81.120459 l
108.086134 77.964625 l
108.27434 78.036349 l
108.650751 81.192183 l
109.027162 81.192183 l
109.215368 78.693814 l
109.403573 79.721851 l
109.591779 79.35128 l
109.779984 78.275427 l
109.96819 77.976579 l
110.344601 77.976579 l
110.721012 73.55363 l
110.909217 72.72881 l
111.097423 73.82857 l
111.285628 71.617096 l
111.66204 71.617096 l
111.850245 70.720552 l
112.038451 70.517335 l
112.226656 72.370193 l
112.414862 72.3941 l
112.603067 75.119593 l
112.979478 75.119593 l
113.167684 76.028091 l
113.355889 77.617962 l
113.544095 77.952672 l
113.7323 77.127851 l
113.920506 79.482773 l
114.296917 79.482773 l
114.485123 81.156321 l
114.673328 80.881381 l
114.861534 79.375188 l
115.049739 82.483206 l
115.237945 83.391704 l
115.614356 83.391704 l
115.990767 84.838127 l
116.367178 84.156754 l
116.555383 81.67034 l
117.12 81.742063 l
117.308206 82.650561 l
117.872822 88.460164 l
118.249233 88.460164 l
118.437439 87.551666 l
118.625644 84.682727 l
118.81385 85.268468 l
119.190261 90.779224 l
119.566672 90.779224 l
119.754877 90.085897 l
119.943083 88.005915 l
120.319494 89.153491 l
120.5077 88.268901 l
121.072316 88.268901 l
121.260522 96.242164 l
121.448727 93.815519 l
121.636933 94.592523 l
121.825138 96.660551 l
122.201549 96.660551 l
122.389755 99.696846 l
122.766166 100.832468 l
123.142577 102.840726 l
123.518988 102.840726 l
123.895399 98.118929 l
124.083605 98.369961 l
124.460016 97.246293 l
124.836427 97.246293 l
125.024632 94.676201 l
125.212838 94.078505 l
125.401043 94.484938 l
125.589249 89.894634 l
125.777455 90.540146 l
126.153866 90.540146 l
126.342071 90.181528 l
126.530277 91.795307 l
126.718482 87.611436 l
126.906688 87.802699 l
127.283099 87.742929 l
127.471304 87.742929 l
127.65951 85.495593 l
127.847715 84.909851 l
128.035921 85.627086 l
128.224126 85.686855 l
128.412332 82.650561 l
128.788743 82.650561 l
129.165154 89.727279 l
129.35336 89.213261 l
129.541565 89.452339 l
129.729771 91.687722 l
130.106182 91.687722 l
130.294387 92.572311 l
130.482593 88.137408 l
130.670798 87.049602 l
130.859004 88.531888 l
131.047209 87.28868 l
131.423621 87.28868 l
131.611826 85.782487 l
131.800032 86.153058 l
132.176443 85.507547 l
132.364648 83.762275 l
132.741059 83.762275 l
132.929265 85.08916 l
133.11747 84.646865 l
133.305676 86.296505 l
133.493881 86.810524 l
133.682087 83.941584 l
134.058498 83.941584 l
134.434909 85.949842 l
134.623115 87.9581 l
134.81132 88.149362 l
135.187731 88.029823 l
135.375937 88.029823 l
135.752348 85.710763 l
135.940553 87.527759 l
136.128759 87.001786 l
136.316964 88.041777 l
136.693375 88.041777 l
136.881581 88.484072 l
137.069787 87.790745 l
137.446198 89.476247 l
138.010814 89.512109 l
138.19902 90.564053 l
138.387225 89.834865 l
138.763636 87.049602 l
138.951842 85.925934 l
139.328253 85.925934 l
139.516458 85.435823 l
139.704664 83.726413 l
139.89287 83.10481 l
140.269281 79.984837 l
140.645692 79.984837 l
140.833897 79.148063 l
141.022103 77.653824 l
141.210308 78.072211 l
141.586719 80.929197 l
141.96313 80.929197 l
142.151336 82.363667 l
142.339542 82.303897 l
142.527747 83.308026 l
143.65698 83.308026 l
144.033391 89.631648 l
144.786213 89.631648 l
144.974419 94.664247 l
145.162625 95.34562 l
145.35083 95.249989 l
145.539036 95.883546 l
145.915447 95.883546 l
146.103652 96.552966 l
146.291858 94.413215 l
146.480063 96.50515 l
146.856474 98.190652 l
147.232885 98.190652 l
147.421091 101.167177 l
147.609296 99.876154 l
147.797502 100.306495 l
147.985708 99.481675 l
148.173913 100.139141 l
148.550324 100.139141 l
148.73853 99.577306 l
148.926735 99.768569 l
149.114941 104.621859 l
149.303146 104.920707 l
149.491352 104.490366 l
149.867763 104.490366 l
150.055968 102.266938 l
150.244174 102.51797 l
150.432379 102.553832 l
150.620585 101.669242 l
150.808791 99.230643 l
151.185202 99.230643 l
151.373407 99.816385 l
151.561613 99.290412 l
152.126229 95.154357 l
152.50264 95.154357 l
152.690846 97.1148 l
152.879051 97.843989 l
153.255462 104.323011 l
153.443668 104.239334 l
153.820079 104.239334 l
154.19649 101.310624 l
154.384696 99.075242 l
154.572901 98.561224 l
154.949312 98.465592 l
155.137518 98.465592 l
155.325723 99.792477 l
155.89034 93.63621 l
156.078545 97.1148 l
156.454957 97.1148 l
156.643162 96.660551 l
156.831368 99.290412 l
157.019573 98.812256 l
157.207779 96.803998 l
157.58419 96.708367 l
157.772395 96.708367 l
157.960601 96.361703 l
158.148806 97.222385 l
158.337012 97.413648 l
158.525217 96.266072 l
158.713423 94.198044 l
159.089834 94.198044 l
159.27804 94.747924 l
159.466245 94.413215 l
160.219067 102.924403 l
160.407273 104.311057 l
160.971889 97.485371 l
161.160095 99.780523 l
161.912917 99.780523 l
162.101123 100.700975 l
162.289328 98.405823 l
162.477534 99.242597 l
162.665739 99.421906 l
163.04215 99.421906 l
163.230356 101.095454 l
163.418561 103.916578 l
163.606767 101.669242 l
163.794972 102.231076 l
163.983178 103.581868 l
164.359589 103.581868 l
164.547794 101.848551 l
164.736 104.083933 l
164.924206 103.40256 l
165.300617 97.592956 l
165.677028 97.592956 l
165.865233 98.680763 l
166.053439 96.959399 l
166.241644 96.732274 l
166.42985 96.923537 l
166.618055 94.939187 l
166.994466 94.939187 l
167.370877 92.787482 l
167.559083 95.381482 l
167.935494 93.36127 l
168.500111 93.36127 l
169.064727 97.60491 l
169.252933 96.529058 l
169.629344 96.529058 l
169.817549 90.587961 l
170.19396 89.27303 l
170.382166 88.986136 l
170.946783 88.99809 l
171.134988 90.121759 l
171.323194 89.153491 l
171.511399 92.942883 l
171.699605 92.620127 l
171.88781 90.7075 l
172.452427 90.7075 l
172.828838 93.062422 l
173.017043 90.49233 l
173.205249 90.695547 l
173.58166 90.695547 l
173.769866 89.88268 l
173.958071 91.807261 l
174.146277 91.125887 l
174.710893 91.687722 l
174.899099 91.687722 l
175.087304 91.460597 l
175.27551 90.862901 l
175.463715 92.440818 l
175.651921 88.256948 l
175.840126 87.372358 l
176.216538 87.372358 l
176.404743 86.081335 l
176.592949 85.615132 l
176.781154 83.690551 l
176.96936 84.407786 l
177.345771 84.300201 l
177.533976 84.300201 l
177.910387 80.929197 l
178.098593 80.200008 l
178.286798 79.937022 l
178.475004 79.303464 l
178.851415 79.303464 l
179.227826 81.180229 l
179.604237 81.108505 l
179.792443 82.71033 l
179.980648 82.71033 l
180.168854 80.78575 l
180.357059 80.164146 l
180.73347 77.845086 l
180.921676 77.701639 l
181.109881 75.717289 l
181.486292 75.717289 l
181.862704 72.071345 l
182.050909 74.749022 l
182.239115 73.840524 l
182.42732 74.653391 l
182.803731 74.653391 l
182.991937 75.406487 l
183.368348 73.601446 l
183.556553 73.565584 l
183.744759 72.884211 l
184.12117 72.884211 l
184.309375 72.418008 l
184.497581 71.56928 l
184.685787 71.772497 l
184.873992 70.182626 l
185.062198 70.828137 l
185.438609 70.828137 l
185.626814 70.158718 l
185.81502 71.306294 l
186.003225 71.318248 l
186.191431 67.959197 l
186.379636 67.158285 l
186.756047 67.158285 l
186.944253 63.57211 l
187.320664 62.711428 l
187.697075 65.711861 l
188.073486 65.711861 l
188.261692 67.074608 l
188.449897 66.046571 l
188.638103 67.32564 l
188.826308 70.804229 l
189.014514 68.879649 l
189.57913 68.879649 l
189.767336 67.230008 l
189.955542 68.461262 l
190.143747 67.887474 l
190.331953 65.687953 l
190.708364 69.106773 l
190.896569 67.612534 l
191.084775 67.062654 l
191.27298 65.448875 l
191.461186 66.823575 l
191.649391 70.218488 l
192.025802 70.218488 l
192.214008 68.341723 l
192.402213 68.329769 l
192.590419 67.923336 l
192.778625 68.664478 l
192.96683 69.871824 l
193.343241 69.871824 l
193.531447 67.564718 l
193.719652 68.532985 l
193.907858 68.329769 l
194.284269 64.384976 l
194.66068 64.384976 l
195.037091 65.329336 l
195.225296 68.999188 l
195.413502 68.162414 l
195.601708 68.70034 l
196.166324 68.784018 l
196.35453 64.755548 l
196.542735 64.420838 l
196.730941 65.150027 l
196.919146 69.202405 l
197.295557 69.202405 l
197.671968 75.035916 l
197.860174 75.215225 l
198.048379 74.820745 l
198.236585 73.374322 l
198.612996 73.374322 l
198.801202 74.533851 l
198.989407 73.206967 l
199.177613 76.470386 l
199.365818 75.179363 l
199.742229 75.239132 l
199.930435 75.239132 l
200.11864 75.968321 l
200.306846 75.239132 l
200.495051 73.948109 l
200.683257 71.449741 l
200.871462 75.32281 l
201.247874 75.32281 l
201.436079 75.549934 l
201.624285 75.585796 l
201.81249 75.430395 l
202.000696 75.035916 l
202.188901 73.649262 l
202.565312 73.649262 l
202.941723 69.202405 l
203.129929 68.377584 l
203.318134 68.652524 l
203.50634 70.708598 l
203.882751 70.708598 l
204.070957 73.230875 l
204.259162 73.039612 l
204.447368 73.374322 l
204.635573 74.115464 l
204.823779 74.342589 l
205.20019 74.342589 l
205.388395 73.529722 l
205.576601 73.469953 l
205.764806 72.943981 l
205.953012 71.043308 l
206.141217 74.151326 l
206.517628 74.151326 l
206.705834 72.071345 l
207.082245 77.510377 l
207.270451 76.458432 l
207.458656 78.048303 l
207.835067 78.048303 l
208.023273 78.227612 l
208.211478 78.717722 l
208.399684 78.705768 l
208.587889 78.813354 l
208.776095 78.096119 l
209.152506 78.096119 l
209.340711 76.326939 l
210.093534 82.16045 l
210.469945 82.16045 l
210.65815 81.777925 l
210.846356 81.777925 l
211.222767 86.762708 l
211.787383 86.762708 l
211.975589 87.695113 l
212.352 87.695113 l
212.540206 89.500155 l
212.728411 86.977878 l
212.916617 89.918542 l
213.104822 89.918542 l
213.293028 88.543842 l
213.857644 89.846818 l
214.04585 89.846818 l
214.234055 89.141537 l
214.610466 90.444514 l
214.986877 89.559924 l
215.363289 89.559924 l
215.7397 86.894201 l
215.927905 87.503851 l
216.116111 86.953971 l
216.304316 87.886376 l
216.680727 87.886376 l
217.057138 92.297371 l
217.433549 94.341491 l
217.621755 97.341924 l
217.998166 97.341924 l
218.374577 94.688155 l
218.562783 95.178265 l
218.939194 94.174136 l
219.315605 94.174136 l
219.50381 95.333666 l
219.692016 93.313454 l
220.068427 94.843556 l
220.256632 94.5208 l
220.633043 94.5208 l
220.821249 95.740099 l
221.385866 102.24303 l
221.574071 99.254551 l
221.950482 99.254551 l
222.138688 98.728578 l
222.326893 99.206735 l
222.515099 97.772265 l
222.703304 97.246293 l
222.89151 96.361703 l
223.267921 96.361703 l
223.456126 94.640339 l
223.644332 88.292809 l
223.832538 87.910284 l
224.020743 88.400395 l
224.397154 88.268901 l
224.58536 88.268901 l
224.773565 91.006348 l
224.961771 90.050035 l
225.149976 91.078072 l
225.338182 93.444947 l
225.526387 90.719454 l
225.902798 90.719454 l
226.091004 92.620127 l
226.467415 93.624256 l
226.655621 92.667943 l
226.843826 94.078505 l
227.220237 94.078505 l
227.408443 94.484938 l
227.596648 96.457334 l
227.784854 95.68033 l
227.973059 94.102413 l
228.161265 90.623823 l
228.725881 90.683593 l
228.914087 90.229344 l
229.102292 89.464293 l
229.290498 89.500155 l
229.478704 87.754883 l
229.855115 87.754883 l
230.04332 89.021998 l
230.231526 91.783353 l
230.607937 93.08633 l
230.796142 91.496459 l
231.172553 91.496459 l
231.360759 90.420606 l
231.73717 86.12915 l
232.113581 85.973749 l
232.489992 85.973749 l
232.678198 84.491464 l
232.866403 85.005482 l
233.054609 87.193049 l
233.242814 88.005915 l
233.995636 88.005915 l
234.183842 86.882247 l
234.560253 87.910284 l
234.748458 84.838127 l
235.12487 84.838127 l
235.313075 86.655123 l
235.877692 88.460164 l
236.065897 88.699242 l
236.630514 88.699242 l
236.818719 90.731408 l
237.006925 91.400828 l
237.19513 91.568182 l
237.383336 89.799003 l
237.759747 89.799003 l
237.947953 87.193049 l
238.324364 84.885943 l
238.512569 85.519501 l
238.700775 87.874422 l
239.077186 87.874422 l
239.265391 87.599482 l
239.453597 86.595353 l
239.641802 87.396266 l
239.830008 87.228911 l
240.018213 90.719454 l
240.58283 90.719454 l
240.771036 95.871592 l
241.335652 100.270634 l
241.712063 100.270634 l
241.900269 101.501887 l
242.088474 98.620993 l
242.27668 97.592956 l
242.653091 100.366265 l
243.029502 100.366265 l
243.217708 104.036117 l
243.405913 101.657288 l
243.594119 101.669242 l
243.782324 102.314753 l
243.97053 110.79008 l
244.346941 110.79008 l
244.911557 123.198245 l
245.099763 116.635545 l
245.287968 116.288882 l
245.664379 116.288882 l
245.852585 117.842891 l
246.040791 113.32431 l
246.228996 113.551435 l
246.417202 118.918743 l
246.605407 119.253453 l
246.981818 119.253453 l
247.170024 112.977647 l
247.358229 115.715094 l
247.546435 113.670974 l
247.73464 117.675536 l
247.922846 118.978513 l
248.299257 118.978513 l
248.487462 117.508181 l
248.675668 118.655757 l
248.863874 118.046107 l
249.052079 118.165647 l
249.240285 119.863103 l
249.616696 119.863103 l
249.804901 125.182596 l
249.993107 122.32561 l
250.181312 121.799637 l
250.369518 122.134347 l
250.557723 119.540347 l
250.934134 119.540347 l
251.12234 120.568384 l
251.310545 120.245628 l
251.498751 121.883315 l
251.686957 122.277794 l
251.875162 117.316919 l
252.251573 117.316919 l
252.627984 131.291047 l
252.81619 131.291047 l
253.004395 141.045443 l
253.192601 138.582936 l
253.569012 138.582936 l
253.757217 139.049139 l
253.945423 140.722687 l
254.133628 139.216494 l
254.321834 142.766807 l
254.51004 143.340595 l
255.074656 143.244963 l
255.262862 138.786153 l
255.451067 140.686825 l
255.827478 140.089129 l
256.203889 140.089129 l
256.392095 140.507517 l
256.5803 147.47665 l
256.956711 149.209968 l
257.144917 146.388843 l
257.709534 146.388843 l
257.897739 145.803102 l
258.27415 150.62053 l
258.462356 146.556198 l
258.838767 146.556198 l
259.026972 145.265175 l
259.403383 139.180632 l
259.591589 137.363637 l
259.779794 143.23301 l
260.156206 143.23301 l
260.532617 138.9296 l
260.720822 140.101083 l
260.909028 140.435793 l
261.097233 139.766374 l
261.473644 139.766374 l
261.66185 140.053268 l
261.850055 144.88265 l
262.038261 144.535986 l
262.226466 146.472521 l
262.414672 141.12912 l
262.791083 141.12912 l
262.979289 137.184328 l
263.167494 136.084567 l
263.3557 133.251489 l
263.732111 143.687258 l
264.108522 143.687258 l
264.296727 139.395802 l
264.484933 139.897867 l
264.673138 140.997627 l
264.861344 141.332337 l
265.049549 138.355812 l
265.42596 138.355812 l
265.614166 134.614236 l
265.802372 137.351683 l
266.178783 136.036752 l
266.366988 137.841793 l
266.743399 137.841793 l
266.931605 137.208236 l
267.11981 137.602715 l
267.308016 136.096521 l
267.496221 138.272134 l
267.684427 138.774199 l
268.060838 138.774199 l
268.249043 142.814622 l
268.437249 137.782024 l
268.625455 136.431231 l
268.81366 137.7103 l
269.001866 142.216927 l
269.378277 142.216927 l
269.566482 141.702908 l
269.754688 141.858309 l
269.942893 136.957203 l
270.319304 135.833535 l
270.695715 135.833535 l
270.883921 131.028061 l
271.260332 128.135213 l
271.448538 130.729213 l
271.636743 131.625757 l
272.20136 131.685526 l
272.577771 132.056098 l
272.765976 132.833102 l
272.954182 131.721388 l
273.330593 131.721388 l
273.518798 131.099784 l
273.895209 128.756817 l
274.083415 128.685093 l
274.459826 128.756817 l
274.648032 128.756817 l
274.836237 130.071747 l
275.024443 130.310826 l
275.212648 134.171941 l
275.400854 133.645968 l
275.589059 133.849185 l
275.96547 133.849185 l
276.153676 129.952208 l
276.906498 131.900697 l
277.282909 131.900697 l
277.471115 131.613803 l
277.65932 134.315388 l
278.035731 133.394936 l
278.223937 134.028494 l
278.600348 134.028494 l
278.976759 135.319517 l
279.164964 135.319517 l
279.35317 142.34842 l
279.541375 143.125424 l
280.105992 143.125424 l
280.294198 146.078042 l
280.670609 146.078042 l
280.858814 151.254087 l
281.235225 151.254087 l
281.423431 157.075645 l
281.611636 155.820484 l
281.799842 155.820484 l
281.988047 156.800705 l
282.176253 151.732244 l
282.552664 151.732244 l
282.74087 152.413617 l
283.117281 150.381452 l
283.681897 152.640742 l
283.870103 152.640742 l
284.246514 153.97958 l
284.434719 151.863737 l
284.81113 154.637046 l
285.187542 154.637046 l
285.375747 154.971755 l
285.563953 158.749193 l
285.752158 157.290815 l
285.940364 157.159322 l
286.128569 158.306898 l
286.50498 158.306898 l
286.693186 159.729414 l
286.881391 157.470124 l
287.069597 153.549239 l
287.257802 152.341894 l
287.446008 154.732677 l
287.822419 154.732677 l
288.010625 156.96806 l
288.19883 157.099553 l
288.387036 156.454041 l
288.575241 154.828309 l
288.763447 157.541848 l
289.139858 157.541848 l
289.328063 159.059995 l
289.516269 158.916548 l
289.89268 164.510981 l
290.080885 168.04934 l
290.457296 168.04934 l
290.833708 180.636814 l
291.210119 171.850686 l
291.398324 175.938925 l
291.774735 175.938925 l
291.962941 165.861773 l
292.151146 163.423174 l
292.339352 167.212566 l
292.715763 177.75592 l
293.092174 177.75592 l
293.280379 183.505754 l
293.844996 176.357312 l
294.033202 156.501857 l
294.409613 156.501857 l
294.597818 154.613138 l
294.786024 136.658355 l
294.974229 148.253654 l
295.35064 133.442752 l
295.727051 133.442752 l
296.103462 145.671608 l
296.291668 164.881552 l
296.479874 164.809829 l
296.668079 171.826778 l
297.04449 171.826778 l
297.232696 167.642907 l
297.420901 167.881985 l
297.609107 165.646603 l
297.797312 157.900465 l
297.985518 167.523368 l
298.361929 167.523368 l
298.550134 166.638778 l
298.73834 175.054335 l
298.926545 175.28146 l
299.114751 174.934796 l
299.302957 182.788519 l
299.679368 182.788519 l
299.867573 197.432067 l
300.055779 191.873496 l
300.243984 194.467496 l
300.43219 185.633551 l
301.185012 185.633551 l
301.561423 183.123229 l
301.937834 196.081274 l
302.314245 196.081274 l
302.502451 191.21603 l
302.690656 190.988906 l
302.878862 185.394473 l
303.067067 188.215597 l
303.255273 188.07215 l
303.631684 188.07215 l
303.819889 184.127358 l
304.008095 189.590298 l
304.384506 185.382519 l
304.572711 188.382952 l
304.949123 188.382952 l
305.137328 188.07215 l
305.325534 187.988473 l
305.513739 189.422943 l
305.701945 194.96956 l
306.266561 194.96956 l
306.454767 195.866104 l
306.642972 195.710703 l
306.831178 196.487707 l
307.019383 198.962168 l
307.207589 193.367735 l
307.584 193.367735 l
307.772206 195.435763 l
307.960411 192.256021 l
308.148617 186.123662 l
308.525028 194.276233 l
309.089644 194.276233 l
309.27785 194.730482 l
309.466055 197.491836 l
309.654261 188.693754 l
309.842466 187.426639 l
310.218877 187.426639 l
310.407083 183.457939 l
310.595289 185.107579 l
310.783494 190.642242 l
310.9717 192.686362 l
311.159905 196.559431 l
311.536316 196.559431 l
311.724522 195.423809 l
311.912727 189.913053 l
312.289138 193.236242 l
312.477344 192.076712 l
312.853755 192.076712 l
313.04196 195.722657 l
313.230166 202.20168 l
313.418372 203.887182 l
313.606577 203.205809 l
313.794783 200.934564 l
314.171194 200.934564 l
314.359399 198.794813 l
314.547605 204.532693 l
314.73581 203.695919 l
314.924016 204.4012 l
315.112221 205.931302 l
315.488632 205.931302 l
315.676838 204.843495 l
315.865043 208.42967 l
316.053249 208.824149 l
316.241455 213.976287 l
316.42966 214.215366 l
316.806071 214.215366 l
316.994277 212.063661 l
317.182482 213.115605 l
317.370688 211.776767 l
317.747099 213.163421 l
318.311715 213.079744 l
318.499921 215.064094 l
318.688126 221.495301 l
318.876332 223.850222 l
319.064538 230.042351 l
319.440949 230.042351 l
320.005565 245.008655 l
320.381976 249.013217 l
320.758387 249.013217 l
320.946593 250.746534 l
321.134798 249.228387 l
321.323004 253.854553 l
321.511209 270.649805 l
321.699415 275.192294 l
322.075826 275.192294 l
322.264032 266.585474 l
322.452237 269.77717 l
322.640443 244.709807 l
322.828648 242.85695 l
323.016854 245.809567 l
323.393265 245.809567 l
323.58147 245.929106 l
323.957881 261.230119 l
324.146087 254.595696 l
324.334292 241.721328 l
324.710704 241.721328 l
324.898909 241.051908 l
325.087115 245.737843 l
325.27532 237.896074 l
325.463526 243.107982 l
325.651731 240.932369 l
326.216348 240.932369 l
326.592759 252.527668 l
326.780964 246.478986 l
326.96917 244.901069 l
327.157375 241.518111 l
327.721992 241.518111 l
327.910198 242.032129 l
328.098403 237.848259 l
328.474814 251.06929 l
328.851225 251.06929 l
329.039431 246.562664 l
329.227636 249.264249 l
329.415842 247.028866 l
329.604047 250.005392 l
329.792253 243.89694 l
330.168664 243.89694 l
330.35687 247.387484 l
330.545075 237.465733 l
330.733281 236.664821 l
330.921486 228.870867 l
331.109692 226.085605 l
331.486103 226.085605 l
331.674308 225.595494 l
331.862514 226.695254 l
332.050719 231.393144 l
332.238925 232.098425 l
332.42713 235.708508 l
332.803542 235.708508 l
332.991747 235.95954 l
333.368158 238.434 l
333.556364 231.524637 l
333.744569 232.229918 l
334.12098 232.229918 l
334.309186 240.788922 l
334.497391 241.326848 l
334.685597 233.150369 l
334.873802 237.633088 l
335.062008 233.293816 l
335.438419 233.293816 l
335.626625 236.437696 l
335.81483 236.569189 l
336.003036 234.847826 l
336.191241 241.004093 l
336.379447 235.457475 l
336.755858 235.457475 l
336.944063 236.102987 l
337.132269 234.859779 l
337.320474 236.593097 l
337.50868 228.046047 l
337.885091 228.129724 l
338.073296 228.129724 l
338.637913 237.214701 l
338.826119 235.266213 l
339.014324 244.422913 l
339.390735 244.422913 l
339.578941 244.984747 l
339.767146 227.412489 l
339.955352 230.137982 l
340.143557 225.894342 l
340.331763 229.217531 l
340.708174 229.217531 l
340.896379 233.054738 l
341.084585 231.787623 l
341.272791 232.612443 l
341.837407 225.03366 l
342.025613 225.03366 l
342.213818 229.420747 l
342.590229 211.226887 l
342.778435 213.761117 l
342.96664 213.091698 l
343.343051 213.091698 l
343.719462 202.369034 l
343.907668 213.89261 l
344.284079 219.056702 l
344.66049 219.056702 l
345.225107 227.615706 l
345.413312 221.304038 l
345.601518 221.925642 l
345.977929 221.925642 l
346.166134 221.363808 l
346.35434 218.769808 l
346.542545 223.431835 l
346.730751 223.742637 l
346.918957 233.018876 l
347.295368 233.018876 l
347.483573 230.389015 l
347.671779 230.448784 l
348.04819 229.253393 l
348.612806 229.253393 l
348.801012 229.086038 l
348.989217 232.26578 l
349.177423 232.26578 l
349.365628 245.558535 l
350.118451 245.558535 l
350.306656 244.877161 l
350.871273 240.035825 l
351.247684 240.035825 l
351.435889 226.360545 l
351.624095 222.618969 l
351.8123 221.184499 l
352.000506 225.392278 l
352.188711 221.304038 l
352.565123 221.304038 l
352.753328 220.646573 l
352.941534 219.224057 l
353.129739 219.618536 l
353.317945 224.854351 l
353.50615 226.169282 l
353.882561 226.169282 l
354.070767 223.921946 l
354.258972 224.914121 l
354.447178 224.854351 l
354.635383 221.602886 l
354.823589 224.161024 l
355.2 224.161024 l
355.388206 226.575715 l
355.576411 226.372499 l
355.764617 219.236011 l
355.952822 219.797845 l
356.141028 207.951513 l
356.517439 207.951513 l
356.705644 212.027799 l
356.89385 219.750029 l
357.270261 221.519209 l
357.458466 220.909559 l
357.834877 220.909559 l
358.023083 215.231449 l
358.211289 215.458573 l
358.5877 206.708306 l
358.775905 204.903265 l
359.152316 204.903265 l
359.340522 208.023237 l
359.528727 213.103651 l
360.281549 206.457274 l
360.469755 206.457274 l
360.65796 197.659191 l
361.034372 193.116703 l
361.222577 190.140178 l
361.410783 190.307533 l
361.787194 190.307533 l
362.163605 184.31862 l
362.35181 191.455109 l
362.540016 191.287754 l
362.728221 193.212334 l
363.104632 193.212334 l
363.292838 188.562261 l
363.669249 195.782426 l
364.04566 193.606814 l
364.422071 193.606814 l
364.610277 195.830242 l
364.798482 196.057366 l
364.986688 193.678537 l
365.551304 196.332307 l
365.73951 196.332307 l
365.927715 195.017376 l
366.304126 183.577478 l
366.492332 185.274934 l
366.680538 193.642675 l
367.056949 193.642675 l
367.245154 198.089532 l
367.43336 196.511615 l
367.621565 200.683532 l
367.809771 197.264712 l
368.562593 197.264712 l
368.750798 195.268408 l
368.939004 198.878491 l
369.127209 195.913919 l
369.315415 201.089965 l
369.691826 201.089965 l
369.880032 205.214067 l
370.068237 205.22602 l
370.256443 206.026933 l
370.444648 210.892177 l
370.632854 208.393808 l
371.009265 208.393808 l
371.385676 204.95108 l
371.573881 207.533126 l
371.950292 202.392942 l
372.326704 202.392942 l
372.514909 203.588334 l
372.703115 210.784592 l
372.89132 207.078878 l
373.267731 220.060831 l
373.832348 220.060831 l
374.020553 220.993236 l
374.208759 218.279697 l
374.396964 218.662223 l
374.58517 216.534425 l
374.961581 216.534425 l
375.714403 232.468996 l
375.902609 230.042351 l
376.27902 230.042351 l
376.467225 229.468563 l
376.655431 230.484646 l
376.843636 232.122333 l
377.031842 235.170581 l
377.220047 233.186231 l
377.596458 233.186231 l
377.784664 235.218397 l
377.97287 235.07495 l
378.161075 235.887816 l
378.349281 227.233181 l
378.537486 232.983015 l
379.102103 232.983015 l
379.290308 232.457042 l
379.478514 233.592664 l
379.666719 233.939328 l
379.854925 232.516812 l
380.231336 232.516812 l
380.419542 230.699816 l
380.607747 227.006056 l
380.795953 226.886517 l
380.984158 225.846526 l
381.172364 206.230149 l
381.548775 206.230149 l
381.73698 204.891311 l
381.925186 205.357514 l
382.113391 205.357514 l
382.301597 209.31426 l
382.489802 207.700481 l
382.866213 207.700481 l
383.054419 208.130822 l
383.242625 206.612675 l
383.43083 200.671578 l
383.619036 202.512481 l
383.807241 206.899569 l
384.183652 206.899569 l
384.560063 209.25449 l
384.748269 213.677439 l
384.936474 212.434232 l
385.12468 213.163421 l
385.501091 213.163421 l
385.689296 212.756988 l
385.877502 209.505523 l
386.253913 216.869135 l
386.630324 217.000628 l
386.81853 217.000628 l
387.006735 217.132121 l
387.194941 214.884785 l
387.383146 216.833273 l
387.571352 211.836536 l
387.759557 211.191025 l
388.324174 211.226887 l
388.700585 211.406195 l
388.888791 210.509652 l
389.076996 218.327513 l
389.453407 218.327513 l
389.641613 217.478785 l
389.829818 214.059965 l
390.018024 214.346859 l
390.206229 218.279697 l
390.394435 211.501827 l
390.770846 211.501827 l
391.147257 196.702878 l
391.335462 192.997164 l
391.523668 197.8385 l
391.711874 198.746998 l
392.088285 198.746998 l
392.464696 208.059099 l
392.652901 208.800241 l
392.841107 207.365772 l
393.029312 207.031062 l
393.405723 207.031062 l
393.593929 206.313827 l
393.782134 211.800675 l
393.97034 213.34273 l
394.158545 208.620933 l
394.346751 208.118868 l
394.723162 208.118868 l
395.099573 214.872831 l
395.287779 214.143642 l
395.475984 214.322951 l
395.66419 216.988674 l
396.228806 216.988674 l
396.417012 216.48661 l
396.793423 207.975421 l
396.981628 208.513347 l
397.35804 208.513347 l
397.546245 210.031495 l
398.487273 210.031495 l
398.487273 210.031495 l
stroke
grestore
0.800 setlinewidth
0 setlinejoin
0.000 setgray
gsave
57.6 38.016 m
57.6 304.128 l
stroke
grestore
gsave
414.72 38.016 m
414.72 304.128 l
stroke
grestore
gsave
57.6 38.016 m
414.72 38.016 l
stroke
grestore
gsave
57.6 304.128 m
414.72 304.128 l
stroke
grestore
1.000 setlinewidth
0 setlinecap
0.800 setgray
gsave
64.6 266.78425 m
174.521875 266.78425 l
175.855208 266.78425 176.521875 267.450917 176.521875 268.78425 c
176.521875 297.128 l
176.521875 298.461333 175.855208 299.128 174.521875 299.128 c
64.6 299.128 l
63.266667 299.128 62.6 298.461333 62.6 297.128 c
62.6 268.78425 l
62.6 267.450917 63.266667 266.78425 64.6 266.78425 c
cl
gsave
1.000 setgray
fill
grestore
stroke
grestore
1.500 setlinewidth
1 setlinejoin
2 setlinecap
0.000 0.000 1.000 setrgbcolor
gsave
66.6 291.03425 m
76.6 291.03425 l
86.6 291.03425 l
stroke
grestore
0.000 setgray
gsave

94.600000 287.534250 translate
0.000000 rotate
0.000000 0 m /p glyphshow
6.347656 0 m /r glyphshow
10.208984 0 m /e glyphshow
16.361328 0 m /d glyphshow
22.708984 0 m /i glyphshow
25.487305 0 m /c glyphshow
30.985352 0 m /t glyphshow
34.906250 0 m /e glyphshow
41.058594 0 m /d glyphshow
47.406250 0 m /space glyphshow
50.584961 0 m /v glyphshow
56.502930 0 m /a glyphshow
62.630859 0 m /l glyphshow
65.409180 0 m /u glyphshow
71.747070 0 m /e glyphshow
grestore
1.000 0.647 0.000 setrgbcolor
gsave
66.6 276.362375 m
76.6 276.362375 l
86.6 276.362375 l
stroke
grestore
0.000 setgray
gsave

94.600000 272.862375 translate
0.000000 rotate
0.000000 0 m /t glyphshow
3.920898 0 m /r glyphshow
8.032227 0 m /u glyphshow
14.370117 0 m /e glyphshow
20.522461 0 m /space glyphshow
23.701172 0 m /v glyphshow
29.619141 0 m /a glyphshow
35.747070 0 m /l glyphshow
38.525391 0 m /u glyphshow
44.863281 0 m /e glyphshow
grestore

end
showpage
