%!PS-Adobe-3.0 EPSF-3.0
%%Title: D:/MCM2022/MCM2022/YKCCs_LSTM/required/50-100-BTC.eps
%%Creator: matplotlib version 3.3.4, http://matplotlib.org/
%%CreationDate: Sun Feb 20 14:30:53 2022
%%Orientation: portrait
%%BoundingBox: 75.6 223.20000000000002 536.4 568.8
%%EndComments
%%BeginProlog
/mpldict 8 dict def
mpldict begin
/m { moveto } bind def
/l { lineto } bind def
/r { rlineto } bind def
/c { curveto } bind def
/cl { closepath } bind def
/box {
      m
      1 index 0 r
      0 exch r
      neg 0 r
      cl
    } bind def
/clipbox {
      box
      clip
      newpath
    } bind def
%!PS-Adobe-3.0 Resource-Font
%%Title: DejaVu Sans
%%Copyright: Copyright (c) 2003 by Bitstream, Inc. All Rights Reserved. Copyright (c) 2006 by Tavmjong Bah. All Rights Reserved. DejaVu changes are in public domain 
%%Creator: Converted from TrueType to type 3 by PPR
25 dict begin
/_d{bind def}bind def
/_m{moveto}_d
/_l{lineto}_d
/_cl{closepath eofill}_d
/_c{curveto}_d
/_sc{7 -1 roll{setcachedevice}{pop pop pop pop pop pop}ifelse}_d
/_e{exec}_d
/FontName /DejaVuSans def
/PaintType 0 def
/FontMatrix[.001 0 0 .001 0 0]def
/FontBBox[-1021 -463 1793 1232]def
/FontType 3 def
/Encoding [ /zero /one /two /three /four /five /six /seven ] def
/FontInfo 10 dict dup begin
/FamilyName (DejaVu Sans) def
/FullName (DejaVu Sans) def
/Notice (Copyright (c) 2003 by Bitstream, Inc. All Rights Reserved. Copyright (c) 2006 by Tavmjong Bah. All Rights Reserved. DejaVu changes are in public domain ) def
/Weight (Book) def
/Version (Version 2.35) def
/ItalicAngle 0.0 def
/isFixedPitch false def
/UnderlinePosition -130 def
/UnderlineThickness 90 def
end readonly def
/CharStrings 9 dict dup begin
/.notdef 0 def
/zero{636 0 66 -13 570 742 _sc
318 664 _m
267 664 229 639 203 589 _c
177 539 165 464 165 364 _c
165 264 177 189 203 139 _c
229 89 267 64 318 64 _c
369 64 407 89 433 139 _c
458 189 471 264 471 364 _c
471 464 458 539 433 589 _c
407 639 369 664 318 664 _c
318 742 _m
399 742 461 709 505 645 _c
548 580 570 486 570 364 _c
570 241 548 147 505 83 _c
461 19 399 -13 318 -13 _c
236 -13 173 19 130 83 _c
87 147 66 241 66 364 _c
66 486 87 580 130 645 _c
173 709 236 742 318 742 _c
_cl}_d
/one{636 0 110 0 544 729 _sc
124 83 _m
285 83 _l
285 639 _l
110 604 _l
110 694 _l
284 729 _l
383 729 _l
383 83 _l
544 83 _l
544 0 _l
124 0 _l
124 83 _l
_cl}_d
/two{{636 0 73 0 536 742 _sc
192 83 _m
536 83 _l
536 0 _l
73 0 _l
73 83 _l
110 121 161 173 226 239 _c
290 304 331 346 348 365 _c
380 400 402 430 414 455 _c
426 479 433 504 433 528 _c
433 566 419 598 392 622 _c
365 646 330 659 286 659 _c
255 659 222 653 188 643 _c
154 632 117 616 78 594 _c
78 694 _l
118 710 155 722 189 730 _c
223 738 255 742 284 742 _c
}_e{359 742 419 723 464 685 _c
509 647 532 597 532 534 _c
532 504 526 475 515 449 _c
504 422 484 390 454 354 _c
446 344 420 317 376 272 _c
332 227 271 164 192 83 _c
_cl}_e}_d
/three{{636 0 76 -13 556 742 _sc
406 393 _m
453 383 490 362 516 330 _c
542 298 556 258 556 212 _c
556 140 531 84 482 45 _c
432 6 362 -13 271 -13 _c
240 -13 208 -10 176 -4 _c
144 1 110 10 76 22 _c
76 117 _l
103 101 133 89 166 81 _c
198 73 232 69 268 69 _c
330 69 377 81 409 105 _c
441 129 458 165 458 212 _c
458 254 443 288 413 312 _c
383 336 341 349 287 349 _c
}_e{202 349 _l
202 430 _l
291 430 _l
339 430 376 439 402 459 _c
428 478 441 506 441 543 _c
441 580 427 609 401 629 _c
374 649 336 659 287 659 _c
260 659 231 656 200 650 _c
169 644 135 635 98 623 _c
98 711 _l
135 721 170 729 203 734 _c
235 739 266 742 296 742 _c
370 742 429 725 473 691 _c
517 657 539 611 539 553 _c
539 513 527 479 504 451 _c
481 423 448 403 406 393 _c
_cl}_e}_d
/four{636 0 49 0 580 729 _sc
378 643 _m
129 254 _l
378 254 _l
378 643 _l
352 729 _m
476 729 _l
476 254 _l
580 254 _l
580 172 _l
476 172 _l
476 0 _l
378 0 _l
378 172 _l
49 172 _l
49 267 _l
352 729 _l
_cl}_d
/five{{636 0 77 -13 549 729 _sc
108 729 _m
495 729 _l
495 646 _l
198 646 _l
198 467 _l
212 472 227 476 241 478 _c
255 480 270 482 284 482 _c
365 482 429 459 477 415 _c
525 370 549 310 549 234 _c
549 155 524 94 475 51 _c
426 8 357 -13 269 -13 _c
238 -13 207 -10 175 -6 _c
143 -1 111 6 77 17 _c
77 116 _l
106 100 136 88 168 80 _c
199 72 232 69 267 69 _c
}_e{323 69 368 83 401 113 _c
433 143 450 183 450 234 _c
450 284 433 324 401 354 _c
368 384 323 399 267 399 _c
241 399 214 396 188 390 _c
162 384 135 375 108 363 _c
108 729 _l
_cl}_e}_d
/six{{636 0 70 -13 573 742 _sc
330 404 _m
286 404 251 388 225 358 _c
199 328 186 286 186 234 _c
186 181 199 139 225 109 _c
251 79 286 64 330 64 _c
374 64 409 79 435 109 _c
461 139 474 181 474 234 _c
474 286 461 328 435 358 _c
409 388 374 404 330 404 _c
526 713 _m
526 623 _l
501 635 476 644 451 650 _c
425 656 400 659 376 659 _c
310 659 260 637 226 593 _c
}_e{192 549 172 482 168 394 _c
187 422 211 444 240 459 _c
269 474 301 482 336 482 _c
409 482 467 459 509 415 _c
551 371 573 310 573 234 _c
573 159 550 99 506 54 _c
462 9 403 -13 330 -13 _c
246 -13 181 19 137 83 _c
92 147 70 241 70 364 _c
70 479 97 571 152 639 _c
206 707 280 742 372 742 _c
396 742 421 739 447 735 _c
472 730 498 723 526 713 _c
_cl}_e}_d
/seven{636 0 82 0 551 729 _sc
82 729 _m
551 729 _l
551 687 _l
286 0 _l
183 0 _l
432 646 _l
82 646 _l
82 729 _l
_cl}_d
end readonly def

/BuildGlyph
 {exch begin
 CharStrings exch
 2 copy known not{pop /.notdef}if
 true 3 1 roll get exec
 end}_d

/BuildChar {
 1 index /Encoding get exch get
 1 index /BuildGlyph get exec
}_d

FontName currentdict end definefont pop
end
%%EndProlog
mpldict begin
75.6 223.2 translate
460.8 345.6 0 0 clipbox
gsave
0 0 m
460.8 0 l
460.8 345.6 l
0 345.6 l
cl
1.000 setgray
fill
grestore
gsave
57.6 38.016 m
414.72 38.016 l
414.72 304.128 l
57.6 304.128 l
cl
1.000 setgray
fill
grestore
0.800 setlinewidth
1 setlinejoin
0 setlinecap
[] 0 setdash
0.000 setgray
gsave
/o {
gsave
newpath
translate
0.8 setlinewidth
1 setlinejoin
0 setlinecap
0 0 m
0 -3.5 l

gsave
0.000 setgray
fill
grestore
stroke
grestore
} bind def
73.8327 38.016 o
grestore
/DejaVuSans findfont
10.000 scalefont
setfont
gsave
70.653040 23.422250 translate
0.000000 rotate
0.000000 0 m /zero glyphshow
grestore
gsave
/o {
gsave
newpath
translate
0.8 setlinewidth
1 setlinejoin
0 setlinecap
0 0 m
0 -3.5 l

gsave
0.000 setgray
fill
grestore
stroke
grestore
} bind def
120.884 38.016 o
grestore
gsave
111.345048 23.422250 translate
0.000000 rotate
0.000000 0 m /two glyphshow
6.362305 0 m /five glyphshow
12.724609 0 m /zero glyphshow
grestore
gsave
/o {
gsave
newpath
translate
0.8 setlinewidth
1 setlinejoin
0 setlinecap
0 0 m
0 -3.5 l

gsave
0.000 setgray
fill
grestore
stroke
grestore
} bind def
167.935 38.016 o
grestore
gsave
158.396432 23.422250 translate
0.000000 rotate
0.000000 0 m /five glyphshow
6.362305 0 m /zero glyphshow
12.724609 0 m /zero glyphshow
grestore
gsave
/o {
gsave
newpath
translate
0.8 setlinewidth
1 setlinejoin
0 setlinecap
0 0 m
0 -3.5 l

gsave
0.000 setgray
fill
grestore
stroke
grestore
} bind def
214.987 38.016 o
grestore
gsave
205.447815 23.422250 translate
0.000000 rotate
0.000000 0 m /seven glyphshow
6.362305 0 m /five glyphshow
12.724609 0 m /zero glyphshow
grestore
gsave
/o {
gsave
newpath
translate
0.8 setlinewidth
1 setlinejoin
0 setlinecap
0 0 m
0 -3.5 l

gsave
0.000 setgray
fill
grestore
stroke
grestore
} bind def
262.038 38.016 o
grestore
gsave
249.319511 23.422250 translate
0.000000 rotate
0.000000 0 m /one glyphshow
6.362305 0 m /zero glyphshow
12.724609 0 m /zero glyphshow
19.086914 0 m /zero glyphshow
grestore
gsave
/o {
gsave
newpath
translate
0.8 setlinewidth
1 setlinejoin
0 setlinecap
0 0 m
0 -3.5 l

gsave
0.000 setgray
fill
grestore
stroke
grestore
} bind def
309.09 38.016 o
grestore
gsave
296.370894 23.422250 translate
0.000000 rotate
0.000000 0 m /one glyphshow
6.362305 0 m /two glyphshow
12.724609 0 m /five glyphshow
19.086914 0 m /zero glyphshow
grestore
gsave
/o {
gsave
newpath
translate
0.8 setlinewidth
1 setlinejoin
0 setlinecap
0 0 m
0 -3.5 l

gsave
0.000 setgray
fill
grestore
stroke
grestore
} bind def
356.141 38.016 o
grestore
gsave
343.422278 23.422250 translate
0.000000 rotate
0.000000 0 m /one glyphshow
6.362305 0 m /five glyphshow
12.724609 0 m /zero glyphshow
19.086914 0 m /zero glyphshow
grestore
gsave
/o {
gsave
newpath
translate
0.8 setlinewidth
1 setlinejoin
0 setlinecap
0 0 m
0 -3.5 l

gsave
0.000 setgray
fill
grestore
stroke
grestore
} bind def
403.192 38.016 o
grestore
gsave
390.473661 23.422250 translate
0.000000 rotate
0.000000 0 m /one glyphshow
6.362305 0 m /seven glyphshow
12.724609 0 m /five glyphshow
19.086914 0 m /zero glyphshow
grestore
gsave
/o {
gsave
newpath
translate
0.8 setlinewidth
1 setlinejoin
0 setlinecap
-0 0 m
-3.5 0 l

gsave
0.000 setgray
fill
grestore
stroke
grestore
} bind def
57.6 47.2408 o
grestore
gsave
44.240625 43.443913 translate
0.000000 rotate
0.000000 0 m /zero glyphshow
grestore
gsave
/o {
gsave
newpath
translate
0.8 setlinewidth
1 setlinejoin
0 setlinecap
-0 0 m
-3.5 0 l

gsave
0.000 setgray
fill
grestore
stroke
grestore
} bind def
57.6 85.7576 o
grestore
gsave
18.803125 81.960688 translate
0.000000 rotate
0.000000 0 m /one glyphshow
6.362305 0 m /zero glyphshow
12.724609 0 m /zero glyphshow
19.086914 0 m /zero glyphshow
25.449219 0 m /zero glyphshow
grestore
gsave
/o {
gsave
newpath
translate
0.8 setlinewidth
1 setlinejoin
0 setlinecap
-0 0 m
-3.5 0 l

gsave
0.000 setgray
fill
grestore
stroke
grestore
} bind def
57.6 124.274 o
grestore
gsave
18.803125 120.477464 translate
0.000000 rotate
0.000000 0 m /two glyphshow
6.362305 0 m /zero glyphshow
12.724609 0 m /zero glyphshow
19.086914 0 m /zero glyphshow
25.449219 0 m /zero glyphshow
grestore
gsave
/o {
gsave
newpath
translate
0.8 setlinewidth
1 setlinejoin
0 setlinecap
-0 0 m
-3.5 0 l

gsave
0.000 setgray
fill
grestore
stroke
grestore
} bind def
57.6 162.791 o
grestore
gsave
18.803125 158.994240 translate
0.000000 rotate
0.000000 0 m /three glyphshow
6.362305 0 m /zero glyphshow
12.724609 0 m /zero glyphshow
19.086914 0 m /zero glyphshow
25.449219 0 m /zero glyphshow
grestore
gsave
/o {
gsave
newpath
translate
0.8 setlinewidth
1 setlinejoin
0 setlinecap
-0 0 m
-3.5 0 l

gsave
0.000 setgray
fill
grestore
stroke
grestore
} bind def
57.6 201.308 o
grestore
gsave
18.803125 197.511016 translate
0.000000 rotate
0.000000 0 m /four glyphshow
6.362305 0 m /zero glyphshow
12.724609 0 m /zero glyphshow
19.086914 0 m /zero glyphshow
25.449219 0 m /zero glyphshow
grestore
gsave
/o {
gsave
newpath
translate
0.8 setlinewidth
1 setlinejoin
0 setlinecap
-0 0 m
-3.5 0 l

gsave
0.000 setgray
fill
grestore
stroke
grestore
} bind def
57.6 239.825 o
grestore
gsave
18.803125 236.027792 translate
0.000000 rotate
0.000000 0 m /five glyphshow
6.362305 0 m /zero glyphshow
12.724609 0 m /zero glyphshow
19.086914 0 m /zero glyphshow
25.449219 0 m /zero glyphshow
grestore
gsave
/o {
gsave
newpath
translate
0.8 setlinewidth
1 setlinejoin
0 setlinecap
-0 0 m
-3.5 0 l

gsave
0.000 setgray
fill
grestore
stroke
grestore
} bind def
57.6 278.341 o
grestore
gsave
18.803125 274.544568 translate
0.000000 rotate
0.000000 0 m /six glyphshow
6.362305 0 m /zero glyphshow
12.724609 0 m /zero glyphshow
19.086914 0 m /zero glyphshow
25.449219 0 m /zero glyphshow
grestore
1.500 setlinewidth
2 setlinecap
0.000 0.000 1.000 setrgbcolor
gsave
357.1 266.1 57.6 38.02 clipbox
73.832727 50.112 m
74.585549 50.242609 l
75.526577 50.54207 l
77.408632 50.943125 l
77.973249 50.619255 l
78.537866 50.337601 l
78.914277 50.185215 l
79.667099 50.406231 l
80.231715 50.52609 l
82.301976 50.686225 l
83.431209 51.004004 l
85.125059 50.924763 l
86.442498 51.276948 l
87.007115 51.425835 l
88.136348 51.77568 l
88.512759 51.860634 l
89.641992 51.580633 l
90.394814 51.676105 l
91.335842 50.975197 l
91.712253 51.103414 l
92.465075 50.777095 l
93.406103 51.067599 l
94.34713 51.332266 l
95.099953 51.560198 l
95.852775 51.579197 l
96.605597 51.541214 l
99.240474 52.242937 l
100.934324 53.434401 l
101.498941 53.685951 l
102.063557 53.605479 l
102.439968 53.849456 l
103.757407 55.404335 l
104.510229 55.313086 l
104.88664 55.522857 l
105.451257 56.038449 l
106.204079 56.880781 l
106.392285 57.108354 l
106.768696 57.171849 l
106.956901 57.225487 l
107.145107 57.138102 l
108.086134 56.113401 l
109.215368 56.710195 l
109.96819 56.259034 l
110.532806 56.219808 l
110.909217 56.156082 l
111.66204 56.396363 l
112.038451 56.204201 l
112.414862 55.91652 l
112.979478 55.507866 l
113.7323 54.641752 l
113.920506 54.803262 l
114.861534 57.001118 l
115.237945 56.779145 l
115.614356 56.677641 l
116.367178 57.19622 l
116.743589 57.220063 l
117.12 57.573763 l
117.872822 59.021256 l
118.061028 59.224071 l
118.625644 60.480615 l
119.002055 61.608998 l
119.378466 62.215444 l
120.319494 61.711643 l
120.695905 61.921368 l
121.448727 62.713412 l
122.013344 63.391895 l
122.201549 63.665428 l
122.389755 63.68396 l
122.766166 63.493146 l
122.954372 63.094373 l
123.518988 62.94944 l
123.895399 62.74543 l
124.460016 61.71147 l
124.836427 60.387936 l
125.212838 59.718241 l
125.777455 60.826934 l
126.153866 60.92097 l
126.530277 60.673823 l
126.718482 60.673796 l
127.65951 61.876266 l
128.035921 62.388085 l
128.600538 62.564386 l
128.976949 62.603705 l
129.729771 63.863842 l
130.106182 65.078254 l
130.670798 67.249309 l
131.047209 67.243706 l
131.235415 67.248231 l
131.611826 67.713765 l
131.988237 68.125477 l
132.552854 67.743803 l
132.741059 67.699159 l
132.929265 67.774308 l
133.493881 68.855486 l
134.434909 72.169338 l
134.623115 72.457544 l
134.81132 72.389212 l
135.375937 71.598716 l
135.940553 69.64852 l
136.128759 69.771473 l
136.316964 70.435599 l
136.693375 72.973405 l
137.069787 74.619138 l
137.446198 75.015942 l
138.19902 76.27765 l
138.575431 78.065462 l
139.328253 82.24436 l
139.89287 85.087481 l
140.081075 86.275735 l
141.022103 98.14527 l
141.398514 97.719584 l
141.586719 98.552581 l
142.527747 105.381466 l
142.715953 105.442671 l
143.092364 102.026929 l
143.65698 95.236647 l
143.845186 93.831146 l
144.033391 93.525081 l
144.409802 94.393856 l
144.598008 94.201061 l
144.786213 94.321321 l
144.974419 93.173909 l
145.162625 93.198662 l
145.35083 93.575096 l
145.727241 95.951536 l
146.103652 99.106741 l
146.291858 99.833959 l
146.480063 100.071729 l
146.856474 96.537262 l
147.232885 93.458872 l
147.609296 92.519838 l
147.797502 92.819535 l
148.173913 90.453932 l
148.73853 86.217726 l
148.926735 86.632869 l
149.303146 86.807281 l
149.491352 85.667294 l
149.867763 85.285278 l
150.244174 85.421181 l
150.620585 84.515367 l
151.373407 78.707974 l
151.749818 75.472593 l
152.126229 73.753118 l
152.314435 73.56019 l
152.690846 75.744054 l
153.067257 75.932617 l
153.443668 77.110954 l
153.631874 78.166153 l
154.384696 84.005028 l
154.572901 84.820248 l
154.761107 84.64154 l
155.137518 83.431872 l
155.513929 81.532006 l
156.078545 82.239094 l
156.831368 85.095756 l
157.019573 85.168731 l
157.207779 84.921821 l
157.395984 84.106405 l
158.337012 78.105467 l
158.713423 78.144303 l
158.901628 78.014781 l
159.466245 76.138142 l
159.842656 76.374471 l
160.407273 77.362894 l
160.595478 77.396517 l
160.971889 76.715622 l
161.3483 75.665136 l
162.101123 72.237508 l
162.289328 71.656959 l
162.665739 72.140204 l
162.853945 72.056332 l
163.230356 71.338833 l
163.418561 70.82788 l
163.606767 70.795893 l
163.794972 70.995881 l
164.359589 73.064142 l
164.736 75.191361 l
165.112411 75.53084 l
165.488822 75.73778 l
165.677028 75.987016 l
166.42985 78.560948 l
166.806261 79.213623 l
166.994466 79.294133 l
167.370877 78.671534 l
167.559083 78.658944 l
167.747289 78.830716 l
168.500111 80.118937 l
168.688316 80.447785 l
168.876522 80.296558 l
169.252933 79.640975 l
170.19396 76.639503 l
170.382166 76.669893 l
170.758577 76.366267 l
171.134988 75.936382 l
171.323194 75.875517 l
171.511399 76.101297 l
171.699605 75.895132 l
171.88781 75.502884 l
172.640632 73.170565 l
173.017043 72.90785 l
173.393455 73.029896 l
174.146277 73.61052 l
174.899099 73.756278 l
175.27551 72.938001 l
175.651921 71.521126 l
175.840126 70.720753 l
176.216538 70.333438 l
176.404743 70.044052 l
176.592949 70.166127 l
176.96936 70.155087 l
177.345771 70.381653 l
177.533976 70.279157 l
178.286798 68.87309 l
178.475004 68.860944 l
178.851415 68.651581 l
179.039621 68.676462 l
179.416032 69.227034 l
179.792443 70.048918 l
180.168854 70.303394 l
180.921676 70.37858 l
181.109881 70.24724 l
181.674498 69.346043 l
181.862704 69.35113 l
182.050909 69.542405 l
182.42732 70.951672 l
182.803731 72.505697 l
183.180142 73.110334 l
183.368348 73.306903 l
184.309375 75.459287 l
184.685787 75.319732 l
184.873992 75.211729 l
185.250403 74.282656 l
185.81502 72.628609 l
187.132458 69.361643 l
187.50887 69.214714 l
187.697075 69.370611 l
188.073486 69.410846 l
188.826308 69.810552 l
189.202719 69.871695 l
189.390925 69.968271 l
189.955542 70.706752 l
190.331953 71.25428 l
191.461186 72.273057 l
191.649391 72.09679 l
192.025802 70.962775 l
192.402213 69.585308 l
192.96683 69.236146 l
193.343241 69.514274 l
193.719652 69.828302 l
193.907858 69.863727 l
194.284269 69.631851 l
194.472474 69.638167 l
194.848885 70.165124 l
195.225296 70.595149 l
196.166324 70.191332 l
196.542735 70.331266 l
196.919146 70.161767 l
197.483763 70.075528 l
198.048379 70.318917 l
198.424791 70.006846 l
198.989407 69.253008 l
199.930435 70.185854 l
200.683257 69.990159 l
201.436079 69.918534 l
202.000696 69.628049 l
202.377107 69.439967 l
202.753518 69.498839 l
203.694545 69.87761 l
204.070957 69.843645 l
204.635573 69.520572 l
205.011984 68.718631 l
206.141217 64.800319 l
206.517628 63.11947 l
207.270451 61.388711 l
207.458656 61.20982 l
208.023273 62.06083 l
208.211478 62.100122 l
208.587889 61.654676 l
208.776095 61.420131 l
209.528917 59.707758 l
209.717123 59.47426 l
210.093534 59.479672 l
210.469945 59.19196 l
210.846356 59.001429 l
211.034561 59.038798 l
211.410972 59.83159 l
211.975589 61.286738 l
212.163794 61.44276 l
212.352 61.376186 l
212.728411 61.095085 l
213.104822 60.78249 l
214.422261 60.799122 l
215.363289 61.332385 l
215.551494 61.209288 l
216.304316 60.059679 l
216.868933 60.040209 l
217.245344 60.16844 l
217.80996 60.079074 l
218.374577 59.90113 l
218.750988 59.914196 l
219.315605 59.658389 l
219.692016 59.479376 l
220.633043 59.526342 l
220.821249 59.448737 l
221.19766 59.645661 l
221.950482 60.1784 l
222.703304 60.066118 l
223.079715 60.424788 l
223.832538 61.334269 l
224.208949 61.231968 l
224.58536 61.024178 l
224.773565 60.782469 l
225.149976 60.830186 l
226.279209 60.854049 l
226.655621 61.047903 l
227.408443 61.031901 l
227.784854 61.088161 l
228.914087 61.460144 l
229.290498 61.443426 l
229.855115 61.34064 l
230.231526 61.415053 l
230.796142 61.751359 l
231.172553 62.684033 l
231.925375 64.893959 l
232.678198 65.581925 l
233.242814 65.301605 l
233.43102 65.113036 l
234.183842 65.513204 l
234.560253 65.792033 l
235.501281 66.163532 l
235.877692 65.900029 l
236.065897 65.773905 l
236.818719 66.064752 l
237.759747 67.455911 l
237.947953 67.643355 l
238.136158 68.028152 l
238.700775 70.977875 l
239.265391 74.123917 l
239.453597 74.658554 l
239.830008 74.199499 l
240.018213 73.975763 l
240.206419 74.037979 l
240.58283 74.814013 l
240.771036 74.595283 l
240.959241 74.589513 l
241.147447 74.931186 l
241.712063 76.855994 l
241.900269 77.165152 l
242.841296 76.314651 l
243.594119 74.384827 l
244.535146 74.851358 l
246.417202 81.357872 l
247.358229 86.903407 l
247.546435 87.580219 l
247.73464 87.279962 l
247.922846 85.858873 l
248.111051 85.619497 l
248.487462 84.481594 l
249.052079 85.580642 l
249.240285 85.470328 l
249.804901 87.558787 l
249.993107 87.761433 l
250.181312 87.225 l
250.934134 82.679027 l
251.12234 81.801906 l
251.310545 81.939806 l
251.498751 81.750472 l
251.875162 83.242994 l
252.251573 82.433596 l
252.81619 80.734111 l
253.569012 80.093683 l
253.945423 81.216432 l
255.262862 86.89201 l
255.451067 86.754268 l
255.639273 86.816797 l
255.827478 86.457162 l
256.203889 84.916762 l
256.956711 82.120241 l
257.333123 82.850935 l
257.897739 82.928642 l
258.27415 81.986026 l
258.650561 82.165329 l
259.215178 81.126523 l
259.591589 80.183193 l
259.779794 80.428267 l
260.532617 82.989979 l
260.720822 83.041578 l
261.850055 82.189466 l
262.038261 82.222589 l
262.414672 82.498977 l
263.732111 81.609514 l
264.108522 79.72862 l
264.673138 75.97774 l
265.049549 75.484034 l
265.42596 75.761264 l
265.990577 75.839484 l
266.366988 75.384354 l
266.555194 75.316202 l
266.931605 75.76537 l
267.11981 76.174001 l
267.496221 76.370072 l
268.81366 75.06632 l
269.190071 75.221939 l
269.378277 75.088748 l
269.754688 74.689379 l
269.942893 75.075722 l
270.319304 77.381596 l
270.50751 78.853578 l
270.695715 79.307884 l
270.883921 79.261856 l
271.072126 79.013111 l
271.260332 79.042002 l
271.448538 78.8946 l
272.013154 79.215594 l
272.20136 79.193605 l
272.389565 79.044146 l
273.142387 77.677252 l
273.518798 77.606125 l
273.895209 77.096781 l
274.271621 76.536536 l
274.836237 75.482567 l
275.777265 72.215691 l
276.153676 72.311479 l
276.530087 73.212802 l
276.718292 73.474537 l
277.094704 73.296815 l
277.471115 72.715661 l
277.847526 72.880196 l
278.223937 73.23168 l
278.412142 73.167266 l
279.164964 72.315562 l
279.541375 72.075818 l
279.917787 71.579576 l
280.294198 71.64178 l
280.482403 71.866808 l
280.670609 72.436681 l
281.423431 72.697715 l
281.611636 72.46987 l
281.988047 72.4862 l
282.364458 72.576177 l
282.552664 72.534972 l
282.929075 72.188933 l
283.305486 72.353927 l
283.493692 72.653549 l
283.870103 73.90961 l
284.434719 75.122094 l
284.81113 75.138646 l
285.752158 77.665796 l
286.316775 77.531016 l
287.069597 76.703392 l
287.257802 76.517521 l
287.446008 76.547762 l
287.822419 77.664683 l
288.19883 79.059507 l
288.387036 79.421091 l
288.763447 79.367202 l
288.951652 79.137914 l
289.328063 79.350922 l
289.704474 80.165575 l
290.080885 81.04545 l
291.021913 82.203195 l
291.210119 82.007481 l
291.774735 81.026586 l
292.527557 80.397048 l
292.715763 80.512711 l
292.903968 80.456527 l
293.280379 79.477114 l
293.656791 77.79744 l
293.844996 77.387612 l
294.409613 77.496526 l
294.786024 77.895949 l
294.974229 77.954084 l
295.162435 77.766587 l
295.35064 77.320373 l
295.727051 75.548284 l
296.668079 65.581459 l
296.856285 65.918336 l
297.04449 65.699922 l
297.420901 66.7654 l
297.797312 68.191559 l
298.173723 69.118019 l
298.550134 69.879406 l
298.73834 70.455522 l
298.926545 70.364992 l
299.302957 69.474738 l
299.491162 69.134406 l
299.679368 69.2474 l
299.867573 69.586611 l
300.243984 70.578407 l
301.373217 72.491993 l
302.314245 71.168315 l
302.690656 71.250904 l
303.255273 71.983647 l
303.631684 71.805029 l
303.819889 71.799823 l
304.008095 72.018622 l
305.325534 75.90555 l
305.701945 77.591574 l
305.89015 77.684797 l
306.454767 78.569968 l
306.831178 79.774434 l
307.019383 79.903337 l
307.207589 79.668851 l
307.584 78.164532 l
307.772206 78.100129 l
308.525028 79.988725 l
308.713233 79.941301 l
308.901439 80.184265 l
309.089644 80.144225 l
309.466055 79.403409 l
309.842466 78.314795 l
310.218877 78.059864 l
310.407083 78.165687 l
311.159905 80.188489 l
311.912727 80.690877 l
312.100933 80.29716 l
312.477344 80.504184 l
312.665549 80.48456 l
312.853755 80.641054 l
313.230166 80.364154 l
313.606577 79.839792 l
313.794783 79.477572 l
314.171194 79.614931 l
315.112221 79.420008 l
315.488632 79.670341 l
315.865043 79.605697 l
316.241455 78.770355 l
316.617866 78.592437 l
317.558893 78.628373 l
317.747099 78.621089 l
318.688126 79.175265 l
318.876332 79.188682 l
319.064538 79.051496 l
319.440949 79.015999 l
320.381976 78.750331 l
320.758387 79.07057 l
321.511209 80.252982 l
321.887621 81.762336 l
322.452237 84.729166 l
322.828648 85.369665 l
323.393265 85.676486 l
323.58147 85.551292 l
324.146087 86.657446 l
324.334292 86.690591 l
324.710704 86.548222 l
325.27532 86.448612 l
325.839937 87.34345 l
326.216348 87.424746 l
326.404553 87.261117 l
326.780964 86.598339 l
326.96917 86.578742 l
327.157375 86.338934 l
327.345581 86.312243 l
327.910198 85.742507 l
328.66302 86.442034 l
328.851225 86.014227 l
329.227636 84.273509 l
329.604047 82.271047 l
329.792253 82.290854 l
329.980458 82.10837 l
330.733281 82.476773 l
331.297897 83.237013 l
332.050719 84.378945 l
332.42713 83.942919 l
332.991747 82.945248 l
333.932775 83.747729 l
334.309186 83.623226 l
335.062008 83.365269 l
335.438419 83.610381 l
335.81483 84.056544 l
336.567652 85.734326 l
336.944063 85.872723 l
337.320474 85.767035 l
337.696885 86.086412 l
338.073296 87.738951 l
338.637913 90.340563 l
339.014324 90.751072 l
340.519968 92.762456 l
340.896379 94.413152 l
341.460996 96.992591 l
341.837407 96.770202 l
342.213818 97.868122 l
343.154846 100.415548 l
343.907668 104.218993 l
344.472285 105.216848 l
345.036901 103.834133 l
345.225107 103.059807 l
345.413312 103.076259 l
346.166134 106.517075 l
346.35434 106.156721 l
346.542545 106.390395 l
346.730751 106.376116 l
346.918957 106.001688 l
347.107162 105.989583 l
347.671779 104.513262 l
348.04819 105.09344 l
348.236395 105.681129 l
348.801012 110.21089 l
349.177423 114.242246 l
349.365628 115.104669 l
349.74204 115.502038 l
349.930245 115.337424 l
350.118451 115.61968 l
351.624095 125.121626 l
353.129739 137.935615 l
353.317945 138.156192 l
354.070767 134.981153 l
354.258972 135.332446 l
354.447178 136.03649 l
354.635383 135.78328 l
354.823589 134.92644 l
355.011794 134.64705 l
355.388206 133.134981 l
355.952822 129.570336 l
356.141028 130.121555 l
356.329233 129.60786 l
356.517439 129.685578 l
357.082055 130.828488 l
357.270261 131.882305 l
357.646672 132.708738 l
357.834877 133.354052 l
359.152316 142.897577 l
359.340522 144.659772 l
359.716933 145.040817 l
359.905138 145.666151 l
360.093344 145.748969 l
360.469755 146.895189 l
360.846166 148.734884 l
361.222577 150.30579 l
361.410783 150.499216 l
361.598988 149.878502 l
361.787194 148.855528 l
362.163605 145.878091 l
362.540016 144.70542 l
362.728221 144.899148 l
363.292838 146.677073 l
363.481043 146.548471 l
363.669249 146.844726 l
363.857455 146.897371 l
364.233866 148.520597 l
364.798482 151.446511 l
365.174893 152.269671 l
365.363099 152.229372 l
365.551304 152.381648 l
365.927715 151.676904 l
366.304126 152.146658 l
366.868743 150.906719 l
367.245154 149.528052 l
367.621565 149.633913 l
367.809771 150.19288 l
368.186182 151.541659 l
368.750798 152.39133 l
369.315415 152.224692 l
369.503621 151.965975 l
369.691826 152.057498 l
370.068237 151.931987 l
370.256443 152.065066 l
371.009265 153.841058 l
371.385676 154.343852 l
371.762087 153.152473 l
372.89132 148.297629 l
373.079526 147.939287 l
373.267731 148.158329 l
373.644142 149.199847 l
373.832348 150.290059 l
374.208759 150.905207 l
374.58517 151.514246 l
374.961581 151.079232 l
375.337992 151.114469 l
375.526198 151.828917 l
375.714403 151.771097 l
375.902609 151.868751 l
376.090814 151.335542 l
376.655431 147.964489 l
376.843636 146.300564 l
377.031842 145.699793 l
377.220047 144.669619 l
377.784664 139.675716 l
378.161075 136.600941 l
378.349281 136.757145 l
378.537486 135.9169 l
378.913897 136.492508 l
379.102103 137.227727 l
379.854925 134.383534 l
380.04313 134.75762 l
380.419542 136.276016 l
380.795953 136.00922 l
380.984158 135.279297 l
381.172364 133.80351 l
381.360569 133.381142 l
381.73698 133.755379 l
382.866213 138.309544 l
383.054419 137.878585 l
383.619036 134.339021 l
383.995447 132.086354 l
384.183652 131.54095 l
384.371858 130.623852 l
384.936474 131.331185 l
385.12468 131.359049 l
385.501091 133.155969 l
386.065708 132.644576 l
386.253913 132.406006 l
386.630324 132.722046 l
387.194941 131.753312 l
387.571352 131.532698 l
387.759557 131.631337 l
388.135968 131.001565 l
388.512379 129.732407 l
388.888791 128.857783 l
389.076996 128.452304 l
389.265202 128.389887 l
389.453407 128.455651 l
389.641613 128.722139 l
389.829818 129.611666 l
390.959051 138.297004 l
391.147257 139.311078 l
391.335462 139.651628 l
391.523668 139.683269 l
391.711874 139.507717 l
392.088285 138.354147 l
392.27649 138.647574 l
392.652901 140.79095 l
393.029312 142.929774 l
393.217518 143.506698 l
393.405723 143.594106 l
393.593929 144.127774 l
393.782134 144.181103 l
394.346751 144.90327 l
394.723162 144.141578 l
394.911368 144.174543 l
395.099573 144.563758 l
395.66419 146.594277 l
396.040601 146.324381 l
396.417012 145.965295 l
396.605217 146.146775 l
396.793423 145.949061 l
396.981628 146.101405 l
397.35804 145.876014 l
397.546245 145.931826 l
398.299067 147.552457 l
398.487273 147.20877 l
398.487273 147.20877 l
stroke
grestore
1.000 0.647 0.000 setrgbcolor
gsave
357.1 266.1 57.6 38.02 clipbox
73.832727 50.295515 m
74.585549 50.674982 l
74.96196 50.697013 l
75.526577 50.951417 l
75.902988 50.931157 l
76.279399 51.153976 l
76.467605 51.144155 l
76.65581 51.580704 l
76.844016 51.071936 l
77.032221 51.091117 l
77.220427 50.695088 l
77.785043 50.7306 l
77.973249 50.265202 l
78.161455 50.24864 l
78.34966 50.42339 l
78.726071 50.39743 l
78.914277 50.439606 l
79.102482 50.722088 l
80.419921 50.784215 l
80.608126 50.680511 l
80.984538 50.765265 l
81.73736 50.956524 l
82.678387 51.223692 l
82.866593 51.184958 l
83.243004 51.295988 l
83.431209 51.000422 l
83.807621 51.083183 l
84.936854 51.228044 l
85.313265 51.295754 l
85.50147 51.2884 l
85.689676 51.569258 l
86.066087 51.593222 l
86.254292 51.765994 l
86.630704 51.671642 l
86.818909 51.82718 l
87.19532 51.827712 l
87.571731 52.190733 l
88.324553 52.169009 l
88.512759 51.698693 l
88.88917 51.832334 l
89.077375 51.782531 l
89.265581 51.968701 l
89.641992 52.037554 l
90.018403 52.082346 l
90.394814 50.90848 l
90.58302 50.968017 l
90.959431 51.54939 l
91.147636 51.527705 l
91.712253 50.814875 l
91.900458 50.92602 l
92.088664 51.23586 l
92.841486 51.226272 l
93.217897 51.474433 l
93.406103 51.400561 l
93.594308 51.637864 l
93.970719 51.60678 l
94.158925 51.826034 l
94.535336 51.801289 l
94.911747 51.965321 l
95.099953 51.936329 l
95.288158 51.785858 l
96.04098 51.884504 l
96.229186 51.774097 l
96.605597 52.023363 l
96.793802 52.003888 l
97.170213 52.086152 l
97.358419 52.020103 l
97.73483 52.283057 l
97.923036 52.201825 l
98.111241 52.368505 l
98.487652 52.375074 l
98.864063 52.833717 l
99.052269 52.816283 l
99.42868 53.1467 l
99.616885 53.090523 l
99.805091 53.156458 l
99.993296 53.559924 l
100.181502 53.600292 l
100.557913 54.254656 l
100.746119 54.285506 l
100.934324 54.065652 l
101.310735 54.096774 l
101.498941 53.938978 l
101.687146 54.202637 l
101.875352 54.112103 l
102.251763 55.147934 l
102.439968 54.978192 l
102.628174 55.293345 l
102.816379 56.05231 l
103.004585 55.931405 l
103.192791 56.435537 l
103.380996 55.760609 l
103.569202 56.021919 l
103.757407 55.687443 l
103.945613 56.006939 l
104.322024 56.045468 l
104.510229 56.481897 l
104.698435 56.523061 l
104.88664 56.969221 l
105.263051 56.983722 l
105.451257 58.346382 l
105.639462 57.505204 l
105.827668 57.574954 l
106.015874 58.131372 l
106.204079 58.200246 l
106.392285 58.405376 l
106.58049 57.477295 l
106.768696 57.82591 l
106.956901 57.663427 l
107.145107 56.648434 l
107.709723 56.898443 l
107.897929 57.321438 l
108.086134 57.255149 l
108.462545 57.745422 l
108.650751 57.692238 l
109.027162 56.917613 l
109.403573 56.938939 l
109.591779 57.198719 l
109.779984 57.094534 l
109.96819 56.783863 l
110.156395 56.87457 l
110.344601 56.5667 l
110.532806 57.105802 l
110.721012 57.254109 l
111.097423 57.293542 l
111.285628 56.836091 l
111.66204 57.009562 l
111.850245 56.354512 l
112.038451 56.203988 l
112.226656 56.429922 l
112.603067 56.247897 l
112.979478 54.679202 l
113.167684 54.601189 l
113.355889 56.17715 l
113.544095 55.963935 l
113.7323 55.965646 l
113.920506 57.571739 l
114.108711 58.054796 l
114.296917 58.123741 l
114.485123 57.839915 l
114.673328 57.104926 l
114.861534 57.117644 l
115.42615 57.966939 l
115.614356 57.817323 l
115.802561 58.281358 l
115.990767 58.267755 l
116.178972 57.615797 l
116.367178 58.002828 l
116.555383 57.986968 l
116.743589 59.635929 l
116.931794 59.76861 l
117.12 59.605443 l
117.308206 60.557479 l
117.496411 60.172126 l
117.684617 60.106469 l
118.061028 62.080542 l
118.249233 62.141079 l
118.437439 63.737492 l
118.81385 63.340684 l
119.002055 63.913643 l
119.190261 63.149911 l
119.378466 63.050807 l
119.566672 63.255901 l
119.943083 62.594653 l
120.319494 63.958288 l
120.5077 63.925369 l
120.695905 64.036079 l
121.072316 63.953409 l
121.260522 64.989262 l
121.636933 64.891177 l
121.825138 66.159227 l
122.013344 64.882963 l
122.201549 64.902925 l
122.389755 63.972854 l
122.57796 64.52989 l
122.766166 64.130471 l
122.954372 65.169031 l
123.142577 63.844407 l
123.518988 63.918378 l
123.895399 63.412403 l
124.083605 62.498327 l
124.27181 60.026932 l
124.460016 59.629439 l
124.648221 61.737062 l
124.836427 61.669406 l
125.024632 61.409299 l
125.212838 62.429544 l
125.401043 62.561073 l
125.589249 62.241069 l
125.777455 61.251275 l
125.96566 61.786212 l
126.153866 61.790962 l
126.342071 62.426238 l
126.718482 62.189148 l
126.906688 63.425495 l
127.283099 63.280213 l
127.471304 64.036887 l
127.847715 64.165329 l
128.035921 63.514799 l
128.224126 63.952647 l
128.412332 63.874565 l
128.600538 64.096467 l
128.788743 64.96729 l
128.976949 64.980305 l
129.165154 65.660588 l
129.541565 65.814232 l
129.729771 68.670777 l
130.106182 69.680623 l
130.482593 68.824483 l
130.670798 68.789614 l
130.859004 69.301785 l
131.047209 70.271739 l
131.423621 70.286085 l
131.611826 69.873553 l
131.800032 69.967958 l
131.988237 69.078346 l
132.176443 69.939257 l
132.364648 69.926475 l
132.552854 69.490762 l
132.741059 70.949535 l
132.929265 70.876569 l
133.870292 75.887807 l
134.058498 75.612206 l
134.246704 74.160438 l
134.623115 74.698011 l
134.81132 74.811239 l
134.999526 73.121742 l
135.187731 72.543305 l
135.375937 69.258138 l
135.564142 72.470152 l
135.752348 72.252157 l
136.128759 77.341766 l
136.316964 77.548753 l
136.50517 77.349892 l
136.693375 78.083689 l
137.069787 78.284539 l
137.257992 79.086593 l
137.446198 78.965977 l
137.634403 79.020896 l
137.822609 80.778913 l
138.010814 81.015378 l
138.19902 84.672527 l
138.387225 85.574643 l
138.575431 85.445578 l
138.763636 86.325193 l
138.951842 89.162108 l
139.140047 89.146578 l
139.516458 91.861818 l
139.704664 91.88643 l
140.269281 112.183461 l
140.457486 105.566103 l
140.645692 104.514482 l
140.833897 105.281525 l
141.022103 113.783885 l
141.398514 109.839446 l
141.774925 122.343429 l
142.151336 120.275746 l
142.339542 115.558423 l
142.527747 114.194268 l
143.092364 100.303848 l
143.468775 101.622733 l
143.65698 100.166458 l
143.845186 107.285829 l
144.033391 102.630152 l
144.221597 101.988571 l
144.409802 98.142918 l
144.598008 101.802015 l
144.786213 100.378532 l
144.974419 105.038509 l
145.162625 105.221098 l
145.35083 105.167091 l
145.539036 113.389961 l
145.727241 113.948754 l
145.915447 113.319976 l
146.103652 106.040138 l
146.668269 98.455751 l
146.856474 100.828723 l
147.04468 100.360005 l
147.232885 100.597769 l
147.421091 101.211249 l
147.609296 99.446965 l
147.797502 90.059682 l
147.985708 90.9397 l
148.173913 90.282591 l
148.362119 97.123068 l
148.550324 91.555216 l
148.73853 91.586769 l
148.926735 90.468412 l
149.114941 90.696409 l
149.303146 91.119214 l
149.491352 89.492978 l
149.679557 91.630512 l
149.867763 91.270739 l
150.055968 90.42832 l
150.244174 86.46651 l
150.432379 86.075404 l
150.620585 82.22657 l
150.808791 81.528043 l
150.996996 81.338649 l
151.185202 79.597377 l
151.373407 73.581704 l
151.561613 73.915427 l
151.749818 78.439216 l
151.938024 78.980678 l
152.126229 78.998177 l
152.50264 79.377086 l
152.690846 78.316199 l
153.820079 89.939831 l
154.008285 90.036642 l
154.19649 91.112904 l
154.384696 90.556677 l
154.572901 85.492074 l
154.761107 86.381985 l
154.949312 86.417356 l
155.137518 84.588939 l
155.325723 87.100271 l
155.513929 86.98802 l
155.702134 87.18332 l
155.89034 89.645376 l
156.078545 89.343938 l
156.266751 90.868541 l
156.643162 91.599904 l
157.019573 86.212285 l
157.207779 85.451201 l
157.58419 80.927568 l
157.772395 81.048387 l
157.960601 82.610139 l
158.337012 82.497272 l
158.525217 79.433578 l
158.713423 80.097146 l
159.089834 78.714444 l
159.654451 81.704649 l
159.842656 80.713439 l
160.030862 80.8481 l
160.407273 80.431836 l
160.595478 79.818123 l
160.783684 77.577351 l
160.971889 77.901605 l
161.160095 77.863974 l
161.3483 73.750081 l
161.536506 73.95402 l
161.724711 73.962032 l
161.912917 74.340607 l
162.101123 75.783394 l
162.289328 75.845194 l
162.477534 73.534303 l
162.665739 72.676791 l
162.853945 72.795436 l
163.04215 74.270539 l
163.230356 73.044229 l
163.606767 73.918534 l
163.794972 77.468156 l
164.171383 78.194837 l
164.359589 79.366661 l
164.547794 79.472011 l
164.736 77.651388 l
164.924206 78.689494 l
165.112411 78.73195 l
165.300617 81.338604 l
165.488822 81.163302 l
165.677028 81.638579 l
165.865233 81.651142 l
166.053439 84.045655 l
166.241644 84.440713 l
166.618055 81.945635 l
166.806261 81.630684 l
166.994466 83.193431 l
167.182672 82.905666 l
167.559083 82.758747 l
167.747289 84.368141 l
168.1237 84.999964 l
168.311905 84.332968 l
168.500111 84.337989 l
168.688316 82.786412 l
168.876522 83.146287 l
169.064727 83.101331 l
169.252933 79.859829 l
169.441138 79.919756 l
169.629344 79.839538 l
169.817549 80.56565 l
170.005755 80.02418 l
170.19396 79.86858 l
170.382166 78.462942 l
170.570372 78.978823 l
170.758577 78.975067 l
170.946783 80.008575 l
171.134988 79.539246 l
171.323194 79.581899 l
171.511399 76.343062 l
171.88781 76.424101 l
172.076016 75.523303 l
172.264221 75.59619 l
172.452427 75.529665 l
172.640632 75.973827 l
172.828838 75.686948 l
173.017043 75.692051 l
173.393455 76.687428 l
173.58166 76.656589 l
173.769866 76.129422 l
173.958071 76.574094 l
174.146277 76.588375 l
174.334482 76.807311 l
174.522688 76.591161 l
174.710893 76.573392 l
174.899099 73.343177 l
175.087304 73.723684 l
175.27551 73.737672 l
175.463715 71.566828 l
175.651921 72.84294 l
175.840126 72.805951 l
176.028332 72.313 l
176.404743 72.067892 l
176.592949 73.18954 l
176.781154 73.103718 l
176.96936 73.281325 l
177.345771 70.896273 l
177.910387 71.192811 l
178.098593 70.726238 l
178.286798 70.766434 l
178.475004 69.999205 l
178.851415 71.794285 l
179.039621 72.146001 l
179.227826 72.763698 l
179.416032 72.636012 l
179.604237 72.674866 l
179.792443 72.490499 l
179.980648 72.639835 l
180.168854 73.25332 l
180.357059 73.139622 l
180.73347 71.804335 l
180.921676 71.903773 l
181.109881 71.292039 l
181.486292 71.309305 l
181.862704 73.701469 l
182.050909 75.441307 l
182.42732 75.851222 l
182.615526 75.492804 l
182.803731 75.940751 l
182.991937 76.859742 l
183.180142 76.956865 l
183.368348 79.021615 l
183.556553 78.775721 l
183.744759 77.822376 l
183.932964 78.756183 l
184.309375 78.905082 l
184.685787 76.401335 l
184.873992 76.543195 l
185.438609 74.245978 l
185.81502 74.177546 l
186.191431 71.879093 l
186.379636 71.878023 l
186.567842 70.886082 l
186.756047 71.549232 l
186.944253 71.687655 l
187.132458 71.321977 l
187.320664 71.747768 l
187.697075 71.555465 l
187.885281 72.032961 l
188.073486 71.907175 l
188.261692 72.225002 l
188.449897 71.896324 l
188.638103 72.56645 l
188.826308 71.716542 l
189.202719 73.121863 l
189.390925 73.194431 l
189.57913 73.121234 l
189.767336 74.202685 l
189.955542 74.503693 l
190.143747 73.943168 l
190.520158 74.274865 l
190.708364 75.157498 l
191.084775 75.223533 l
191.27298 74.638037 l
191.461186 72.019676 l
191.649391 72.281275 l
192.025802 71.454073 l
192.214008 71.27903 l
192.402213 71.492185 l
192.590419 71.402891 l
192.778625 71.606654 l
192.96683 72.273081 l
193.343241 72.362931 l
193.719652 71.493383 l
194.096063 71.963022 l
194.284269 72.931442 l
194.472474 73.263184 l
195.037091 72.598114 l
195.225296 72.155871 l
195.413502 72.413337 l
195.601708 72.993412 l
195.789913 72.471102 l
196.166324 72.704305 l
196.35453 72.517967 l
196.542735 72.162692 l
196.730941 72.214025 l
196.919146 72.540721 l
197.860174 72.765277 l
198.048379 71.308518 l
198.612996 71.504042 l
198.989407 72.658663 l
199.365818 72.538763 l
199.742229 72.233653 l
199.930435 72.398411 l
200.306846 72.205151 l
200.495051 72.308699 l
201.247874 72.111879 l
201.624285 71.542766 l
201.81249 71.512558 l
202.377107 71.854625 l
202.565312 71.860223 l
202.753518 72.033901 l
202.941723 72.036964 l
203.129929 72.426099 l
203.694545 71.887801 l
203.882751 71.807821 l
204.070957 71.924379 l
204.259162 71.783921 l
204.447368 71.029345 l
204.635573 69.41401 l
204.823779 68.795517 l
205.011984 68.649349 l
205.20019 68.70403 l
205.388395 67.669864 l
205.576601 65.23571 l
205.764806 64.542446 l
205.953012 64.761289 l
206.141217 63.838966 l
206.329423 64.007063 l
206.517628 61.967722 l
206.705834 62.341431 l
206.89404 61.851549 l
207.270451 63.663506 l
207.458656 63.72123 l
207.646862 63.097287 l
207.835067 63.292834 l
208.023273 63.189044 l
208.399684 62.101905 l
208.587889 61.665243 l
208.776095 60.358228 l
209.340711 60.813945 l
209.528917 60.437367 l
209.905328 60.362538 l
210.093534 59.868028 l
210.281739 59.729544 l
210.469945 59.840543 l
210.846356 60.939433 l
211.222767 62.581445 l
211.410972 63.168206 l
211.599178 62.304596 l
211.787383 62.753336 l
211.975589 62.628894 l
212.163794 61.930624 l
212.540206 62.062852 l
212.728411 61.661103 l
212.916617 62.309651 l
213.104822 61.762999 l
213.293028 61.8446 l
213.481233 61.693328 l
213.669439 62.092394 l
213.857644 62.130593 l
214.04585 61.964313 l
214.422261 62.341123 l
214.610466 62.786518 l
214.986877 62.778988 l
215.363289 61.284967 l
215.551494 61.285336 l
215.927905 60.844759 l
216.116111 61.325544 l
216.304316 61.188755 l
216.680727 61.231602 l
217.057138 61.507324 l
217.245344 60.908186 l
217.433549 60.875803 l
217.621755 61.058103 l
217.80996 60.977411 l
218.186372 61.021281 l
218.562783 60.931576 l
218.750988 60.523606 l
218.939194 60.419688 l
219.127399 60.606109 l
219.315605 60.509085 l
219.692016 60.745617 l
219.880221 60.552262 l
220.256632 60.595863 l
220.444838 60.358446 l
220.633043 60.316309 l
220.821249 61.342087 l
221.19766 61.439188 l
221.385866 61.220336 l
221.762277 61.162676 l
222.138688 61.138411 l
222.326893 61.182127 l
222.515099 61.379295 l
222.703304 62.303928 l
222.89151 62.364515 l
223.079715 62.598119 l
223.267921 62.435193 l
223.456126 62.583868 l
223.644332 63.185192 l
223.832538 61.749633 l
224.020743 62.063314 l
224.397154 62.005154 l
224.58536 62.070054 l
225.149976 61.93332 l
225.338182 61.61132 l
225.526387 62.155446 l
226.091004 62.169736 l
226.279209 62.457071 l
227.032032 62.176707 l
227.220237 62.205364 l
227.596648 62.708932 l
227.973059 62.64276 l
228.34947 62.864733 l
228.537676 62.617994 l
229.102292 62.624812 l
229.290498 62.400567 l
229.478704 62.446209 l
229.666909 62.834343 l
229.855115 62.791435 l
230.04332 63.092559 l
230.419731 63.087205 l
230.607937 63.234994 l
230.796142 66.048067 l
230.984348 66.344377 l
231.172553 66.157301 l
231.360759 66.609988 l
231.548964 66.705317 l
231.925375 67.53416 l
232.113581 67.176339 l
232.301787 67.693889 l
232.489992 66.634061 l
232.678198 66.77977 l
232.866403 66.748071 l
233.054609 67.086595 l
233.242814 66.638529 l
233.43102 67.256608 l
233.619225 67.34797 l
233.807431 67.563433 l
233.995636 67.566244 l
234.183842 67.690422 l
234.372047 67.584694 l
234.748458 68.494961 l
234.936664 68.171535 l
235.12487 67.252602 l
235.313075 67.627062 l
235.501281 67.578377 l
235.689486 67.659647 l
235.877692 67.503115 l
236.065897 67.53832 l
236.442308 68.001946 l
236.818719 69.469127 l
237.19513 69.135533 l
237.383336 69.409965 l
237.947953 71.691314 l
238.136158 75.158941 l
238.324364 74.12022 l
238.512569 77.372885 l
238.88898 78.85112 l
239.077186 77.614963 l
239.265391 75.597685 l
239.453597 75.223418 l
239.641802 78.800278 l
239.830008 78.081286 l
240.018213 77.871254 l
240.206419 76.613411 l
240.58283 78.066765 l
240.771036 78.329411 l
240.959241 80.921474 l
241.147447 81.020231 l
241.523858 80.607794 l
241.712063 79.103636 l
241.900269 80.187306 l
242.088474 80.191119 l
242.27668 80.900714 l
242.653091 76.805494 l
242.841296 77.230103 l
243.029502 77.296314 l
243.217708 78.047622 l
243.405913 77.789752 l
243.594119 76.669954 l
243.782324 78.132706 l
243.97053 77.736753 l
244.158735 78.72078 l
244.346941 78.970445 l
244.535146 80.725732 l
244.911557 81.824962 l
245.099763 83.167233 l
245.287968 82.199307 l
245.664379 83.952475 l
246.040791 88.332911 l
246.417202 89.676645 l
246.793613 97.052801 l
246.981818 90.120936 l
247.170024 94.902794 l
247.358229 93.038698 l
247.546435 88.599062 l
247.73464 87.986606 l
247.922846 88.859705 l
248.111051 93.402219 l
248.299257 90.227397 l
248.487462 89.436532 l
248.863874 91.44653 l
249.052079 94.666802 l
249.240285 95.721006 l
249.616696 90.968383 l
249.804901 92.705874 l
249.993107 91.107929 l
250.181312 86.477673 l
250.369518 89.122004 l
250.557723 83.437775 l
250.745929 84.502995 l
250.934134 88.217091 l
251.12234 87.8211 l
251.310545 88.703712 l
251.686957 87.004043 l
251.875162 85.157857 l
252.063368 84.880036 l
252.251573 85.276759 l
252.439779 85.174612 l
252.627984 83.731543 l
252.81619 83.947275 l
253.004395 83.836847 l
253.192601 84.175025 l
253.569012 87.325851 l
253.757217 87.797219 l
254.133628 89.533093 l
254.321834 92.644325 l
254.51004 91.402852 l
254.698245 93.31001 l
254.886451 93.447091 l
255.074656 92.908742 l
255.262862 90.696262 l
255.451067 91.792526 l
255.639273 91.09699 l
256.015684 85.822888 l
256.203889 86.921425 l
256.392095 87.14201 l
256.5803 86.583825 l
256.768506 86.980856 l
256.956711 89.290553 l
257.144917 88.686995 l
257.333123 86.255971 l
257.521328 86.188874 l
257.709534 87.320613 l
257.897739 86.311435 l
258.085945 86.277771 l
258.27415 87.145246 l
258.462356 86.419859 l
258.838767 83.772216 l
259.026972 84.132117 l
259.215178 84.220359 l
259.403383 84.870869 l
259.591589 87.246776 l
259.779794 88.150572 l
260.156206 87.983063 l
260.344411 86.980356 l
260.532617 87.634139 l
260.909028 86.965681 l
261.097233 86.146698 l
261.285439 86.371213 l
261.473644 87.375884 l
261.66185 87.159189 l
261.850055 87.14929 l
262.602877 86.364549 l
262.791083 86.820164 l
262.979289 86.424327 l
263.167494 85.678566 l
263.3557 85.884861 l
263.543905 84.538045 l
263.732111 80.186536 l
263.920316 79.719019 l
264.108522 78.268516 l
264.296727 78.801049 l
264.484933 78.920836 l
264.673138 78.272753 l
264.861344 79.239524 l
265.049549 79.297992 l
265.237755 79.525665 l
265.614166 78.653067 l
265.802372 78.623063 l
265.990577 77.552489 l
266.178783 78.870841 l
266.366988 78.786027 l
266.555194 80.318687 l
266.743399 80.314758 l
266.931605 79.093121 l
267.11981 79.240564 l
267.308016 79.14716 l
267.496221 79.41593 l
267.872632 78.063876 l
268.060838 78.34994 l
268.249043 77.877609 l
268.437249 77.900295 l
268.625455 78.944177 l
268.81366 78.911284 l
269.001866 78.157279 l
269.190071 76.011124 l
269.378277 75.865993 l
269.754688 82.906552 l
269.942893 84.03024 l
270.131099 82.748479 l
270.319304 83.57501 l
270.50751 82.539949 l
270.695715 82.475857 l
271.072126 83.065934 l
271.260332 82.699948 l
271.448538 83.51608 l
271.636743 83.100638 l
271.824949 83.228321 l
272.013154 82.692553 l
272.20136 81.004747 l
272.389565 81.171795 l
272.577771 82.04886 l
272.765976 80.818981 l
272.954182 81.141405 l
273.142387 80.990804 l
273.518798 79.817083 l
273.895209 79.995184 l
274.083415 78.732065 l
274.459826 78.369314 l
274.836237 75.305459 l
275.024443 75.45059 l
275.212648 73.845865 l
275.400854 74.704212 l
275.589059 74.832781 l
275.777265 76.220155 l
275.96547 75.862604 l
276.153676 77.120061 l
276.530087 75.753563 l
276.718292 75.394972 l
276.906498 75.345593 l
277.094704 74.945327 l
277.471115 76.31013 l
277.65932 76.146973 l
277.847526 76.214609 l
278.223937 75.052827 l
278.600348 74.931114 l
278.788553 75.172653 l
278.976759 74.463443 l
279.164964 74.630606 l
279.541375 72.708542 l
279.729581 75.297524 l
279.917787 74.783595 l
280.105992 74.935004 l
280.294198 74.754091 l
280.482403 76.183872 l
280.670609 75.443079 l
281.04702 74.944826 l
281.235225 74.951297 l
281.611636 75.362155 l
281.799842 75.686813 l
281.988047 75.048359 l
282.176253 74.850807 l
282.364458 74.879193 l
282.552664 73.988108 l
282.74087 75.459526 l
283.117281 75.556665 l
283.493692 78.691545 l
283.681897 78.218482 l
283.870103 77.352895 l
284.058308 78.765459 l
284.246514 78.136981 l
284.434719 78.724285 l
284.622925 78.459559 l
284.81113 81.298939 l
284.999336 81.18905 l
285.187542 80.835235 l
285.375747 81.522028 l
285.563953 81.562509 l
285.752158 80.763324 l
285.940364 80.467169 l
286.128569 80.836121 l
286.316775 80.592233 l
286.50498 79.549083 l
286.693186 79.703381 l
286.881391 79.315093 l
287.257802 81.504464 l
287.446008 83.391439 l
287.634213 82.983624 l
287.822419 83.840853 l
288.010625 83.19146 l
288.19883 83.362167 l
288.387036 83.11747 l
288.575241 82.530397 l
288.763447 82.530397 l
288.951652 84.274282 l
289.139858 84.816445 l
289.328063 85.01627 l
289.516269 85.39982 l
289.704474 86.383114 l
289.89268 85.198261 l
290.080885 86.818238 l
290.269091 87.122213 l
290.457296 86.691326 l
290.645502 87.177022 l
290.833708 85.388457 l
291.021913 85.517488 l
291.210119 84.617197 l
291.398324 86.453369 l
291.58653 84.235072 l
291.774735 84.243315 l
291.962941 84.588887 l
292.151146 84.485085 l
292.339352 85.716697 l
292.715763 83.096632 l
292.903968 81.079778 l
293.092174 81.15373 l
293.280379 80.797951 l
293.468585 80.111659 l
293.656791 81.570097 l
293.844996 81.570097 l
294.033202 80.959683 l
294.221407 80.977246 l
294.409613 82.16545 l
294.597818 82.506324 l
294.786024 81.515441 l
294.974229 78.205887 l
295.35064 77.613037 l
295.538846 77.810205 l
295.727051 65.845199 l
295.915257 68.844963 l
296.103462 67.139555 l
296.291668 67.841254 l
296.479874 66.600667 l
296.668079 67.876574 l
296.856285 68.079249 l
297.04449 71.102701 l
297.232696 71.223027 l
297.420901 71.082094 l
297.609107 69.667643 l
297.797312 72.285012 l
297.985518 73.310829 l
298.173723 73.041096 l
298.361929 73.292572 l
298.550134 71.772469 l
298.73834 71.355948 l
298.926545 69.909489 l
299.114751 71.9119 l
299.302957 72.00045 l
299.679368 73.467284 l
299.867573 73.207527 l
300.055779 73.708322 l
300.243984 73.345301 l
300.43219 75.524426 l
300.620395 74.994243 l
300.808601 75.608509 l
300.996806 75.33373 l
301.185012 73.714292 l
301.561423 73.876563 l
301.749628 73.654283 l
301.937834 73.709323 l
302.12604 72.75353 l
302.314245 74.634959 l
302.502451 74.336916 l
302.690656 75.201502 l
302.878862 74.703403 l
303.067067 73.587187 l
303.255273 73.634485 l
303.631684 76.042092 l
304.008095 76.319105 l
304.384506 77.247898 l
304.572711 77.150335 l
304.760917 81.049388 l
304.949123 80.476028 l
305.325534 81.805049 l
305.513739 81.535932 l
305.701945 81.466525 l
306.078356 82.563714 l
306.266561 85.767116 l
306.454767 85.071195 l
306.642972 83.937222 l
306.831178 80.960145 l
307.019383 80.431656 l
307.207589 81.191515 l
307.584 84.949905 l
307.772206 83.075217 l
307.960411 83.391478 l
308.148617 84.484199 l
308.525028 84.932303 l
308.713233 83.872822 l
308.901439 82.127627 l
309.089644 82.550118 l
309.27785 82.592717 l
309.466055 80.868745 l
309.654261 81.519409 l
309.842466 81.300595 l
310.218877 84.098299 l
310.407083 83.546624 l
310.595289 84.594742 l
310.783494 83.642376 l
310.9717 86.544192 l
311.159905 83.930212 l
311.536316 84.966275 l
311.724522 84.30837 l
312.665549 85.342083 l
312.853755 83.009083 l
313.04196 83.677542 l
313.230166 83.729655 l
313.418372 83.177209 l
313.794783 83.931868 l
314.359399 83.061967 l
314.547605 83.282591 l
314.73581 83.002767 l
314.924016 84.570862 l
315.112221 84.299665 l
315.300427 82.971183 l
315.488632 82.833562 l
315.676838 82.500778 l
315.865043 81.922179 l
316.241455 82.619794 l
316.42966 82.421895 l
316.617866 82.816345 l
316.806071 82.244757 l
316.994277 82.184824 l
317.182482 82.41165 l
317.370688 82.249032 l
317.558893 83.249775 l
317.747099 82.892801 l
317.935304 83.600894 l
318.12351 82.822739 l
318.311715 83.012858 l
318.499921 82.814728 l
318.688126 83.045597 l
318.876332 82.823086 l
319.064538 82.886215 l
319.440949 82.410456 l
320.005565 82.732687 l
320.193771 82.53706 l
320.570182 83.975777 l
320.758387 84.267388 l
320.946593 84.029239 l
321.323004 85.521956 l
321.511209 89.772552 l
321.699415 89.358651 l
321.887621 90.004693 l
322.075826 90.051914 l
322.264032 90.933756 l
322.452237 92.781829 l
322.640443 89.908786 l
322.828648 90.543543 l
323.016854 90.357429 l
323.205059 92.499078 l
323.393265 92.586357 l
323.58147 91.941817 l
323.769676 92.565789 l
323.957881 92.24402 l
324.146087 93.048905 l
324.334292 91.120755 l
324.710704 92.603651 l
324.898909 92.591903 l
325.27532 93.129713 l
325.463526 94.592233 l
325.839937 92.436372 l
326.028142 92.944101 l
326.216348 91.622898 l
326.404553 92.241632 l
326.592759 92.124464 l
326.780964 92.551653 l
326.96917 90.908797 l
327.157375 91.4094 l
327.345581 90.772486 l
327.533787 91.668926 l
327.721992 91.464363 l
327.910198 92.335381 l
328.098403 92.149692 l
328.286609 93.165302 l
328.474814 91.140052 l
328.66302 86.479792 l
328.851225 87.559725 l
329.039431 86.372368 l
329.415842 87.173979 l
329.604047 86.225619 l
330.168664 87.280671 l
330.35687 87.477106 l
330.545075 87.031583 l
330.733281 88.356059 l
331.297897 89.393123 l
331.486103 89.346518 l
331.674308 89.922883 l
331.862514 89.299759 l
332.050719 87.415557 l
332.238925 87.807503 l
332.42713 86.660705 l
332.615336 88.578648 l
332.803542 88.42616 l
333.179953 88.739686 l
333.368158 88.424195 l
333.556364 88.996054 l
333.744569 88.753861 l
333.932775 88.142676 l
334.309186 87.882804 l
334.685597 88.794842 l
334.873802 88.082975 l
335.062008 88.341269 l
335.626625 90.775028 l
335.81483 91.059821 l
336.003036 91.689301 l
336.191241 91.258684 l
336.379447 91.270547 l
336.567652 91.549447 l
336.755858 90.870935 l
336.944063 91.020919 l
337.132269 91.566664 l
337.50868 93.173815 l
337.696885 96.66382 l
337.885091 97.275042 l
338.073296 97.098905 l
338.261502 97.807383 l
338.449708 97.454222 l
338.637913 97.606749 l
338.826119 99.821849 l
339.014324 98.425731 l
339.578941 100.433688 l
339.767146 100.235557 l
339.955352 99.527966 l
340.143557 101.254056 l
340.331763 101.763556 l
340.519968 107.293795 l
340.708174 107.310665 l
340.896379 104.399067 l
341.084585 106.905584 l
341.272791 106.281343 l
341.460996 106.237087 l
342.025613 110.174619 l
342.402024 108.744992 l
342.96664 115.794679 l
343.154846 115.879878 l
343.343051 119.21882 l
343.531257 119.266196 l
343.719462 118.197471 l
343.907668 118.107457 l
344.095874 121.087153 l
344.284079 119.420455 l
344.472285 113.302605 l
344.66049 113.254189 l
345.036901 117.308966 l
345.225107 123.156313 l
345.413312 119.623516 l
345.789723 122.173403 l
345.977929 119.153496 l
346.35434 121.877286 l
346.542545 121.121395 l
346.730751 117.799169 l
346.918957 118.705391 l
347.295368 116.684069 l
347.671779 121.056186 l
348.04819 122.116437 l
348.424601 135.241837 l
348.612806 136.410167 l
348.801012 139.180024 l
348.989217 137.718928 l
349.177423 134.849043 l
349.365628 139.006968 l
349.553834 136.805272 l
349.74204 138.585363 l
349.930245 142.352496 l
350.118451 149.091507 l
350.306656 148.334152 l
351.059478 158.872264 l
351.247684 160.456036 l
351.435889 171.247319 l
351.624095 174.349152 l
351.8123 170.629395 l
352.188711 189.215203 l
352.565123 203.889478 l
352.753328 202.235067 l
353.317945 178.243353 l
353.694356 198.066589 l
353.882561 189.092373 l
354.070767 186.15231 l
354.258972 185.103922 l
354.447178 188.336789 l
354.823589 184.12548 l
355.011794 165.864292 l
355.2 174.355315 l
355.388206 170.878637 l
355.576411 171.560769 l
355.764617 171.43143 l
355.952822 172.581309 l
356.141028 164.405623 l
356.329233 175.899029 l
356.517439 179.408254 l
356.705644 179.423044 l
356.89385 174.871748 l
357.082055 176.36019 l
357.458466 192.357555 l
357.646672 189.760908 l
358.023083 198.701307 l
358.211289 197.179278 l
358.399494 225.821123 l
358.5877 226.688829 l
358.775905 220.097029 l
358.964111 232.172847 l
359.340522 228.982927 l
359.528727 234.895945 l
359.716933 231.935854 l
359.905138 236.589643 l
360.093344 247.983406 l
360.281549 246.018742 l
360.469755 262.613118 l
360.65796 262.939355 l
360.846166 268.66549 l
361.222577 235.512444 l
361.410783 242.231349 l
361.598988 227.500917 l
361.787194 225.728721 l
361.975399 225.018318 l
362.163605 221.005062 l
362.35181 238.354983 l
362.540016 233.492663 l
362.728221 241.664614 l
362.916427 233.850369 l
363.104632 235.43907 l
363.292838 235.516912 l
363.857455 258.626708 l
364.233866 269.729092 l
364.422071 267.761963 l
364.610277 283.189665 l
364.986688 261.989993 l
365.174893 266.294859 l
365.363099 274.15467 l
365.551304 269.351242 l
365.73951 270.927349 l
365.927715 270.968562 l
366.115921 268.370105 l
366.304126 256.020817 l
366.492332 257.0704 l
366.868743 245.278335 l
367.056949 259.36989 l
367.245154 262.410635 l
367.43336 262.101653 l
367.809771 273.450313 l
368.186182 273.476466 l
368.374387 274.6104 l
368.562593 267.081025 l
368.939004 274.698141 l
369.127209 270.716893 l
369.315415 262.731634 l
369.503621 270.825241 l
369.691826 271.033193 l
369.880032 277.470964 l
370.068237 278.206134 l
370.256443 277.704915 l
370.444648 292.032 l
370.632854 289.777536 l
370.821059 290.869525 l
371.19747 278.676886 l
371.385676 263.903353 l
371.573881 261.791324 l
371.762087 264.891038 l
372.138498 246.494656 l
372.326704 244.266152 l
372.703115 236.264099 l
372.89132 255.449537 l
373.079526 259.358296 l
373.267731 258.636646 l
373.455937 253.629657 l
373.644142 269.854734 l
373.832348 270.089224 l
374.020553 265.286028 l
374.208759 267.608089 l
374.396964 252.310727 l
374.58517 268.60914 l
374.773375 264.583867 l
374.961581 268.251088 l
375.149787 274.215565 l
375.337992 271.719369 l
375.526198 262.486012 l
375.714403 265.823491 l
375.902609 236.000298 l
376.090814 238.677907 l
376.27902 239.526239 l
376.467225 227.255025 l
376.655431 226.119012 l
376.843636 215.159448 l
377.031842 212.524708 l
377.220047 189.615238 l
377.408253 204.328839 l
377.596458 190.832676 l
377.784664 191.7877 l
377.97287 181.104071 l
378.161075 196.41083 l
378.349281 195.18565 l
378.537486 198.480914 l
378.725692 195.31965 l
378.913897 184.705697 l
379.102103 180.692442 l
379.478514 190.948958 l
379.666719 188.453457 l
379.854925 192.007014 l
380.04313 198.182602 l
380.419542 184.092356 l
380.607747 185.193127 l
380.795953 176.329261 l
380.984158 176.080135 l
381.172364 191.056112 l
381.360569 188.614957 l
381.548775 190.959127 l
381.73698 183.955699 l
381.925186 197.713583 l
382.113391 203.333103 l
382.301597 202.034164 l
382.489802 194.855831 l
382.678008 193.866604 l
382.866213 184.860535 l
383.054419 184.068437 l
383.242625 184.331045 l
383.43083 169.287162 l
383.619036 172.218443 l
383.995447 180.660511 l
384.183652 169.110101 l
384.371858 171.114244 l
384.560063 180.680039 l
384.748269 179.956771 l
384.936474 185.31457 l
385.12468 182.231919 l
385.312885 176.414037 l
385.501091 177.646497 l
385.877502 183.240827 l
386.065708 177.227087 l
386.253913 179.010568 l
386.442119 177.57786 l
386.630324 173.873971 l
386.81853 177.498823 l
387.006735 176.331958 l
387.194941 179.074622 l
387.571352 173.138878 l
387.759557 173.632086 l
387.947763 169.487603 l
388.135968 168.265312 l
388.324174 168.648207 l
388.512379 169.660544 l
388.888791 161.983187 l
389.076996 170.9492 l
389.265202 171.641847 l
389.641613 179.273753 l
389.829818 183.456136 l
390.206229 199.019802 l
390.394435 201.317636 l
390.58264 201.330732 l
390.770846 209.836083 l
390.959051 207.698055 l
391.335462 198.203208 l
391.523668 194.136068 l
392.27649 219.157066 l
392.464696 216.006432 l
392.652901 225.702337 l
392.841107 222.909524 l
393.029312 222.921426 l
393.217518 218.323755 l
393.405723 231.481856 l
393.593929 228.701754 l
393.782134 228.486908 l
394.158545 219.212684 l
394.346751 219.710668 l
394.723162 237.235377 l
394.911368 235.711153 l
395.287779 237.989343 l
395.475984 231.137517 l
395.66419 235.865489 l
395.852395 228.126352 l
396.040601 236.191996 l
396.417012 235.228768 l
396.605217 228.557624 l
396.793423 228.869995 l
396.981628 235.444385 l
397.35804 239.960747 l
397.546245 239.621992 l
397.922656 250.137149 l
398.110862 227.534619 l
398.299067 224.719851 l
398.487273 225.838032 l
398.487273 225.838032 l
stroke
grestore
0.800 setlinewidth
0 setlinejoin
0.000 setgray
gsave
57.6 38.016 m
57.6 304.128 l
stroke
grestore
gsave
414.72 38.016 m
414.72 304.128 l
stroke
grestore
gsave
57.6 38.016 m
414.72 38.016 l
stroke
grestore
gsave
57.6 304.128 m
414.72 304.128 l
stroke
grestore

end
showpage
