%!PS-Adobe-3.0 EPSF-3.0
%%Title: D:/MCM2022/MCM2022/YKCCs_LSTM/required/50-120-GOL.eps
%%Creator: matplotlib version 3.3.4, http://matplotlib.org/
%%CreationDate: Sun Feb 20 14:22:50 2022
%%Orientation: portrait
%%BoundingBox: 75.6 223.20000000000002 536.4 568.8
%%EndComments
%%BeginProlog
/mpldict 8 dict def
mpldict begin
/m { moveto } bind def
/l { lineto } bind def
/r { rlineto } bind def
/c { curveto } bind def
/cl { closepath } bind def
/box {
      m
      1 index 0 r
      0 exch r
      neg 0 r
      cl
    } bind def
/clipbox {
      box
      clip
      newpath
    } bind def
%!PS-Adobe-3.0 Resource-Font
%%Title: DejaVu Sans
%%Copyright: Copyright (c) 2003 by Bitstream, Inc. All Rights Reserved. Copyright (c) 2006 by Tavmjong Bah. All Rights Reserved. DejaVu changes are in public domain 
%%Creator: Converted from TrueType to type 3 by PPR
25 dict begin
/_d{bind def}bind def
/_m{moveto}_d
/_l{lineto}_d
/_cl{closepath eofill}_d
/_c{curveto}_d
/_sc{7 -1 roll{setcachedevice}{pop pop pop pop pop pop}ifelse}_d
/_e{exec}_d
/FontName /DejaVuSans def
/PaintType 0 def
/FontMatrix[.001 0 0 .001 0 0]def
/FontBBox[-1021 -463 1793 1232]def
/FontType 3 def
/Encoding [ /zero /one /two /four /five /six /seven /eight ] def
/FontInfo 10 dict dup begin
/FamilyName (DejaVu Sans) def
/FullName (DejaVu Sans) def
/Notice (Copyright (c) 2003 by Bitstream, Inc. All Rights Reserved. Copyright (c) 2006 by Tavmjong Bah. All Rights Reserved. DejaVu changes are in public domain ) def
/Weight (Book) def
/Version (Version 2.35) def
/ItalicAngle 0.0 def
/isFixedPitch false def
/UnderlinePosition -130 def
/UnderlineThickness 90 def
end readonly def
/CharStrings 9 dict dup begin
/.notdef 0 def
/zero{636 0 66 -13 570 742 _sc
318 664 _m
267 664 229 639 203 589 _c
177 539 165 464 165 364 _c
165 264 177 189 203 139 _c
229 89 267 64 318 64 _c
369 64 407 89 433 139 _c
458 189 471 264 471 364 _c
471 464 458 539 433 589 _c
407 639 369 664 318 664 _c
318 742 _m
399 742 461 709 505 645 _c
548 580 570 486 570 364 _c
570 241 548 147 505 83 _c
461 19 399 -13 318 -13 _c
236 -13 173 19 130 83 _c
87 147 66 241 66 364 _c
66 486 87 580 130 645 _c
173 709 236 742 318 742 _c
_cl}_d
/one{636 0 110 0 544 729 _sc
124 83 _m
285 83 _l
285 639 _l
110 604 _l
110 694 _l
284 729 _l
383 729 _l
383 83 _l
544 83 _l
544 0 _l
124 0 _l
124 83 _l
_cl}_d
/two{{636 0 73 0 536 742 _sc
192 83 _m
536 83 _l
536 0 _l
73 0 _l
73 83 _l
110 121 161 173 226 239 _c
290 304 331 346 348 365 _c
380 400 402 430 414 455 _c
426 479 433 504 433 528 _c
433 566 419 598 392 622 _c
365 646 330 659 286 659 _c
255 659 222 653 188 643 _c
154 632 117 616 78 594 _c
78 694 _l
118 710 155 722 189 730 _c
223 738 255 742 284 742 _c
}_e{359 742 419 723 464 685 _c
509 647 532 597 532 534 _c
532 504 526 475 515 449 _c
504 422 484 390 454 354 _c
446 344 420 317 376 272 _c
332 227 271 164 192 83 _c
_cl}_e}_d
/four{636 0 49 0 580 729 _sc
378 643 _m
129 254 _l
378 254 _l
378 643 _l
352 729 _m
476 729 _l
476 254 _l
580 254 _l
580 172 _l
476 172 _l
476 0 _l
378 0 _l
378 172 _l
49 172 _l
49 267 _l
352 729 _l
_cl}_d
/five{{636 0 77 -13 549 729 _sc
108 729 _m
495 729 _l
495 646 _l
198 646 _l
198 467 _l
212 472 227 476 241 478 _c
255 480 270 482 284 482 _c
365 482 429 459 477 415 _c
525 370 549 310 549 234 _c
549 155 524 94 475 51 _c
426 8 357 -13 269 -13 _c
238 -13 207 -10 175 -6 _c
143 -1 111 6 77 17 _c
77 116 _l
106 100 136 88 168 80 _c
199 72 232 69 267 69 _c
}_e{323 69 368 83 401 113 _c
433 143 450 183 450 234 _c
450 284 433 324 401 354 _c
368 384 323 399 267 399 _c
241 399 214 396 188 390 _c
162 384 135 375 108 363 _c
108 729 _l
_cl}_e}_d
/six{{636 0 70 -13 573 742 _sc
330 404 _m
286 404 251 388 225 358 _c
199 328 186 286 186 234 _c
186 181 199 139 225 109 _c
251 79 286 64 330 64 _c
374 64 409 79 435 109 _c
461 139 474 181 474 234 _c
474 286 461 328 435 358 _c
409 388 374 404 330 404 _c
526 713 _m
526 623 _l
501 635 476 644 451 650 _c
425 656 400 659 376 659 _c
310 659 260 637 226 593 _c
}_e{192 549 172 482 168 394 _c
187 422 211 444 240 459 _c
269 474 301 482 336 482 _c
409 482 467 459 509 415 _c
551 371 573 310 573 234 _c
573 159 550 99 506 54 _c
462 9 403 -13 330 -13 _c
246 -13 181 19 137 83 _c
92 147 70 241 70 364 _c
70 479 97 571 152 639 _c
206 707 280 742 372 742 _c
396 742 421 739 447 735 _c
472 730 498 723 526 713 _c
_cl}_e}_d
/seven{636 0 82 0 551 729 _sc
82 729 _m
551 729 _l
551 687 _l
286 0 _l
183 0 _l
432 646 _l
82 646 _l
82 729 _l
_cl}_d
/eight{{636 0 68 -13 568 742 _sc
318 346 _m
271 346 234 333 207 308 _c
180 283 167 249 167 205 _c
167 161 180 126 207 101 _c
234 76 271 64 318 64 _c
364 64 401 76 428 102 _c
455 127 469 161 469 205 _c
469 249 455 283 429 308 _c
402 333 365 346 318 346 _c
219 388 _m
177 398 144 418 120 447 _c
96 476 85 511 85 553 _c
85 611 105 657 147 691 _c
188 725 245 742 318 742 _c
}_e{390 742 447 725 489 691 _c
530 657 551 611 551 553 _c
551 511 539 476 515 447 _c
491 418 459 398 417 388 _c
464 377 501 355 528 323 _c
554 291 568 251 568 205 _c
568 134 546 80 503 43 _c
459 5 398 -13 318 -13 _c
237 -13 175 5 132 43 _c
89 80 68 134 68 205 _c
68 251 81 291 108 323 _c
134 355 171 377 219 388 _c
183 544 _m
183 506 194 476 218 455 _c
}_e{242 434 275 424 318 424 _c
360 424 393 434 417 455 _c
441 476 453 506 453 544 _c
453 582 441 611 417 632 _c
393 653 360 664 318 664 _c
275 664 242 653 218 632 _c
194 611 183 582 183 544 _c
_cl}_e}_d
end readonly def

/BuildGlyph
 {exch begin
 CharStrings exch
 2 copy known not{pop /.notdef}if
 true 3 1 roll get exec
 end}_d

/BuildChar {
 1 index /Encoding get exch get
 1 index /BuildGlyph get exec
}_d

FontName currentdict end definefont pop
end
%%EndProlog
mpldict begin
75.6 223.2 translate
460.8 345.6 0 0 clipbox
gsave
0 0 m
460.8 0 l
460.8 345.6 l
0 345.6 l
cl
1.000 setgray
fill
grestore
gsave
57.6 38.016 m
414.72 38.016 l
414.72 304.128 l
57.6 304.128 l
cl
1.000 setgray
fill
grestore
0.800 setlinewidth
1 setlinejoin
0 setlinecap
[] 0 setdash
0.000 setgray
gsave
/o {
gsave
newpath
translate
0.8 setlinewidth
1 setlinejoin
0 setlinecap
0 0 m
0 -3.5 l

gsave
0.000 setgray
fill
grestore
stroke
grestore
} bind def
73.8327 38.016 o
grestore
/DejaVuSans findfont
10.000 scalefont
setfont
gsave
70.653040 23.422250 translate
0.000000 rotate
0.000000 0 m /zero glyphshow
grestore
gsave
/o {
gsave
newpath
translate
0.8 setlinewidth
1 setlinejoin
0 setlinecap
0 0 m
0 -3.5 l

gsave
0.000 setgray
fill
grestore
stroke
grestore
} bind def
121.436 38.016 o
grestore
gsave
111.896971 23.422250 translate
0.000000 rotate
0.000000 0 m /two glyphshow
6.362305 0 m /five glyphshow
12.724609 0 m /zero glyphshow
grestore
gsave
/o {
gsave
newpath
translate
0.8 setlinewidth
1 setlinejoin
0 setlinecap
0 0 m
0 -3.5 l

gsave
0.000 setgray
fill
grestore
stroke
grestore
} bind def
169.039 38.016 o
grestore
gsave
159.500276 23.422250 translate
0.000000 rotate
0.000000 0 m /five glyphshow
6.362305 0 m /zero glyphshow
12.724609 0 m /zero glyphshow
grestore
gsave
/o {
gsave
newpath
translate
0.8 setlinewidth
1 setlinejoin
0 setlinecap
0 0 m
0 -3.5 l

gsave
0.000 setgray
fill
grestore
stroke
grestore
} bind def
216.643 38.016 o
grestore
gsave
207.103582 23.422250 translate
0.000000 rotate
0.000000 0 m /seven glyphshow
6.362305 0 m /five glyphshow
12.724609 0 m /zero glyphshow
grestore
gsave
/o {
gsave
newpath
translate
0.8 setlinewidth
1 setlinejoin
0 setlinecap
0 0 m
0 -3.5 l

gsave
0.000 setgray
fill
grestore
stroke
grestore
} bind def
264.246 38.016 o
grestore
gsave
251.527200 23.422250 translate
0.000000 rotate
0.000000 0 m /one glyphshow
6.362305 0 m /zero glyphshow
12.724609 0 m /zero glyphshow
19.086914 0 m /zero glyphshow
grestore
gsave
/o {
gsave
newpath
translate
0.8 setlinewidth
1 setlinejoin
0 setlinecap
0 0 m
0 -3.5 l

gsave
0.000 setgray
fill
grestore
stroke
grestore
} bind def
311.849 38.016 o
grestore
gsave
299.130506 23.422250 translate
0.000000 rotate
0.000000 0 m /one glyphshow
6.362305 0 m /two glyphshow
12.724609 0 m /five glyphshow
19.086914 0 m /zero glyphshow
grestore
gsave
/o {
gsave
newpath
translate
0.8 setlinewidth
1 setlinejoin
0 setlinecap
0 0 m
0 -3.5 l

gsave
0.000 setgray
fill
grestore
stroke
grestore
} bind def
359.453 38.016 o
grestore
gsave
346.733812 23.422250 translate
0.000000 rotate
0.000000 0 m /one glyphshow
6.362305 0 m /five glyphshow
12.724609 0 m /zero glyphshow
19.086914 0 m /zero glyphshow
grestore
gsave
/o {
gsave
newpath
translate
0.8 setlinewidth
1 setlinejoin
0 setlinecap
0 0 m
0 -3.5 l

gsave
0.000 setgray
fill
grestore
stroke
grestore
} bind def
407.056 38.016 o
grestore
gsave
394.337118 23.422250 translate
0.000000 rotate
0.000000 0 m /one glyphshow
6.362305 0 m /seven glyphshow
12.724609 0 m /five glyphshow
19.086914 0 m /zero glyphshow
grestore
gsave
/o {
gsave
newpath
translate
0.8 setlinewidth
1 setlinejoin
0 setlinecap
-0 0 m
-3.5 0 l

gsave
0.000 setgray
fill
grestore
stroke
grestore
} bind def
57.6 62.8029 o
grestore
gsave
25.162500 59.006054 translate
0.000000 rotate
0.000000 0 m /one glyphshow
6.362305 0 m /two glyphshow
12.724609 0 m /zero glyphshow
19.086914 0 m /zero glyphshow
grestore
gsave
/o {
gsave
newpath
translate
0.8 setlinewidth
1 setlinejoin
0 setlinecap
-0 0 m
-3.5 0 l

gsave
0.000 setgray
fill
grestore
stroke
grestore
} bind def
57.6 114.569 o
grestore
gsave
25.162500 110.771976 translate
0.000000 rotate
0.000000 0 m /one glyphshow
6.362305 0 m /four glyphshow
12.724609 0 m /zero glyphshow
19.086914 0 m /zero glyphshow
grestore
gsave
/o {
gsave
newpath
translate
0.8 setlinewidth
1 setlinejoin
0 setlinecap
-0 0 m
-3.5 0 l

gsave
0.000 setgray
fill
grestore
stroke
grestore
} bind def
57.6 166.335 o
grestore
gsave
25.162500 162.537899 translate
0.000000 rotate
0.000000 0 m /one glyphshow
6.362305 0 m /six glyphshow
12.724609 0 m /zero glyphshow
19.086914 0 m /zero glyphshow
grestore
gsave
/o {
gsave
newpath
translate
0.8 setlinewidth
1 setlinejoin
0 setlinecap
-0 0 m
-3.5 0 l

gsave
0.000 setgray
fill
grestore
stroke
grestore
} bind def
57.6 218.101 o
grestore
gsave
25.162500 214.303821 translate
0.000000 rotate
0.000000 0 m /one glyphshow
6.362305 0 m /eight glyphshow
12.724609 0 m /zero glyphshow
19.086914 0 m /zero glyphshow
grestore
gsave
/o {
gsave
newpath
translate
0.8 setlinewidth
1 setlinejoin
0 setlinecap
-0 0 m
-3.5 0 l

gsave
0.000 setgray
fill
grestore
stroke
grestore
} bind def
57.6 269.867 o
grestore
gsave
25.162500 266.069743 translate
0.000000 rotate
0.000000 0 m /two glyphshow
6.362305 0 m /zero glyphshow
12.724609 0 m /zero glyphshow
19.086914 0 m /zero glyphshow
grestore
1.500 setlinewidth
2 setlinecap
0.000 0.000 1.000 setrgbcolor
gsave
357.1 266.1 57.6 38.02 clipbox
73.832727 50.112 m
74.02314 50.319266 l
74.213554 51.463841 l
74.403967 51.634172 l
74.59438 53.591539 l
74.784793 54.271062 l
74.975207 54.240825 l
75.16562 54.030589 l
75.356033 54.762023 l
75.73686 58.656758 l
76.498512 56.133359 l
76.879339 58.657548 l
77.069752 57.846178 l
77.640992 52.845319 l
77.831405 52.445511 l
78.021818 52.996945 l
78.593058 58.801275 l
78.783471 59.759722 l
78.973884 59.996782 l
79.164298 60.039847 l
79.354711 60.865309 l
79.92595 65.192111 l
80.116364 64.734799 l
80.687603 62.653072 l
80.878017 62.850006 l
81.06843 62.706089 l
81.639669 66.102785 l
81.830083 66.554063 l
82.020496 66.19299 l
82.401322 65.119599 l
82.591736 66.037983 l
82.972562 68.813293 l
83.353388 69.835973 l
83.543802 70.008168 l
83.924628 67.247076 l
84.305455 63.689307 l
84.495868 62.984097 l
84.686281 63.093291 l
84.876694 62.262616 l
85.447934 57.787284 l
85.82876 56.848047 l
86.019174 56.88751 l
86.209587 57.052912 l
86.4 56.685615 l
86.97124 62.756894 l
87.161653 63.47727 l
87.352066 63.727758 l
87.732893 66.339498 l
88.113719 67.933392 l
88.494545 67.984829 l
88.875372 69.690602 l
89.065785 69.704441 l
89.256198 69.188836 l
89.637025 67.685873 l
89.827438 67.41014 l
90.017851 67.523378 l
90.208264 68.619107 l
90.398678 68.644794 l
90.589091 68.828995 l
91.160331 72.43776 l
91.541157 70.17259 l
91.73157 71.329835 l
92.112397 75.960048 l
92.30281 77.013692 l
92.493223 77.241274 l
92.683636 77.240737 l
93.064463 76.345544 l
93.254876 76.323269 l
93.826116 76.663615 l
94.587769 72.191727 l
94.778182 72.21517 l
95.349421 72.761392 l
95.730248 70.419572 l
96.111074 65.020895 l
96.301488 63.642198 l
96.491901 63.115155 l
96.682314 63.250352 l
97.06314 62.107482 l
97.253554 61.858416 l
98.015207 64.076224 l
98.20562 64.331452 l
98.586446 68.482078 l
98.77686 69.346023 l
98.967273 69.459703 l
99.157686 69.207761 l
99.538512 70.414169 l
99.919339 70.208388 l
100.490579 72.220099 l
100.680992 72.40765 l
100.871405 72.206324 l
101.252231 72.358456 l
101.823471 74.677022 l
102.013884 75.341189 l
102.394711 78.201932 l
102.585124 77.319472 l
102.96595 73.719586 l
103.156364 72.937789 l
103.346777 72.773999 l
103.53719 72.383132 l
103.727603 73.150331 l
104.489256 69.955245 l
104.679669 69.353606 l
105.060496 67.318229 l
105.250909 67.550424 l
105.631736 69.466717 l
105.822149 69.934803 l
106.202975 68.615821 l
106.583802 67.750834 l
106.964628 66.868627 l
107.155041 66.694251 l
107.535868 63.966778 l
107.726281 62.471367 l
108.86876 59.288413 l
109.249587 60.201205 l
109.630413 62.75601 l
110.201653 64.882002 l
110.392066 65.790022 l
110.582479 66.078962 l
111.344132 68.845615 l
111.534545 69.356512 l
111.724959 69.112059 l
111.915372 69.773414 l
112.296198 71.766674 l
112.867438 73.1206 l
113.057851 73.450804 l
113.248264 73.457281 l
113.819504 70.794135 l
114.009917 70.579729 l
114.200331 70.930722 l
114.390744 72.071727 l
114.77157 76.172812 l
114.961983 77.291858 l
115.152397 77.696848 l
115.34281 77.407213 l
115.723636 74.987004 l
115.91405 75.503337 l
116.294876 79.062907 l
116.485289 79.954024 l
116.675702 79.948053 l
117.056529 78.22427 l
118.008595 77.532141 l
118.389421 82.472589 l
118.960661 85.700029 l
119.151074 86.269757 l
120.10314 92.12186 l
120.483967 93.028901 l
120.67438 92.030517 l
121.055207 89.006394 l
121.436033 87.592341 l
121.81686 87.131112 l
122.388099 84.303765 l
122.768926 80.981254 l
122.959339 80.169536 l
123.149752 79.879585 l
123.340165 79.814436 l
123.530579 80.26723 l
124.101818 77.355681 l
124.292231 76.974798 l
124.482645 76.980327 l
125.053884 74.644289 l
125.244298 74.572473 l
125.815537 71.881049 l
126.00595 73.042907 l
126.386777 77.494037 l
127.14843 80.949596 l
127.338843 81.486686 l
128.100496 76.971954 l
128.481322 76.61322 l
128.862149 75.532594 l
129.242975 74.894967 l
129.814215 72.930175 l
130.195041 73.563473 l
130.575868 75.120495 l
130.956694 73.855699 l
131.147107 73.228025 l
131.337521 73.268909 l
131.527934 73.995761 l
131.90876 76.494042 l
132.099174 77.105129 l
132.289587 77.30061 l
132.48 77.290373 l
133.05124 75.889559 l
133.241653 76.028547 l
133.622479 76.996093 l
134.003306 77.451415 l
134.193719 77.362853 l
134.384132 77.52876 l
134.955372 78.761929 l
135.145785 78.84869 l
135.336198 79.232606 l
135.526612 79.354722 l
135.907438 77.556786 l
136.288264 75.507254 l
136.669091 74.873071 l
137.049917 73.116177 l
137.621157 69.324538 l
138.001983 68.478792 l
138.38281 67.052069 l
138.573223 67.483789 l
138.95405 69.291615 l
139.334876 70.28526 l
140.096529 72.184491 l
140.477355 72.28171 l
140.858182 72.28171 l
141.048595 73.557312 l
141.429421 77.710813 l
141.619835 78.712135 l
141.810248 78.97978 l
142.000661 78.978769 l
142.571901 84.317098 l
142.762314 85.162054 l
143.333554 85.881766 l
143.523967 85.347803 l
143.71438 85.48003 l
144.095207 87.006373 l
145.047273 90.213655 l
145.428099 89.959343 l
145.808926 90.126325 l
146.189752 89.845663 l
146.760992 94.606428 l
146.951405 94.986489 l
147.141818 94.904404 l
147.522645 93.308046 l
147.903471 92.416392 l
148.474711 89.447371 l
148.855537 89.455618 l
149.04595 88.809175 l
149.61719 85.174471 l
149.807603 84.8873 l
150.18843 86.564321 l
150.378843 88.25496 l
150.759669 93.108616 l
150.950083 94.256572 l
151.140496 94.607123 l
151.330909 94.10801 l
151.521322 93.024382 l
151.902149 89.758997 l
152.282975 88.475528 l
152.473388 88.405923 l
152.663802 88.883235 l
152.854215 88.696411 l
153.044628 87.635595 l
153.235041 85.74243 l
153.425455 85.49033 l
154.377521 88.270347 l
154.567934 87.941629 l
154.94876 86.740971 l
155.329587 86.391368 l
155.710413 86.883214 l
155.900826 86.706216 l
156.472066 84.034982 l
156.852893 84.119405 l
157.043306 85.028532 l
157.233719 86.597212 l
157.614545 91.608339 l
157.804959 93.295187 l
157.995372 93.248078 l
158.566612 89.075967 l
158.757025 89.232364 l
159.137851 89.808507 l
159.328264 89.805663 l
159.518678 90.143292 l
159.899504 89.31843 l
160.089917 89.235492 l
160.470744 89.405349 l
160.661157 90.035393 l
160.85157 91.692952 l
161.041983 92.315634 l
161.232397 92.523058 l
161.803636 93.758533 l
161.99405 93.249595 l
162.374876 93.591931 l
162.565289 92.663026 l
162.946116 88.724658 l
163.136529 87.743652 l
163.326942 87.85828 l
163.517355 87.634616 l
164.088595 85.979522 l
164.850248 83.307688 l
165.231074 83.808412 l
165.611901 83.300895 l
165.802314 83.009395 l
165.992727 82.945794 l
166.18314 83.577007 l
166.75438 86.528682 l
166.944793 86.559835 l
167.135207 86.430546 l
167.706446 79.758259 l
167.89686 78.716432 l
168.277686 78.329546 l
168.468099 78.304838 l
168.658512 78.712577 l
168.848926 78.774441 l
169.229752 81.212754 l
169.420165 81.205487 l
169.991405 80.120911 l
170.181818 80.572662 l
170.372231 81.433227 l
170.562645 81.204444 l
170.943471 80.288841 l
171.324298 79.814783 l
171.705124 80.480878 l
172.276364 81.03345 l
172.466777 81.133544 l
172.65719 81.082138 l
172.847603 80.781634 l
173.038017 81.080464 l
173.990083 76.115845 l
174.180496 75.47588 l
174.561322 73.628496 l
174.751736 73.352353 l
175.132562 73.340346 l
175.322975 72.60866 l
175.894215 69.284728 l
176.275041 68.296455 l
176.465455 68.121764 l
176.655868 68.397623 l
177.036694 69.622072 l
177.227107 69.907126 l
177.607934 71.121148 l
177.798347 70.805636 l
178.179174 68.889248 l
178.750413 65.814951 l
179.512066 62.282205 l
179.702479 62.167008 l
179.892893 62.230009 l
180.273719 62.993228 l
180.464132 63.098409 l
180.654545 63.443494 l
180.844959 63.44043 l
181.797025 61.390993 l
181.987438 61.160062 l
182.749091 59.23726 l
183.320331 58.938083 l
183.701157 59.363737 l
184.653223 54.091505 l
185.03405 51.537301 l
185.224463 51.428802 l
185.795702 53.686736 l
185.986116 54.319909 l
186.176529 54.449355 l
186.366942 54.847994 l
186.747769 57.193385 l
186.938182 57.437238 l
187.319008 57.144633 l
187.509421 56.561445 l
187.890248 56.257845 l
188.080661 55.406759 l
188.271074 55.093269 l
188.651901 56.049062 l
188.842314 55.923376 l
189.032727 55.008436 l
189.22314 54.643825 l
189.79438 58.203648 l
189.984793 57.87256 l
190.36562 56.61383 l
190.556033 56.544731 l
191.127273 58.057551 l
191.508099 56.877052 l
191.698512 56.614525 l
191.888926 55.901322 l
192.269752 53.345822 l
192.460165 52.676694 l
192.650579 52.624278 l
192.840992 52.954576 l
193.221818 55.70502 l
193.602645 56.853766 l
193.983471 56.983876 l
194.554711 53.264685 l
195.316364 58.670344 l
195.69719 62.498823 l
195.887603 63.324664 l
196.458843 61.978794 l
196.649256 62.249599 l
196.839669 62.196234 l
197.220496 63.668106 l
197.410909 63.861059 l
197.601322 63.894234 l
197.791736 63.786115 l
197.982149 64.049873 l
198.172562 64.054392 l
198.362975 63.503589 l
198.553388 62.051495 l
198.743802 62.150642 l
199.315041 63.95594 l
199.695868 64.065197 l
199.886281 63.899258 l
200.647934 61.047172 l
201.219174 57.129467 l
201.790413 58.848542 l
202.17124 60.782118 l
202.742479 62.41538 l
203.123306 62.828426 l
203.694545 61.850233 l
203.884959 60.895419 l
204.075372 61.180852 l
204.456198 62.349092 l
204.646612 61.910738 l
204.837025 62.243722 l
205.217851 64.709933 l
205.598678 66.312452 l
206.360331 67.259241 l
206.550744 67.425938 l
207.121983 66.859938 l
207.312397 66.160352 l
207.50281 66.055613 l
207.693223 66.581709 l
208.264463 70.490061 l
208.454876 70.959569 l
208.645289 70.933029 l
208.835702 70.794104 l
209.026116 71.548065 l
209.406942 74.83146 l
209.597355 75.681598 l
210.359008 76.833914 l
210.549421 77.576059 l
210.739835 77.326044 l
211.120661 78.546923 l
211.501488 78.468819 l
211.882314 78.894409 l
212.072727 79.131627 l
212.26314 78.952386 l
212.453554 79.022054 l
212.83438 79.441325 l
213.40562 78.939211 l
213.596033 78.340352 l
213.97686 76.814609 l
214.167273 76.42646 l
214.738512 77.036662 l
214.928926 78.008094 l
216.071405 86.909027 l
216.261818 86.800813 l
216.642645 85.165687 l
217.213884 84.045725 l
217.404298 83.867337 l
217.594711 84.234571 l
217.975537 83.771097 l
218.546777 84.226703 l
218.73719 84.213907 l
218.927603 84.626448 l
219.30843 87.695753 l
219.498843 89.932455 l
219.689256 90.387524 l
220.070083 89.529614 l
220.260496 89.045572 l
220.450909 89.02968 l
220.831736 87.895657 l
221.212562 86.491368 l
221.402975 86.231559 l
221.593388 85.518608 l
222.164628 78.064366 l
222.355041 77.49549 l
222.735868 77.54519 l
223.116694 79.180505 l
223.307107 79.850928 l
223.497521 81.125045 l
223.687934 81.156704 l
224.06876 80.397592 l
224.259174 80.822361 l
224.64 82.524153 l
224.830413 82.664437 l
225.592066 83.859786 l
225.972893 85.26891 l
226.163306 84.91542 l
226.734545 80.365428 l
227.496198 79.112575 l
227.877025 77.56459 l
228.067438 77.155271 l
228.257851 77.444369 l
228.829091 81.738059 l
229.019504 81.81313 l
229.590744 80.569787 l
229.97157 77.609676 l
230.352397 75.378851 l
230.54281 75.123433 l
230.733223 75.103718 l
231.11405 74.2102 l
231.304463 74.835188 l
231.685289 76.77145 l
231.875702 77.175461 l
232.256529 77.253438 l
232.637355 76.677991 l
232.827769 76.786647 l
233.399008 74.19516 l
233.589421 74.552378 l
234.351074 77.657986 l
234.731901 77.965978 l
234.922314 77.989042 l
235.493554 80.501162 l
235.683967 80.27655 l
236.064793 79.326571 l
236.826446 74.721255 l
237.588099 77.015209 l
237.778512 76.551672 l
238.159339 76.376729 l
238.730579 79.79848 l
238.920992 80.136109 l
239.301818 84.526575 l
239.682645 89.233533 l
239.873058 90.050749 l
240.253884 90.783067 l
240.444298 90.182596 l
240.634711 89.031544 l
240.825124 88.787122 l
241.396364 90.355107 l
241.586777 91.782904 l
241.77719 92.271243 l
242.158017 92.296077 l
242.919669 103.249732 l
243.110083 105.583274 l
243.300496 109.679493 l
243.490909 110.441479 l
244.062149 107.637292 l
244.252562 108.205219 l
244.633388 105.856985 l
245.014215 108.777002 l
245.204628 110.236267 l
245.395041 110.834937 l
245.775868 107.152397 l
245.966281 105.905927 l
246.156694 106.689809 l
246.537521 109.733205 l
246.727934 110.440626 l
246.918347 110.00243 l
247.489587 109.673237 l
248.060826 111.357209 l
248.441653 114.461806 l
248.632066 114.468536 l
248.822479 114.21454 l
249.203306 111.999986 l
249.393719 111.405993 l
249.584132 111.542169 l
249.774545 111.818218 l
250.155372 113.352649 l
250.726612 109.205467 l
250.917025 111.868929 l
251.678678 130.608578 l
251.869091 132.028318 l
252.059504 132.363419 l
252.249917 132.26026 l
252.440331 133.097791 l
252.630744 133.278011 l
253.201983 136.850662 l
253.392397 137.340675 l
253.58281 137.340423 l
253.963636 134.559268 l
254.344463 133.879335 l
254.534876 133.896712 l
254.725289 133.786982 l
254.915702 133.922526 l
255.486942 142.420807 l
255.677355 142.521533 l
256.058182 141.028523 l
256.439008 140.542017 l
256.629421 141.421412 l
256.819835 143.155242 l
257.010248 142.985196 l
257.581488 140.43137 l
257.962314 135.929782 l
258.152727 133.241518 l
258.34314 133.837408 l
258.723967 136.711326 l
258.91438 136.164378 l
259.295207 133.665971 l
260.247273 133.511849 l
260.818512 139.136653 l
261.008926 138.192077 l
262.151405 128.988808 l
262.722645 137.248922 l
263.293884 134.19611 l
263.484298 134.462681 l
264.055537 132.113657 l
264.24595 130.386683 l
264.436364 130.01133 l
264.81719 129.697682 l
265.38843 131.103552 l
265.769256 130.935116 l
265.959669 130.352623 l
266.150083 130.644533 l
266.530909 131.929614 l
266.721322 132.268948 l
266.911736 133.866065 l
267.102149 133.483318 l
267.482975 131.134863 l
268.244628 135.948929 l
268.435041 135.787161 l
269.006281 130.040587 l
269.196694 129.234809 l
269.387107 129.085963 l
270.14876 122.18938 l
270.72 124.334645 l
271.29124 124.677361 l
271.481653 125.097264 l
271.672066 125.034105 l
272.243306 124.26997 l
273.004959 121.300064 l
273.385785 121.243603 l
273.766612 122.345335 l
274.147438 125.69704 l
274.337851 126.534444 l
274.528264 126.854601 l
274.718678 126.837128 l
275.099504 124.059987 l
275.289917 123.593986 l
275.480331 123.805707 l
275.861157 124.591737 l
276.05157 124.689367 l
276.241983 124.600963 l
276.62281 126.298016 l
277.003636 126.797887 l
277.384463 126.995959 l
277.574876 127.269417 l
277.955702 128.181956 l
278.526942 136.231866 l
278.717355 137.100013 l
278.907769 137.139191 l
279.479008 140.155763 l
280.240661 148.520649 l
280.621488 151.232799 l
280.811901 151.86575 l
281.38314 147.202267 l
281.573554 146.978477 l
281.763967 146.929693 l
281.95438 146.302588 l
282.144793 146.065274 l
283.09686 148.571865 l
283.287273 148.16103 l
283.477686 148.078028 l
284.048926 149.880547 l
284.239339 150.141367 l
284.620165 152.745145 l
285.381818 154.025043 l
285.572231 154.697836 l
285.762645 154.358185 l
286.333884 149.106522 l
286.524298 149.384973 l
286.714711 149.886487 l
287.095537 151.918166 l
287.28595 152.270424 l
287.476364 151.622781 l
287.666777 151.89052 l
288.42843 154.407443 l
288.618843 155.583992 l
289.570909 167.499001 l
289.951736 174.641018 l
290.142149 173.368797 l
290.332562 172.858025 l
290.522975 173.027914 l
290.713388 173.746899 l
291.284628 163.116591 l
291.475041 165.571555 l
291.855868 174.251067 l
292.046281 175.893902 l
292.427107 179.775019 l
292.807934 176.593835 l
293.18876 158.773992 l
293.950413 140.642238 l
294.712066 126.889198 l
294.902479 128.231181 l
295.092893 132.969608 l
295.664132 162.6183 l
295.854545 167.207786 l
296.044959 168.825029 l
296.235372 167.818747 l
296.616198 164.349065 l
296.806612 160.040051 l
296.997025 160.2955 l
297.377851 163.642497 l
297.568264 164.266885 l
298.710744 181.299972 l
299.09157 191.63916 l
299.281983 194.165592 l
300.043636 185.171136 l
300.23405 185.255559 l
300.424463 184.63591 l
300.614876 183.617369 l
300.805289 185.613472 l
301.186116 194.660281 l
301.376529 196.885704 l
301.757355 193.252042 l
302.138182 187.996777 l
302.328595 187.693588 l
302.519008 187.820791 l
302.709421 188.10635 l
302.899835 186.451604 l
303.280661 187.370872 l
303.471074 186.665568 l
304.232727 188.327202 l
304.42314 188.137946 l
304.613554 188.613046 l
305.184793 195.592093 l
305.56562 196.418819 l
305.946446 197.206935 l
306.13686 198.594447 l
306.708099 194.688559 l
306.898512 194.986251 l
307.088926 194.576395 l
307.279339 191.282763 l
307.469752 190.412689 l
308.040992 195.068494 l
308.421818 195.431652 l
308.612231 196.757964 l
309.564298 185.687627 l
309.754711 184.767063 l
309.945124 186.693245 l
310.706777 197.587912 l
310.89719 197.465037 l
311.278017 193.076909 l
311.46843 192.929516 l
311.849256 193.019626 l
312.039669 192.804777 l
312.230083 194.185939 l
312.801322 205.070938 l
312.991736 204.851318 l
313.562975 202.071712 l
314.324628 207.567354 l
314.705455 208.703778 l
314.895868 208.385423 l
315.276694 210.788601 l
315.657521 216.628792 l
315.847934 218.049701 l
316.038347 218.593489 l
316.419174 217.190653 l
316.609587 216.510056 l
316.8 216.293628 l
317.37124 217.258394 l
317.561653 217.285124 l
317.752066 218.079053 l
318.132893 225.802235 l
318.513719 235.096658 l
318.704132 236.843505 l
318.894545 239.846807 l
319.465785 255.393613 l
319.846612 259.372487 l
320.417851 260.92973 l
320.608264 262.770478 l
321.179504 289.334005 l
321.369917 292.032 l
321.750744 285.828999 l
322.321983 256.535092 l
322.512397 254.954595 l
322.70281 255.961604 l
322.893223 256.318411 l
323.083636 259.272993 l
323.27405 265.989071 l
323.464463 268.548205 l
324.035702 252.177074 l
324.226116 250.801536 l
324.416529 252.762063 l
324.606942 251.166495 l
324.797355 251.253698 l
325.178182 250.55762 l
325.368595 250.594997 l
325.559008 250.312408 l
326.130248 259.841457 l
326.320661 258.238748 l
326.701488 252.223424 l
326.891901 251.288358 l
327.082314 250.997902 l
327.272727 251.274235 l
327.46314 249.670136 l
327.653554 251.797455 l
328.03438 260.289512 l
328.224793 262.365109 l
328.60562 259.843827 l
328.796033 258.839598 l
328.986446 259.47751 l
329.557686 254.432607 l
329.748099 255.345272 l
330.128926 248.925527 l
330.700165 234.147216 l
330.890579 232.710635 l
331.080992 232.348805 l
331.271405 232.651773 l
332.223471 243.802678 l
332.413884 244.239548 l
332.794711 246.09799 l
333.36595 240.237673 l
333.556364 239.762636 l
333.93719 247.494855 l
334.50843 243.632158 l
334.698843 242.187679 l
334.889256 241.597161 l
335.079669 242.485529 l
335.270083 243.940277 l
335.460496 244.070102 l
335.650909 246.337673 l
335.841322 246.065637 l
336.222149 244.304793 l
336.602975 243.792694 l
336.793388 244.183846 l
337.364628 235.703542 l
337.555041 234.902188 l
337.935868 238.210923 l
338.887934 253.801868 l
339.078347 254.934753 l
339.649587 236.065341 l
339.84 234.767718 l
340.220826 235.999939 l
340.601653 239.053035 l
340.792066 239.870851 l
340.982479 238.9149 l
341.363306 233.123998 l
341.553719 231.662679 l
341.744132 233.165199 l
341.934545 231.437403 l
342.315372 220.127921 l
342.505785 217.555233 l
342.696198 217.12642 l
342.886612 217.312896 l
343.267438 209.937358 l
343.457851 211.391979 l
344.029091 223.381269 l
344.219504 224.109764 l
344.409917 225.376266 l
344.790744 231.340911 l
344.981157 230.755322 l
345.361983 227.983109 l
345.552397 227.525544 l
345.74281 227.428198 l
345.933223 226.079833 l
346.123636 226.833636 l
346.31405 228.197262 l
346.694876 237.741446 l
346.885289 240.123804 l
347.075702 239.857075 l
347.456529 237.682268 l
347.837355 236.593617 l
348.218182 236.360158 l
348.408595 236.295166 l
348.789421 238.893984 l
349.360661 254.875227 l
349.551074 256.122519 l
349.931901 255.618162 l
350.122314 254.447299 l
350.50314 250.374524 l
350.693554 249.45832 l
350.883967 249.225178 l
351.455207 230.219053 l
351.836033 228.662947 l
352.788099 225.164988 l
353.549752 232.661157 l
353.930579 231.21355 l
354.120992 231.023156 l
354.311405 229.654222 l
354.501818 229.489673 l
354.882645 230.061076 l
355.263471 232.272439 l
355.644298 227.180996 l
356.025124 215.057615 l
356.215537 212.166951 l
356.40595 212.759081 l
356.97719 225.691209 l
357.167603 226.68558 l
357.54843 226.514775 l
358.119669 218.070996 l
358.500496 210.528476 l
358.690909 208.434143 l
358.881322 207.732598 l
359.071736 208.904567 l
359.452562 214.470825 l
359.642975 214.126277 l
360.023802 210.322506 l
360.214215 209.571325 l
361.166281 191.718085 l
361.356694 190.820048 l
361.547107 190.6052 l
361.737521 189.095887 l
361.927934 186.657069 l
362.118347 187.726858 l
362.689587 193.443289 l
362.88 193.845973 l
363.070413 192.116313 l
363.260826 192.057135 l
363.641653 195.114054 l
363.832066 195.38707 l
364.212893 194.530708 l
364.593719 196.387602 l
364.974545 195.784857 l
365.545785 197.504026 l
365.736198 197.103776 l
365.926612 194.000127 l
366.307438 185.870722 l
366.688264 191.473473 l
367.449917 199.726827 l
367.640331 200.03921 l
368.21157 198.677606 l
368.401983 198.714004 l
368.592397 197.887752 l
368.78281 198.565095 l
368.973223 198.307087 l
370.496529 211.872324 l
370.686942 212.161991 l
370.877355 211.971597 l
371.829421 207.131559 l
372.210248 204.845283 l
372.400661 205.160163 l
373.54314 225.087358 l
373.923967 225.84808 l
374.304793 224.352385 l
374.68562 221.939823 l
374.876033 221.462353 l
375.066446 222.910055 l
375.447273 230.059812 l
375.828099 237.194403 l
376.018512 237.760909 l
376.208926 237.573769 l
376.399339 237.026442 l
376.589752 237.255572 l
376.780165 238.241159 l
377.160992 241.424523 l
377.351405 241.516308 l
377.541818 241.261744 l
378.113058 243.559583 l
378.303471 240.316409 l
378.493884 239.302418 l
378.684298 239.563743 l
379.065124 240.899787 l
379.255537 240.590626 l
379.44595 240.858207 l
379.636364 241.35236 l
379.826777 241.131002 l
380.207603 240.378431 l
380.398017 239.45635 l
380.969256 233.413254 l
381.540496 210.760703 l
381.730909 208.379009 l
382.111736 208.104729 l
382.492562 210.772772 l
382.682975 211.114571 l
383.063802 211.056657 l
383.254215 210.617007 l
383.635041 205.588155 l
383.825455 206.510583 l
384.206281 209.612431 l
384.587107 211.403764 l
384.967934 215.800455 l
385.158347 216.833625 l
385.34876 217.219847 l
385.729587 217.148758 l
385.92 215.600425 l
386.110413 216.306961 l
386.681653 221.670725 l
387.062479 221.891892 l
387.252893 220.992877 l
387.443306 220.914962 l
388.014545 215.643679 l
388.204959 214.983777 l
388.585785 215.08207 l
388.776198 215.16583 l
388.966612 214.843493 l
389.537851 222.750719 l
389.728264 223.140132 l
390.109091 219.716011 l
390.299504 220.54002 l
390.870744 215.960391 l
391.25157 205.420162 l
391.441983 199.219973 l
391.632397 197.396823 l
392.203636 200.412984 l
392.584463 206.91671 l
392.774876 210.082855 l
392.965289 211.155298 l
393.726942 209.806363 l
394.107769 214.553353 l
394.298182 214.548013 l
394.869421 211.371063 l
395.059835 212.573995 l
395.440661 217.454254 l
396.202314 221.60488 l
396.392727 221.853946 l
396.58314 221.607565 l
396.773554 219.430168 l
397.15438 213.125493 l
397.344793 211.927869 l
397.535207 211.758012 l
397.916033 213.114434 l
398.29686 213.647575 l
398.487273 213.629503 l
398.487273 213.629503 l
stroke
grestore
1.000 0.647 0.000 setrgbcolor
gsave
357.1 266.1 57.6 38.02 clipbox
73.832727 57.238092 m
74.02314 60.085218 l
74.213554 57.251034 l
74.403967 64.110018 l
74.59438 60.305223 l
74.975207 60.305223 l
75.356033 66.957144 l
75.546446 66.620666 l
75.73686 61.780552 l
75.927273 62.945285 l
76.308099 62.945285 l
76.498512 66.128889 l
76.688926 67.151266 l
76.879339 61.508781 l
77.260165 58.88166 l
77.640992 58.88166 l
77.831405 60.939356 l
78.021818 66.115948 l
78.212231 63.747657 l
78.402645 68.484239 l
78.593058 66.737139 l
78.973884 66.737139 l
79.164298 69.726621 l
79.354711 70.826647 l
79.545124 73.699656 l
79.735537 72.327859 l
79.92595 70.127807 l
80.306777 70.127807 l
80.49719 68.561888 l
80.687603 70.76194 l
80.878017 69.118371 l
81.06843 73.29847 l
81.258843 73.660831 l
81.639669 73.660831 l
82.020496 71.396072 l
82.210909 72.289034 l
82.591736 76.689138 l
82.972562 76.689138 l
83.162975 77.607983 l
83.353388 77.193855 l
83.543802 73.259645 l
83.734215 72.664337 l
83.924628 69.661914 l
84.305455 69.661914 l
84.495868 70.813705 l
84.876694 65.184161 l
85.447934 63.488827 l
85.638347 63.488827 l
85.82876 63.890013 l
86.019174 63.993545 l
86.209587 62.492333 l
86.4 70.399578 l
86.780826 70.464285 l
86.97124 70.464285 l
87.161653 71.189008 l
87.542479 75.498521 l
87.732893 75.097336 l
88.304132 75.097336 l
88.494545 77.698573 l
88.684959 77.620924 l
88.875372 76.029122 l
89.065785 75.433814 l
89.256198 74.411437 l
89.637025 74.411437 l
89.827438 75.032628 l
90.017851 77.724456 l
90.208264 74.657325 l
90.398678 76.391484 l
90.589091 80.002157 l
90.969917 80.002157 l
91.160331 75.757351 l
91.350744 76.495015 l
91.73157 84.583441 l
92.493223 84.583441 l
92.683636 83.237527 l
92.87405 83.26341 l
93.064463 84.05284 l
93.445289 83.988133 l
93.635702 83.988133 l
93.826116 80.765704 l
94.016529 80.351577 l
94.206942 78.81154 l
94.397355 79.057429 l
94.587769 80.002157 l
95.159008 80.002157 l
95.920661 70.0631 l
96.301488 70.0631 l
96.491901 70.516051 l
96.682314 68.083053 l
96.872727 68.743069 l
97.06314 68.794834 l
97.253554 70.891354 l
97.63438 70.891354 l
98.015207 71.654902 l
98.20562 77.659749 l
98.396033 77.271504 l
98.586446 76.262069 l
98.967273 76.262069 l
99.157686 78.035052 l
99.348099 78.384472 l
99.538512 76.404425 l
99.728926 77.543275 l
99.919339 79.639795 l
100.490579 79.639795 l
100.680992 79.031546 l
100.871405 79.937449 l
101.061818 79.588029 l
101.252231 82.202208 l
101.633058 82.202208 l
101.823471 83.496356 l
102.013884 87.003498 l
102.204298 86.356424 l
102.394711 81.723374 l
102.585124 80.02804 l
103.156364 79.989215 l
103.346777 78.850365 l
103.53719 82.344565 l
103.727603 76.922084 l
103.918017 77.142089 l
104.298843 77.142089 l
104.679669 73.725539 l
104.870083 73.803187 l
105.250909 77.219738 l
105.631736 77.219738 l
105.822149 74.514969 l
106.012562 75.627936 l
106.202975 75.22675 l
106.393388 74.062017 l
106.583802 73.73848 l
106.964628 73.73848 l
107.345455 68.950132 l
107.535868 68.05717 l
107.726281 69.247786 l
107.916694 66.853612 l
108.297521 66.853612 l
108.487934 65.883001 l
108.678347 65.662996 l
108.86876 67.668926 l
109.059174 67.694809 l
109.249587 70.645466 l
109.630413 70.645466 l
109.820826 71.629019 l
110.01124 73.350236 l
110.201653 73.712597 l
110.392066 72.819635 l
110.582479 75.369107 l
110.963306 75.369107 l
111.153719 77.180914 l
111.344132 76.88326 l
111.534545 75.252633 l
111.724959 78.617418 l
111.915372 79.600971 l
112.296198 79.600971 l
112.677025 81.16689 l
113.057851 80.429226 l
113.248264 77.737398 l
113.819504 77.815046 l
114.009917 78.798599 l
114.581157 85.088159 l
114.961983 85.088159 l
115.152397 84.104606 l
115.34281 80.998651 l
115.533223 81.632783 l
115.91405 87.598806 l
116.294876 87.598806 l
116.485289 86.8482 l
116.675702 84.596382 l
117.056529 85.838764 l
117.246942 84.881095 l
117.818182 84.881095 l
118.008595 93.513062 l
118.199008 90.885942 l
118.389421 91.727138 l
118.579835 93.966014 l
118.960661 93.966014 l
119.151074 97.25315 l
119.531901 98.482591 l
119.912727 100.65676 l
120.293554 100.65676 l
120.67438 95.544875 l
120.864793 95.816646 l
121.24562 94.600147 l
121.626446 94.600147 l
121.81686 91.817728 l
122.007273 91.170654 l
122.197686 91.610665 l
122.388099 86.641136 l
122.578512 87.339976 l
122.959339 87.339976 l
123.149752 86.951732 l
123.340165 88.698832 l
123.530579 84.169313 l
123.720992 84.376377 l
124.101818 84.31167 l
124.292231 84.31167 l
124.482645 81.878671 l
124.673058 81.244539 l
124.863471 82.021028 l
125.053884 82.085735 l
125.244298 78.798599 l
125.625124 78.798599 l
126.00595 86.459955 l
126.196364 85.903472 l
126.386777 86.162301 l
126.57719 88.582358 l
126.958017 88.582358 l
127.14843 89.540028 l
127.338843 84.738739 l
127.529256 83.561064 l
127.719669 85.165807 l
127.910083 83.819893 l
128.290909 83.819893 l
128.481322 82.189267 l
128.671736 82.590453 l
129.052562 81.891613 l
129.242975 80.002157 l
129.623802 80.002157 l
129.814215 81.438661 l
130.004628 80.959826 l
130.195041 82.745751 l
130.385455 83.302234 l
130.575868 80.196279 l
130.956694 80.196279 l
131.337521 82.370448 l
131.527934 84.544616 l
131.718347 84.75168 l
132.099174 84.622265 l
132.289587 84.622265 l
132.670413 82.111618 l
132.860826 84.078723 l
133.05124 83.509298 l
133.241653 84.635207 l
133.622479 84.635207 l
133.812893 85.114041 l
134.003306 84.363436 l
134.384132 86.188184 l
134.955372 86.227009 l
135.145785 87.365859 l
135.336198 86.576429 l
135.717025 83.561064 l
135.907438 82.344565 l
136.288264 82.344565 l
136.478678 81.813964 l
136.669091 79.963332 l
136.859504 79.290375 l
137.240331 75.912649 l
137.621157 75.912649 l
137.81157 75.006745 l
138.001983 73.38906 l
138.192397 73.842012 l
138.573223 76.935026 l
138.95405 76.935026 l
139.144463 78.488003 l
139.334876 78.423296 l
139.525289 79.51038 l
140.667769 79.51038 l
141.048595 86.356424 l
141.810248 86.356424 l
142.000661 91.804787 l
142.191074 92.542451 l
142.381488 92.438919 l
142.571901 93.124818 l
142.952727 93.124818 l
143.14314 93.849541 l
143.333554 91.533016 l
143.523967 93.797775 l
143.904793 95.622524 l
144.28562 95.622524 l
144.476033 98.844952 l
144.666446 97.447272 l
144.85686 97.913166 l
145.047273 97.020204 l
145.237686 97.731985 l
145.618512 97.731985 l
145.808926 97.123735 l
145.999339 97.330799 l
146.189752 102.58504 l
146.380165 102.908577 l
146.570579 102.442684 l
146.951405 102.442684 l
147.141818 100.035569 l
147.332231 100.30734 l
147.522645 100.346164 l
147.713058 99.388495 l
147.903471 96.748433 l
148.284298 96.748433 l
148.474711 97.382565 l
148.665124 96.81314 l
149.236364 92.335388 l
149.61719 92.335388 l
149.807603 94.45779 l
149.998017 95.247221 l
150.378843 102.261503 l
150.569256 102.170913 l
150.950083 102.170913 l
151.330909 99.00025 l
151.521322 96.580193 l
151.711736 96.02371 l
152.092562 95.920178 l
152.282975 95.920178 l
152.473388 97.356682 l
153.044628 90.69182 l
153.235041 94.45779 l
153.615868 94.45779 l
153.806281 93.966014 l
153.996694 96.81314 l
154.187107 96.295481 l
154.377521 94.121312 l
154.758347 94.01778 l
154.94876 94.01778 l
155.139174 93.642477 l
155.329587 94.574264 l
155.52 94.781327 l
155.710413 93.538945 l
155.900826 91.300069 l
156.281653 91.300069 l
156.472066 91.895377 l
156.662479 91.533016 l
157.424132 100.74735 l
157.614545 102.248562 l
158.185785 94.858976 l
158.376198 97.343741 l
159.137851 97.343741 l
159.328264 98.340235 l
159.518678 95.85547 l
159.709091 96.761374 l
159.899504 96.955496 l
160.280331 96.955496 l
160.470744 98.767303 l
160.661157 101.821493 l
160.85157 99.388495 l
161.041983 99.996744 l
161.232397 101.459131 l
161.613223 101.459131 l
161.803636 99.582617 l
161.99405 102.002674 l
162.184463 101.265009 l
162.565289 94.97545 l
162.946116 94.97545 l
163.136529 96.153124 l
163.326942 94.289551 l
163.517355 94.043663 l
163.707769 94.250727 l
163.898182 92.102441 l
164.279008 92.102441 l
164.659835 89.772974 l
164.850248 92.581276 l
165.231074 90.394166 l
165.802314 90.394166 l
166.373554 94.988391 l
166.563967 93.823658 l
166.944793 93.823658 l
167.135207 87.391742 l
167.516033 85.968179 l
167.706446 85.657584 l
168.277686 85.670525 l
168.468099 86.887024 l
168.658512 85.838764 l
168.848926 89.941214 l
169.039339 89.591794 l
169.229752 87.521157 l
169.800992 87.521157 l
170.181818 90.070629 l
170.372231 87.28821 l
170.562645 87.508215 l
170.943471 87.508215 l
171.133884 86.628195 l
171.324298 88.711773 l
171.514711 87.974109 l
172.08595 88.582358 l
172.276364 88.582358 l
172.466777 88.33647 l
172.65719 87.689396 l
172.847603 89.397672 l
173.038017 84.868153 l
173.22843 83.910484 l
173.609256 83.910484 l
173.799669 82.512804 l
173.990083 82.008086 l
174.180496 79.924508 l
174.370909 80.700997 l
174.751736 80.584523 l
174.942149 80.584523 l
175.322975 76.935026 l
175.513388 76.145595 l
175.703802 75.860883 l
175.894215 75.174984 l
176.275041 75.174984 l
176.655868 77.206797 l
177.036694 77.129148 l
177.227107 78.863306 l
177.417521 78.863306 l
177.607934 76.779728 l
177.798347 76.106771 l
178.179174 73.596124 l
178.369587 73.440826 l
178.56 71.29254 l
178.940826 71.29254 l
179.321653 67.345389 l
179.512066 70.24428 l
179.702479 69.260728 l
179.892893 70.140748 l
180.273719 70.140748 l
180.464132 70.956062 l
180.844959 69.001898 l
181.035372 68.963074 l
181.225785 68.225409 l
181.606612 68.225409 l
181.797025 67.720692 l
181.987438 66.801846 l
182.177851 67.021852 l
182.368264 65.300635 l
182.558678 65.999475 l
182.939504 65.999475 l
183.129917 65.274752 l
183.320331 66.517134 l
183.510744 66.530075 l
183.701157 62.893519 l
183.89157 62.02644 l
184.272397 62.02644 l
184.46281 58.143996 l
184.843636 57.212209 l
185.224463 60.460521 l
185.605289 60.460521 l
185.795702 61.93585 l
185.986116 60.822882 l
186.176529 62.207621 l
186.366942 65.973592 l
186.557355 63.890013 l
187.128595 63.890013 l
187.319008 62.104089 l
187.509421 63.437062 l
187.699835 62.81587 l
187.890248 60.434638 l
188.271074 64.135901 l
188.461488 62.518216 l
188.651901 61.922908 l
188.842314 60.175808 l
189.032727 61.664079 l
189.22314 65.339459 l
189.603967 65.339459 l
189.79438 63.307647 l
189.984793 63.294705 l
190.175207 62.854695 l
190.36562 63.657067 l
190.556033 64.964156 l
190.93686 64.964156 l
191.127273 62.46645 l
191.317686 63.51471 l
191.508099 63.294705 l
191.888926 59.024017 l
192.269752 59.024017 l
192.650579 60.046394 l
192.840992 64.019428 l
193.031405 63.113524 l
193.221818 63.695891 l
193.793058 63.786481 l
193.983471 59.425203 l
194.173884 59.062841 l
194.364298 59.852271 l
194.554711 64.239433 l
194.935537 64.239433 l
195.316364 70.554876 l
195.506777 70.748998 l
195.69719 70.321929 l
195.887603 68.75601 l
196.26843 68.75601 l
196.458843 70.011334 l
196.649256 68.574829 l
196.839669 72.107853 l
197.030083 70.710174 l
197.410909 70.774881 l
197.601322 70.774881 l
197.791736 71.564311 l
197.982149 70.774881 l
198.172562 69.377201 l
198.362975 66.672432 l
198.553388 70.865471 l
198.934215 70.865471 l
199.124628 71.111359 l
199.315041 71.150184 l
199.505455 70.981945 l
199.695868 70.554876 l
199.886281 69.053664 l
200.267107 69.053664 l
200.647934 64.239433 l
200.838347 63.346471 l
201.02876 63.644125 l
201.219174 65.87006 l
201.6 65.87006 l
201.790413 68.600712 l
201.980826 68.393649 l
202.17124 68.75601 l
202.361653 69.558382 l
202.552066 69.80427 l
202.932893 69.80427 l
203.123306 68.924249 l
203.313719 68.859542 l
203.504132 68.290117 l
203.694545 66.232421 l
203.884959 69.597206 l
204.265785 69.597206 l
204.456198 67.345389 l
204.837025 73.233762 l
205.027438 72.094912 l
205.217851 73.816129 l
205.598678 73.816129 l
205.789091 74.010251 l
205.979504 74.540852 l
206.169917 74.52791 l
206.360331 74.644384 l
206.550744 73.867895 l
206.93157 73.867895 l
207.121983 71.952556 l
207.883636 78.267998 l
208.264463 78.267998 l
208.454876 77.853871 l
208.645289 77.853871 l
209.026116 83.250468 l
209.597355 83.250468 l
209.787769 84.259904 l
210.168595 84.259904 l
210.359008 86.214067 l
210.549421 83.483415 l
210.739835 86.667019 l
210.930248 86.667019 l
211.120661 85.178749 l
211.691901 86.58937 l
211.882314 86.58937 l
212.072727 85.825823 l
212.453554 87.236444 l
212.83438 86.278775 l
213.215207 86.278775 l
213.596033 83.392825 l
213.786446 84.05284 l
213.97686 83.457532 l
214.167273 84.466967 l
214.548099 84.466967 l
214.928926 89.242374 l
215.309752 91.455367 l
215.500165 94.703679 l
215.880992 94.703679 l
216.261818 91.83067 l
216.452231 92.361271 l
216.833058 91.274186 l
217.213884 91.274186 l
217.404298 92.52951 l
217.594711 90.3424 l
217.975537 91.998909 l
218.16595 91.649489 l
218.546777 91.649489 l
218.73719 92.96952 l
219.30843 100.009686 l
219.498843 96.774315 l
219.879669 96.774315 l
220.070083 96.20489 l
220.260496 96.72255 l
220.450909 95.169572 l
220.641322 94.600147 l
220.831736 93.642477 l
221.212562 93.642477 l
221.402975 91.778904 l
221.593388 84.906978 l
221.783802 84.49285 l
221.974215 85.023451 l
222.164628 84.881095 l
222.545455 84.881095 l
222.735868 87.844694 l
222.926281 86.809375 l
223.116694 87.922343 l
223.307107 90.484756 l
223.497521 87.534098 l
223.878347 87.534098 l
224.06876 89.591794 l
224.449587 90.678878 l
224.64 89.64356 l
224.830413 91.170654 l
225.21124 91.170654 l
225.401653 91.610665 l
225.592066 93.746009 l
225.782479 92.904813 l
225.972893 91.196537 l
226.163306 87.430566 l
226.734545 87.495274 l
226.924959 87.003498 l
227.115372 86.175243 l
227.305785 86.214067 l
227.496198 84.324611 l
227.877025 84.324611 l
228.067438 85.696408 l
228.257851 88.68589 l
228.638678 90.096511 l
228.829091 88.375295 l
229.209917 88.375295 l
229.400331 87.210561 l
229.781157 82.56457 l
230.161983 82.396331 l
230.54281 82.396331 l
230.733223 80.791587 l
230.923636 81.348071 l
231.11405 83.716362 l
231.304463 84.596382 l
232.066116 84.596382 l
232.256529 83.379883 l
232.637355 84.49285 l
232.827769 81.16689 l
233.208595 81.16689 l
233.399008 83.133995 l
233.970248 85.088159 l
234.160661 85.346988 l
234.731901 85.346988 l
234.922314 87.54704 l
235.112727 88.271763 l
235.30314 88.452943 l
235.493554 86.537604 l
235.87438 86.537604 l
236.064793 83.716362 l
236.44562 81.218656 l
236.636033 81.904554 l
236.826446 84.454026 l
237.207273 84.454026 l
237.397686 84.156372 l
237.588099 83.069288 l
237.778512 83.936367 l
237.968926 83.755186 l
238.159339 87.534098 l
238.730579 87.534098 l
238.920992 93.111876 l
239.492231 97.874341 l
239.873058 97.874341 l
240.063471 99.207314 l
240.253884 96.088417 l
240.444298 94.97545 l
240.825124 97.977873 l
241.20595 97.977873 l
241.396364 101.950908 l
241.586777 99.375553 l
241.77719 99.388495 l
241.967603 100.087334 l
242.158017 109.262844 l
242.538843 109.262844 l
243.110083 122.696101 l
243.300496 115.591228 l
243.490909 115.215925 l
243.871736 115.215925 l
244.062149 116.898318 l
244.252562 112.006438 l
244.442975 112.252326 l
244.633388 118.063051 l
244.823802 118.425412 l
245.204628 118.425412 l
245.395041 111.631135 l
245.585455 114.594734 l
245.775868 112.381741 l
245.966281 116.717137 l
246.156694 118.127758 l
246.537521 118.127758 l
246.727934 116.535956 l
246.918347 117.778338 l
247.10876 117.118323 l
247.299174 117.247738 l
247.489587 119.085428 l
247.870413 119.085428 l
248.060826 124.844387 l
248.25124 121.751373 l
248.441653 121.181948 l
248.632066 121.544309 l
248.822479 118.736008 l
249.203306 118.736008 l
249.393719 119.848975 l
249.584132 119.499555 l
249.774545 121.272538 l
249.964959 121.699607 l
250.155372 116.328893 l
250.536198 116.328893 l
250.917025 131.457483 l
251.107438 131.457483 l
251.297851 142.017732 l
251.488264 139.351787 l
251.869091 139.351787 l
252.059504 139.856504 l
252.249917 141.668312 l
252.440331 140.037685 l
252.630744 143.881305 l
252.821157 144.502496 l
253.392397 144.398964 l
253.58281 139.571792 l
253.773223 141.629487 l
254.15405 140.982413 l
254.534876 140.982413 l
254.725289 141.435365 l
254.915702 148.980248 l
255.296529 150.856763 l
255.486942 147.802573 l
256.058182 147.802573 l
256.248595 147.168441 l
256.629421 152.383858 l
256.819835 147.983754 l
257.200661 147.983754 l
257.391074 146.586074 l
257.771901 139.998861 l
257.962314 138.031756 l
258.152727 144.386023 l
258.533554 144.386023 l
258.91438 139.72709 l
259.104793 140.995355 l
259.295207 141.357716 l
259.48562 140.632993 l
259.866446 140.632993 l
260.05686 140.943589 l
260.247273 146.171947 l
260.437686 145.796644 l
260.628099 147.893164 l
260.818512 142.108322 l
261.199339 142.108322 l
261.389752 137.837633 l
261.580165 136.647017 l
261.770579 133.579886 l
262.151405 144.877799 l
262.532231 144.877799 l
262.722645 140.231807 l
262.913058 140.775349 l
263.103471 141.965966 l
263.293884 142.328327 l
263.484298 139.105898 l
263.865124 139.105898 l
264.055537 135.055215 l
264.24595 138.018814 l
264.626777 136.595251 l
264.81719 138.549415 l
265.198017 138.549415 l
265.38843 137.863516 l
265.578843 138.290585 l
265.769256 136.659959 l
265.959669 139.015308 l
266.150083 139.55885 l
266.530909 139.55885 l
266.721322 143.933071 l
266.911736 138.484707 l
267.102149 137.02232 l
267.292562 138.407058 l
267.482975 143.285997 l
267.863802 143.285997 l
268.054215 142.729513 l
268.244628 142.897752 l
268.435041 137.591745 l
268.815868 136.375246 l
269.196694 136.375246 l
269.387107 131.172771 l
269.767934 128.040933 l
269.958347 130.849234 l
270.14876 131.819845 l
270.72 131.884552 l
271.100826 132.285738 l
271.29124 133.126934 l
271.481653 131.923377 l
271.862479 131.923377 l
272.052893 131.25042 l
272.433719 128.71389 l
272.624132 128.636241 l
273.004959 128.71389 l
273.195372 128.71389 l
273.385785 130.137452 l
273.576198 130.396282 l
273.766612 134.57638 l
273.957025 134.006955 l
274.147438 134.22696 l
274.528264 134.22696 l
274.718678 130.008038 l
275.480331 132.117499 l
275.861157 132.117499 l
276.05157 131.806903 l
276.241983 134.731678 l
276.62281 133.735184 l
276.813223 134.421082 l
277.19405 134.421082 l
277.574876 135.818762 l
277.765289 135.818762 l
277.955702 143.428353 l
278.146116 144.269549 l
278.717355 144.269549 l
278.907769 147.466095 l
279.288595 147.466095 l
279.479008 153.069756 l
279.859835 153.069756 l
280.050248 159.372257 l
280.240661 158.013402 l
280.431074 158.013402 l
280.621488 159.074603 l
280.811901 153.587415 l
281.192727 153.587415 l
281.38314 154.32508 l
281.763967 152.125028 l
282.335207 154.570968 l
282.52562 154.570968 l
282.906446 156.020414 l
283.09686 153.729771 l
283.477686 156.732195 l
283.858512 156.732195 l
284.048926 157.094556 l
284.239339 161.184064 l
284.429752 159.605204 l
284.620165 159.462847 l
284.810579 160.70523 l
285.191405 160.70523 l
285.381818 162.245266 l
285.572231 159.799326 l
285.762645 155.55452 l
285.953058 154.247431 l
286.143471 156.835727 l
286.524298 156.835727 l
286.714711 159.255784 l
286.905124 159.39814 l
287.095537 158.6993 l
287.28595 156.939259 l
287.476364 159.876975 l
287.85719 159.876975 l
288.047603 161.520543 l
288.238017 161.365245 l
288.42843 163.707653 l
288.809256 171.252536 l
289.190083 171.252536 l
289.570909 184.879915 l
289.951736 175.367927 l
290.142149 179.793913 l
290.522975 179.793913 l
290.713388 168.884245 l
290.903802 166.244183 l
291.094215 170.346633 l
291.475041 181.761018 l
291.855868 181.761018 l
292.046281 187.985871 l
292.617521 180.246865 l
292.807934 158.751066 l
293.18876 158.751066 l
293.379174 156.706312 l
293.569587 137.268208 l
293.76 149.821444 l
294.140826 133.78695 l
294.521653 133.78695 l
294.902479 147.026085 l
295.092893 167.823044 l
295.283306 167.745395 l
295.473719 175.342044 l
295.854545 175.342044 l
296.044959 170.812526 l
296.235372 171.071355 l
296.425785 168.651299 l
296.616198 160.265219 l
296.806612 170.683111 l
297.187438 170.683111 l
297.377851 169.725441 l
297.568264 178.836244 l
297.758678 179.082132 l
297.949091 178.706829 l
298.139504 187.209382 l
298.520331 187.209382 l
298.710744 203.062695 l
298.901157 197.044907 l
299.09157 199.853208 l
299.281983 190.289454 l
300.043636 190.289454 l
300.424463 187.571743 l
300.805289 201.600308 l
301.186116 201.600308 l
301.376529 196.333126 l
301.566942 196.087237 l
301.757355 190.030624 l
301.947769 193.084814 l
302.138182 192.929516 l
302.519008 192.929516 l
302.709421 188.658828 l
302.899835 194.573084 l
303.280661 190.017683 l
303.471074 193.265995 l
303.851901 193.265995 l
304.042314 192.929516 l
304.232727 192.838926 l
304.42314 194.391903 l
304.613554 200.39675 l
305.184793 200.39675 l
305.375207 201.367361 l
305.56562 201.199122 l
305.756033 202.040318 l
305.946446 204.719205 l
306.13686 198.662592 l
306.517686 198.662592 l
306.708099 200.901468 l
306.898512 197.459034 l
307.088926 190.820055 l
307.469752 199.646145 l
308.040992 199.646145 l
308.231405 200.137921 l
308.421818 203.127403 l
308.612231 193.602473 l
308.802645 192.230676 l
309.183471 192.230676 l
309.373884 187.934105 l
309.564298 189.720029 l
309.754711 195.711934 l
309.945124 197.924928 l
310.135537 202.117967 l
310.516364 202.117967 l
310.706777 200.888527 l
310.89719 194.922504 l
311.278017 198.520236 l
311.46843 197.264912 l
311.849256 197.264912 l
312.039669 201.212064 l
312.230083 208.226346 l
312.420496 210.051095 l
312.610909 209.313431 l
312.801322 206.854549 l
313.182149 206.854549 l
313.372562 204.538024 l
313.562975 210.749935 l
313.753388 209.844031 l
313.943802 210.607579 l
314.134215 212.264088 l
314.515041 212.264088 l
314.705455 211.086413 l
314.895868 214.968858 l
315.086281 215.395926 l
315.276694 220.973705 l
315.467107 221.232534 l
315.847934 221.232534 l
316.038347 218.903068 l
316.22876 220.041918 l
316.419174 218.592472 l
316.8 220.093684 l
317.37124 220.003094 l
317.561653 222.151379 l
317.752066 229.113896 l
317.942479 231.663368 l
318.132893 238.367054 l
318.513719 238.367054 l
319.084959 254.569788 l
319.465785 258.905184 l
319.846612 258.905184 l
320.037025 260.781699 l
320.227438 259.138131 l
320.417851 264.146484 l
320.608264 282.329264 l
320.798678 287.247027 l
321.179504 287.247027 l
321.369917 277.929161 l
321.560331 281.384536 l
321.750744 254.246251 l
321.941157 252.240322 l
322.13157 255.436867 l
322.512397 255.436867 l
322.70281 255.566282 l
323.083636 272.131377 l
323.27405 264.948856 l
323.464463 251.010881 l
323.845289 251.010881 l
324.035702 250.286158 l
324.226116 255.359218 l
324.416529 246.869607 l
324.606942 252.512093 l
324.797355 250.156743 l
325.368595 250.156743 l
325.749421 262.709979 l
325.939835 256.16159 l
326.130248 254.453315 l
326.320661 250.790876 l
326.891901 250.790876 l
327.082314 251.347359 l
327.272727 246.817841 l
327.653554 261.131119 l
328.03438 261.131119 l
328.224793 256.252181 l
328.415207 259.176955 l
328.60562 256.756898 l
328.796033 259.979327 l
328.986446 253.36623 l
329.367273 253.36623 l
329.557686 257.145143 l
329.748099 246.403714 l
329.938512 245.536635 l
330.128926 237.098789 l
330.319339 234.083424 l
330.700165 234.083424 l
330.890579 233.552824 l
331.080992 234.74344 l
331.271405 239.829442 l
331.461818 240.592989 l
331.652231 244.501316 l
332.033058 244.501316 l
332.223471 244.773087 l
332.604298 247.451974 l
332.794711 239.971798 l
332.985124 240.735345 l
333.36595 240.735345 l
333.556364 250.001445 l
333.746777 250.583812 l
333.93719 241.731839 l
334.127603 246.584895 l
334.318017 241.887137 l
334.698843 241.887137 l
334.889256 245.290747 l
335.079669 245.433103 l
335.270083 243.56953 l
335.460496 250.234392 l
335.650909 244.229545 l
336.031736 244.229545 l
336.222149 244.928385 l
336.412562 243.582471 l
336.602975 245.458986 l
336.793388 236.205827 l
337.174215 236.296418 l
337.364628 236.296418 l
337.935868 246.131943 l
338.126281 244.022481 l
338.316694 253.935656 l
338.697521 253.935656 l
338.887934 254.543905 l
339.078347 235.519929 l
339.26876 238.470586 l
339.459174 233.876361 l
339.649587 237.474092 l
340.030413 237.474092 l
340.220826 241.628308 l
340.41124 240.256511 l
340.601653 241.149473 l
341.172893 232.944574 l
341.363306 232.944574 l
341.553719 237.694097 l
341.934545 217.997164 l
342.124959 220.740758 l
342.315372 220.016035 l
342.696198 220.016035 l
343.077025 208.407527 l
343.267438 220.883114 l
343.648264 226.473834 l
344.029091 226.473834 l
344.219504 229.230369 l
344.600331 235.739934 l
344.790744 228.906832 l
344.981157 229.579789 l
345.361983 229.579789 l
345.552397 228.97154 l
345.74281 226.163238 l
345.933223 231.210416 l
346.123636 231.546894 l
346.31405 241.589483 l
346.694876 241.589483 l
346.885289 238.742357 l
347.075702 238.807065 l
347.456529 237.512917 l
348.027769 237.512917 l
348.218182 237.331736 l
348.408595 240.77417 l
348.599008 240.77417 l
348.789421 255.165096 l
349.551074 255.165096 l
349.741488 254.427432 l
350.122314 249.186132 l
350.693554 249.186132 l
350.883967 234.381078 l
351.07438 230.330395 l
351.264793 228.777417 l
351.455207 233.332819 l
351.64562 228.906832 l
352.026446 228.906832 l
352.21686 228.195051 l
352.407273 226.655015 l
352.597686 227.082083 l
352.788099 232.750452 l
352.978512 234.174015 l
353.359339 234.174015 l
353.549752 231.741016 l
353.740165 232.815159 l
353.930579 232.750452 l
354.120992 229.230369 l
354.311405 231.999846 l
354.692231 231.999846 l
354.882645 234.614025 l
355.073058 234.39402 l
355.263471 226.667956 l
355.453884 227.276206 l
355.644298 214.451198 l
356.025124 214.451198 l
356.215537 218.864243 l
356.40595 227.22444 l
356.786777 229.139779 l
356.97719 228.479763 l
357.358017 228.479763 l
357.54843 222.33256 l
357.738843 222.578448 l
358.119669 213.105284 l
358.310083 211.151121 l
358.690909 211.151121 l
358.881322 214.528847 l
359.071736 220.028976 l
359.833388 212.833513 l
360.023802 212.833513 l
360.214215 203.308584 l
360.595041 198.390821 l
360.785455 195.168392 l
360.975868 195.349573 l
361.356694 195.349573 l
361.737521 188.865891 l
361.927934 196.591955 l
362.118347 196.410774 l
362.30876 198.494353 l
362.689587 198.494353 l
362.88 193.460117 l
363.260826 201.276771 l
363.641653 198.921422 l
364.022479 198.921422 l
364.212893 201.328537 l
364.403306 201.574425 l
364.593719 198.999071 l
365.164959 201.872079 l
365.355372 201.872079 l
365.545785 200.448516 l
365.926612 188.063519 l
366.117025 189.90121 l
366.307438 198.960246 l
366.688264 198.960246 l
366.878678 203.774477 l
367.069091 202.066201 l
367.259504 206.582778 l
367.449917 202.881515 l
368.21157 202.881515 l
368.401983 200.720287 l
368.592397 204.628615 l
368.78281 201.419127 l
368.973223 207.022788 l
369.35405 207.022788 l
369.544463 211.487599 l
369.734876 211.500541 l
369.925289 212.36762 l
370.115702 217.634803 l
370.306116 214.930033 l
370.686942 214.930033 l
371.067769 211.202887 l
371.258182 213.998247 l
371.639008 208.43341 l
372.019835 208.43341 l
372.210248 209.727558 l
372.400661 217.518329 l
372.591074 213.50647 l
372.971901 227.560918 l
373.54314 227.560918 l
373.733554 228.570354 l
373.923967 225.632638 l
374.11438 226.046765 l
374.304793 223.743181 l
374.68562 223.743181 l
375.447273 240.994175 l
375.637686 238.367054 l
376.018512 238.367054 l
376.208926 237.745863 l
376.399339 238.845889 l
376.589752 240.618872 l
376.780165 243.91895 l
376.970579 241.770664 l
377.351405 241.770664 l
377.541818 243.970716 l
377.732231 243.815418 l
377.922645 244.695438 l
378.113058 235.325807 l
378.303471 241.550659 l
378.874711 241.550659 l
379.065124 240.981234 l
379.255537 242.210674 l
379.44595 242.585977 l
379.636364 241.045941 l
380.01719 241.045941 l
380.207603 239.078836 l
380.398017 235.079918 l
380.58843 234.950504 l
380.778843 233.824595 l
380.969256 212.587625 l
381.350083 212.587625 l
381.540496 211.138179 l
381.730909 211.642897 l
381.921322 211.642897 l
382.111736 215.926527 l
382.302149 214.179427 l
382.682975 214.179427 l
382.873388 214.645321 l
383.063802 213.001753 l
383.254215 206.569837 l
383.444628 208.562825 l
383.635041 213.312348 l
384.015868 213.312348 l
384.396694 215.86182 l
384.587107 220.650168 l
384.777521 219.304254 l
384.967934 220.093684 l
385.34876 220.093684 l
385.539174 219.653674 l
385.729587 216.133591 l
386.110413 224.105543 l
386.300826 224.247899 l
386.681653 224.247899 l
386.872066 224.390255 l
387.062479 221.957257 l
387.252893 224.066718 l
387.443306 218.65718 l
387.633719 217.95834 l
388.204959 217.997164 l
388.585785 218.191286 l
388.776198 217.220675 l
388.966612 225.684403 l
389.347438 225.684403 l
389.537851 224.765558 l
389.728264 221.064295 l
389.918678 221.37489 l
390.109091 225.632638 l
390.299504 218.294818 l
390.680331 218.294818 l
391.061157 202.273265 l
391.25157 198.261406 l
391.441983 203.502706 l
391.632397 204.486258 l
392.013223 204.486258 l
392.39405 214.567672 l
392.584463 215.370043 l
392.774876 213.817066 l
392.965289 213.454704 l
393.346116 213.454704 l
393.536529 212.678216 l
393.726942 218.618355 l
393.917355 220.287806 l
394.107769 215.175921 l
394.298182 214.632379 l
394.679008 214.632379 l
395.059835 221.944316 l
395.250248 221.154885 l
395.440661 221.349007 l
395.631074 224.234958 l
396.202314 224.234958 l
396.392727 223.691415 l
396.773554 214.477081 l
396.963967 215.059448 l
397.344793 215.059448 l
397.535207 216.703016 l
398.487273 216.703016 l
398.487273 216.703016 l
stroke
grestore
0.800 setlinewidth
0 setlinejoin
0.000 setgray
gsave
57.6 38.016 m
57.6 304.128 l
stroke
grestore
gsave
414.72 38.016 m
414.72 304.128 l
stroke
grestore
gsave
57.6 38.016 m
414.72 38.016 l
stroke
grestore
gsave
57.6 304.128 m
414.72 304.128 l
stroke
grestore

end
showpage
