%!PS-Adobe-3.0 EPSF-3.0
%%Title: D:/MCM2022/MCM2022/YKCCs_LSTM/required/50-100-GOL.eps
%%Creator: matplotlib version 3.3.4, http://matplotlib.org/
%%CreationDate: Sun Feb 20 14:19:29 2022
%%Orientation: portrait
%%BoundingBox: 75.6 223.20000000000002 536.4 568.8
%%EndComments
%%BeginProlog
/mpldict 8 dict def
mpldict begin
/m { moveto } bind def
/l { lineto } bind def
/r { rlineto } bind def
/c { curveto } bind def
/cl { closepath } bind def
/box {
      m
      1 index 0 r
      0 exch r
      neg 0 r
      cl
    } bind def
/clipbox {
      box
      clip
      newpath
    } bind def
%!PS-Adobe-3.0 Resource-Font
%%Title: DejaVu Sans
%%Copyright: Copyright (c) 2003 by Bitstream, Inc. All Rights Reserved. Copyright (c) 2006 by Tavmjong Bah. All Rights Reserved. DejaVu changes are in public domain 
%%Creator: Converted from TrueType to type 3 by PPR
25 dict begin
/_d{bind def}bind def
/_m{moveto}_d
/_l{lineto}_d
/_cl{closepath eofill}_d
/_c{curveto}_d
/_sc{7 -1 roll{setcachedevice}{pop pop pop pop pop pop}ifelse}_d
/_e{exec}_d
/FontName /DejaVuSans def
/PaintType 0 def
/FontMatrix[.001 0 0 .001 0 0]def
/FontBBox[-1021 -463 1793 1232]def
/FontType 3 def
/Encoding [ /zero /one /two /four /five /six /seven /eight ] def
/FontInfo 10 dict dup begin
/FamilyName (DejaVu Sans) def
/FullName (DejaVu Sans) def
/Notice (Copyright (c) 2003 by Bitstream, Inc. All Rights Reserved. Copyright (c) 2006 by Tavmjong Bah. All Rights Reserved. DejaVu changes are in public domain ) def
/Weight (Book) def
/Version (Version 2.35) def
/ItalicAngle 0.0 def
/isFixedPitch false def
/UnderlinePosition -130 def
/UnderlineThickness 90 def
end readonly def
/CharStrings 9 dict dup begin
/.notdef 0 def
/zero{636 0 66 -13 570 742 _sc
318 664 _m
267 664 229 639 203 589 _c
177 539 165 464 165 364 _c
165 264 177 189 203 139 _c
229 89 267 64 318 64 _c
369 64 407 89 433 139 _c
458 189 471 264 471 364 _c
471 464 458 539 433 589 _c
407 639 369 664 318 664 _c
318 742 _m
399 742 461 709 505 645 _c
548 580 570 486 570 364 _c
570 241 548 147 505 83 _c
461 19 399 -13 318 -13 _c
236 -13 173 19 130 83 _c
87 147 66 241 66 364 _c
66 486 87 580 130 645 _c
173 709 236 742 318 742 _c
_cl}_d
/one{636 0 110 0 544 729 _sc
124 83 _m
285 83 _l
285 639 _l
110 604 _l
110 694 _l
284 729 _l
383 729 _l
383 83 _l
544 83 _l
544 0 _l
124 0 _l
124 83 _l
_cl}_d
/two{{636 0 73 0 536 742 _sc
192 83 _m
536 83 _l
536 0 _l
73 0 _l
73 83 _l
110 121 161 173 226 239 _c
290 304 331 346 348 365 _c
380 400 402 430 414 455 _c
426 479 433 504 433 528 _c
433 566 419 598 392 622 _c
365 646 330 659 286 659 _c
255 659 222 653 188 643 _c
154 632 117 616 78 594 _c
78 694 _l
118 710 155 722 189 730 _c
223 738 255 742 284 742 _c
}_e{359 742 419 723 464 685 _c
509 647 532 597 532 534 _c
532 504 526 475 515 449 _c
504 422 484 390 454 354 _c
446 344 420 317 376 272 _c
332 227 271 164 192 83 _c
_cl}_e}_d
/four{636 0 49 0 580 729 _sc
378 643 _m
129 254 _l
378 254 _l
378 643 _l
352 729 _m
476 729 _l
476 254 _l
580 254 _l
580 172 _l
476 172 _l
476 0 _l
378 0 _l
378 172 _l
49 172 _l
49 267 _l
352 729 _l
_cl}_d
/five{{636 0 77 -13 549 729 _sc
108 729 _m
495 729 _l
495 646 _l
198 646 _l
198 467 _l
212 472 227 476 241 478 _c
255 480 270 482 284 482 _c
365 482 429 459 477 415 _c
525 370 549 310 549 234 _c
549 155 524 94 475 51 _c
426 8 357 -13 269 -13 _c
238 -13 207 -10 175 -6 _c
143 -1 111 6 77 17 _c
77 116 _l
106 100 136 88 168 80 _c
199 72 232 69 267 69 _c
}_e{323 69 368 83 401 113 _c
433 143 450 183 450 234 _c
450 284 433 324 401 354 _c
368 384 323 399 267 399 _c
241 399 214 396 188 390 _c
162 384 135 375 108 363 _c
108 729 _l
_cl}_e}_d
/six{{636 0 70 -13 573 742 _sc
330 404 _m
286 404 251 388 225 358 _c
199 328 186 286 186 234 _c
186 181 199 139 225 109 _c
251 79 286 64 330 64 _c
374 64 409 79 435 109 _c
461 139 474 181 474 234 _c
474 286 461 328 435 358 _c
409 388 374 404 330 404 _c
526 713 _m
526 623 _l
501 635 476 644 451 650 _c
425 656 400 659 376 659 _c
310 659 260 637 226 593 _c
}_e{192 549 172 482 168 394 _c
187 422 211 444 240 459 _c
269 474 301 482 336 482 _c
409 482 467 459 509 415 _c
551 371 573 310 573 234 _c
573 159 550 99 506 54 _c
462 9 403 -13 330 -13 _c
246 -13 181 19 137 83 _c
92 147 70 241 70 364 _c
70 479 97 571 152 639 _c
206 707 280 742 372 742 _c
396 742 421 739 447 735 _c
472 730 498 723 526 713 _c
_cl}_e}_d
/seven{636 0 82 0 551 729 _sc
82 729 _m
551 729 _l
551 687 _l
286 0 _l
183 0 _l
432 646 _l
82 646 _l
82 729 _l
_cl}_d
/eight{{636 0 68 -13 568 742 _sc
318 346 _m
271 346 234 333 207 308 _c
180 283 167 249 167 205 _c
167 161 180 126 207 101 _c
234 76 271 64 318 64 _c
364 64 401 76 428 102 _c
455 127 469 161 469 205 _c
469 249 455 283 429 308 _c
402 333 365 346 318 346 _c
219 388 _m
177 398 144 418 120 447 _c
96 476 85 511 85 553 _c
85 611 105 657 147 691 _c
188 725 245 742 318 742 _c
}_e{390 742 447 725 489 691 _c
530 657 551 611 551 553 _c
551 511 539 476 515 447 _c
491 418 459 398 417 388 _c
464 377 501 355 528 323 _c
554 291 568 251 568 205 _c
568 134 546 80 503 43 _c
459 5 398 -13 318 -13 _c
237 -13 175 5 132 43 _c
89 80 68 134 68 205 _c
68 251 81 291 108 323 _c
134 355 171 377 219 388 _c
183 544 _m
183 506 194 476 218 455 _c
}_e{242 434 275 424 318 424 _c
360 424 393 434 417 455 _c
441 476 453 506 453 544 _c
453 582 441 611 417 632 _c
393 653 360 664 318 664 _c
275 664 242 653 218 632 _c
194 611 183 582 183 544 _c
_cl}_e}_d
end readonly def

/BuildGlyph
 {exch begin
 CharStrings exch
 2 copy known not{pop /.notdef}if
 true 3 1 roll get exec
 end}_d

/BuildChar {
 1 index /Encoding get exch get
 1 index /BuildGlyph get exec
}_d

FontName currentdict end definefont pop
end
%%EndProlog
mpldict begin
75.6 223.2 translate
460.8 345.6 0 0 clipbox
gsave
0 0 m
460.8 0 l
460.8 345.6 l
0 345.6 l
cl
1.000 setgray
fill
grestore
gsave
57.6 38.016 m
414.72 38.016 l
414.72 304.128 l
57.6 304.128 l
cl
1.000 setgray
fill
grestore
0.800 setlinewidth
1 setlinejoin
0 setlinecap
[] 0 setdash
0.000 setgray
gsave
/o {
gsave
newpath
translate
0.8 setlinewidth
1 setlinejoin
0 setlinecap
0 0 m
0 -3.5 l

gsave
0.000 setgray
fill
grestore
stroke
grestore
} bind def
73.8327 38.016 o
grestore
/DejaVuSans findfont
10.000 scalefont
setfont
gsave
70.653040 23.422250 translate
0.000000 rotate
0.000000 0 m /zero glyphshow
grestore
gsave
/o {
gsave
newpath
translate
0.8 setlinewidth
1 setlinejoin
0 setlinecap
0 0 m
0 -3.5 l

gsave
0.000 setgray
fill
grestore
stroke
grestore
} bind def
120.884 38.016 o
grestore
gsave
111.345048 23.422250 translate
0.000000 rotate
0.000000 0 m /two glyphshow
6.362305 0 m /five glyphshow
12.724609 0 m /zero glyphshow
grestore
gsave
/o {
gsave
newpath
translate
0.8 setlinewidth
1 setlinejoin
0 setlinecap
0 0 m
0 -3.5 l

gsave
0.000 setgray
fill
grestore
stroke
grestore
} bind def
167.935 38.016 o
grestore
gsave
158.396432 23.422250 translate
0.000000 rotate
0.000000 0 m /five glyphshow
6.362305 0 m /zero glyphshow
12.724609 0 m /zero glyphshow
grestore
gsave
/o {
gsave
newpath
translate
0.8 setlinewidth
1 setlinejoin
0 setlinecap
0 0 m
0 -3.5 l

gsave
0.000 setgray
fill
grestore
stroke
grestore
} bind def
214.987 38.016 o
grestore
gsave
205.447815 23.422250 translate
0.000000 rotate
0.000000 0 m /seven glyphshow
6.362305 0 m /five glyphshow
12.724609 0 m /zero glyphshow
grestore
gsave
/o {
gsave
newpath
translate
0.8 setlinewidth
1 setlinejoin
0 setlinecap
0 0 m
0 -3.5 l

gsave
0.000 setgray
fill
grestore
stroke
grestore
} bind def
262.038 38.016 o
grestore
gsave
249.319511 23.422250 translate
0.000000 rotate
0.000000 0 m /one glyphshow
6.362305 0 m /zero glyphshow
12.724609 0 m /zero glyphshow
19.086914 0 m /zero glyphshow
grestore
gsave
/o {
gsave
newpath
translate
0.8 setlinewidth
1 setlinejoin
0 setlinecap
0 0 m
0 -3.5 l

gsave
0.000 setgray
fill
grestore
stroke
grestore
} bind def
309.09 38.016 o
grestore
gsave
296.370894 23.422250 translate
0.000000 rotate
0.000000 0 m /one glyphshow
6.362305 0 m /two glyphshow
12.724609 0 m /five glyphshow
19.086914 0 m /zero glyphshow
grestore
gsave
/o {
gsave
newpath
translate
0.8 setlinewidth
1 setlinejoin
0 setlinecap
0 0 m
0 -3.5 l

gsave
0.000 setgray
fill
grestore
stroke
grestore
} bind def
356.141 38.016 o
grestore
gsave
343.422278 23.422250 translate
0.000000 rotate
0.000000 0 m /one glyphshow
6.362305 0 m /five glyphshow
12.724609 0 m /zero glyphshow
19.086914 0 m /zero glyphshow
grestore
gsave
/o {
gsave
newpath
translate
0.8 setlinewidth
1 setlinejoin
0 setlinecap
0 0 m
0 -3.5 l

gsave
0.000 setgray
fill
grestore
stroke
grestore
} bind def
403.192 38.016 o
grestore
gsave
390.473661 23.422250 translate
0.000000 rotate
0.000000 0 m /one glyphshow
6.362305 0 m /seven glyphshow
12.724609 0 m /five glyphshow
19.086914 0 m /zero glyphshow
grestore
gsave
/o {
gsave
newpath
translate
0.8 setlinewidth
1 setlinejoin
0 setlinecap
-0 0 m
-3.5 0 l

gsave
0.000 setgray
fill
grestore
stroke
grestore
} bind def
57.6 68.16 o
grestore
gsave
25.162500 64.363164 translate
0.000000 rotate
0.000000 0 m /one glyphshow
6.362305 0 m /two glyphshow
12.724609 0 m /zero glyphshow
19.086914 0 m /zero glyphshow
grestore
gsave
/o {
gsave
newpath
translate
0.8 setlinewidth
1 setlinejoin
0 setlinecap
-0 0 m
-3.5 0 l

gsave
0.000 setgray
fill
grestore
stroke
grestore
} bind def
57.6 116.742 o
grestore
gsave
25.162500 112.944695 translate
0.000000 rotate
0.000000 0 m /one glyphshow
6.362305 0 m /four glyphshow
12.724609 0 m /zero glyphshow
19.086914 0 m /zero glyphshow
grestore
gsave
/o {
gsave
newpath
translate
0.8 setlinewidth
1 setlinejoin
0 setlinecap
-0 0 m
-3.5 0 l

gsave
0.000 setgray
fill
grestore
stroke
grestore
} bind def
57.6 165.323 o
grestore
gsave
25.162500 161.526226 translate
0.000000 rotate
0.000000 0 m /one glyphshow
6.362305 0 m /six glyphshow
12.724609 0 m /zero glyphshow
19.086914 0 m /zero glyphshow
grestore
gsave
/o {
gsave
newpath
translate
0.8 setlinewidth
1 setlinejoin
0 setlinecap
-0 0 m
-3.5 0 l

gsave
0.000 setgray
fill
grestore
stroke
grestore
} bind def
57.6 213.905 o
grestore
gsave
25.162500 210.107756 translate
0.000000 rotate
0.000000 0 m /one glyphshow
6.362305 0 m /eight glyphshow
12.724609 0 m /zero glyphshow
19.086914 0 m /zero glyphshow
grestore
gsave
/o {
gsave
newpath
translate
0.8 setlinewidth
1 setlinejoin
0 setlinecap
-0 0 m
-3.5 0 l

gsave
0.000 setgray
fill
grestore
stroke
grestore
} bind def
57.6 262.486 o
grestore
gsave
25.162500 258.689287 translate
0.000000 rotate
0.000000 0 m /two glyphshow
6.362305 0 m /zero glyphshow
12.724609 0 m /zero glyphshow
19.086914 0 m /zero glyphshow
grestore
1.500 setlinewidth
2 setlinecap
0.000 0.000 1.000 setrgbcolor
gsave
357.1 266.1 57.6 38.02 clipbox
73.832727 50.767264 m
74.020933 50.350596 l
75.338372 50.370255 l
75.526577 50.615357 l
76.091194 53.482628 l
76.279399 53.770607 l
76.467605 53.800941 l
76.65581 54.187304 l
76.844016 55.596269 l
77.220427 59.640806 l
77.408632 60.590761 l
77.785043 61.101128 l
77.973249 62.151484 l
78.161455 62.335325 l
78.34966 64.155739 l
78.537866 64.83014 l
78.726071 64.854395 l
78.914277 64.682178 l
79.102482 65.356282 l
79.478893 68.975997 l
79.667099 68.456735 l
80.04351 66.927087 l
80.231715 66.706388 l
80.608126 69.021898 l
80.796332 68.330448 l
81.360949 63.633096 l
81.549154 63.183397 l
81.73736 63.659101 l
82.301976 69.117881 l
82.490182 70.084323 l
82.678387 70.365037 l
82.866593 70.427009 l
83.054798 71.197511 l
83.619415 75.285014 l
83.807621 74.939125 l
84.372237 72.983499 l
84.560443 73.133686 l
84.748648 72.995656 l
85.50147 76.640487 l
85.689676 76.351945 l
86.066087 75.341293 l
86.254292 76.154701 l
86.630704 78.752853 l
87.007115 79.804335 l
87.19532 79.981238 l
87.571731 77.44841 l
87.948142 74.04966 l
88.136348 73.320551 l
88.324553 73.372442 l
88.512759 72.595387 l
89.077375 68.371249 l
89.453787 67.397187 l
89.641992 67.413317 l
89.830198 67.558759 l
90.018403 67.228942 l
90.58302 72.904714 l
91.335842 76.380233 l
91.712253 77.95848 l
91.900458 78.080142 l
92.088664 78.059178 l
92.465075 79.632444 l
92.653281 79.681399 l
92.841486 79.235584 l
93.217897 77.817842 l
93.406103 77.529093 l
93.594308 77.612622 l
93.782514 78.609101 l
93.970719 78.660665 l
94.158925 78.853995 l
94.723542 82.242337 l
95.099953 80.242293 l
95.288158 81.243753 l
95.664569 85.531227 l
95.852775 86.616929 l
96.04098 86.910867 l
96.229186 86.932928 l
96.605597 86.105998 l
96.793802 86.066265 l
97.358419 86.373754 l
98.111241 82.159371 l
98.299447 82.126132 l
98.864063 82.628789 l
99.240474 80.477965 l
99.616885 75.395111 l
99.993296 73.435215 l
100.181502 73.508603 l
100.557913 72.455519 l
100.746119 72.204991 l
101.498941 74.280736 l
101.687146 74.535772 l
102.063557 78.390448 l
102.251763 79.269446 l
102.439968 79.449107 l
102.628174 79.251329 l
103.004585 80.339076 l
103.380996 80.195265 l
103.945613 82.067747 l
104.133818 82.279343 l
104.322024 82.113915 l
104.698435 82.246281 l
105.639462 86.56652 l
105.827668 87.756092 l
106.015874 87.016249 l
106.392285 83.691362 l
106.58049 82.879584 l
106.956901 82.292597 l
107.145107 82.984166 l
108.462545 77.486572 l
108.650751 77.650428 l
109.215368 79.88318 l
109.591779 78.70707 l
109.96819 77.860452 l
110.344601 77.018132 l
110.532806 76.834024 l
110.909217 74.300366 l
111.097423 72.876308 l
112.226656 69.739057 l
112.603067 70.555905 l
112.979478 72.955211 l
114.861534 79.333672 l
115.049739 79.134056 l
115.237945 79.748294 l
115.614356 81.609864 l
116.178972 82.951935 l
116.367178 83.269654 l
116.555383 83.295688 l
117.12 80.805173 l
117.308206 80.566891 l
117.496411 80.864447 l
117.684617 81.914566 l
118.249233 86.88338 l
118.437439 87.331122 l
118.625644 87.1039 l
119.002055 84.854395 l
119.190261 85.270973 l
119.754877 89.452561 l
119.943083 89.516342 l
120.319494 87.934714 l
121.260522 87.220817 l
121.636933 91.783876 l
122.201549 94.997361 l
122.389755 95.5391 l
123.330783 101.136473 l
123.707194 102.043759 l
123.895399 101.158682 l
124.27181 98.322071 l
124.648221 96.897953 l
125.024632 96.432657 l
125.589249 93.769658 l
125.96566 90.625824 l
126.342071 89.494192 l
126.530277 89.400848 l
126.718482 89.81713 l
127.471304 86.715491 l
127.65951 86.682637 l
128.224126 84.49291 l
128.412332 84.388298 l
128.976949 81.855292 l
129.165154 82.868791 l
129.541565 87.021794 l
130.106182 89.900333 l
130.482593 90.967887 l
131.235415 86.72329 l
131.611826 86.343005 l
131.988237 85.327253 l
132.364648 84.703734 l
132.929265 82.838072 l
133.305676 83.379781 l
133.682087 84.845381 l
133.870292 84.426401 l
134.246704 83.139482 l
134.434909 83.136369 l
134.623115 83.779606 l
134.999526 86.130135 l
135.187731 86.746981 l
135.375937 86.970141 l
135.564142 86.981171 l
136.128759 85.659116 l
136.316964 85.763846 l
136.693375 86.665142 l
137.069787 87.11754 l
137.257992 87.05023 l
137.446198 87.202997 l
138.010814 88.365229 l
138.19902 88.466312 l
138.575431 88.945219 l
138.951842 87.305384 l
139.328253 85.335941 l
139.704664 84.68111 l
140.081075 83.041513 l
140.645692 79.415808 l
141.210308 77.771704 l
141.398514 77.208972 l
141.586719 77.570724 l
141.96313 79.242434 l
142.527747 80.707292 l
142.904158 81.82392 l
143.280569 82.167288 l
143.845186 82.176955 l
144.033391 83.34156 l
144.409802 87.237926 l
144.598008 88.251544 l
144.786213 88.573919 l
144.974419 88.599686 l
145.727241 94.456838 l
146.291858 95.201247 l
146.480063 94.726284 l
146.668269 94.839673 l
147.04468 96.236896 l
147.985708 99.334828 l
148.362119 99.142507 l
148.73853 99.282612 l
149.114941 99.031224 l
149.679557 103.475556 l
149.867763 103.904885 l
150.055968 103.875974 l
150.620585 101.972683 l
150.808791 101.515571 l
151.373407 98.699331 l
151.749818 98.639256 l
151.938024 98.055353 l
152.50264 94.612332 l
152.690846 94.293813 l
153.067257 95.809169 l
153.255462 97.387801 l
153.631874 101.981964 l
153.820079 103.140283 l
154.008285 103.547788 l
154.19649 103.130231 l
154.384696 102.131113 l
154.949312 98.141639 l
155.137518 97.741666 l
155.325723 97.646336 l
155.513929 98.074715 l
155.702134 97.914773 l
155.89034 96.954025 l
156.078545 95.204064 l
156.266751 94.905974 l
157.019573 96.813653 l
157.207779 97.457691 l
157.395984 97.18946 l
157.772395 96.093322 l
158.148806 95.71455 l
158.525217 96.160631 l
158.713423 96.009229 l
159.27804 93.503621 l
159.654451 93.520434 l
159.842656 94.35531 l
160.030862 95.809406 l
160.595478 102.193056 l
160.783684 102.249246 l
161.3483 98.368772 l
161.536506 98.43629 l
161.912917 98.961334 l
162.101123 98.98129 l
162.289328 99.288868 l
162.665739 98.540694 l
163.04215 98.476053 l
163.230356 98.58532 l
163.418561 99.170468 l
163.794972 101.315332 l
163.983178 101.558863 l
164.547794 102.735951 l
164.736 102.300336 l
165.112411 102.601094 l
165.300617 101.75756 l
165.865233 97.096413 l
166.053439 97.124493 l
166.241644 96.90077 l
166.618055 96.180913 l
166.994466 94.684831 l
167.370877 93.550975 l
167.559083 92.800903 l
167.935494 93.215139 l
168.311905 92.76538 l
168.688316 92.41027 l
168.876522 92.979318 l
169.441138 95.780555 l
169.629344 95.857501 l
169.817549 95.755321 l
170.570372 88.44007 l
170.946783 87.986842 l
171.134988 87.955856 l
171.323194 88.325318 l
171.511399 88.391026 l
171.88781 90.658649 l
172.076016 90.704935 l
172.640632 89.713378 l
172.828838 90.107006 l
173.017043 90.90209 l
173.205249 90.72243 l
173.769866 89.684171 l
173.958071 89.413124 l
174.334482 90.018881 l
174.899099 90.56311 l
175.087304 90.656751 l
175.27551 90.617433 l
175.463715 90.344577 l
175.651921 90.608596 l
176.592949 85.884203 l
176.781154 85.281352 l
177.157565 83.527981 l
177.345771 83.231818 l
177.722182 83.187696 l
177.910387 82.52483 l
178.475004 79.372368 l
178.851415 78.382857 l
179.039621 78.202545 l
179.227826 78.44225 l
179.604237 79.583637 l
179.792443 79.87289 l
180.168854 81.024419 l
180.357059 80.760132 l
180.73347 79.000149 l
181.298087 76.043092 l
182.050909 72.661569 l
182.239115 72.513874 l
182.42732 72.535994 l
182.803731 73.241292 l
182.991937 73.360552 l
183.180142 73.680109 l
183.368348 73.690547 l
184.309375 71.744884 l
184.497581 71.523029 l
185.438609 69.563163 l
185.626814 69.54804 l
185.81502 69.382435 l
186.191431 69.771229 l
186.944253 66.061017 l
187.50887 62.365244 l
187.697075 62.203049 l
188.449897 64.911831 l
188.638103 65.054515 l
188.826308 65.431835 l
189.202719 67.633274 l
189.390925 67.90358 l
189.767336 67.674876 l
189.955542 67.123708 l
190.331953 66.818502 l
190.520158 66.028904 l
190.708364 65.721058 l
191.084775 66.572659 l
191.27298 66.477565 l
191.649391 65.300359 l
192.214008 68.592629 l
192.402213 68.354139 l
192.778625 67.192263 l
192.96683 67.097347 l
193.531447 68.502102 l
193.907858 67.441664 l
194.096063 67.174442 l
194.284269 66.499804 l
194.848885 63.429329 l
195.037091 63.332783 l
195.225296 63.619012 l
195.601708 66.186236 l
195.978119 67.34835 l
196.35453 67.496846 l
196.919146 64.010949 l
197.483763 67.507106 l
198.236585 73.506705 l
198.424791 73.233523 l
198.801202 72.32769 l
198.989407 72.549248 l
199.177613 72.495816 l
199.554024 73.871156 l
199.930435 74.126577 l
200.11864 74.039133 l
200.306846 74.269054 l
200.495051 74.279313 l
200.683257 73.78137 l
200.871462 72.444489 l
201.059668 72.492406 l
201.624285 74.151632 l
202.000696 74.293042 l
202.188901 74.144249 l
202.941723 71.462509 l
203.50634 67.71455 l
203.694545 68.104679 l
205.20019 72.965797 l
205.388395 73.098222 l
205.764806 72.574541 l
205.953012 72.197696 l
206.141217 71.30743 l
206.329423 71.537825 l
206.705834 72.604579 l
206.89404 72.233931 l
207.082245 72.551532 l
207.646862 75.835381 l
208.023273 76.691281 l
208.776095 77.506468 l
209.340711 76.990438 l
209.528917 76.341152 l
209.717123 76.225124 l
209.905328 76.690391 l
210.65815 80.865811 l
210.846356 80.879006 l
211.034561 80.759865 l
211.222767 81.44248 l
211.787383 85.360196 l
212.540206 86.523229 l
212.728411 87.215183 l
212.916617 87.010616 l
213.293028 88.145361 l
213.669439 88.109186 l
214.04585 88.500708 l
214.234055 88.724579 l
214.422261 88.578633 l
214.610466 88.644045 l
214.986877 89.029104 l
215.551494 88.574571 l
216.304316 86.183775 l
216.680727 86.558337 l
216.868933 86.722874 l
217.057138 87.618774 l
218.186372 96.132136 l
218.374577 96.089615 l
218.750988 94.588581 l
219.315605 93.477913 l
219.50381 93.303887 l
219.692016 93.625224 l
220.068427 93.208586 l
220.633043 93.617811 l
220.821249 93.620153 l
221.009455 93.997502 l
221.385866 96.839777 l
221.574071 98.9498 l
221.762277 99.464496 l
222.138688 98.758664 l
222.326893 98.291203 l
222.515099 98.24293 l
222.89151 97.19204 l
223.267921 95.852282 l
223.456126 95.578566 l
223.644332 94.909177 l
224.208949 87.875263 l
224.397154 87.23588 l
224.773565 87.222952 l
225.526387 90.584667 l
225.714593 90.660398 l
226.091004 89.9951 l
226.279209 90.361656 l
226.655621 91.937353 l
226.843826 92.108029 l
227.596648 93.259498 l
227.973059 94.584163 l
228.161265 94.293813 l
228.725881 90.018555 l
229.478704 88.756218 l
229.855115 87.295154 l
230.04332 86.887294 l
230.231526 87.123619 l
230.796142 91.146213 l
230.984348 91.287504 l
231.548964 90.159016 l
231.925375 87.400448 l
232.301787 85.217422 l
232.489992 84.927012 l
232.678198 84.885322 l
233.054609 84.055961 l
233.242814 84.607307 l
233.619225 86.411204 l
233.807431 86.83226 l
234.183842 86.945055 l
234.560253 86.410908 l
234.748458 86.497758 l
235.313075 84.072892 l
235.501281 84.353754 l
236.254103 87.29723 l
236.630514 87.621324 l
236.818719 87.648189 l
237.383336 89.996346 l
237.571542 89.836078 l
237.947953 88.969059 l
238.700775 84.585661 l
239.453597 86.698679 l
239.830008 86.152581 l
240.018213 86.110238 l
240.58283 89.313613 l
240.771036 89.675869 l
241.147447 93.755454 l
241.523858 98.274954 l
241.712063 99.140698 l
242.088474 99.895722 l
242.27668 99.360329 l
242.464885 98.307067 l
242.653091 98.048651 l
243.217708 99.470634 l
243.405913 100.804105 l
243.594119 101.288824 l
243.97053 101.372649 l
244.723352 111.706899 l
244.911557 113.952105 l
245.099763 117.766573 l
245.287968 118.622829 l
245.852585 116.150312 l
246.040791 116.593933 l
246.417202 114.45497 l
246.793613 117.052706 l
247.170024 119.076442 l
247.546435 115.734742 l
247.73464 114.518336 l
247.922846 115.152588 l
248.299257 117.977635 l
248.487462 118.690702 l
248.863874 118.238008 l
249.240285 118.030119 l
249.804901 119.600153 l
250.181312 122.518543 l
250.369518 122.590805 l
250.557723 122.396912 l
250.934134 120.327097 l
251.12234 119.742392 l
251.310545 119.824973 l
251.498751 120.058896 l
251.875162 121.495348 l
252.439779 117.686425 l
252.627984 120.026101 l
253.380806 137.788456 l
253.569012 139.287326 l
253.757217 139.720272 l
253.945423 139.685906 l
254.133628 140.423672 l
254.321834 140.612525 l
254.886451 143.979577 l
255.074656 144.482264 l
255.262862 144.530389 l
255.639273 141.968087 l
256.015684 141.237437 l
256.5803 141.255584 l
257.144917 149.18181 l
257.333123 149.431033 l
257.709534 148.127747 l
258.085945 147.613081 l
258.27415 148.403272 l
258.462356 149.991719 l
258.650561 149.901578 l
259.215178 147.566468 l
259.591589 143.371418 l
259.779794 140.820236 l
259.968 141.21671 l
260.344411 143.811066 l
260.532617 143.402227 l
260.909028 141.102966 l
261.285439 141.002179 l
261.850055 140.868954 l
262.414672 146.106828 l
262.602877 145.355599 l
263.3557 139.027606 l
263.543905 136.697151 l
263.732111 136.596335 l
264.296727 144.256555 l
264.861344 141.58887 l
265.049549 141.773512 l
265.614166 139.595497 l
265.802372 137.979977 l
266.178783 137.421871 l
266.366988 137.221514 l
266.931605 138.524503 l
267.308016 138.409929 l
267.496221 137.87418 l
267.684427 138.119637 l
268.249043 139.641191 l
268.437249 141.120816 l
268.625455 140.820414 l
269.001866 138.681183 l
269.754688 143.162907 l
269.942893 143.059096 l
270.695715 136.85223 l
270.883921 136.645231 l
271.636743 130.097547 l
272.20136 132.026872 l
272.765976 132.393576 l
272.954182 132.780651 l
273.142387 132.738219 l
273.707004 132.037458 l
274.459826 129.204849 l
274.836237 129.112929 l
275.212648 130.126902 l
275.589059 133.259142 l
275.96547 134.454881 l
276.153676 134.473947 l
276.530087 131.916241 l
276.718292 131.427846 l
276.906498 131.567684 l
277.282909 132.29617 l
277.471115 132.405081 l
277.65932 132.333679 l
278.035731 133.894284 l
278.412142 134.418202 l
278.788553 134.614823 l
278.976759 134.86968 l
279.35317 135.726766 l
279.917787 143.281395 l
280.105992 144.208934 l
280.294198 144.333471 l
280.858814 147.159793 l
281.799842 156.774957 l
282.176253 158.390299 l
282.74087 154.09387 l
283.493692 152.920963 l
284.434719 155.256191 l
284.622925 154.905114 l
284.81113 154.832408 l
285.563953 156.771073 l
285.940364 159.192499 l
286.881391 161.114085 l
287.069597 160.83521 l
287.634213 155.913453 l
287.822419 156.070193 l
288.010625 156.504533 l
288.387036 158.423568 l
288.575241 158.786684 l
288.763447 158.238363 l
288.951652 158.477268 l
289.704474 160.834765 l
289.89268 161.926278 l
290.833708 173.244227 l
291.210119 179.989896 l
291.58653 178.623421 l
291.774735 178.726847 l
291.962941 179.329105 l
292.527557 169.471122 l
292.715763 171.48881 l
293.092174 179.529225 l
293.656791 185.031238 l
293.844996 183.988354 l
294.033202 182.260661 l
294.597818 160.842445 l
294.786024 158.089126 l
294.974229 150.944017 l
295.35064 144.524904 l
295.727051 137.010333 l
295.915257 134.756707 l
296.103462 135.77581 l
296.291668 140.059548 l
296.856285 168.027198 l
297.04449 172.689738 l
297.232696 174.501908 l
297.420901 173.727788 l
297.797312 170.545022 l
297.985518 166.552376 l
298.173723 166.609367 l
298.926545 172.981393 l
300.055779 192.636068 l
300.43219 198.66182 l
301.185012 190.431129 l
301.373217 190.404769 l
301.561423 189.846544 l
301.749628 188.910673 l
301.937834 190.664874 l
302.314245 199.021882 l
302.502451 201.279897 l
302.690656 200.141357 l
302.878862 198.226443 l
303.255273 193.216739 l
303.443478 192.798441 l
303.631684 192.856292 l
303.819889 193.101631 l
304.008095 191.641635 l
304.384506 192.403093 l
304.572711 191.776521 l
305.325534 193.314145 l
305.513739 193.174841 l
305.701945 193.594889 l
306.266561 200.125137 l
306.642972 201.062876 l
307.019383 201.800346 l
307.207589 203.072913 l
307.584 200.687484 l
307.772206 199.550841 l
307.960411 199.734178 l
308.148617 199.325576 l
308.336822 196.366533 l
308.525028 195.480952 l
309.27785 199.953483 l
309.466055 200.129081 l
309.654261 201.327755 l
310.595289 190.924713 l
310.783494 190.032461 l
310.9717 191.703993 l
311.724522 202.071423 l
311.912727 202.063595 l
312.289138 198.053751 l
312.477344 197.807937 l
313.04196 197.645119 l
313.230166 198.877092 l
313.794783 209.09235 l
313.982988 209.099347 l
314.547605 206.570344 l
315.300427 211.635437 l
315.676838 212.781361 l
315.865043 212.535607 l
316.241455 214.720709 l
316.617866 220.163536 l
316.994277 222.215204 l
317.370688 220.998472 l
317.558893 220.353248 l
317.747099 220.119592 l
318.311715 220.982727 l
318.499921 221.030199 l
318.688126 221.750383 l
319.064538 228.830702 l
319.440949 237.678981 l
319.81736 242.369305 l
320.381976 257.019702 l
320.758387 261.100889 l
321.323004 262.712109 l
321.511209 264.374805 l
322.075826 289.060236 l
322.264032 292.032 l
322.640443 286.769752 l
323.205059 259.267221 l
323.393265 257.323426 l
323.769676 258.290609 l
323.957881 260.968464 l
324.334292 269.646957 l
325.087115 253.261098 l
325.27532 254.837892 l
325.463526 253.465073 l
325.651731 253.526452 l
326.028142 252.865958 l
326.216348 252.862726 l
326.404553 252.628209 l
326.96917 261.479157 l
327.157375 260.226516 l
327.533787 254.68646 l
327.721992 253.65517 l
327.910198 253.299645 l
328.098403 253.503323 l
328.286609 252.077368 l
328.474814 253.929539 l
328.851225 261.742465 l
329.039431 263.8481 l
329.415842 261.804052 l
329.604047 260.836721 l
329.792253 261.337243 l
330.35687 256.679359 l
330.545075 257.395272 l
330.921486 251.57133 l
331.486103 237.499617 l
331.674308 235.96736 l
331.862514 235.485399 l
332.050719 235.71526 l
332.991747 246.262736 l
333.368158 247.446377 l
333.556364 248.481552 l
334.12098 243.140934 l
334.309186 242.592168 l
334.685597 249.567994 l
335.062008 248.363567 l
335.438419 244.978131 l
335.626625 244.341684 l
335.81483 245.097449 l
336.003036 246.389023 l
336.191241 246.581967 l
336.379447 248.657268 l
336.567652 248.504739 l
337.132269 246.602902 l
337.320474 246.378764 l
337.50868 246.726105 l
338.073296 238.868048 l
338.261502 237.987538 l
338.449708 239.059243 l
338.637913 240.884283 l
339.578941 255.680567 l
339.767146 256.871947 l
340.331763 239.511166 l
340.519968 237.974669 l
340.896379 238.883645 l
341.272791 241.731376 l
341.460996 242.535829 l
341.649202 241.746083 l
342.025613 236.423701 l
342.213818 234.952734 l
342.402024 236.162617 l
342.590229 234.620841 l
342.96664 224.232388 l
343.154846 221.609181 l
343.343051 220.963186 l
343.531257 221.05057 l
343.907668 214.349468 l
344.095874 215.452812 l
344.66049 226.550952 l
345.036901 228.677343 l
345.413312 234.199756 l
345.601518 233.850932 l
345.977929 231.39849 l
346.166134 230.891295 l
346.35434 230.73933 l
346.542545 229.530959 l
346.730751 230.157976 l
346.918957 231.372159 l
347.483573 242.587127 l
347.671779 242.554658 l
348.236395 239.89833 l
348.612806 239.328778 l
348.989217 239.211298 l
349.365628 241.576059 l
349.930245 256.553961 l
350.118451 257.964409 l
350.306656 257.951125 l
350.494862 257.684526 l
350.683067 256.628565 l
351.059478 252.837225 l
351.247684 251.895958 l
351.435889 251.598609 l
352.188711 232.639181 l
353.317945 228.631056 l
354.070767 235.62666 l
354.447178 234.408593 l
354.635383 234.199548 l
354.823589 232.946937 l
355.011794 232.746491 l
355.388206 233.218014 l
355.764617 235.278933 l
356.141028 230.719226 l
356.517439 219.411566 l
356.705644 216.472686 l
356.89385 216.762147 l
357.458466 228.742399 l
357.646672 229.881384 l
357.834877 229.945877 l
358.023083 229.868367 l
358.5877 222.080971 l
358.964111 214.889754 l
359.152316 212.799953 l
359.340522 211.995796 l
359.528727 212.972052 l
359.905138 218.124707 l
360.093344 217.96951 l
360.469755 214.55371 l
360.65796 213.753852 l
361.598988 196.777329 l
361.787194 195.833274 l
361.975399 195.554666 l
362.163605 194.164648 l
362.35181 191.924009 l
362.540016 192.780353 l
363.292838 198.572835 l
363.481043 197.053328 l
363.669249 196.964788 l
364.04566 199.708381 l
364.233866 200.032624 l
364.610277 199.318163 l
364.986688 200.972586 l
365.363099 200.501182 l
365.73951 201.554859 l
365.927715 202.06484 l
366.115921 201.750057 l
366.304126 198.960799 l
366.680538 191.313686 l
366.868743 193.074381 l
367.43336 200.886952 l
367.621565 202.013809 l
367.809771 204.081905 l
367.997976 204.472004 l
368.562593 203.287029 l
368.750798 203.279319 l
368.939004 202.536304 l
369.127209 203.120119 l
369.315415 202.890643 l
370.444648 212.010681 l
370.821059 215.728989 l
371.009265 216.081312 l
371.19747 215.965729 l
371.385676 215.173314 l
371.573881 213.862793 l
371.762087 213.698996 l
371.950292 212.95693 l
372.514909 209.242655 l
372.703115 209.444257 l
373.832348 228.239356 l
374.208759 229.199422 l
374.58517 227.855661 l
374.961581 225.588958 l
375.149787 225.086983 l
375.337992 226.344635 l
375.714403 232.919568 l
376.090814 239.794845 l
376.27902 240.503524 l
376.467225 240.430995 l
376.655431 239.953067 l
376.843636 240.119622 l
377.031842 241.002682 l
377.408253 243.982956 l
377.596458 244.157606 l
377.784664 243.970325 l
378.161075 245.290661 l
378.349281 246.071037 l
378.537486 243.222862 l
378.725692 242.233499 l
378.913897 242.360053 l
379.290308 243.529254 l
379.478514 243.324983 l
379.666719 243.556889 l
379.854925 244.002675 l
380.04313 243.825001 l
380.419542 243.145975 l
380.607747 242.294167 l
381.172364 236.617179 l
381.73698 215.370083 l
381.925186 212.80529 l
382.301597 212.281046 l
382.678008 214.705052 l
382.866213 215.08421 l
383.242625 215.09272 l
383.43083 214.684178 l
383.807241 210.05467 l
383.995447 210.749827 l
384.560063 214.441893 l
384.748269 215.344879 l
385.12468 219.441989 l
385.501091 220.927574 l
385.689296 220.986315 l
385.877502 220.907945 l
386.065708 219.522078 l
386.253913 220.103551 l
386.81853 225.095107 l
387.006735 225.370572 l
387.194941 225.436548 l
387.383146 224.633695 l
387.571352 224.536319 l
388.135968 219.608395 l
388.324174 218.920028 l
388.512379 218.85936 l
388.888791 219.004536 l
389.076996 218.719671 l
389.641613 226.050607 l
389.829818 226.554391 l
390.206229 223.502241 l
390.394435 224.149392 l
390.959051 219.913156 l
391.335462 210.151957 l
391.523668 204.303315 l
391.711874 202.303745 l
391.900079 202.93266 l
392.27649 204.819108 l
392.652901 210.831547 l
392.841107 213.852504 l
393.029312 215.022001 l
393.217518 214.858797 l
393.593929 214.216361 l
393.782134 213.908961 l
394.346751 218.336688 l
394.911368 215.457734 l
395.099573 216.470255 l
395.475984 220.997108 l
396.228806 225.088554 l
396.417012 225.370661 l
396.605217 225.182313 l
396.793423 223.222743 l
397.169834 217.323723 l
397.35804 216.065063 l
397.546245 215.787522 l
398.110862 217.380091 l
398.299067 217.540566 l
398.487273 217.542761 l
398.487273 217.542761 l
stroke
grestore
1.000 0.647 0.000 setrgbcolor
gsave
357.1 266.1 57.6 38.02 clipbox
73.832727 50.112 m
74.020933 52.043116 l
74.209138 51.484428 l
75.150166 51.484428 l
75.338372 52.273878 l
75.526577 55.018735 l
76.279399 55.018735 l
76.467605 56.257564 l
76.844016 62.50029 l
77.032221 62.293819 l
77.408632 62.293819 l
77.596838 62.937524 l
77.785043 65.609508 l
77.973249 62.94967 l
78.161455 69.386722 l
78.34966 65.81598 l
78.726071 65.81598 l
79.102482 72.058707 l
79.290688 71.742927 l
79.478893 67.200553 l
79.667099 68.293638 l
80.04351 68.293638 l
80.231715 71.281402 l
80.419921 72.240887 l
80.608126 66.9455 l
80.984538 64.479988 l
81.360949 64.479988 l
81.549154 66.411104 l
81.73736 71.269257 l
81.925565 69.046652 l
82.113771 73.491862 l
82.301976 71.852235 l
82.678387 71.852235 l
82.866593 74.657818 l
83.054798 75.690176 l
83.243004 78.386451 l
83.431209 77.09904 l
83.619415 75.034325 l
83.995826 75.034325 l
84.184032 73.564734 l
84.372237 75.629449 l
84.560443 74.086985 l
84.748648 78.009944 l
84.936854 78.350015 l
85.313265 78.350015 l
85.689676 76.224573 l
85.877881 77.062604 l
86.254292 81.192034 l
86.630704 81.192034 l
86.818909 82.054357 l
87.007115 81.665704 l
87.19532 77.973508 l
87.383526 77.41482 l
87.571731 74.597092 l
87.948142 74.597092 l
88.136348 75.678031 l
88.512759 70.394789 l
89.077375 68.803744 l
89.265581 68.803744 l
89.453787 69.180251 l
89.641992 69.277414 l
89.830198 67.86855 l
90.018403 75.289378 l
90.394814 75.350105 l
90.58302 75.350105 l
90.771225 76.030247 l
91.147636 80.074659 l
91.335842 79.698152 l
91.900458 79.698152 l
92.088664 82.139374 l
92.27687 82.066502 l
92.465075 80.57262 l
92.653281 80.013932 l
92.841486 79.054447 l
93.217897 79.054447 l
93.406103 79.637425 l
93.594308 82.163665 l
93.782514 79.285209 l
93.970719 80.912691 l
94.158925 84.301252 l
94.535336 84.301252 l
94.723542 80.317567 l
94.911747 81.009854 l
95.288158 88.600718 l
96.04098 88.600718 l
96.229186 87.337598 l
96.417391 87.361889 l
96.605597 88.102757 l
96.982008 88.04203 l
97.170213 88.04203 l
97.358419 85.01783 l
97.546625 84.629178 l
97.73483 83.183877 l
97.923036 83.414639 l
98.111241 84.301252 l
98.675858 84.301252 l
99.42868 74.973598 l
99.805091 74.973598 l
99.993296 75.398687 l
100.181502 73.115355 l
100.369708 73.734769 l
100.557913 73.783351 l
100.746119 75.750903 l
101.12253 75.750903 l
101.498941 76.467481 l
101.687146 82.102938 l
101.875352 81.738577 l
102.063557 80.791237 l
102.439968 80.791237 l
102.628174 82.455154 l
102.816379 82.78308 l
103.004585 80.924836 l
103.192791 81.99363 l
103.380996 83.961182 l
103.945613 83.961182 l
104.133818 83.390349 l
104.322024 84.240525 l
104.510229 83.9126 l
104.698435 86.365967 l
105.074846 86.365967 l
105.263051 87.580506 l
105.451257 90.871904 l
105.639462 90.264635 l
105.827668 85.916588 l
106.015874 84.325543 l
106.58049 84.289107 l
106.768696 83.220313 l
106.956901 86.499567 l
107.145107 81.410651 l
107.333312 81.617123 l
107.709723 81.617123 l
108.086134 78.410742 l
108.27434 78.483614 l
108.650751 81.689995 l
109.027162 81.689995 l
109.215368 79.15161 l
109.403573 80.196113 l
109.591779 79.819606 l
109.779984 78.726522 l
109.96819 78.422887 l
110.344601 78.422887 l
110.721012 73.929096 l
110.909217 73.091064 l
111.097423 74.208439 l
111.285628 71.961544 l
111.66204 71.961544 l
111.850245 71.05064 l
112.038451 70.844168 l
112.226656 72.726703 l
112.414862 72.750993 l
112.603067 75.520141 l
112.979478 75.520141 l
113.167684 76.44319 l
113.355889 78.058526 l
113.544095 78.398596 l
113.7323 77.560565 l
113.920506 79.953205 l
114.296917 79.953205 l
114.485123 81.653559 l
114.673328 81.374215 l
114.861534 79.843897 l
115.049739 83.001696 l
115.237945 83.924746 l
115.614356 83.924746 l
115.990767 85.394337 l
116.367178 84.70205 l
116.555383 82.17581 l
117.12 82.248683 l
117.308206 83.171732 l
117.872822 89.074388 l
118.249233 89.074388 l
118.437439 88.151339 l
118.625644 85.236447 l
118.81385 85.831571 l
119.190261 91.430592 l
119.566672 91.430592 l
119.754877 90.72616 l
119.943083 88.612863 l
120.319494 89.77882 l
120.5077 88.880062 l
121.072316 88.880062 l
121.260522 96.981032 l
121.448727 94.515519 l
121.636933 95.304969 l
121.825138 97.40612 l
122.201549 97.40612 l
122.389755 100.491048 l
122.766166 101.644859 l
123.142577 103.685283 l
123.518988 103.685283 l
123.895399 98.887857 l
124.083605 99.14291 l
124.460016 98.001244 l
124.836427 98.001244 l
125.024632 95.389987 l
125.212838 94.782718 l
125.401043 95.195661 l
125.589249 90.531834 l
125.777455 91.187684 l
126.153866 91.187684 l
126.342071 90.823323 l
126.530277 92.46295 l
126.718482 88.212066 l
126.906688 88.406392 l
127.283099 88.345665 l
127.471304 88.345665 l
127.65951 86.062333 l
127.847715 85.467209 l
128.035921 86.195932 l
128.224126 86.256659 l
128.412332 83.171732 l
128.788743 83.171732 l
129.165154 90.361798 l
129.35336 89.839547 l
129.541565 90.082455 l
129.729771 92.353641 l
130.106182 92.353641 l
130.294387 93.252399 l
130.482593 88.746462 l
130.670798 87.641233 l
130.859004 89.14726 l
131.047209 87.88414 l
131.423621 87.88414 l
131.611826 86.353822 l
131.800032 86.730329 l
132.176443 86.074478 l
132.364648 84.301252 l
132.741059 84.301252 l
132.929265 85.64939 l
133.11747 85.200011 l
133.305676 86.876074 l
133.493881 87.398325 l
133.682087 84.483433 l
134.058498 84.483433 l
134.434909 86.523857 l
134.623115 88.564282 l
134.81132 88.758608 l
135.187731 88.637154 l
135.375937 88.637154 l
135.752348 86.28095 l
135.940553 88.127048 l
136.128759 87.592651 l
136.316964 88.649299 l
136.693375 88.649299 l
136.881581 89.098679 l
137.069787 88.394246 l
137.446198 90.106745 l
138.010814 90.143181 l
138.19902 91.211975 l
138.387225 90.471107 l
138.763636 87.641233 l
138.951842 86.499567 l
139.328253 86.499567 l
139.516458 86.001606 l
139.704664 84.264816 l
139.89287 83.633256 l
140.269281 80.463311 l
140.645692 80.463311 l
140.833897 79.613135 l
141.022103 78.094962 l
141.210308 78.52005 l
141.586719 81.422797 l
141.96313 81.422797 l
142.151336 82.880243 l
142.339542 82.819516 l
142.527747 83.839728 l
143.65698 83.839728 l
144.033391 90.264635 l
144.786213 90.264635 l
144.974419 95.377841 l
145.162625 96.070128 l
145.35083 95.972965 l
145.539036 96.61667 l
145.915447 96.61667 l
146.103652 97.296812 l
146.291858 95.122788 l
146.480063 97.24823 l
146.856474 98.960729 l
147.232885 98.960729 l
147.421091 101.98493 l
147.609296 100.673228 l
147.797502 101.110462 l
147.985708 100.272431 l
148.173913 100.940427 l
148.550324 100.940427 l
148.73853 100.369594 l
148.926735 100.56392 l
149.114941 105.494945 l
149.303146 105.79858 l
149.491352 105.361346 l
149.867763 105.361346 l
150.055968 103.102305 l
150.244174 103.357358 l
150.432379 103.393794 l
150.620585 102.495036 l
150.808791 100.017378 l
151.185202 100.017378 l
151.373407 100.612501 l
151.561613 100.078105 l
152.126229 95.875802 l
152.50264 95.875802 l
152.690846 97.867645 l
152.879051 98.608513 l
153.255462 105.191311 l
153.443668 105.106293 l
153.820079 105.106293 l
154.19649 102.130674 l
154.384696 99.859488 l
154.572901 99.337236 l
154.949312 99.240073 l
155.137518 99.240073 l
155.325723 100.588211 l
155.89034 94.333338 l
156.078545 97.867645 l
156.454957 97.867645 l
156.643162 97.40612 l
156.831368 100.078105 l
157.019573 99.592289 l
157.207779 97.551865 l
157.58419 97.454702 l
157.772395 97.454702 l
157.960601 97.102486 l
158.148806 97.976953 l
158.337012 98.171279 l
158.525217 97.005323 l
158.713423 94.904171 l
159.089834 94.904171 l
159.27804 95.462859 l
159.466245 95.122788 l
160.219067 103.770301 l
160.407273 105.179165 l
160.971889 98.244152 l
161.160095 100.576065 l
161.912917 100.576065 l
162.101123 101.51126 l
162.289328 99.179346 l
162.477534 100.029523 l
162.665739 100.211704 l
163.04215 100.211704 l
163.230356 101.912057 l
163.418561 104.778368 l
163.606767 102.495036 l
163.794972 103.065869 l
163.983178 104.438297 l
164.359589 104.438297 l
164.547794 102.677216 l
164.736 104.948403 l
164.924206 104.256116 l
165.300617 98.35346 l
165.677028 98.35346 l
165.865233 99.45869 l
166.053439 97.709755 l
166.241644 97.478993 l
166.42985 97.673319 l
166.618055 95.657185 l
166.994466 95.657185 l
167.370877 93.471016 l
167.559083 96.106564 l
167.935494 94.053995 l
168.500111 94.053995 l
169.064727 98.365606 l
169.252933 97.272521 l
169.629344 97.272521 l
169.817549 91.236266 l
170.19396 89.900274 l
170.382166 89.608785 l
170.946783 89.62093 l
171.134988 90.762596 l
171.323194 89.77882 l
171.511399 93.628906 l
171.699605 93.300981 l
171.88781 91.35772 l
172.452427 91.35772 l
172.828838 93.75036 l
173.017043 91.139103 l
173.205249 91.345574 l
173.58166 91.345574 l
173.769866 90.519688 l
173.958071 92.475095 l
174.146277 91.782808 l
174.710893 92.353641 l
174.899099 92.353641 l
175.087304 92.122879 l
175.27551 91.51561 l
175.463715 93.1188 l
175.651921 88.867916 l
175.840126 87.969158 l
176.216538 87.969158 l
176.404743 86.657457 l
176.592949 86.183787 l
176.781154 84.22838 l
176.96936 84.957103 l
177.345771 84.847795 l
177.533976 84.847795 l
177.910387 81.422797 l
178.098593 80.681928 l
178.286798 80.41473 l
178.475004 79.771025 l
178.851415 79.771025 l
179.227826 81.67785 l
179.604237 81.604977 l
179.792443 83.232459 l
179.980648 83.232459 l
180.168854 81.277052 l
180.357059 80.645492 l
180.73347 78.289288 l
180.921676 78.143543 l
181.109881 76.12741 l
181.486292 76.12741 l
181.862704 72.423068 l
182.050909 75.143634 l
182.239115 74.220585 l
182.42732 75.046471 l
182.803731 75.046471 l
182.991937 75.81163 l
183.368348 73.977677 l
183.556553 73.941241 l
183.744759 73.248954 l
184.12117 73.248954 l
184.309375 72.775284 l
184.497581 71.912962 l
184.685787 72.119433 l
184.873992 70.504098 l
185.062198 71.159948 l
185.438609 71.159948 l
185.626814 70.479807 l
185.81502 71.645764 l
186.003225 71.657909 l
186.191431 68.245056 l
186.379636 67.431316 l
186.756047 67.431316 l
186.944253 63.787701 l
187.320664 62.913233 l
187.697075 65.961724 l
188.073486 65.961724 l
188.261692 67.346298 l
188.449897 66.301795 l
188.638103 67.601351 l
188.826308 71.135657 l
189.014514 69.180251 l
189.57913 69.180251 l
189.767336 67.504188 l
189.955542 68.755162 l
190.143747 68.172184 l
190.331953 65.937434 l
190.708364 69.411013 l
190.896569 67.89284 l
191.084775 67.334153 l
191.27298 65.694526 l
191.461186 67.091245 l
191.649391 70.540534 l
192.025802 70.540534 l
192.214008 68.633709 l
192.402213 68.621563 l
192.590419 68.20862 l
192.778625 68.961634 l
192.96683 70.188318 l
193.343241 70.188318 l
193.531447 67.844259 l
193.719652 68.828035 l
193.907858 68.621563 l
194.284269 64.613587 l
194.66068 64.613587 l
195.037091 65.573072 l
195.225296 69.301705 l
195.413502 68.451528 l
195.601708 68.99807 l
196.166324 69.083088 l
196.35453 64.990094 l
196.542735 64.650023 l
196.730941 65.390891 l
196.919146 69.508176 l
197.295557 69.508176 l
197.671968 75.435123 l
197.860174 75.617304 l
198.048379 75.216506 l
198.236585 73.746915 l
198.612996 73.746915 l
198.801202 74.925017 l
198.989407 73.576879 l
199.177613 76.892569 l
199.365818 75.580868 l
199.742229 75.641594 l
199.930435 75.641594 l
200.11864 76.382463 l
200.306846 75.641594 l
200.495051 74.329893 l
200.683257 71.791508 l
200.871462 75.726612 l
201.247874 75.726612 l
201.436079 75.957374 l
201.624285 75.993811 l
201.81249 75.835921 l
202.000696 75.435123 l
202.188901 74.026259 l
202.565312 74.026259 l
202.941723 69.508176 l
203.129929 68.670145 l
203.318134 68.949489 l
203.50634 71.038494 l
203.882751 71.038494 l
204.070957 73.60117 l
204.259162 73.406844 l
204.447368 73.746915 l
204.635573 74.499929 l
204.823779 74.730691 l
205.20019 74.730691 l
205.388395 73.904805 l
205.576601 73.844078 l
205.764806 73.309681 l
205.953012 71.378565 l
206.141217 74.536365 l
206.517628 74.536365 l
206.705834 72.423068 l
207.082245 77.949217 l
207.270451 76.880424 l
207.458656 78.495759 l
207.835067 78.495759 l
208.023273 78.67794 l
208.211478 79.175901 l
208.399684 79.163755 l
208.587889 79.273064 l
208.776095 78.544341 l
209.152506 78.544341 l
209.340711 76.746824 l
210.093534 82.673771 l
210.469945 82.673771 l
210.65815 82.285119 l
210.846356 82.285119 l
211.222767 87.349743 l
211.787383 87.349743 l
211.975589 88.297083 l
212.352 88.297083 l
212.540206 90.131036 l
212.728411 87.56836 l
212.916617 90.556124 l
213.104822 90.556124 l
213.293028 89.159405 l
213.857644 90.483252 l
214.04585 90.483252 l
214.234055 89.766675 l
214.610466 91.090521 l
214.986877 90.191763 l
215.363289 90.191763 l
215.7397 87.483343 l
215.927905 88.102757 l
216.116111 87.54407 l
216.304316 88.491409 l
216.680727 88.491409 l
217.057138 92.973056 l
217.433549 95.049916 l
217.621755 98.098407 l
217.998166 98.098407 l
218.374577 95.402132 l
218.562783 95.900093 l
218.939194 94.879881 l
219.315605 94.879881 l
219.50381 96.057983 l
219.692016 94.005413 l
220.068427 95.560022 l
220.256632 95.232097 l
220.633043 95.232097 l
220.821249 96.470926 l
221.385866 103.078014 l
221.574071 100.041668 l
221.950482 100.041668 l
222.138688 99.507272 l
222.326893 99.993087 l
222.515099 98.535641 l
222.703304 98.001244 l
222.89151 97.102486 l
223.267921 97.102486 l
223.456126 95.353551 l
223.644332 88.904352 l
223.832538 88.5157 l
224.020743 89.013661 l
224.397154 88.880062 l
224.58536 88.880062 l
224.773565 91.661354 l
224.961771 90.689724 l
225.149976 91.734227 l
225.338182 94.139012 l
225.526387 91.369865 l
225.902798 91.369865 l
226.091004 93.300981 l
226.467415 94.321193 l
226.655621 93.349562 l
226.843826 94.782718 l
227.220237 94.782718 l
227.408443 95.195661 l
227.596648 97.199649 l
227.784854 96.410199 l
227.973059 94.807008 l
228.161265 91.272702 l
228.725881 91.333429 l
228.914087 90.871904 l
229.102292 90.0946 l
229.290498 90.131036 l
229.478704 88.35781 l
229.855115 88.35781 l
230.04332 89.645221 l
230.231526 92.450804 l
230.607937 93.774651 l
230.796142 92.159315 l
231.172553 92.159315 l
231.360759 91.066231 l
231.73717 86.706038 l
232.113581 86.548148 l
232.489992 86.548148 l
232.678198 85.042121 l
232.866403 85.564372 l
233.054609 87.786977 l
233.242814 88.612863 l
233.995636 88.612863 l
234.183842 87.471197 l
234.560253 88.5157 l
234.748458 85.394337 l
235.12487 85.394337 l
235.313075 87.240435 l
235.877692 89.074388 l
236.065897 89.317295 l
236.630514 89.317295 l
236.818719 91.38201 l
237.006925 92.062152 l
237.19513 92.232187 l
237.383336 90.434671 l
237.759747 90.434671 l
237.947953 87.786977 l
238.324364 85.442918 l
238.512569 86.086624 l
238.700775 88.479264 l
239.077186 88.479264 l
239.265391 88.19992 l
239.453597 87.179708 l
239.641802 87.993449 l
239.830008 87.823413 l
240.018213 91.369865 l
240.58283 91.369865 l
240.771036 96.604525 l
241.335652 101.074026 l
241.712063 101.074026 l
241.900269 102.325 l
242.088474 99.397963 l
242.27668 98.35346 l
242.653091 101.171189 l
243.029502 101.171189 l
243.217708 104.899821 l
243.405913 102.48289 l
243.594119 102.495036 l
243.782324 103.150886 l
243.97053 111.761963 l
244.346941 111.761963 l
244.911557 124.36887 l
245.099763 117.701055 l
245.287968 117.348839 l
245.664379 117.348839 l
245.852585 118.927739 l
246.040791 114.336784 l
246.228996 114.567546 l
246.417202 120.020823 l
246.605407 120.360894 l
246.981818 120.360894 l
247.170024 113.984568 l
247.358229 116.76586 l
247.546435 114.689 l
247.73464 118.757703 l
247.922846 120.08155 l
248.299257 120.08155 l
248.487462 118.587668 l
248.675668 119.753625 l
248.863874 119.13421 l
249.052079 119.255664 l
249.240285 120.980308 l
249.616696 120.980308 l
249.804901 126.385003 l
249.993107 123.482257 l
250.181312 122.94786 l
250.369518 123.287931 l
250.557723 120.652383 l
250.934134 120.652383 l
251.12234 121.696886 l
251.310545 121.36896 l
251.498751 123.032878 l
251.686957 123.433675 l
251.875162 118.393342 l
252.251573 118.393342 l
252.627984 132.591294 l
252.81619 132.591294 l
253.004395 142.501926 l
253.192601 139.999978 l
253.569012 139.999978 l
253.757217 140.473647 l
253.945423 142.174001 l
254.133628 140.643683 l
254.321834 144.250861 l
254.51004 144.83384 l
255.074656 144.736677 l
255.262862 140.206449 l
255.451067 142.137565 l
255.827478 141.530296 l
256.203889 141.530296 l
256.392095 141.955384 l
256.5803 149.036142 l
256.956711 150.797223 l
257.144917 147.930912 l
257.709534 147.930912 l
257.897739 147.335789 l
258.27415 152.230378 l
258.462356 148.100948 l
258.838767 148.100948 l
259.026972 146.789246 l
259.403383 140.607247 l
259.591589 138.761148 l
259.779794 144.724531 l
260.156206 144.724531 l
260.532617 140.352194 l
260.720822 141.542441 l
260.909028 141.882512 l
261.097233 141.20237 l
261.473644 141.20237 l
261.66185 141.49386 l
261.850055 146.400594 l
262.038261 146.048378 l
262.226466 148.01593 l
262.414672 142.586944 l
262.791083 142.586944 l
262.979289 138.578968 l
263.167494 137.461593 l
263.3557 134.583137 l
263.732111 145.186056 l
264.108522 145.186056 l
264.296727 140.825864 l
264.484933 141.33597 l
264.673138 142.453345 l
264.861344 142.793416 l
265.049549 139.769215 l
265.42596 139.769215 l
265.614166 135.96771 l
265.802372 138.749003 l
266.178783 137.413011 l
266.366988 139.246964 l
266.743399 139.246964 l
266.931605 138.603259 l
267.11981 139.004056 l
267.308016 137.473738 l
267.496221 139.684198 l
267.684427 140.194304 l
268.060838 140.194304 l
268.249043 144.299443 l
268.437249 139.186237 l
268.625455 137.813809 l
268.81366 139.113365 l
269.001866 143.692174 l
269.378277 143.692174 l
269.566482 143.169922 l
269.754688 143.327812 l
269.942893 138.348205 l
270.319304 137.20654 l
270.695715 137.20654 l
270.883921 132.324096 l
271.260332 129.384913 l
271.448538 132.020461 l
271.636743 132.931365 l
272.20136 132.992092 l
272.577771 133.368599 l
272.765976 134.158048 l
272.954182 133.028528 l
273.330593 133.028528 l
273.518798 132.396968 l
273.895209 130.016473 l
274.083415 129.943601 l
274.459826 130.016473 l
274.648032 130.016473 l
274.836237 131.352465 l
275.024443 131.595373 l
275.212648 135.518331 l
275.400854 134.983934 l
275.589059 135.190406 l
275.96547 135.190406 l
276.153676 131.231011 l
276.906498 133.210709 l
277.282909 133.210709 l
277.471115 132.919219 l
277.65932 135.664076 l
278.035731 134.728881 l
278.223937 135.372587 l
278.600348 135.372587 l
278.976759 136.684288 l
279.164964 136.684288 l
279.35317 143.825773 l
279.541375 144.615223 l
280.105992 144.615223 l
280.294198 147.615132 l
280.670609 147.615132 l
280.858814 152.874083 l
281.235225 152.874083 l
281.423431 158.788885 l
281.611636 157.513619 l
281.799842 157.513619 l
281.988047 158.509541 l
282.176253 153.359899 l
282.552664 153.359899 l
282.74087 154.052185 l
283.117281 151.98747 l
283.681897 154.282948 l
283.870103 154.282948 l
284.246514 155.64323 l
284.434719 153.493498 l
284.81113 156.311227 l
285.187542 156.311227 l
285.375747 156.651297 l
285.563953 160.489238 l
285.752158 159.007501 l
285.940364 158.873902 l
286.128569 160.039859 l
286.50498 160.039859 l
286.693186 161.48516 l
286.881391 159.189682 l
287.069597 155.205997 l
287.257802 153.979313 l
287.446008 156.40839 l
287.822419 156.40839 l
288.010625 158.679576 l
288.19883 158.813175 l
288.387036 158.157325 l
288.575241 156.505553 l
288.763447 159.262555 l
289.139858 159.262555 l
289.328063 160.805018 l
289.516269 160.659274 l
289.89268 166.343313 l
290.080885 169.938346 l
290.457296 169.938346 l
290.833708 182.727434 l
291.210119 173.800578 l
291.398324 177.954299 l
291.774735 177.954299 l
291.962941 167.715741 l
292.151146 165.238083 l
292.339352 169.088169 l
292.715763 179.800397 l
293.092174 179.800397 l
293.280379 185.642326 l
293.844996 178.379387 l
294.033202 158.205906 l
294.409613 158.205906 l
294.597818 156.286936 l
294.786024 138.044571 l
294.974229 149.825592 l
295.35064 134.777463 l
295.727051 134.777463 l
296.103462 147.202189 l
296.291668 166.71982 l
296.479874 166.646947 l
296.668079 173.776287 l
297.04449 173.776287 l
297.232696 169.525403 l
297.420901 169.768311 l
297.609107 167.497124 l
297.797312 159.626916 l
297.985518 169.403949 l
298.361929 169.403949 l
298.550134 168.505191 l
298.73834 177.05554 l
298.926545 177.286302 l
299.114751 176.934086 l
299.302957 184.913603 l
299.679368 184.913603 l
299.867573 199.791697 l
300.055779 194.144094 l
300.243984 196.779642 l
300.43219 187.804204 l
301.185012 187.804204 l
301.561423 185.253674 l
301.937834 198.419268 l
302.314245 198.419268 l
302.502451 193.476098 l
302.690656 193.245335 l
302.878862 187.561296 l
303.067067 190.427607 l
303.255273 190.281862 l
303.631684 190.281862 l
303.819889 186.273886 l
304.008095 191.824326 l
304.384506 187.549151 l
304.572711 190.597642 l
304.949123 190.597642 l
305.137328 190.281862 l
305.325534 190.196844 l
305.513739 191.65429 l
305.701945 197.289748 l
306.266561 197.289748 l
306.454767 198.200652 l
306.642972 198.042762 l
306.831178 198.832211 l
307.019383 201.346306 l
307.207589 195.662267 l
307.584 195.662267 l
307.772206 197.763418 l
307.960411 194.532746 l
308.148617 188.302165 l
308.525028 196.585316 l
309.089644 196.585316 l
309.27785 197.04684 l
309.466055 199.852424 l
309.654261 190.913422 l
309.842466 189.626011 l
310.218877 189.626011 l
310.407083 185.593744 l
310.595289 187.269807 l
310.783494 192.893119 l
310.9717 194.96998 l
311.159905 198.905084 l
311.536316 198.905084 l
311.724522 197.751272 l
311.912727 192.152251 l
312.289138 195.528667 l
312.477344 194.350565 l
312.853755 194.350565 l
313.04196 198.054907 l
313.230166 204.637704 l
313.418372 206.350203 l
313.606577 205.657917 l
313.794783 203.350294 l
314.171194 203.350294 l
314.359399 201.17627 l
314.547605 207.006054 l
314.73581 206.155877 l
314.924016 206.872455 l
315.112221 208.427064 l
315.488632 208.427064 l
315.676838 207.321834 l
315.865043 210.965449 l
316.053249 211.366246 l
316.241455 216.600906 l
316.42966 216.843814 l
316.806071 216.843814 l
316.994277 214.657645 l
317.182482 215.726439 l
317.370688 214.366156 l
317.747099 215.77502 l
318.311715 215.690003 l
318.499921 217.706136 l
318.688126 224.240352 l
318.876332 226.632992 l
319.064538 232.924301 l
319.440949 232.924301 l
320.005565 248.13032 l
320.381976 252.199023 l
320.758387 252.199023 l
320.946593 253.960104 l
321.134798 252.41764 l
321.323004 257.117903 l
321.511209 274.182166 l
321.699415 278.797411 l
322.075826 278.797411 l
322.264032 270.052736 l
322.452237 273.295553 l
322.640443 247.826685 l
322.828648 245.944151 l
323.016854 248.944061 l
323.393265 248.944061 l
323.58147 249.065514 l
323.957881 264.611604 l
324.146087 257.870917 l
324.334292 244.79034 l
324.710704 244.79034 l
324.898909 244.110198 l
325.087115 248.871188 l
325.27532 240.903817 l
325.463526 246.199204 l
325.651731 243.988744 l
326.216348 243.988744 l
326.592759 255.769766 l
326.780964 249.624202 l
326.96917 248.021011 l
327.157375 244.583868 l
327.721992 244.583868 l
327.910198 245.10612 l
328.098403 240.855236 l
328.474814 254.288029 l
328.851225 254.288029 l
329.039431 249.70922 l
329.227636 252.454076 l
329.415842 250.18289 l
329.604047 253.20709 l
329.792253 247.000799 l
330.168664 247.000799 l
330.35687 250.547251 l
330.545075 240.466583 l
330.733281 239.652843 l
330.921486 231.734053 l
331.109692 228.904179 l
331.486103 228.904179 l
331.674308 228.406218 l
331.862514 229.523594 l
332.050719 234.296729 l
332.238925 235.013307 l
332.42713 238.681212 l
332.803542 238.681212 l
332.991747 238.936265 l
333.368158 241.450359 l
333.556364 234.430328 l
333.744569 235.146906 l
334.12098 235.146906 l
334.309186 243.843 l
334.497391 244.389542 l
334.685597 236.0821 l
334.873802 240.636619 l
335.062008 236.227845 l
335.438419 236.227845 l
335.626625 239.422081 l
335.81483 239.55568 l
336.003036 237.806745 l
336.191241 244.061617 l
336.379447 238.426159 l
336.755858 238.426159 l
336.944063 239.08201 l
337.132269 237.81889 l
337.320474 239.57997 l
337.50868 230.896022 l
337.885091 230.98104 l
338.073296 230.98104 l
338.637913 240.21153 l
338.826119 238.231833 l
339.014324 247.535196 l
339.390735 247.535196 l
339.578941 248.106029 l
339.767146 230.252317 l
339.955352 233.021464 l
340.143557 228.709853 l
340.331763 232.086269 l
340.708174 232.086269 l
340.896379 235.984937 l
341.084585 234.697527 l
341.272791 235.535558 l
341.837407 227.835385 l
342.025613 227.835385 l
342.213818 232.292741 l
342.590229 213.807468 l
342.778435 216.382289 l
342.96664 215.702148 l
343.343051 215.702148 l
343.719462 204.80774 l
343.907668 216.515889 l
344.284079 221.762694 l
344.66049 221.762694 l
345.225107 230.458788 l
345.413312 224.046026 l
345.601518 224.677586 l
345.977929 224.677586 l
346.166134 224.106753 l
346.35434 221.471205 l
346.542545 226.207904 l
346.730751 226.523684 l
346.918957 235.948501 l
347.295368 235.948501 l
347.483573 233.276517 l
347.671779 233.337244 l
348.04819 232.122705 l
348.612806 232.122705 l
348.801012 231.95267 l
348.989217 235.183342 l
349.177423 235.183342 l
349.365628 248.689008 l
350.118451 248.689008 l
350.306656 247.996721 l
350.871273 243.077841 l
351.247684 243.077841 l
351.435889 229.183523 l
351.624095 225.382018 l
351.8123 223.924572 l
352.000506 228.199747 l
352.188711 224.046026 l
352.565123 224.046026 l
352.753328 223.37803 l
352.941534 221.932729 l
353.129739 222.333527 l
353.317945 227.653205 l
353.50615 228.989197 l
353.882561 228.989197 l
354.070767 226.705865 l
354.258972 227.713932 l
354.447178 227.653205 l
354.635383 224.349661 l
354.823589 226.948772 l
355.2 226.948772 l
355.388206 229.40214 l
355.576411 229.195668 l
355.764617 221.944875 l
355.952822 222.515708 l
356.141028 210.479633 l
356.517439 210.479633 l
356.705644 214.621209 l
356.89385 222.467126 l
357.270261 224.264643 l
357.458466 223.645228 l
357.834877 223.645228 l
358.023083 217.876172 l
358.211289 218.106934 l
358.5877 209.216514 l
358.775905 207.382561 l
359.152316 207.382561 l
359.340522 210.552506 l
359.528727 215.714293 l
360.281549 208.961461 l
360.469755 208.961461 l
360.65796 200.022459 l
361.034372 195.407214 l
361.222577 192.383013 l
361.410783 192.553049 l
361.787194 192.553049 l
362.163605 186.468212 l
362.35181 193.719005 l
362.540016 193.54897 l
362.728221 195.504377 l
363.104632 195.504377 l
363.292838 190.779823 l
363.669249 198.115634 l
364.04566 195.905174 l
364.422071 195.905174 l
364.610277 198.164215 l
364.798482 198.394978 l
364.986688 195.978047 l
365.551304 198.674321 l
365.73951 198.674321 l
365.927715 197.338329 l
366.304126 185.715198 l
366.492332 187.439842 l
366.680538 195.94161 l
367.056949 195.94161 l
367.245154 200.459693 l
367.43336 198.856502 l
367.621565 203.095241 l
367.809771 199.621661 l
368.562593 199.621661 l
368.750798 197.593382 l
368.939004 201.261288 l
369.127209 198.249233 l
369.315415 203.508184 l
369.691826 203.508184 l
369.880032 207.698341 l
370.068237 207.710486 l
370.256443 208.524227 l
370.444648 213.467398 l
370.632854 210.929013 l
371.009265 210.929013 l
371.385676 207.431142 l
371.573881 210.054545 l
371.950292 204.832031 l
372.326704 204.832031 l
372.514909 206.046569 l
372.703115 213.358089 l
372.89132 209.593021 l
373.267731 222.782906 l
373.832348 222.782906 l
374.020553 223.730246 l
374.208759 220.973244 l
374.396964 221.361896 l
374.58517 219.200018 l
374.961581 219.200018 l
375.714403 235.389813 l
375.902609 232.924301 l
376.27902 232.924301 l
376.467225 232.341322 l
376.655431 233.37368 l
376.843636 235.037597 l
377.031842 238.13467 l
377.220047 236.118536 l
377.596458 236.118536 l
377.784664 238.183251 l
377.97287 238.037507 l
378.161075 238.863393 l
378.349281 230.070136 l
378.537486 235.912065 l
379.102103 235.912065 l
379.290308 235.377668 l
379.478514 236.531479 l
379.666719 236.883696 l
379.854925 235.438395 l
380.231336 235.438395 l
380.419542 233.592297 l
380.607747 229.839374 l
380.795953 229.71792 l
380.984158 228.661271 l
381.172364 208.730698 l
381.548775 208.730698 l
381.73698 207.370415 l
381.925186 207.844085 l
382.113391 207.844085 l
382.301597 211.864207 l
382.489802 210.22458 l
382.866213 210.22458 l
383.054419 210.661814 l
383.242625 209.119351 l
383.43083 203.083095 l
383.619036 204.953484 l
383.807241 209.41084 l
384.183652 209.41084 l
384.560063 211.80348 l
384.748269 216.297272 l
384.936474 215.034152 l
385.12468 215.77502 l
385.501091 215.77502 l
385.689296 215.362077 l
385.877502 212.058533 l
386.253913 219.540089 l
386.630324 219.673688 l
386.81853 219.673688 l
387.006735 219.807287 l
387.194941 217.523955 l
387.383146 219.503653 l
387.571352 214.426883 l
387.759557 213.771032 l
388.324174 213.807468 l
388.700585 213.989649 l
388.888791 213.078745 l
389.076996 221.021826 l
389.453407 221.021826 l
389.641613 220.159504 l
389.829818 216.685924 l
390.018024 216.977413 l
390.206229 220.973244 l
390.394435 214.086812 l
390.770846 214.086812 l
391.147257 199.050828 l
391.335462 195.28576 l
391.523668 200.20464 l
391.711874 201.127689 l
392.088285 201.127689 l
392.464696 210.588942 l
392.652901 211.341956 l
392.841107 209.88451 l
393.029312 209.544439 l
393.405723 209.544439 l
393.593929 208.815716 l
393.782134 214.390447 l
393.97034 215.957201 l
394.158545 211.159775 l
394.346751 210.649669 l
394.723162 210.649669 l
395.099573 217.51181 l
395.287779 216.770942 l
395.475984 216.953122 l
395.66419 219.661543 l
396.228806 219.661543 l
396.417012 219.151437 l
396.793423 210.503924 l
396.981628 211.050466 l
397.35804 211.050466 l
397.546245 212.59293 l
398.487273 212.59293 l
398.487273 212.59293 l
stroke
grestore
0.800 setlinewidth
0 setlinejoin
0.000 setgray
gsave
57.6 38.016 m
57.6 304.128 l
stroke
grestore
gsave
414.72 38.016 m
414.72 304.128 l
stroke
grestore
gsave
57.6 38.016 m
414.72 38.016 l
stroke
grestore
gsave
57.6 304.128 m
414.72 304.128 l
stroke
grestore

end
showpage
