%!PS-Adobe-3.0 EPSF-3.0
%%Title: D:/MCM2022/MCM2022/YKCCs_LSTM/required/50-120-BTC.eps
%%Creator: matplotlib version 3.3.4, http://matplotlib.org/
%%CreationDate: Sun Feb 20 14:27:26 2022
%%Orientation: portrait
%%BoundingBox: 75.6 223.20000000000002 536.4 568.8
%%EndComments
%%BeginProlog
/mpldict 8 dict def
mpldict begin
/m { moveto } bind def
/l { lineto } bind def
/r { rlineto } bind def
/c { curveto } bind def
/cl { closepath } bind def
/box {
      m
      1 index 0 r
      0 exch r
      neg 0 r
      cl
    } bind def
/clipbox {
      box
      clip
      newpath
    } bind def
%!PS-Adobe-3.0 Resource-Font
%%Title: DejaVu Sans
%%Copyright: Copyright (c) 2003 by Bitstream, Inc. All Rights Reserved. Copyright (c) 2006 by Tavmjong Bah. All Rights Reserved. DejaVu changes are in public domain 
%%Creator: Converted from TrueType to type 3 by PPR
25 dict begin
/_d{bind def}bind def
/_m{moveto}_d
/_l{lineto}_d
/_cl{closepath eofill}_d
/_c{curveto}_d
/_sc{7 -1 roll{setcachedevice}{pop pop pop pop pop pop}ifelse}_d
/_e{exec}_d
/FontName /DejaVuSans def
/PaintType 0 def
/FontMatrix[.001 0 0 .001 0 0]def
/FontBBox[-1021 -463 1793 1232]def
/FontType 3 def
/Encoding [ /zero /one /two /three /four /five /six /seven ] def
/FontInfo 10 dict dup begin
/FamilyName (DejaVu Sans) def
/FullName (DejaVu Sans) def
/Notice (Copyright (c) 2003 by Bitstream, Inc. All Rights Reserved. Copyright (c) 2006 by Tavmjong Bah. All Rights Reserved. DejaVu changes are in public domain ) def
/Weight (Book) def
/Version (Version 2.35) def
/ItalicAngle 0.0 def
/isFixedPitch false def
/UnderlinePosition -130 def
/UnderlineThickness 90 def
end readonly def
/CharStrings 9 dict dup begin
/.notdef 0 def
/zero{636 0 66 -13 570 742 _sc
318 664 _m
267 664 229 639 203 589 _c
177 539 165 464 165 364 _c
165 264 177 189 203 139 _c
229 89 267 64 318 64 _c
369 64 407 89 433 139 _c
458 189 471 264 471 364 _c
471 464 458 539 433 589 _c
407 639 369 664 318 664 _c
318 742 _m
399 742 461 709 505 645 _c
548 580 570 486 570 364 _c
570 241 548 147 505 83 _c
461 19 399 -13 318 -13 _c
236 -13 173 19 130 83 _c
87 147 66 241 66 364 _c
66 486 87 580 130 645 _c
173 709 236 742 318 742 _c
_cl}_d
/one{636 0 110 0 544 729 _sc
124 83 _m
285 83 _l
285 639 _l
110 604 _l
110 694 _l
284 729 _l
383 729 _l
383 83 _l
544 83 _l
544 0 _l
124 0 _l
124 83 _l
_cl}_d
/two{{636 0 73 0 536 742 _sc
192 83 _m
536 83 _l
536 0 _l
73 0 _l
73 83 _l
110 121 161 173 226 239 _c
290 304 331 346 348 365 _c
380 400 402 430 414 455 _c
426 479 433 504 433 528 _c
433 566 419 598 392 622 _c
365 646 330 659 286 659 _c
255 659 222 653 188 643 _c
154 632 117 616 78 594 _c
78 694 _l
118 710 155 722 189 730 _c
223 738 255 742 284 742 _c
}_e{359 742 419 723 464 685 _c
509 647 532 597 532 534 _c
532 504 526 475 515 449 _c
504 422 484 390 454 354 _c
446 344 420 317 376 272 _c
332 227 271 164 192 83 _c
_cl}_e}_d
/three{{636 0 76 -13 556 742 _sc
406 393 _m
453 383 490 362 516 330 _c
542 298 556 258 556 212 _c
556 140 531 84 482 45 _c
432 6 362 -13 271 -13 _c
240 -13 208 -10 176 -4 _c
144 1 110 10 76 22 _c
76 117 _l
103 101 133 89 166 81 _c
198 73 232 69 268 69 _c
330 69 377 81 409 105 _c
441 129 458 165 458 212 _c
458 254 443 288 413 312 _c
383 336 341 349 287 349 _c
}_e{202 349 _l
202 430 _l
291 430 _l
339 430 376 439 402 459 _c
428 478 441 506 441 543 _c
441 580 427 609 401 629 _c
374 649 336 659 287 659 _c
260 659 231 656 200 650 _c
169 644 135 635 98 623 _c
98 711 _l
135 721 170 729 203 734 _c
235 739 266 742 296 742 _c
370 742 429 725 473 691 _c
517 657 539 611 539 553 _c
539 513 527 479 504 451 _c
481 423 448 403 406 393 _c
_cl}_e}_d
/four{636 0 49 0 580 729 _sc
378 643 _m
129 254 _l
378 254 _l
378 643 _l
352 729 _m
476 729 _l
476 254 _l
580 254 _l
580 172 _l
476 172 _l
476 0 _l
378 0 _l
378 172 _l
49 172 _l
49 267 _l
352 729 _l
_cl}_d
/five{{636 0 77 -13 549 729 _sc
108 729 _m
495 729 _l
495 646 _l
198 646 _l
198 467 _l
212 472 227 476 241 478 _c
255 480 270 482 284 482 _c
365 482 429 459 477 415 _c
525 370 549 310 549 234 _c
549 155 524 94 475 51 _c
426 8 357 -13 269 -13 _c
238 -13 207 -10 175 -6 _c
143 -1 111 6 77 17 _c
77 116 _l
106 100 136 88 168 80 _c
199 72 232 69 267 69 _c
}_e{323 69 368 83 401 113 _c
433 143 450 183 450 234 _c
450 284 433 324 401 354 _c
368 384 323 399 267 399 _c
241 399 214 396 188 390 _c
162 384 135 375 108 363 _c
108 729 _l
_cl}_e}_d
/six{{636 0 70 -13 573 742 _sc
330 404 _m
286 404 251 388 225 358 _c
199 328 186 286 186 234 _c
186 181 199 139 225 109 _c
251 79 286 64 330 64 _c
374 64 409 79 435 109 _c
461 139 474 181 474 234 _c
474 286 461 328 435 358 _c
409 388 374 404 330 404 _c
526 713 _m
526 623 _l
501 635 476 644 451 650 _c
425 656 400 659 376 659 _c
310 659 260 637 226 593 _c
}_e{192 549 172 482 168 394 _c
187 422 211 444 240 459 _c
269 474 301 482 336 482 _c
409 482 467 459 509 415 _c
551 371 573 310 573 234 _c
573 159 550 99 506 54 _c
462 9 403 -13 330 -13 _c
246 -13 181 19 137 83 _c
92 147 70 241 70 364 _c
70 479 97 571 152 639 _c
206 707 280 742 372 742 _c
396 742 421 739 447 735 _c
472 730 498 723 526 713 _c
_cl}_e}_d
/seven{636 0 82 0 551 729 _sc
82 729 _m
551 729 _l
551 687 _l
286 0 _l
183 0 _l
432 646 _l
82 646 _l
82 729 _l
_cl}_d
end readonly def

/BuildGlyph
 {exch begin
 CharStrings exch
 2 copy known not{pop /.notdef}if
 true 3 1 roll get exec
 end}_d

/BuildChar {
 1 index /Encoding get exch get
 1 index /BuildGlyph get exec
}_d

FontName currentdict end definefont pop
end
%%EndProlog
mpldict begin
75.6 223.2 translate
460.8 345.6 0 0 clipbox
gsave
0 0 m
460.8 0 l
460.8 345.6 l
0 345.6 l
cl
1.000 setgray
fill
grestore
gsave
57.6 38.016 m
414.72 38.016 l
414.72 304.128 l
57.6 304.128 l
cl
1.000 setgray
fill
grestore
0.800 setlinewidth
1 setlinejoin
0 setlinecap
[] 0 setdash
0.000 setgray
gsave
/o {
gsave
newpath
translate
0.8 setlinewidth
1 setlinejoin
0 setlinecap
0 0 m
0 -3.5 l

gsave
0.000 setgray
fill
grestore
stroke
grestore
} bind def
73.8327 38.016 o
grestore
/DejaVuSans findfont
10.000 scalefont
setfont
gsave
70.653040 23.422250 translate
0.000000 rotate
0.000000 0 m /zero glyphshow
grestore
gsave
/o {
gsave
newpath
translate
0.8 setlinewidth
1 setlinejoin
0 setlinecap
0 0 m
0 -3.5 l

gsave
0.000 setgray
fill
grestore
stroke
grestore
} bind def
121.436 38.016 o
grestore
gsave
111.896971 23.422250 translate
0.000000 rotate
0.000000 0 m /two glyphshow
6.362305 0 m /five glyphshow
12.724609 0 m /zero glyphshow
grestore
gsave
/o {
gsave
newpath
translate
0.8 setlinewidth
1 setlinejoin
0 setlinecap
0 0 m
0 -3.5 l

gsave
0.000 setgray
fill
grestore
stroke
grestore
} bind def
169.039 38.016 o
grestore
gsave
159.500276 23.422250 translate
0.000000 rotate
0.000000 0 m /five glyphshow
6.362305 0 m /zero glyphshow
12.724609 0 m /zero glyphshow
grestore
gsave
/o {
gsave
newpath
translate
0.8 setlinewidth
1 setlinejoin
0 setlinecap
0 0 m
0 -3.5 l

gsave
0.000 setgray
fill
grestore
stroke
grestore
} bind def
216.643 38.016 o
grestore
gsave
207.103582 23.422250 translate
0.000000 rotate
0.000000 0 m /seven glyphshow
6.362305 0 m /five glyphshow
12.724609 0 m /zero glyphshow
grestore
gsave
/o {
gsave
newpath
translate
0.8 setlinewidth
1 setlinejoin
0 setlinecap
0 0 m
0 -3.5 l

gsave
0.000 setgray
fill
grestore
stroke
grestore
} bind def
264.246 38.016 o
grestore
gsave
251.527200 23.422250 translate
0.000000 rotate
0.000000 0 m /one glyphshow
6.362305 0 m /zero glyphshow
12.724609 0 m /zero glyphshow
19.086914 0 m /zero glyphshow
grestore
gsave
/o {
gsave
newpath
translate
0.8 setlinewidth
1 setlinejoin
0 setlinecap
0 0 m
0 -3.5 l

gsave
0.000 setgray
fill
grestore
stroke
grestore
} bind def
311.849 38.016 o
grestore
gsave
299.130506 23.422250 translate
0.000000 rotate
0.000000 0 m /one glyphshow
6.362305 0 m /two glyphshow
12.724609 0 m /five glyphshow
19.086914 0 m /zero glyphshow
grestore
gsave
/o {
gsave
newpath
translate
0.8 setlinewidth
1 setlinejoin
0 setlinecap
0 0 m
0 -3.5 l

gsave
0.000 setgray
fill
grestore
stroke
grestore
} bind def
359.453 38.016 o
grestore
gsave
346.733812 23.422250 translate
0.000000 rotate
0.000000 0 m /one glyphshow
6.362305 0 m /five glyphshow
12.724609 0 m /zero glyphshow
19.086914 0 m /zero glyphshow
grestore
gsave
/o {
gsave
newpath
translate
0.8 setlinewidth
1 setlinejoin
0 setlinecap
0 0 m
0 -3.5 l

gsave
0.000 setgray
fill
grestore
stroke
grestore
} bind def
407.056 38.016 o
grestore
gsave
394.337118 23.422250 translate
0.000000 rotate
0.000000 0 m /one glyphshow
6.362305 0 m /seven glyphshow
12.724609 0 m /five glyphshow
19.086914 0 m /zero glyphshow
grestore
gsave
/o {
gsave
newpath
translate
0.8 setlinewidth
1 setlinejoin
0 setlinecap
-0 0 m
-3.5 0 l

gsave
0.000 setgray
fill
grestore
stroke
grestore
} bind def
57.6 47.1024 o
grestore
gsave
44.240625 43.305573 translate
0.000000 rotate
0.000000 0 m /zero glyphshow
grestore
gsave
/o {
gsave
newpath
translate
0.8 setlinewidth
1 setlinejoin
0 setlinecap
-0 0 m
-3.5 0 l

gsave
0.000 setgray
fill
grestore
stroke
grestore
} bind def
57.6 85.641 o
grestore
gsave
18.803125 81.844116 translate
0.000000 rotate
0.000000 0 m /one glyphshow
6.362305 0 m /zero glyphshow
12.724609 0 m /zero glyphshow
19.086914 0 m /zero glyphshow
25.449219 0 m /zero glyphshow
grestore
gsave
/o {
gsave
newpath
translate
0.8 setlinewidth
1 setlinejoin
0 setlinecap
-0 0 m
-3.5 0 l

gsave
0.000 setgray
fill
grestore
stroke
grestore
} bind def
57.6 124.18 o
grestore
gsave
18.803125 120.382659 translate
0.000000 rotate
0.000000 0 m /two glyphshow
6.362305 0 m /zero glyphshow
12.724609 0 m /zero glyphshow
19.086914 0 m /zero glyphshow
25.449219 0 m /zero glyphshow
grestore
gsave
/o {
gsave
newpath
translate
0.8 setlinewidth
1 setlinejoin
0 setlinecap
-0 0 m
-3.5 0 l

gsave
0.000 setgray
fill
grestore
stroke
grestore
} bind def
57.6 162.718 o
grestore
gsave
18.803125 158.921202 translate
0.000000 rotate
0.000000 0 m /three glyphshow
6.362305 0 m /zero glyphshow
12.724609 0 m /zero glyphshow
19.086914 0 m /zero glyphshow
25.449219 0 m /zero glyphshow
grestore
gsave
/o {
gsave
newpath
translate
0.8 setlinewidth
1 setlinejoin
0 setlinecap
-0 0 m
-3.5 0 l

gsave
0.000 setgray
fill
grestore
stroke
grestore
} bind def
57.6 201.257 o
grestore
gsave
18.803125 197.459745 translate
0.000000 rotate
0.000000 0 m /four glyphshow
6.362305 0 m /zero glyphshow
12.724609 0 m /zero glyphshow
19.086914 0 m /zero glyphshow
25.449219 0 m /zero glyphshow
grestore
gsave
/o {
gsave
newpath
translate
0.8 setlinewidth
1 setlinejoin
0 setlinecap
-0 0 m
-3.5 0 l

gsave
0.000 setgray
fill
grestore
stroke
grestore
} bind def
57.6 239.795 o
grestore
gsave
18.803125 235.998288 translate
0.000000 rotate
0.000000 0 m /five glyphshow
6.362305 0 m /zero glyphshow
12.724609 0 m /zero glyphshow
19.086914 0 m /zero glyphshow
25.449219 0 m /zero glyphshow
grestore
gsave
/o {
gsave
newpath
translate
0.8 setlinewidth
1 setlinejoin
0 setlinecap
-0 0 m
-3.5 0 l

gsave
0.000 setgray
fill
grestore
stroke
grestore
} bind def
57.6 278.334 o
grestore
gsave
18.803125 274.536831 translate
0.000000 rotate
0.000000 0 m /six glyphshow
6.362305 0 m /zero glyphshow
12.724609 0 m /zero glyphshow
19.086914 0 m /zero glyphshow
25.449219 0 m /zero glyphshow
grestore
1.500 setlinewidth
2 setlinecap
0.000 0.000 1.000 setrgbcolor
gsave
357.1 266.1 57.6 38.02 clipbox
73.832727 50.945613 m
74.403967 50.556641 l
75.16562 50.246245 l
75.927273 50.490949 l
76.688926 50.620223 l
78.973884 50.953585 l
79.735537 51.125138 l
81.258843 51.014889 l
82.401322 51.280585 l
84.876694 52.040821 l
85.82876 51.693619 l
86.590413 51.899247 l
86.97124 51.642849 l
87.542479 51.096058 l
88.304132 51.114748 l
88.684959 50.894896 l
89.065785 50.977759 l
89.637025 51.15749 l
91.160331 51.601606 l
91.921983 51.759324 l
93.635702 51.834883 l
94.397355 51.993844 l
95.159008 52.187512 l
95.730248 52.472131 l
97.253554 53.52846 l
97.63438 53.881357 l
98.015207 53.991574 l
98.586446 53.916059 l
98.967273 54.219197 l
100.300165 55.830502 l
100.871405 55.68628 l
101.252231 55.81775 l
102.013884 56.531308 l
102.394711 57.077519 l
102.775537 57.425531 l
102.96595 57.659638 l
103.727603 57.658331 l
104.489256 56.704576 l
104.679669 56.613277 l
105.631736 57.248485 l
106.012562 57.065015 l
106.393388 56.77542 l
107.726281 56.752384 l
108.107107 56.920881 l
108.487934 56.813585 l
109.630413 55.911384 l
110.201653 55.126593 l
110.392066 55.072382 l
110.582479 55.249763 l
111.534545 57.516138 l
112.296198 57.230006 l
113.057851 57.739545 l
113.438678 57.75786 l
113.819504 58.23265 l
114.581157 59.695613 l
114.77157 59.9303 l
115.34281 61.332178 l
115.723636 62.46131 l
116.104463 63.037934 l
117.056529 62.514422 l
117.627769 63.036299 l
118.008595 63.449674 l
118.579835 63.97597 l
118.960661 64.582444 l
119.151074 64.580268 l
119.531901 64.330362 l
119.722314 63.94349 l
119.912727 63.942937 l
120.483967 63.661594 l
120.67438 63.564736 l
121.24562 62.389777 l
121.626446 61.040065 l
122.007273 60.484134 l
122.578512 61.618695 l
123.530579 61.462514 l
123.911405 61.923323 l
124.673058 63.110452 l
125.244298 63.438609 l
125.625124 63.382896 l
125.815537 63.495399 l
126.57719 64.807807 l
126.958017 66.186817 l
127.529256 68.293899 l
128.100496 68.330808 l
128.862149 69.18585 l
129.242975 68.887824 l
129.623802 68.761474 l
129.814215 68.878144 l
130.385455 70.053185 l
131.337521 73.374278 l
131.527934 73.603985 l
131.718347 73.531133 l
132.099174 72.951899 l
132.289587 72.690347 l
132.670413 71.270079 l
132.860826 70.755885 l
133.05124 71.018297 l
133.241653 71.820975 l
133.622479 74.314314 l
134.003306 75.865264 l
134.384132 76.279172 l
135.145785 77.579441 l
135.526612 79.50106 l
136.288264 83.564181 l
136.859504 86.305804 l
137.049917 87.584741 l
137.81157 97.668208 l
138.001983 98.412363 l
138.38281 98.38988 l
138.573223 99.108315 l
139.525289 105.13881 l
139.715702 105.043424 l
140.096529 101.849267 l
140.667769 95.705934 l
140.858182 94.487081 l
141.048595 94.392944 l
141.429421 95.125827 l
141.619835 94.819058 l
141.810248 94.881977 l
142.000661 93.911897 l
142.191074 94.052766 l
142.381488 94.489399 l
142.762314 96.764919 l
143.14314 99.680424 l
143.333554 100.147076 l
143.523967 100.120705 l
143.904793 96.810838 l
144.28562 94.135966 l
144.666446 93.380821 l
144.85686 93.602546 l
145.237686 91.055212 l
145.618512 88.429951 l
145.808926 87.421822 l
145.999339 87.734503 l
146.380165 87.744014 l
146.570579 86.759633 l
146.951405 86.415462 l
147.332231 86.548141 l
147.713058 85.478647 l
149.236364 75.031993 l
149.426777 74.962027 l
149.807603 76.995622 l
150.18843 77.177494 l
150.569256 78.514125 l
150.950083 81.332747 l
151.521322 85.27282 l
151.711736 86.002493 l
151.902149 85.692469 l
152.282975 84.45234 l
152.663802 82.745045 l
153.235041 83.539146 l
153.996694 86.288138 l
154.187107 86.287942 l
154.377521 85.921175 l
154.567934 85.067448 l
155.329587 79.89159 l
155.52 79.369746 l
155.710413 79.427197 l
156.09124 79.143592 l
156.662479 77.351418 l
157.043306 77.687498 l
157.614545 78.586462 l
157.804959 78.598802 l
158.185785 77.857022 l
158.566612 76.806318 l
159.328264 73.344036 l
159.518678 72.883676 l
159.709091 73.266199 l
159.899504 73.326103 l
160.280331 72.84233 l
160.661157 71.992796 l
160.85157 71.963758 l
161.041983 72.164441 l
161.613223 74.429077 l
161.99405 76.482707 l
162.755702 77.027211 l
162.946116 77.334881 l
163.707769 79.900468 l
163.898182 80.298288 l
164.279008 80.431924 l
164.659835 79.922003 l
164.850248 79.925187 l
165.040661 80.078016 l
165.611901 81.075265 l
165.992727 81.656422 l
166.373554 81.160754 l
166.563967 80.823274 l
167.516033 77.88312 l
167.706446 77.900438 l
168.468099 77.17687 l
168.658512 77.141882 l
168.848926 77.349824 l
169.229752 76.59254 l
169.800992 74.488975 l
170.372231 74.110308 l
170.753058 74.238309 l
171.324298 74.670218 l
171.705124 74.864288 l
172.276364 74.961323 l
172.65719 74.005146 l
173.038017 72.573864 l
173.22843 71.821994 l
173.609256 71.457983 l
173.799669 71.178114 l
174.180496 71.272108 l
174.370909 71.326862 l
174.561322 71.508977 l
174.751736 71.50811 l
174.942149 71.33389 l
175.513388 70.11334 l
176.084628 69.790798 l
176.275041 69.73417 l
176.465455 69.8062 l
176.846281 70.41764 l
177.227107 71.208213 l
177.607934 71.436345 l
178.179174 71.575817 l
178.56 71.330682 l
179.13124 70.436941 l
179.321653 70.477354 l
179.512066 70.739819 l
180.464132 74.129169 l
180.844959 74.554156 l
181.797025 76.681299 l
182.177851 76.539578 l
182.368264 76.358816 l
182.749091 75.404559 l
183.320331 73.737688 l
184.272397 71.289748 l
184.653223 70.46692 l
185.03405 70.339895 l
185.414876 70.497133 l
185.986116 70.73035 l
186.938182 71.127882 l
187.509421 71.898043 l
187.890248 72.45274 l
189.032727 73.461942 l
189.22314 73.185693 l
189.79438 71.296417 l
189.984793 70.672576 l
190.556033 70.351306 l
191.127273 70.837644 l
191.508099 70.962576 l
191.888926 70.740874 l
192.079339 70.794102 l
192.840992 71.724287 l
193.602645 71.330375 l
194.554711 71.277164 l
195.12595 71.22289 l
195.69719 71.464438 l
196.078017 71.078969 l
196.649256 70.385729 l
197.410909 71.274949 l
197.791736 71.244853 l
198.362975 71.118861 l
199.124628 71.040444 l
200.267107 70.564211 l
201.790413 70.949432 l
202.361653 70.614742 l
202.742479 69.694901 l
203.884959 65.602996 l
204.265785 63.950581 l
204.837025 62.388025 l
205.217851 62.048755 l
205.789091 62.87891 l
205.979504 62.906391 l
206.360331 62.415274 l
206.550744 62.148831 l
207.312397 60.388696 l
207.50281 60.165153 l
207.883636 60.151198 l
208.645289 59.658531 l
208.835702 59.73829 l
209.216529 60.636789 l
209.597355 61.736386 l
209.978182 62.228912 l
210.168595 62.136256 l
210.549421 61.840558 l
210.930248 61.544223 l
212.26314 61.56401 l
213.215207 62.104066 l
213.596033 61.627035 l
214.167273 60.771095 l
214.738512 60.763201 l
215.119339 60.904676 l
215.690579 60.776928 l
216.071405 60.58796 l
216.642645 60.620706 l
217.975537 60.242911 l
218.927603 60.220987 l
219.879669 60.893226 l
220.641322 60.790904 l
221.022149 61.214432 l
221.593388 62.001097 l
221.783802 62.142672 l
222.164628 61.985645 l
222.545455 61.768999 l
222.735868 61.545952 l
223.116694 61.588997 l
224.259174 61.628783 l
224.64 61.828081 l
225.401653 61.797338 l
225.782479 61.878315 l
226.734545 62.244947 l
227.496198 62.151344 l
228.067438 62.148269 l
228.829091 62.569902 l
229.400331 64.317563 l
229.781157 65.676914 l
230.733223 66.550628 l
231.685289 66.172866 l
232.256529 66.520859 l
232.637355 66.790807 l
233.399008 67.147955 l
233.779835 67.057659 l
234.160661 66.770385 l
234.731901 66.90412 l
235.112727 67.470887 l
235.683967 68.364343 l
236.064793 68.761877 l
236.255207 69.189105 l
237.01686 73.608874 l
237.397686 75.432093 l
237.588099 75.82119 l
237.778512 75.453581 l
238.349752 75.338939 l
238.730579 75.9832 l
238.920992 75.810076 l
239.111405 75.839313 l
239.301818 76.263188 l
239.682645 77.652625 l
240.063471 78.347568 l
240.444298 77.999728 l
240.634711 77.975174 l
241.015537 77.436653 l
241.586777 75.761009 l
241.77719 75.633376 l
242.34843 75.852485 l
242.538843 75.929184 l
242.729256 76.131858 l
243.871736 79.754601 l
244.062149 80.152041 l
244.442975 81.62567 l
245.585455 88.039172 l
245.775868 88.612411 l
245.966281 88.206371 l
246.156694 86.833481 l
246.347107 86.549097 l
246.727934 85.73153 l
247.10876 86.322691 l
247.299174 86.663256 l
247.489587 86.705148 l
247.870413 88.333635 l
248.25124 88.702728 l
248.441653 88.183075 l
249.203306 83.681133 l
249.393719 82.981309 l
249.584132 83.182386 l
249.774545 83.104203 l
250.155372 84.392015 l
250.536198 83.502471 l
251.107438 81.919828 l
251.678678 81.313335 l
251.869091 81.370747 l
252.249917 82.552097 l
253.58281 87.99436 l
253.773223 87.808532 l
253.963636 87.825332 l
254.15405 87.484793 l
254.344463 86.882858 l
254.915702 84.421961 l
255.296529 83.333244 l
255.677355 84.102603 l
256.248595 84.036696 l
256.629421 83.183079 l
257.010248 83.352475 l
257.581488 82.236017 l
257.962314 81.415048 l
258.152727 81.733495 l
258.91438 84.159098 l
259.104793 84.19429 l
259.48562 83.907103 l
259.866446 83.532112 l
260.247273 83.404905 l
260.628099 83.595072 l
260.818512 83.671438 l
261.770579 83.113329 l
261.960992 83.004511 l
262.151405 82.75582 l
262.532231 80.736796 l
263.103471 77.165299 l
263.484298 76.722267 l
263.865124 77.016449 l
264.436364 77.037386 l
264.81719 76.590079 l
265.007603 76.548142 l
265.38843 77.076122 l
265.578843 77.426781 l
265.959669 77.558102 l
266.911736 76.584281 l
267.102149 76.310915 l
267.292562 76.302082 l
267.673388 76.463026 l
268.244628 75.921552 l
268.435041 76.485816 l
269.196694 80.519621 l
269.387107 80.451234 l
269.577521 80.229148 l
269.767934 80.265685 l
269.958347 80.134955 l
270.529587 80.451498 l
270.72 80.415718 l
270.910413 80.208912 l
271.481653 79.180162 l
271.672066 78.90524 l
272.052893 78.805966 l
272.433719 78.283511 l
272.814545 77.72823 l
273.385785 76.621435 l
274.147438 73.721204 l
274.337851 73.376322 l
274.718678 73.564837 l
275.099504 74.45873 l
275.289917 74.669749 l
275.670744 74.440522 l
276.05157 73.899005 l
276.432397 74.112483 l
276.813223 74.421119 l
277.003636 74.323158 l
277.765289 73.486059 l
278.146116 73.215856 l
278.336529 72.85836 l
278.526942 72.741403 l
278.907769 72.869739 l
279.098182 73.080448 l
279.288595 73.644582 l
280.050248 73.851095 l
280.240661 73.645512 l
280.621488 73.696199 l
281.002314 73.749651 l
281.192727 73.697016 l
281.573554 73.366971 l
281.95438 73.576745 l
282.144793 73.918278 l
282.52562 75.226614 l
283.09686 76.340672 l
283.477686 76.383796 l
284.429752 78.909768 l
285.000992 78.732577 l
285.381818 78.273129 l
285.953058 77.739865 l
286.143471 77.834078 l
287.095537 80.648567 l
287.476364 80.563346 l
287.666777 80.338663 l
288.047603 80.642196 l
288.42843 81.456458 l
288.618843 82.065725 l
289.190083 82.882821 l
289.570909 83.247781 l
289.761322 83.365629 l
289.951736 83.150498 l
290.522975 82.225362 l
291.284628 81.651036 l
291.475041 81.749253 l
291.665455 81.637352 l
292.046281 80.555059 l
292.427107 78.959462 l
292.617521 78.616794 l
293.18876 78.736702 l
293.569587 79.168462 l
293.76 79.218283 l
293.950413 78.919764 l
294.33124 77.556843 l
294.521653 76.683412 l
295.473719 66.562316 l
295.664132 66.884024 l
295.854545 66.714594 l
297.187438 70.669857 l
297.568264 71.580962 l
297.758678 71.434389 l
298.139504 70.532032 l
298.329917 70.260518 l
298.520331 70.428699 l
298.710744 70.806825 l
299.09157 71.768583 l
299.66281 72.72668 l
300.043636 73.480692 l
300.23405 73.636658 l
300.995702 72.427835 l
301.186116 72.298078 l
301.566942 72.445354 l
302.138182 73.137065 l
302.328595 72.954895 l
302.709421 73.026726 l
302.899835 73.294322 l
304.042314 76.498045 l
304.613554 78.853962 l
304.803967 78.94157 l
305.184793 79.38675 l
305.756033 81.069443 l
305.946446 81.05746 l
306.13686 80.715886 l
306.517686 79.387296 l
306.708099 79.462514 l
307.469752 81.227142 l
307.660165 81.220921 l
307.850579 81.418589 l
308.040992 81.298446 l
308.421818 80.562563 l
308.802645 79.506611 l
309.183471 79.30218 l
309.373884 79.487963 l
310.135537 81.464339 l
310.89719 81.873683 l
311.087603 81.524691 l
311.46843 81.727714 l
311.658843 81.7196 l
311.849256 81.875711 l
312.230083 81.526972 l
312.801322 80.706993 l
313.182149 80.848945 l
314.134215 80.673045 l
314.515041 80.903166 l
314.895868 80.765256 l
315.276694 79.974568 l
315.657521 79.831091 l
316.22876 79.925465 l
316.8 79.87523 l
317.752066 80.392557 l
317.942479 80.404518 l
318.132893 80.28008 l
318.513719 80.238215 l
319.465785 79.985806 l
319.846612 80.340635 l
320.608264 81.512121 l
321.179504 84.149489 l
321.560331 85.900494 l
321.941157 86.522304 l
322.512397 86.790704 l
322.70281 86.74652 l
323.27405 87.732501 l
323.464463 87.782503 l
323.845289 87.601203 l
324.416529 87.581252 l
324.987769 88.434098 l
325.368595 88.445935 l
325.559008 88.257408 l
325.939835 87.665785 l
326.130248 87.660497 l
326.320661 87.418032 l
326.511074 87.370254 l
327.082314 86.866776 l
327.843967 87.53221 l
328.224793 86.172251 l
328.796033 83.467067 l
328.986446 83.465554 l
329.17686 83.300429 l
329.938512 83.677509 l
330.509752 84.474421 l
331.080992 85.419142 l
331.271405 85.53087 l
331.652231 85.034265 l
332.033058 84.310169 l
332.223471 84.15816 l
332.985124 84.855712 l
333.36595 84.879663 l
334.127603 84.523697 l
334.50843 84.607477 l
335.079669 85.287084 l
335.650909 86.620284 l
336.031736 86.966239 l
336.793388 87.023682 l
336.983802 87.250743 l
338.126281 91.430493 l
339.078347 92.788182 l
339.26876 92.858372 l
339.84 93.600013 l
340.792066 97.496854 l
340.982479 97.357664 l
341.172893 97.358003 l
341.553719 98.42814 l
342.505785 100.82996 l
343.267438 104.177567 l
343.838678 105.036356 l
344.600331 103.055603 l
344.790744 103.25746 l
345.361983 105.816637 l
345.552397 106.138366 l
345.74281 105.847562 l
345.933223 106.0536 l
346.123636 106.052769 l
346.31405 105.694582 l
346.504463 105.630933 l
347.075702 104.383056 l
347.456529 104.990369 l
347.646942 105.513741 l
348.218182 109.715048 l
348.599008 113.06748 l
348.789421 113.699941 l
349.170248 114.015362 l
349.360661 113.911895 l
349.551074 114.207656 l
351.836033 127.201566 l
352.597686 132.634725 l
352.788099 132.673542 l
353.359339 130.484914 l
353.549752 130.312785 l
353.740165 130.552161 l
353.930579 130.995843 l
354.120992 130.783527 l
354.311405 130.160535 l
354.501818 129.942559 l
355.073058 127.560712 l
355.453884 125.856616 l
355.644298 126.26322 l
355.834711 125.825408 l
356.025124 125.909215 l
356.596364 126.948882 l
356.786777 127.699112 l
357.167603 128.472141 l
357.358017 129.046177 l
358.690909 136.638187 l
358.881322 137.920858 l
359.262149 138.245056 l
359.452562 138.696883 l
359.642975 138.779808 l
360.023802 139.703868 l
360.404628 141.163764 l
360.785455 142.343171 l
360.975868 142.39306 l
361.356694 141.030768 l
361.737521 138.790843 l
362.118347 137.947549 l
362.30876 138.133121 l
362.88 139.474097 l
363.070413 139.376817 l
363.45124 139.701828 l
363.832066 141.001932 l
364.403306 143.22742 l
364.593719 143.663831 l
364.784132 143.818873 l
364.974545 143.761329 l
365.164959 143.853212 l
365.545785 143.383561 l
365.926612 143.707819 l
366.497851 142.69771 l
366.878678 141.67607 l
367.259504 141.831203 l
368.21157 143.862922 l
368.592397 143.836833 l
368.973223 143.776895 l
369.163636 143.579528 l
369.544463 143.598534 l
369.734876 143.56829 l
369.925289 143.69333 l
370.686942 145.052295 l
371.067769 145.379037 l
371.448595 144.412984 l
372.781488 140.456175 l
373.162314 141.047666 l
373.352727 141.504355 l
373.54314 142.302766 l
373.923967 142.800033 l
374.304793 143.198155 l
374.68562 142.88603 l
375.066446 142.969625 l
375.25686 143.488413 l
375.637686 143.489324 l
375.828099 143.011453 l
376.970579 137.787034 l
377.541818 133.825762 l
377.922645 131.446368 l
378.113058 131.545032 l
378.303471 130.99293 l
378.874711 131.972095 l
379.636364 129.788111 l
379.826777 130.112942 l
380.207603 131.283806 l
380.58843 130.961204 l
380.778843 130.319206 l
380.969256 129.160852 l
381.159669 128.910125 l
381.540496 129.35648 l
382.682975 132.846905 l
382.873388 132.427347 l
384.206281 126.733488 l
384.967934 127.418465 l
385.34876 128.73546 l
386.110413 128.169297 l
386.49124 128.356186 l
387.062479 127.585513 l
387.824132 127.248994 l
388.014545 126.926775 l
388.395372 125.90372 l
388.776198 125.226397 l
388.966612 124.858964 l
389.157025 124.829992 l
389.347438 124.937449 l
389.537851 125.239284 l
389.728264 125.998779 l
390.870744 132.962415 l
391.061157 133.739652 l
391.25157 133.977409 l
391.441983 133.949356 l
391.632397 133.738786 l
392.013223 132.926858 l
392.203636 133.231583 l
393.155702 137.027584 l
393.346116 137.07788 l
393.536529 137.482437 l
393.726942 137.557406 l
394.298182 138.047779 l
394.679008 137.469024 l
394.869421 137.563315 l
395.059835 137.913339 l
395.631074 139.406707 l
396.202314 139.053869 l
396.392727 138.935566 l
396.58314 139.075953 l
396.773554 138.922401 l
396.963967 138.997401 l
397.344793 138.863968 l
397.535207 138.947323 l
398.29686 140.16137 l
398.487273 139.832031 l
398.487273 139.832031 l
stroke
grestore
1.000 0.647 0.000 setrgbcolor
gsave
357.1 266.1 57.6 38.02 clipbox
73.832727 50.611344 m
74.02314 50.594233 l
74.213554 50.128572 l
74.403967 50.112 l
74.59438 50.286849 l
74.975207 50.260874 l
75.16562 50.303074 l
75.356033 50.585716 l
76.688926 50.647878 l
76.879339 50.544116 l
77.260165 50.628917 l
78.021818 50.820285 l
78.973884 51.087603 l
79.164298 51.048848 l
79.545124 51.15994 l
79.735537 50.864207 l
80.116364 50.947015 l
81.258843 51.091958 l
81.639669 51.159706 l
81.830083 51.152348 l
82.020496 51.433365 l
82.401322 51.457342 l
82.591736 51.630211 l
82.972562 51.535806 l
83.162975 51.691433 l
83.543802 51.691965 l
83.924628 52.05519 l
84.686281 52.033455 l
84.876694 51.562873 l
85.067107 51.69805 l
85.447934 51.646758 l
85.638347 51.833034 l
86.019174 51.901926 l
86.4 51.946743 l
86.780826 50.772213 l
86.97124 50.831784 l
87.352066 51.413485 l
87.542479 51.391788 l
88.113719 50.678555 l
88.304132 50.789763 l
88.494545 51.099779 l
89.256198 51.090185 l
89.637025 51.338486 l
89.827438 51.264572 l
90.017851 51.50201 l
90.398678 51.470908 l
90.589091 51.690285 l
90.969917 51.665527 l
91.350744 51.829651 l
91.541157 51.800643 l
91.73157 51.650088 l
92.493223 51.748789 l
92.683636 51.638319 l
93.064463 51.887726 l
93.254876 51.86824 l
93.635702 51.950551 l
93.826116 51.884465 l
94.206942 52.147567 l
94.397355 52.06629 l
94.587769 52.233063 l
94.968595 52.239636 l
95.349421 52.698539 l
95.539835 52.681095 l
95.920661 53.011698 l
96.111074 52.955489 l
96.301488 53.021461 l
96.491901 53.425156 l
96.682314 53.465547 l
97.06314 54.12028 l
97.253554 54.151148 l
97.443967 53.93117 l
97.824793 53.962309 l
98.015207 53.804424 l
98.20562 54.068232 l
98.396033 53.977647 l
98.77686 55.014063 l
98.967273 54.844225 l
99.157686 55.159556 l
99.348099 55.91895 l
99.538512 55.797977 l
99.728926 56.302393 l
99.919339 55.627085 l
100.109752 55.888542 l
100.300165 55.553877 l
100.490579 55.873553 l
100.871405 55.912104 l
101.061818 56.34878 l
101.252231 56.389967 l
101.442645 56.836379 l
101.823471 56.850888 l
102.013884 58.214319 l
102.204298 57.372665 l
102.394711 57.442455 l
102.585124 57.999188 l
102.775537 58.068101 l
102.96595 58.273346 l
103.156364 57.344741 l
103.346777 57.693553 l
103.53719 57.530978 l
103.727603 56.515411 l
104.298843 56.765561 l
104.489256 57.188795 l
104.679669 57.122469 l
105.060496 57.613019 l
105.250909 57.559805 l
105.631736 56.784742 l
106.012562 56.80608 l
106.202975 57.066007 l
106.393388 56.961764 l
106.583802 56.650917 l
106.774215 56.741675 l
106.964628 56.433631 l
107.155041 56.973038 l
107.345455 57.121428 l
107.726281 57.160884 l
107.916694 56.703175 l
108.297521 56.876743 l
108.487934 56.221323 l
108.678347 56.070714 l
108.86876 56.296775 l
109.249587 56.114648 l
109.630413 54.545067 l
109.820826 54.46701 l
110.01124 56.043861 l
110.201653 55.830525 l
110.392066 55.832237 l
110.582479 57.439238 l
110.772893 57.922567 l
110.963306 57.991552 l
111.153719 57.707565 l
111.344132 56.972161 l
111.534545 56.984887 l
112.105785 57.834662 l
112.296198 57.68496 l
112.486612 58.149258 l
112.677025 58.135648 l
112.867438 57.483321 l
113.057851 57.870571 l
113.248264 57.854702 l
113.438678 59.504594 l
113.629091 59.63735 l
113.819504 59.474091 l
114.009917 60.426665 l
114.200331 60.041095 l
114.390744 59.975401 l
114.77157 61.950589 l
114.961983 62.011161 l
115.152397 63.608475 l
115.533223 63.211443 l
115.723636 63.784726 l
115.91405 63.020562 l
116.104463 62.921402 l
116.294876 63.126613 l
116.675702 62.46499 l
117.056529 63.829396 l
117.246942 63.796459 l
117.437355 63.907231 l
117.818182 63.824515 l
118.008595 64.860953 l
118.389421 64.762813 l
118.579835 66.031578 l
118.770248 64.754594 l
118.960661 64.774567 l
119.151074 63.84397 l
119.341488 64.401322 l
119.531901 64.001676 l
119.722314 65.040824 l
119.912727 63.715451 l
120.293554 63.789464 l
120.67438 63.283202 l
120.864793 62.36861 l
121.055207 59.895818 l
121.24562 59.498101 l
121.436033 61.606914 l
121.626446 61.539221 l
121.81686 61.278967 l
122.007273 62.299789 l
122.197686 62.431391 l
122.388099 62.111207 l
122.578512 61.120853 l
122.768926 61.656093 l
122.959339 61.660845 l
123.149752 62.296481 l
123.530579 62.059257 l
123.720992 63.296302 l
124.101818 63.150938 l
124.292231 63.908039 l
124.673058 64.036554 l
124.863471 63.385657 l
125.053884 63.823752 l
125.244298 63.745626 l
125.434711 63.967653 l
125.625124 64.838968 l
125.815537 64.851991 l
126.00595 65.532658 l
126.386777 65.686389 l
126.57719 68.544548 l
126.958017 69.554965 l
127.338843 68.698341 l
127.529256 68.663453 l
127.719669 69.175913 l
127.910083 70.146415 l
128.290909 70.16077 l
128.481322 69.748004 l
128.671736 69.842462 l
128.862149 68.952347 l
129.052562 69.813745 l
129.242975 69.800956 l
129.433388 69.364996 l
129.623802 70.824594 l
129.814215 70.751586 l
130.766281 75.765656 l
130.956694 75.4899 l
131.147107 74.037312 l
131.527934 74.575188 l
131.718347 74.68848 l
131.90876 72.998028 l
132.099174 72.419265 l
132.289587 69.132242 l
132.48 72.346071 l
132.670413 72.127952 l
133.05124 77.220438 l
133.241653 77.427541 l
133.432066 77.228568 l
133.622479 77.96278 l
134.003306 78.163743 l
134.193719 78.96625 l
134.384132 78.845567 l
134.574545 78.900516 l
134.764959 80.659527 l
134.955372 80.896126 l
135.145785 84.555341 l
135.336198 85.457967 l
135.526612 85.328829 l
135.717025 86.208941 l
135.907438 89.047459 l
136.097851 89.03192 l
136.478678 91.748695 l
136.669091 91.773321 l
137.240331 112.081823 l
137.430744 105.460725 l
137.621157 104.40851 l
137.81157 105.175986 l
138.001983 113.683151 l
138.38281 109.736483 l
138.763636 122.247533 l
139.144463 120.178681 l
139.334876 115.458692 l
139.525289 114.093766 l
140.096529 100.195496 l
140.477355 101.515126 l
140.667769 100.058029 l
140.858182 107.181422 l
141.048595 102.523115 l
141.239008 101.881172 l
141.429421 98.033345 l
141.619835 101.69451 l
141.810248 100.270222 l
142.000661 104.932833 l
142.191074 105.115525 l
142.381488 105.061488 l
142.571901 113.289004 l
142.762314 113.848114 l
142.952727 113.21898 l
143.14314 105.935028 l
143.71438 98.346355 l
143.904793 100.720668 l
144.095207 100.251685 l
144.28562 100.489583 l
144.476033 101.10341 l
144.666446 99.338129 l
144.85686 89.945541 l
145.047273 90.826057 l
145.237686 90.168576 l
145.428099 97.012919 l
145.618512 91.441921 l
145.808926 91.473491 l
145.999339 90.354502 l
146.189752 90.582628 l
146.380165 91.005672 l
146.570579 89.378517 l
146.760992 91.517258 l
146.951405 91.157283 l
147.141818 90.314387 l
147.332231 86.350338 l
147.522645 85.959011 l
147.713058 82.108002 l
147.903471 81.40908 l
148.093884 81.21958 l
148.284298 79.477323 l
148.474711 73.458251 l
148.665124 73.792162 l
148.855537 78.318507 l
149.04595 78.860276 l
149.236364 78.877785 l
149.61719 79.256908 l
149.807603 78.195422 l
150.950083 89.825622 l
151.140496 89.922488 l
151.330909 90.999358 l
151.521322 90.442816 l
151.711736 85.375351 l
151.902149 86.265765 l
152.092562 86.301156 l
152.282975 84.471706 l
152.473388 86.984458 l
152.663802 86.872143 l
152.854215 87.067553 l
153.044628 89.531001 l
153.235041 89.229392 l
153.425455 90.754857 l
153.806281 91.486633 l
154.187107 86.095969 l
154.377521 85.334456 l
154.567934 82.131202 l
154.758347 80.808266 l
154.94876 80.929153 l
155.139174 82.491788 l
155.52 82.378858 l
155.710413 79.313431 l
155.900826 79.977375 l
156.281653 78.593891 l
156.852893 81.585786 l
157.043306 80.594016 l
157.233719 80.728753 l
157.614545 80.312254 l
157.804959 79.698194 l
157.995372 77.456156 l
158.185785 77.780593 l
158.376198 77.742941 l
158.566612 73.626722 l
158.757025 73.830778 l
158.947438 73.838794 l
159.137851 74.217582 l
159.328264 75.661185 l
159.518678 75.72302 l
159.709091 73.410823 l
159.899504 72.552827 l
160.089917 72.671538 l
160.280331 74.147474 l
160.470744 72.920471 l
160.85157 73.795271 l
161.041983 77.346899 l
161.42281 78.073991 l
161.613223 79.246477 l
161.803636 79.351886 l
161.99405 77.530235 l
162.184463 78.568927 l
162.374876 78.611407 l
162.565289 81.219535 l
162.755702 81.044133 l
162.946116 81.519679 l
163.136529 81.532249 l
163.326942 83.928115 l
163.517355 84.323397 l
163.898182 81.826909 l
164.088595 81.511779 l
164.279008 83.07541 l
164.469421 82.787482 l
164.850248 82.64048 l
165.040661 84.250784 l
165.421488 84.882964 l
165.611901 84.21559 l
165.802314 84.220615 l
165.992727 82.66816 l
166.18314 83.028238 l
166.373554 82.983258 l
166.563967 79.739923 l
166.75438 79.799884 l
166.944793 79.719621 l
167.135207 80.446143 l
167.32562 79.904367 l
167.516033 79.748679 l
167.706446 78.342247 l
167.89686 78.858419 l
168.087273 78.854662 l
168.277686 79.888754 l
168.468099 79.41916 l
168.658512 79.461837 l
168.848926 76.221169 l
169.229752 76.302254 l
169.420165 75.400947 l
169.610579 75.473875 l
169.800992 75.407312 l
169.991405 75.851726 l
170.181818 75.564684 l
170.372231 75.569791 l
170.753058 76.565729 l
170.943471 76.534873 l
171.133884 76.007409 l
171.324298 76.452332 l
171.514711 76.466621 l
171.705124 76.685681 l
171.895537 76.469409 l
172.08595 76.45163 l
172.276364 73.219588 l
172.466777 73.600311 l
172.65719 73.614307 l
172.847603 71.442236 l
173.038017 72.719069 l
173.22843 72.682059 l
173.418843 72.18883 l
173.799669 71.943584 l
173.990083 73.065865 l
174.180496 72.979994 l
174.370909 73.157702 l
174.751736 70.771302 l
175.322975 71.068007 l
175.513388 70.601171 l
175.703802 70.64139 l
175.894215 69.873727 l
176.275041 71.669822 l
176.465455 72.021737 l
176.655868 72.639782 l
176.846281 72.512024 l
177.036694 72.5509 l
177.227107 72.366429 l
177.417521 72.515849 l
177.607934 73.129681 l
177.798347 73.015919 l
178.179174 71.679877 l
178.369587 71.779371 l
178.56 71.167292 l
178.940826 71.184567 l
179.321653 73.578084 l
179.512066 75.318905 l
179.892893 75.729051 l
180.083306 75.370431 l
180.273719 75.818631 l
180.464132 76.738141 l
180.654545 76.835319 l
180.844959 78.901236 l
181.035372 78.655203 l
181.225785 77.701319 l
181.416198 78.635654 l
181.797025 78.784637 l
182.177851 76.279475 l
182.368264 76.421415 l
182.939504 74.1229 l
183.320331 74.05443 l
183.701157 71.754677 l
183.89157 71.753607 l
184.081983 70.761105 l
184.272397 71.42463 l
184.46281 71.563131 l
184.653223 71.197246 l
184.843636 71.623278 l
185.224463 71.430867 l
185.414876 71.908632 l
185.605289 71.782775 l
185.795702 72.100782 l
185.986116 71.771918 l
186.176529 72.442423 l
186.366942 71.592035 l
186.747769 72.998149 l
186.938182 73.070759 l
187.128595 72.997521 l
187.319008 74.079582 l
187.509421 74.380761 l
187.699835 73.819919 l
188.080661 74.151804 l
188.271074 75.034935 l
188.651901 75.101008 l
188.842314 74.515181 l
189.032727 71.89534 l
189.22314 72.157087 l
189.603967 71.329417 l
189.79438 71.154276 l
189.984793 71.367551 l
190.175207 71.278206 l
190.36562 71.482085 l
190.556033 72.148888 l
190.93686 72.238789 l
191.317686 71.368749 l
191.698512 71.838653 l
191.888926 72.807621 l
192.079339 73.13955 l
192.650579 72.474105 l
192.840992 72.031612 l
193.031405 72.289223 l
193.221818 72.869626 l
193.412231 72.347021 l
193.793058 72.580356 l
193.983471 72.393913 l
194.173884 72.038437 l
194.364298 72.089799 l
194.554711 72.41668 l
195.506777 72.641362 l
195.69719 71.18378 l
196.26843 71.379415 l
196.649256 72.534688 l
197.030083 72.41472 l
197.410909 72.109437 l
197.601322 72.274289 l
197.982149 72.08092 l
198.172562 72.184527 l
198.934215 71.987595 l
199.315041 71.41816 l
199.505455 71.387935 l
200.076694 71.730196 l
200.267107 71.735797 l
200.457521 71.909573 l
200.647934 71.912637 l
200.838347 72.301992 l
201.409587 71.76339 l
201.6 71.683365 l
201.790413 71.799989 l
201.980826 71.659452 l
202.17124 70.90445 l
202.361653 69.288201 l
202.552066 68.669359 l
202.742479 68.523108 l
202.932893 68.57782 l
203.123306 67.54307 l
203.313719 65.10754 l
203.504132 64.413885 l
203.694545 64.632851 l
203.884959 63.710007 l
204.075372 63.878199 l
204.265785 61.837705 l
204.456198 62.211625 l
204.646612 61.721466 l
205.027438 63.534448 l
205.217851 63.592204 l
205.408264 62.967909 l
205.598678 63.163566 l
205.789091 63.059717 l
206.169917 61.971964 l
206.360331 61.535055 l
206.550744 60.227301 l
207.121983 60.683277 l
207.312397 60.306485 l
207.693223 60.231614 l
207.883636 59.736824 l
208.07405 59.598262 l
208.264463 59.709324 l
208.645289 60.808835 l
209.026116 62.451775 l
209.216529 63.038868 l
209.406942 62.174769 l
209.597355 62.623763 l
209.787769 62.499251 l
209.978182 61.800586 l
210.359008 61.932889 l
210.549421 61.530912 l
210.739835 62.179828 l
210.930248 61.632866 l
211.120661 61.714513 l
211.311074 61.563156 l
211.501488 61.962448 l
211.691901 62.000668 l
211.882314 61.834294 l
212.26314 62.211317 l
212.453554 62.656964 l
212.83438 62.649429 l
213.215207 61.154564 l
213.40562 61.154934 l
213.786446 60.714107 l
213.97686 61.195165 l
214.167273 61.058298 l
214.548099 61.101169 l
214.738512 61.325187 l
214.928926 61.377047 l
215.119339 60.777571 l
215.309752 60.745169 l
215.500165 60.927572 l
215.690579 60.846834 l
216.071405 60.890729 l
216.452231 60.800973 l
216.642645 60.392773 l
216.833058 60.288796 l
217.023471 60.475323 l
217.213884 60.378244 l
217.594711 60.614909 l
217.785124 60.421446 l
218.16595 60.465071 l
218.356364 60.22752 l
218.546777 60.185359 l
218.73719 61.211717 l
219.118017 61.308873 l
219.30843 61.089897 l
219.689256 61.032204 l
220.070083 61.007925 l
220.260496 61.051666 l
220.450909 61.248945 l
220.641322 62.174101 l
220.831736 62.234723 l
221.022149 62.468459 l
221.212562 62.305441 l
221.402975 62.4542 l
221.593388 63.055863 l
221.783802 61.619493 l
221.974215 61.933351 l
222.355041 61.875158 l
222.545455 61.940095 l
223.116694 61.803284 l
223.307107 61.481101 l
223.497521 62.025535 l
224.06876 62.039833 l
224.259174 62.327331 l
225.020826 62.046809 l
225.21124 62.075481 l
225.592066 62.579334 l
225.972893 62.513125 l
226.353719 62.735223 l
226.544132 62.488345 l
227.115372 62.495166 l
227.305785 62.270795 l
227.496198 62.316463 l
227.686612 62.704816 l
227.877025 62.661884 l
228.067438 62.963178 l
228.448264 62.957821 l
228.638678 63.105694 l
228.829091 65.920356 l
229.019504 66.216833 l
229.209917 66.029651 l
229.400331 66.482595 l
229.590744 66.577978 l
229.97157 67.407289 l
230.161983 67.049266 l
230.352397 67.567108 l
230.54281 66.506682 l
230.733223 66.652473 l
230.923636 66.620756 l
231.11405 66.959471 l
231.304463 66.511152 l
231.494876 67.12958 l
231.685289 67.220993 l
231.875702 67.436578 l
232.066116 67.439391 l
232.256529 67.56364 l
232.446942 67.457851 l
232.827769 68.368633 l
233.018182 68.045025 l
233.208595 67.125572 l
233.399008 67.500244 l
233.589421 67.451531 l
233.779835 67.532847 l
233.970248 67.376227 l
234.160661 67.411451 l
234.541488 67.875339 l
234.922314 69.34335 l
235.30314 69.009567 l
235.493554 69.284154 l
236.064793 71.566792 l
236.255207 75.036379 l
236.44562 73.997071 l
236.636033 77.251574 l
237.01686 78.730645 l
237.207273 77.493789 l
237.397686 75.475371 l
237.588099 75.100892 l
237.778512 78.679774 l
237.968926 77.960375 l
238.159339 77.750224 l
238.349752 76.491671 l
238.730579 77.945846 l
238.920992 78.20864 l
239.111405 80.802169 l
239.301818 80.900982 l
239.682645 80.488311 l
239.873058 78.983304 l
240.063471 80.067586 l
240.253884 80.071401 l
240.444298 80.781396 l
240.825124 76.683863 l
241.015537 77.108712 l
241.20595 77.17496 l
241.396364 77.926692 l
241.586777 77.668677 l
241.77719 76.548246 l
241.967603 78.011824 l
242.158017 77.615648 l
242.34843 78.600231 l
242.538843 78.850037 l
242.729256 80.606316 l
243.110083 81.706167 l
243.300496 83.049197 l
243.490909 82.080723 l
243.871736 83.834882 l
244.252562 88.217794 l
244.633388 89.562288 l
245.014215 96.942612 l
245.204628 90.00683 l
245.395041 94.79139 l
245.585455 92.92624 l
245.775868 88.484095 l
245.966281 87.871294 l
246.156694 88.744885 l
246.347107 93.289967 l
246.537521 90.11335 l
246.727934 89.322039 l
247.10876 91.333172 l
247.299174 94.555264 l
247.489587 95.610064 l
247.870413 90.854755 l
248.060826 92.593229 l
248.25124 90.99438 l
248.441653 86.361508 l
248.632066 89.007333 l
248.822479 83.319892 l
249.012893 84.385714 l
249.203306 88.101908 l
249.393719 87.705694 l
249.584132 88.588804 l
249.964959 86.888175 l
250.155372 85.040946 l
250.345785 84.762967 l
250.536198 85.159914 l
250.726612 85.05771 l
250.917025 83.613825 l
251.107438 83.82968 l
251.297851 83.71919 l
251.488264 84.057558 l
251.869091 87.210165 l
252.059504 87.6818 l
252.440331 89.418655 l
252.630744 92.531644 l
252.821157 91.28947 l
253.01157 93.197706 l
253.201983 93.334864 l
253.392397 92.796211 l
253.58281 90.58248 l
253.773223 91.679364 l
253.963636 90.983435 l
254.15405 88.948061 l
254.344463 85.706352 l
254.534876 86.80551 l
254.725289 87.02622 l
254.915702 86.46772 l
255.106116 86.864975 l
255.296529 89.175977 l
255.486942 88.572079 l
255.677355 86.13968 l
255.867769 86.072546 l
256.058182 87.204924 l
256.248595 86.195175 l
256.439008 86.161493 l
256.629421 87.029458 l
256.819835 86.303661 l
257.200661 83.654522 l
257.391074 84.014626 l
257.581488 84.102918 l
257.771901 84.753795 l
257.962314 87.131045 l
258.152727 88.035352 l
258.533554 87.867748 l
258.723967 86.864474 l
258.91438 87.518627 l
259.295207 86.849791 l
259.48562 86.030346 l
259.676033 86.254987 l
259.866446 87.260227 l
260.05686 87.043409 l
260.247273 87.033504 l
261.008926 86.24832 l
261.199339 86.704192 l
261.389752 86.308132 l
261.580165 85.561949 l
261.770579 85.768361 l
261.960992 84.420784 l
262.151405 80.066815 l
262.341818 79.599034 l
262.532231 78.147711 l
262.722645 78.680545 l
262.913058 78.8004 l
263.103471 78.15195 l
263.293884 79.119268 l
263.484298 79.177769 l
263.674711 79.40557 l
264.055537 78.53248 l
264.24595 78.502458 l
264.436364 77.431279 l
264.626777 78.750377 l
264.81719 78.665515 l
265.007603 80.199041 l
265.198017 80.19511 l
265.38843 78.972783 l
265.578843 79.120308 l
265.769256 79.026852 l
265.959669 79.295774 l
266.340496 77.942956 l
266.530909 78.229181 l
266.721322 77.756583 l
266.911736 77.779282 l
267.102149 78.823754 l
267.292562 78.790842 l
267.482975 78.036412 l
267.673388 75.889044 l
267.863802 75.743831 l
268.244628 82.788368 l
268.435041 83.912692 l
268.625455 82.630206 l
268.815868 83.457205 l
269.006281 82.421558 l
269.196694 82.35743 l
269.577521 82.947841 l
269.767934 82.581647 l
269.958347 83.398241 l
270.14876 82.982564 l
270.339174 83.110319 l
270.529587 82.574248 l
270.72 80.885489 l
270.910413 81.052631 l
271.100826 81.930192 l
271.29124 80.699618 l
271.481653 81.022224 l
271.672066 80.871538 l
272.052893 79.697153 l
272.433719 79.875355 l
272.624132 78.611522 l
273.004959 78.248566 l
273.385785 75.182979 l
273.576198 75.328193 l
273.766612 73.722561 l
273.957025 74.581393 l
274.147438 74.710034 l
274.337851 76.098193 l
274.528264 75.740439 l
274.718678 76.998607 l
275.099504 75.631337 l
275.289917 75.272543 l
275.480331 75.223137 l
275.670744 74.822644 l
276.05157 76.188219 l
276.241983 76.024969 l
276.432397 76.092643 l
276.813223 74.930205 l
277.19405 74.808423 l
277.384463 75.050098 l
277.574876 74.340488 l
277.765289 74.507746 l
278.146116 72.584595 l
278.336529 75.17504 l
278.526942 74.660821 l
278.717355 74.812316 l
278.907769 74.6313 l
279.098182 76.061889 l
279.288595 75.320678 l
279.669421 74.822143 l
279.859835 74.828617 l
280.240661 75.239708 l
280.431074 75.564549 l
280.621488 74.925735 l
280.811901 74.72807 l
281.002314 74.756473 l
281.192727 73.864884 l
281.38314 75.337134 l
281.763967 75.434328 l
282.144793 78.57098 l
282.335207 78.097649 l
282.52562 77.231573 l
282.716033 78.644935 l
282.906446 78.016102 l
283.09686 78.603738 l
283.287273 78.338862 l
283.477686 81.179846 l
283.668099 81.069896 l
283.858512 80.715881 l
284.048926 81.403062 l
284.239339 81.443566 l
284.429752 80.643929 l
284.620165 80.347607 l
284.810579 80.716767 l
285.000992 80.472741 l
285.191405 79.429002 l
285.381818 79.583387 l
285.572231 79.19488 l
285.953058 81.385488 l
286.143471 83.27353 l
286.333884 82.865484 l
286.524298 83.723198 l
286.714711 83.073438 l
286.905124 83.244241 l
287.095537 82.999405 l
287.28595 82.412001 l
287.476364 82.412001 l
287.666777 84.156872 l
287.85719 84.69934 l
288.047603 84.899278 l
288.238017 85.283045 l
288.42843 86.266896 l
288.618843 85.081373 l
288.809256 86.702266 l
288.999669 87.006412 l
289.190083 86.575281 l
289.380496 87.061252 l
289.570909 85.271676 l
289.761322 85.40078 l
289.951736 84.49998 l
290.142149 86.33719 l
290.332562 84.11764 l
290.522975 84.125887 l
290.713388 84.471655 l
290.903802 84.367793 l
291.094215 85.600102 l
291.475041 82.978556 l
291.665455 80.960562 l
291.855868 81.034556 l
292.046281 80.678576 l
292.236694 79.991896 l
292.427107 81.451158 l
292.617521 81.451158 l
292.807934 80.840399 l
292.998347 80.857973 l
293.18876 82.046848 l
293.379174 82.387914 l
293.569587 81.396472 l
293.76 78.085047 l
294.140826 77.491862 l
294.33124 77.689141 l
294.521653 65.717374 l
294.712066 68.718832 l
294.902479 67.012461 l
295.092893 67.714557 l
295.283306 66.473269 l
295.473719 67.749896 l
295.664132 67.952686 l
295.854545 70.977846 l
296.044959 71.098241 l
296.235372 70.957228 l
296.425785 69.541977 l
296.616198 72.160825 l
296.806612 73.187222 l
296.997025 72.917337 l
297.187438 73.168955 l
297.377851 71.647993 l
297.568264 71.231237 l
297.758678 69.783961 l
297.949091 71.787503 l
298.139504 71.876103 l
298.520331 73.343766 l
298.710744 73.083862 l
298.901157 73.58494 l
299.09157 73.221714 l
299.281983 75.402071 l
299.472397 74.871588 l
299.66281 75.486201 l
299.853223 75.211267 l
300.043636 73.590914 l
300.424463 73.753277 l
300.614876 73.530871 l
300.805289 73.585942 l
300.995702 72.629608 l
301.186116 74.5121 l
301.376529 74.213889 l
301.566942 75.078964 l
301.757355 74.580583 l
301.947769 73.463736 l
302.138182 73.511062 l
302.519008 75.920029 l
302.899835 76.197198 l
303.280661 77.126517 l
303.471074 77.028899 l
303.661488 80.930155 l
303.851901 80.35647 l
304.232727 81.686243 l
304.42314 81.416974 l
304.613554 81.347528 l
304.99438 82.445337 l
305.184793 85.650549 l
305.375207 84.954234 l
305.56562 83.819621 l
305.756033 80.840861 l
305.946446 80.312074 l
306.13686 81.072362 l
306.517686 84.832876 l
306.708099 82.957128 l
306.898512 83.273568 l
307.088926 84.366907 l
307.469752 84.815264 l
307.660165 83.755185 l
307.850579 82.009003 l
308.040992 82.431732 l
308.231405 82.474356 l
308.421818 80.749409 l
308.612231 81.400441 l
308.802645 81.181504 l
309.183471 83.980789 l
309.373884 83.428802 l
309.564298 84.477512 l
309.754711 83.524608 l
309.945124 86.428064 l
310.135537 83.812607 l
310.516364 84.849255 l
310.706777 84.190978 l
311.658843 85.225276 l
311.849256 82.890958 l
312.039669 83.559794 l
312.230083 83.611937 l
312.420496 83.059178 l
312.801322 83.814264 l
313.372562 82.943871 l
313.562975 83.16462 l
313.753388 82.884637 l
313.943802 84.453619 l
314.134215 84.182269 l
314.324628 82.853036 l
314.515041 82.715338 l
314.705455 82.382365 l
314.895868 81.803439 l
315.276694 82.501449 l
315.467107 82.303438 l
315.657521 82.698111 l
315.847934 82.126199 l
316.038347 82.066233 l
316.22876 82.293186 l
316.419174 82.130477 l
316.609587 83.131785 l
316.8 82.77461 l
316.990413 83.483102 l
317.180826 82.704508 l
317.37124 82.894735 l
317.561653 82.696492 l
317.752066 82.927492 l
317.942479 82.704855 l
318.132893 82.76802 l
318.513719 82.291992 l
319.084959 82.614405 l
319.275372 82.418668 l
319.656198 83.858198 l
319.846612 84.149973 l
320.037025 83.91169 l
320.417851 85.405251 l
320.608264 89.658249 l
320.798678 89.244114 l
320.989091 89.890521 l
321.179504 89.937769 l
321.369917 90.820109 l
321.560331 92.669227 l
321.750744 89.79456 l
321.941157 90.429675 l
322.13157 90.243457 l
322.321983 92.386315 l
322.512397 92.473644 l
322.70281 91.82874 l
322.893223 92.453064 l
323.083636 92.131113 l
323.27405 92.936453 l
323.464463 91.007213 l
323.845289 92.490947 l
324.035702 92.479193 l
324.416529 93.017307 l
324.606942 94.480654 l
324.987769 92.323574 l
325.178182 92.83159 l
325.368595 91.50964 l
325.559008 92.128724 l
325.749421 92.011489 l
325.939835 92.43892 l
326.130248 90.795136 l
326.320661 91.296021 l
326.511074 90.658748 l
326.701488 91.555694 l
326.891901 91.351016 l
327.082314 92.222526 l
327.272727 92.036732 l
327.46314 93.052916 l
327.653554 91.026521 l
327.843967 86.363627 l
328.03438 87.444171 l
328.224793 86.256143 l
328.60562 87.058207 l
328.796033 86.109311 l
329.367273 87.164959 l
329.557686 87.361506 l
329.748099 86.91573 l
329.938512 88.240955 l
330.509752 89.278606 l
330.700165 89.231974 l
330.890579 89.808665 l
331.080992 89.185188 l
331.271405 87.299921 l
331.461818 87.692089 l
331.652231 86.544643 l
331.842645 88.46367 l
332.033058 88.311096 l
332.413884 88.624799 l
332.604298 88.30913 l
332.794711 88.881312 l
332.985124 88.638981 l
333.175537 88.027452 l
333.556364 87.767432 l
333.93719 88.679986 l
334.127603 87.967717 l
334.318017 88.226157 l
334.889256 90.661291 l
335.079669 90.946245 l
335.270083 91.576081 l
335.460496 91.14522 l
335.650909 91.15709 l
335.841322 91.436147 l
336.031736 90.757252 l
336.222149 90.907322 l
336.412562 91.453374 l
336.793388 93.061433 l
336.983802 96.553411 l
337.174215 97.164979 l
337.364628 96.988742 l
337.555041 97.69762 l
337.745455 97.34426 l
337.935868 97.496873 l
338.126281 99.713224 l
338.316694 98.316318 l
338.887934 100.325409 l
339.078347 100.127167 l
339.26876 99.419175 l
339.459174 101.146242 l
339.649587 101.656029 l
339.84 107.189393 l
340.030413 107.206273 l
340.220826 104.293029 l
340.41124 106.800964 l
340.601653 106.176369 l
340.792066 106.132089 l
341.363306 110.071845 l
341.744132 108.64141 l
342.315372 115.695081 l
342.505785 115.780328 l
342.696198 119.121158 l
342.886612 119.16856 l
343.077025 118.099231 l
343.267438 118.009167 l
343.457851 120.990547 l
343.648264 119.322907 l
343.838678 113.201599 l
344.029091 113.153156 l
344.409917 117.210224 l
344.600331 123.060876 l
344.790744 119.526082 l
345.17157 122.077411 l
345.361983 119.055796 l
345.74281 121.781126 l
345.933223 121.024808 l
346.123636 117.700704 l
346.31405 118.607439 l
346.694876 116.584975 l
347.075702 120.959562 l
347.456529 122.020412 l
347.837355 135.15323 l
348.027769 136.32222 l
348.218182 139.093642 l
348.408595 137.631721 l
348.599008 134.760214 l
348.789421 138.920488 l
348.979835 136.717548 l
349.170248 138.498645 l
349.360661 142.267908 l
349.551074 149.010727 l
349.741488 148.252943 l
350.50314 158.797012 l
350.693554 160.381678 l
350.883967 171.17906 l
351.07438 174.282646 l
351.264793 170.560786 l
351.64562 189.157098 l
352.026446 203.839666 l
352.21686 202.18432 l
352.788099 178.179047 l
353.168926 198.013486 l
353.359339 189.034198 l
353.549752 186.092474 l
353.740165 185.043494 l
353.930579 188.278188 l
354.311405 184.064499 l
354.501818 165.79299 l
354.692231 174.288812 l
354.882645 170.810169 l
355.073058 171.492687 l
355.263471 171.363274 l
355.453884 172.513804 l
355.644298 164.333497 l
355.834711 175.833398 l
356.025124 179.344607 l
356.215537 179.359405 l
356.40595 174.805537 l
356.596364 176.29482 l
356.97719 192.301226 l
357.167603 189.703112 l
357.54843 198.648563 l
357.738843 197.125674 l
357.929256 225.783705 l
358.119669 226.651901 l
358.310083 220.056377 l
358.500496 232.139019 l
358.881322 228.947295 l
359.071736 234.863656 l
359.262149 231.901891 l
359.452562 236.558311 l
359.642975 247.958513 l
359.833388 245.992739 l
360.023802 262.596492 l
360.214215 262.922914 l
360.404628 268.652285 l
360.785455 235.480503 l
360.975868 242.203205 l
361.166281 227.464448 l
361.356694 225.691251 l
361.547107 224.980446 l
361.737521 220.964923 l
361.927934 238.324648 l
362.118347 233.459581 l
362.30876 241.636149 l
362.499174 233.817488 l
362.689587 235.407088 l
362.88 235.484974 l
363.45124 258.60783 l
363.832066 269.716488 l
364.022479 267.748247 l
364.212893 283.184668 l
364.403306 274.994226 l
364.593719 261.973016 l
364.784132 266.280314 l
364.974545 274.144566 l
365.164959 269.338425 l
365.355372 270.915422 l
365.545785 270.956658 l
365.736198 268.356732 l
365.926612 256.000466 l
366.117025 257.050642 l
366.497851 245.251912 l
366.688264 259.351431 l
366.878678 262.393895 l
367.069091 262.084739 l
367.449917 273.439812 l
367.830744 273.46598 l
368.021157 274.600555 l
368.21157 267.066925 l
368.592397 274.688345 l
368.78281 270.704847 l
368.973223 262.715075 l
369.163636 270.813256 l
369.35405 271.021326 l
369.544463 277.462735 l
369.734876 278.19832 l
369.925289 277.696818 l
370.115702 292.032 l
370.306116 289.776262 l
370.496529 290.868868 l
370.877355 278.669338 l
371.067769 263.887456 l
371.258182 261.774234 l
371.448595 264.8757 l
371.829421 246.468921 l
372.019835 244.239158 l
372.400661 236.232583 l
372.591074 255.428863 l
372.781488 259.339831 l
372.971901 258.617773 l
373.162314 253.607955 l
373.352727 269.842201 l
373.54314 270.076823 l
373.733554 265.270913 l
373.923967 267.594286 l
374.11438 252.28828 l
374.304793 268.595903 l
374.495207 264.568355 l
374.68562 268.237648 l
374.876033 274.205496 l
375.066446 271.70789 l
375.25686 262.469315 l
375.447273 265.80868 l
375.637686 235.968633 l
375.828099 238.647755 l
376.018512 239.496566 l
376.208926 227.218418 l
376.399339 226.081762 l
376.589752 215.116005 l
376.780165 212.479776 l
376.970579 189.557359 l
377.160992 204.279275 l
377.351405 190.775485 l
377.541818 191.731048 l
377.732231 181.041382 l
377.922645 196.356791 l
378.113058 195.130919 l
378.303471 198.428045 l
378.493884 195.264994 l
378.684298 184.645044 l
378.874711 180.62952 l
379.255537 190.891833 l
379.44595 188.394921 l
379.636364 191.950487 l
379.826777 198.129564 l
380.207603 184.031356 l
380.398017 185.132749 l
380.58843 176.263874 l
380.778843 176.014607 l
380.969256 190.999047 l
381.159669 188.556513 l
381.350083 190.902007 l
381.540496 183.894621 l
381.730909 197.66028 l
381.921322 203.282977 l
382.111736 201.983303 l
382.302149 194.800913 l
382.492562 193.811128 l
382.682975 184.799969 l
382.873388 184.007423 l
383.063802 184.270179 l
383.254215 169.217795 l
383.444628 172.150732 l
383.825455 180.597572 l
384.015868 169.040633 l
384.206281 171.045909 l
384.396694 180.617111 l
384.587107 179.893434 l
384.777521 185.254261 l
384.967934 182.169867 l
385.158347 176.348697 l
385.34876 177.581854 l
385.729587 183.179346 l
385.92 177.162207 l
386.110413 178.946696 l
386.300826 177.513178 l
386.49124 173.807196 l
386.681653 177.434097 l
386.872066 176.266572 l
387.062479 179.010786 l
387.443306 173.071688 l
387.633719 173.565174 l
387.824132 169.41835 l
388.014545 168.195368 l
388.204959 168.578479 l
388.395372 169.591388 l
388.776198 161.909693 l
388.966612 170.880772 l
389.157025 171.57381 l
389.537851 179.21003 l
389.728264 183.394776 l
390.109091 198.967238 l
390.299504 201.26637 l
390.489917 201.279473 l
390.680331 209.789632 l
390.870744 207.650396 l
391.25157 198.150182 l
391.441983 194.080743 l
392.203636 219.115882 l
392.39405 215.963468 l
392.584463 225.664852 l
392.774876 222.870461 l
392.965289 222.882369 l
393.155702 218.282101 l
393.346116 231.447638 l
393.536529 228.665964 l
393.726942 228.450996 l
394.107769 219.171532 l
394.298182 219.669796 l
394.679008 237.20441 l
394.869421 235.679324 l
395.250248 237.958802 l
395.440661 231.103103 l
395.631074 235.833748 l
395.821488 228.090237 l
396.011901 236.160439 l
396.392727 235.196667 l
396.58314 228.521753 l
396.773554 228.8343 l
396.963967 235.412406 l
397.344793 239.93132 l
397.535207 239.592373 l
397.916033 250.113473 l
398.106446 227.498169 l
398.29686 224.681811 l
398.487273 225.800623 l
398.487273 225.800623 l
stroke
grestore
0.800 setlinewidth
0 setlinejoin
0.000 setgray
gsave
57.6 38.016 m
57.6 304.128 l
stroke
grestore
gsave
414.72 38.016 m
414.72 304.128 l
stroke
grestore
gsave
57.6 38.016 m
414.72 38.016 l
stroke
grestore
gsave
57.6 304.128 m
414.72 304.128 l
stroke
grestore

end
showpage
