%!PS-Adobe-3.0 EPSF-3.0
%%Title: D:/MCM2022/MCM2022/YKCCs_LSTM/required/50-80-BTC.eps
%%Creator: matplotlib version 3.3.4, http://matplotlib.org/
%%CreationDate: Sun Feb 20 14:35:38 2022
%%Orientation: portrait
%%BoundingBox: 75.6 223.20000000000002 536.4 568.8
%%EndComments
%%BeginProlog
/mpldict 8 dict def
mpldict begin
/m { moveto } bind def
/l { lineto } bind def
/r { rlineto } bind def
/c { curveto } bind def
/cl { closepath } bind def
/box {
      m
      1 index 0 r
      0 exch r
      neg 0 r
      cl
    } bind def
/clipbox {
      box
      clip
      newpath
    } bind def
%!PS-Adobe-3.0 Resource-Font
%%Title: DejaVu Sans
%%Copyright: Copyright (c) 2003 by Bitstream, Inc. All Rights Reserved. Copyright (c) 2006 by Tavmjong Bah. All Rights Reserved. DejaVu changes are in public domain 
%%Creator: Converted from TrueType to type 3 by PPR
25 dict begin
/_d{bind def}bind def
/_m{moveto}_d
/_l{lineto}_d
/_cl{closepath eofill}_d
/_c{curveto}_d
/_sc{7 -1 roll{setcachedevice}{pop pop pop pop pop pop}ifelse}_d
/_e{exec}_d
/FontName /DejaVuSans def
/PaintType 0 def
/FontMatrix[.001 0 0 .001 0 0]def
/FontBBox[-1021 -463 1793 1232]def
/FontType 3 def
/Encoding [ /zero /one /two /three /four /five /six /seven ] def
/FontInfo 10 dict dup begin
/FamilyName (DejaVu Sans) def
/FullName (DejaVu Sans) def
/Notice (Copyright (c) 2003 by Bitstream, Inc. All Rights Reserved. Copyright (c) 2006 by Tavmjong Bah. All Rights Reserved. DejaVu changes are in public domain ) def
/Weight (Book) def
/Version (Version 2.35) def
/ItalicAngle 0.0 def
/isFixedPitch false def
/UnderlinePosition -130 def
/UnderlineThickness 90 def
end readonly def
/CharStrings 9 dict dup begin
/.notdef 0 def
/zero{636 0 66 -13 570 742 _sc
318 664 _m
267 664 229 639 203 589 _c
177 539 165 464 165 364 _c
165 264 177 189 203 139 _c
229 89 267 64 318 64 _c
369 64 407 89 433 139 _c
458 189 471 264 471 364 _c
471 464 458 539 433 589 _c
407 639 369 664 318 664 _c
318 742 _m
399 742 461 709 505 645 _c
548 580 570 486 570 364 _c
570 241 548 147 505 83 _c
461 19 399 -13 318 -13 _c
236 -13 173 19 130 83 _c
87 147 66 241 66 364 _c
66 486 87 580 130 645 _c
173 709 236 742 318 742 _c
_cl}_d
/one{636 0 110 0 544 729 _sc
124 83 _m
285 83 _l
285 639 _l
110 604 _l
110 694 _l
284 729 _l
383 729 _l
383 83 _l
544 83 _l
544 0 _l
124 0 _l
124 83 _l
_cl}_d
/two{{636 0 73 0 536 742 _sc
192 83 _m
536 83 _l
536 0 _l
73 0 _l
73 83 _l
110 121 161 173 226 239 _c
290 304 331 346 348 365 _c
380 400 402 430 414 455 _c
426 479 433 504 433 528 _c
433 566 419 598 392 622 _c
365 646 330 659 286 659 _c
255 659 222 653 188 643 _c
154 632 117 616 78 594 _c
78 694 _l
118 710 155 722 189 730 _c
223 738 255 742 284 742 _c
}_e{359 742 419 723 464 685 _c
509 647 532 597 532 534 _c
532 504 526 475 515 449 _c
504 422 484 390 454 354 _c
446 344 420 317 376 272 _c
332 227 271 164 192 83 _c
_cl}_e}_d
/three{{636 0 76 -13 556 742 _sc
406 393 _m
453 383 490 362 516 330 _c
542 298 556 258 556 212 _c
556 140 531 84 482 45 _c
432 6 362 -13 271 -13 _c
240 -13 208 -10 176 -4 _c
144 1 110 10 76 22 _c
76 117 _l
103 101 133 89 166 81 _c
198 73 232 69 268 69 _c
330 69 377 81 409 105 _c
441 129 458 165 458 212 _c
458 254 443 288 413 312 _c
383 336 341 349 287 349 _c
}_e{202 349 _l
202 430 _l
291 430 _l
339 430 376 439 402 459 _c
428 478 441 506 441 543 _c
441 580 427 609 401 629 _c
374 649 336 659 287 659 _c
260 659 231 656 200 650 _c
169 644 135 635 98 623 _c
98 711 _l
135 721 170 729 203 734 _c
235 739 266 742 296 742 _c
370 742 429 725 473 691 _c
517 657 539 611 539 553 _c
539 513 527 479 504 451 _c
481 423 448 403 406 393 _c
_cl}_e}_d
/four{636 0 49 0 580 729 _sc
378 643 _m
129 254 _l
378 254 _l
378 643 _l
352 729 _m
476 729 _l
476 254 _l
580 254 _l
580 172 _l
476 172 _l
476 0 _l
378 0 _l
378 172 _l
49 172 _l
49 267 _l
352 729 _l
_cl}_d
/five{{636 0 77 -13 549 729 _sc
108 729 _m
495 729 _l
495 646 _l
198 646 _l
198 467 _l
212 472 227 476 241 478 _c
255 480 270 482 284 482 _c
365 482 429 459 477 415 _c
525 370 549 310 549 234 _c
549 155 524 94 475 51 _c
426 8 357 -13 269 -13 _c
238 -13 207 -10 175 -6 _c
143 -1 111 6 77 17 _c
77 116 _l
106 100 136 88 168 80 _c
199 72 232 69 267 69 _c
}_e{323 69 368 83 401 113 _c
433 143 450 183 450 234 _c
450 284 433 324 401 354 _c
368 384 323 399 267 399 _c
241 399 214 396 188 390 _c
162 384 135 375 108 363 _c
108 729 _l
_cl}_e}_d
/six{{636 0 70 -13 573 742 _sc
330 404 _m
286 404 251 388 225 358 _c
199 328 186 286 186 234 _c
186 181 199 139 225 109 _c
251 79 286 64 330 64 _c
374 64 409 79 435 109 _c
461 139 474 181 474 234 _c
474 286 461 328 435 358 _c
409 388 374 404 330 404 _c
526 713 _m
526 623 _l
501 635 476 644 451 650 _c
425 656 400 659 376 659 _c
310 659 260 637 226 593 _c
}_e{192 549 172 482 168 394 _c
187 422 211 444 240 459 _c
269 474 301 482 336 482 _c
409 482 467 459 509 415 _c
551 371 573 310 573 234 _c
573 159 550 99 506 54 _c
462 9 403 -13 330 -13 _c
246 -13 181 19 137 83 _c
92 147 70 241 70 364 _c
70 479 97 571 152 639 _c
206 707 280 742 372 742 _c
396 742 421 739 447 735 _c
472 730 498 723 526 713 _c
_cl}_e}_d
/seven{636 0 82 0 551 729 _sc
82 729 _m
551 729 _l
551 687 _l
286 0 _l
183 0 _l
432 646 _l
82 646 _l
82 729 _l
_cl}_d
end readonly def

/BuildGlyph
 {exch begin
 CharStrings exch
 2 copy known not{pop /.notdef}if
 true 3 1 roll get exec
 end}_d

/BuildChar {
 1 index /Encoding get exch get
 1 index /BuildGlyph get exec
}_d

FontName currentdict end definefont pop
end
%%EndProlog
mpldict begin
75.6 223.2 translate
460.8 345.6 0 0 clipbox
gsave
0 0 m
460.8 0 l
460.8 345.6 l
0 345.6 l
cl
1.000 setgray
fill
grestore
gsave
57.6 38.016 m
414.72 38.016 l
414.72 304.128 l
57.6 304.128 l
cl
1.000 setgray
fill
grestore
0.800 setlinewidth
1 setlinejoin
0 setlinecap
[] 0 setdash
0.000 setgray
gsave
/o {
gsave
newpath
translate
0.8 setlinewidth
1 setlinejoin
0 setlinecap
0 0 m
0 -3.5 l

gsave
0.000 setgray
fill
grestore
stroke
grestore
} bind def
73.8327 38.016 o
grestore
/DejaVuSans findfont
10.000 scalefont
setfont
gsave
70.653040 23.422250 translate
0.000000 rotate
0.000000 0 m /zero glyphshow
grestore
gsave
/o {
gsave
newpath
translate
0.8 setlinewidth
1 setlinejoin
0 setlinecap
0 0 m
0 -3.5 l

gsave
0.000 setgray
fill
grestore
stroke
grestore
} bind def
120.345 38.016 o
grestore
gsave
110.805777 23.422250 translate
0.000000 rotate
0.000000 0 m /two glyphshow
6.362305 0 m /five glyphshow
12.724609 0 m /zero glyphshow
grestore
gsave
/o {
gsave
newpath
translate
0.8 setlinewidth
1 setlinejoin
0 setlinecap
0 0 m
0 -3.5 l

gsave
0.000 setgray
fill
grestore
stroke
grestore
} bind def
166.857 38.016 o
grestore
gsave
157.317890 23.422250 translate
0.000000 rotate
0.000000 0 m /five glyphshow
6.362305 0 m /zero glyphshow
12.724609 0 m /zero glyphshow
grestore
gsave
/o {
gsave
newpath
translate
0.8 setlinewidth
1 setlinejoin
0 setlinecap
0 0 m
0 -3.5 l

gsave
0.000 setgray
fill
grestore
stroke
grestore
} bind def
213.369 38.016 o
grestore
gsave
203.830002 23.422250 translate
0.000000 rotate
0.000000 0 m /seven glyphshow
6.362305 0 m /five glyphshow
12.724609 0 m /zero glyphshow
grestore
gsave
/o {
gsave
newpath
translate
0.8 setlinewidth
1 setlinejoin
0 setlinecap
0 0 m
0 -3.5 l

gsave
0.000 setgray
fill
grestore
stroke
grestore
} bind def
259.881 38.016 o
grestore
gsave
247.162427 23.422250 translate
0.000000 rotate
0.000000 0 m /one glyphshow
6.362305 0 m /zero glyphshow
12.724609 0 m /zero glyphshow
19.086914 0 m /zero glyphshow
grestore
gsave
/o {
gsave
newpath
translate
0.8 setlinewidth
1 setlinejoin
0 setlinecap
0 0 m
0 -3.5 l

gsave
0.000 setgray
fill
grestore
stroke
grestore
} bind def
306.393 38.016 o
grestore
gsave
293.674540 23.422250 translate
0.000000 rotate
0.000000 0 m /one glyphshow
6.362305 0 m /two glyphshow
12.724609 0 m /five glyphshow
19.086914 0 m /zero glyphshow
grestore
gsave
/o {
gsave
newpath
translate
0.8 setlinewidth
1 setlinejoin
0 setlinecap
0 0 m
0 -3.5 l

gsave
0.000 setgray
fill
grestore
stroke
grestore
} bind def
352.905 38.016 o
grestore
gsave
340.186652 23.422250 translate
0.000000 rotate
0.000000 0 m /one glyphshow
6.362305 0 m /five glyphshow
12.724609 0 m /zero glyphshow
19.086914 0 m /zero glyphshow
grestore
gsave
/o {
gsave
newpath
translate
0.8 setlinewidth
1 setlinejoin
0 setlinecap
0 0 m
0 -3.5 l

gsave
0.000 setgray
fill
grestore
stroke
grestore
} bind def
399.418 38.016 o
grestore
gsave
386.698765 23.422250 translate
0.000000 rotate
0.000000 0 m /one glyphshow
6.362305 0 m /seven glyphshow
12.724609 0 m /five glyphshow
19.086914 0 m /zero glyphshow
grestore
gsave
/o {
gsave
newpath
translate
0.8 setlinewidth
1 setlinejoin
0 setlinecap
-0 0 m
-3.5 0 l

gsave
0.000 setgray
fill
grestore
stroke
grestore
} bind def
57.6 47.254 o
grestore
gsave
44.240625 43.457142 translate
0.000000 rotate
0.000000 0 m /zero glyphshow
grestore
gsave
/o {
gsave
newpath
translate
0.8 setlinewidth
1 setlinejoin
0 setlinecap
-0 0 m
-3.5 0 l

gsave
0.000 setgray
fill
grestore
stroke
grestore
} bind def
57.6 85.7687 o
grestore
gsave
18.803125 81.971836 translate
0.000000 rotate
0.000000 0 m /one glyphshow
6.362305 0 m /zero glyphshow
12.724609 0 m /zero glyphshow
19.086914 0 m /zero glyphshow
25.449219 0 m /zero glyphshow
grestore
gsave
/o {
gsave
newpath
translate
0.8 setlinewidth
1 setlinejoin
0 setlinecap
-0 0 m
-3.5 0 l

gsave
0.000 setgray
fill
grestore
stroke
grestore
} bind def
57.6 124.283 o
grestore
gsave
18.803125 120.486531 translate
0.000000 rotate
0.000000 0 m /two glyphshow
6.362305 0 m /zero glyphshow
12.724609 0 m /zero glyphshow
19.086914 0 m /zero glyphshow
25.449219 0 m /zero glyphshow
grestore
gsave
/o {
gsave
newpath
translate
0.8 setlinewidth
1 setlinejoin
0 setlinecap
-0 0 m
-3.5 0 l

gsave
0.000 setgray
fill
grestore
stroke
grestore
} bind def
57.6 162.798 o
grestore
gsave
18.803125 159.001225 translate
0.000000 rotate
0.000000 0 m /three glyphshow
6.362305 0 m /zero glyphshow
12.724609 0 m /zero glyphshow
19.086914 0 m /zero glyphshow
25.449219 0 m /zero glyphshow
grestore
gsave
/o {
gsave
newpath
translate
0.8 setlinewidth
1 setlinejoin
0 setlinecap
-0 0 m
-3.5 0 l

gsave
0.000 setgray
fill
grestore
stroke
grestore
} bind def
57.6 201.313 o
grestore
gsave
18.803125 197.515919 translate
0.000000 rotate
0.000000 0 m /four glyphshow
6.362305 0 m /zero glyphshow
12.724609 0 m /zero glyphshow
19.086914 0 m /zero glyphshow
25.449219 0 m /zero glyphshow
grestore
gsave
/o {
gsave
newpath
translate
0.8 setlinewidth
1 setlinejoin
0 setlinecap
-0 0 m
-3.5 0 l

gsave
0.000 setgray
fill
grestore
stroke
grestore
} bind def
57.6 239.827 o
grestore
gsave
18.803125 236.030614 translate
0.000000 rotate
0.000000 0 m /five glyphshow
6.362305 0 m /zero glyphshow
12.724609 0 m /zero glyphshow
19.086914 0 m /zero glyphshow
25.449219 0 m /zero glyphshow
grestore
gsave
/o {
gsave
newpath
translate
0.8 setlinewidth
1 setlinejoin
0 setlinecap
-0 0 m
-3.5 0 l

gsave
0.000 setgray
fill
grestore
stroke
grestore
} bind def
57.6 278.342 o
grestore
gsave
18.803125 274.545308 translate
0.000000 rotate
0.000000 0 m /six glyphshow
6.362305 0 m /zero glyphshow
12.724609 0 m /zero glyphshow
19.086914 0 m /zero glyphshow
25.449219 0 m /zero glyphshow
grestore
1.500 setlinewidth
2 setlinecap
0.000 0.000 1.000 setrgbcolor
gsave
357.1 266.1 57.6 38.02 clipbox
73.832727 50.148678 m
76.065309 50.277489 l
78.483939 50.542949 l
79.228132 50.758133 l
81.088617 51.143021 l
82.763053 50.436377 l
83.693295 50.735226 l
85.739828 50.856858 l
87.414264 51.16773 l
88.530555 51.112327 l
89.646846 51.354097 l
92.065475 52.061762 l
93.181766 51.787832 l
93.92596 51.873973 l
94.856202 51.198794 l
95.228299 51.304527 l
95.972493 50.996851 l
96.902735 51.280671 l
97.832977 51.544449 l
98.577171 51.767235 l
99.321365 51.779059 l
100.065559 51.748079 l
102.670237 52.452287 l
104.344673 53.639787 l
104.902818 53.868449 l
105.460964 53.794107 l
105.833061 54.056635 l
107.1354 55.57544 l
107.693545 55.434502 l
108.251691 55.705384 l
108.809836 56.217457 l
109.367981 56.854347 l
109.740078 57.268945 l
110.484272 57.284212 l
111.414514 56.290869 l
112.344756 56.896504 l
112.716853 56.736687 l
113.08895 56.449478 l
114.391289 56.421277 l
114.763386 56.592961 l
115.321532 56.359029 l
115.693629 56.070873 l
116.251774 55.666085 l
116.995968 54.843136 l
117.182016 55.01305 l
118.112258 57.155892 l
118.856452 56.860043 l
119.600646 57.355667 l
119.972743 57.371271 l
120.34484 57.774179 l
121.089034 59.178621 l
121.275082 59.387871 l
121.833227 60.678152 l
122.205324 61.773597 l
122.577421 62.341607 l
123.507663 61.840686 l
123.87976 62.080203 l
124.437906 62.728856 l
124.996051 63.215864 l
125.368148 63.80213 l
125.554196 63.81187 l
125.926293 63.585767 l
126.112342 63.207505 l
126.670487 63.066691 l
127.042584 62.850233 l
127.600729 61.78404 l
127.972826 60.468936 l
128.344923 59.899951 l
128.903069 60.982448 l
129.461214 60.893107 l
129.833311 60.832237 l
130.577505 61.739865 l
131.13565 62.536618 l
131.693795 62.687134 l
131.879844 62.661359 l
132.065892 62.75341 l
132.810086 64.009393 l
133.182183 65.275977 l
133.740328 67.380924 l
134.484522 67.581484 l
134.856619 68.121309 l
135.042667 68.248328 l
135.600813 67.871886 l
135.786861 67.828488 l
135.97291 67.924995 l
136.531055 69.04508 l
137.461297 72.357818 l
137.647346 72.605609 l
137.833394 72.526528 l
138.391539 71.71668 l
138.949685 69.767979 l
139.135733 69.966428 l
139.321782 70.717611 l
139.693879 73.24388 l
140.065976 74.833758 l
140.438072 75.247022 l
141.182266 76.547592 l
141.554363 78.458982 l
142.298557 82.728567 l
142.856702 85.67704 l
143.042751 86.999357 l
143.786945 98.580873 l
143.972993 99.513711 l
144.34509 99.318433 l
144.531138 100.223528 l
145.461381 107.766402 l
145.647429 107.697741 l
146.019526 103.741601 l
146.577671 96.311782 l
146.76372 94.860154 l
146.949768 94.669924 l
147.321865 95.571137 l
147.507914 95.280284 l
147.693962 95.342795 l
147.88001 94.182577 l
148.066059 94.289238 l
148.252107 94.768185 l
148.624204 97.39318 l
148.996301 100.879301 l
149.18235 101.553417 l
149.368398 101.614243 l
149.740495 97.658908 l
150.112592 94.457736 l
150.484689 93.5488 l
150.670737 93.826599 l
151.042834 91.089212 l
151.414931 88.004753 l
151.600979 86.880481 l
151.787028 87.270611 l
152.159125 87.322193 l
152.345173 86.211604 l
152.71727 85.829417 l
153.089367 85.974077 l
153.461464 84.909006 l
154.949852 73.952629 l
155.1359 73.863588 l
155.507997 75.979645 l
155.880094 76.163955 l
156.252191 77.456599 l
156.624288 80.344327 l
157.182433 84.563168 l
157.368481 85.370536 l
157.55453 85.107748 l
157.926627 83.784234 l
158.298724 81.918453 l
158.856869 82.715087 l
159.601063 85.668212 l
159.787111 85.709439 l
159.97316 85.370449 l
160.345257 83.03451 l
160.717353 79.780572 l
161.08945 78.39329 l
161.461547 78.405667 l
161.647596 78.227912 l
162.205741 76.356079 l
162.577838 76.651996 l
163.135983 77.616192 l
163.322032 77.633086 l
163.694129 76.908854 l
164.066226 75.828097 l
164.810419 72.344859 l
164.996468 71.842499 l
165.182516 72.216383 l
165.368565 72.316194 l
165.554613 72.182375 l
165.92671 71.455446 l
166.112759 70.982723 l
166.298807 70.958072 l
166.484855 71.154463 l
167.043001 73.341577 l
167.415098 75.440409 l
167.787195 75.740508 l
168.159291 75.983822 l
168.34534 76.282019 l
169.089534 78.909978 l
169.461631 79.521534 l
169.647679 79.54884 l
170.019776 78.968359 l
170.205824 78.971868 l
170.391873 79.140024 l
171.136067 80.483002 l
171.322115 80.788555 l
171.694212 80.292339 l
171.88026 79.930538 l
172.810503 76.886134 l
172.996551 76.911221 l
173.368648 76.562887 l
173.554697 76.247288 l
173.926793 76.122129 l
174.112842 76.342413 l
174.484939 75.642833 l
175.043084 73.482518 l
175.601229 73.085638 l
175.973326 73.210862 l
176.71752 73.792582 l
177.461714 73.941058 l
177.833811 73.04195 l
178.578005 70.709158 l
178.950102 70.192899 l
179.322198 70.272499 l
179.508247 70.316635 l
179.880344 70.526497 l
180.066392 70.381446 l
180.624538 69.145371 l
181.182683 68.847679 l
181.368731 68.775891 l
181.55478 68.825415 l
181.926877 69.411472 l
182.298974 70.208752 l
182.671071 70.444079 l
183.229216 70.583097 l
183.601313 70.359832 l
184.159458 69.470399 l
184.345507 69.490929 l
184.531555 69.719659 l
185.647846 73.299205 l
185.833894 73.510033 l
186.764136 75.668175 l
187.136233 75.535235 l
187.322282 75.383076 l
187.694379 74.4193 l
188.252524 72.750186 l
189.554863 69.491459 l
189.92696 69.362014 l
190.299057 69.520169 l
190.857202 69.741088 l
191.787445 70.124238 l
192.34559 70.87802 l
192.717687 71.430879 l
193.833978 72.445634 l
194.020026 72.216241 l
194.578171 70.331894 l
194.76422 69.707208 l
195.322365 69.375197 l
195.694462 69.671079 l
196.066559 69.975842 l
196.252607 69.99099 l
196.624704 69.761179 l
196.810753 69.792749 l
197.554947 70.734369 l
198.29914 70.33335 l
199.229383 70.294335 l
199.787528 70.226934 l
200.345673 70.467134 l
200.71777 70.118288 l
201.275916 69.400378 l
202.206158 70.320392 l
202.950352 70.131223 l
203.694545 70.055908 l
204.252691 69.75325 l
204.624788 69.577862 l
204.996885 69.643805 l
205.927127 70.021243 l
206.299224 69.972357 l
206.857369 69.648204 l
207.229466 68.789629 l
208.345757 64.837886 l
208.717854 63.222696 l
209.462047 61.501622 l
209.648096 61.372469 l
210.206241 62.191866 l
210.39229 62.21997 l
210.764387 61.767933 l
210.950435 61.521413 l
211.694629 59.836193 l
211.880677 59.622933 l
212.252774 59.617082 l
213.183016 59.203551 l
213.555113 60.025594 l
213.92721 61.089792 l
214.299307 61.573497 l
214.485356 61.495335 l
214.857452 61.213362 l
215.229549 60.920831 l
216.531889 60.940927 l
217.462131 61.463074 l
217.648179 61.317141 l
218.392373 60.195748 l
218.950518 60.185755 l
219.322615 60.314742 l
219.880761 60.207232 l
220.438906 60.044672 l
220.811003 60.054645 l
221.369148 59.789761 l
221.741245 59.625082 l
222.485439 59.702166 l
223.043584 59.665781 l
223.973827 60.313599 l
224.71802 60.209579 l
225.090117 60.589708 l
225.648263 61.352851 l
225.834311 61.478658 l
226.206408 61.355352 l
226.578505 61.142174 l
226.764553 60.923499 l
227.13665 60.966669 l
228.252941 60.999888 l
228.625038 61.188044 l
229.369232 61.164384 l
229.741328 61.231017 l
230.857619 61.592814 l
231.415765 61.501698 l
231.97391 61.488515 l
232.718104 61.890081 l
233.090201 62.881677 l
233.834394 65.034738 l
234.578588 65.701621 l
235.136734 65.415845 l
235.322782 65.241265 l
236.066976 65.654762 l
236.439073 65.921815 l
237.369315 66.274275 l
238.299557 65.966579 l
238.485606 66.025914 l
238.857703 66.548162 l
239.415848 67.442837 l
239.787945 67.801242 l
239.973993 68.205949 l
240.532139 71.237584 l
241.090284 74.383713 l
241.276332 74.837034 l
241.648429 74.358602 l
241.834478 74.19069 l
242.020526 74.28586 l
242.392623 74.98436 l
242.578672 74.787288 l
242.76472 74.803365 l
242.950768 75.197613 l
243.508914 77.135722 l
243.694962 77.390699 l
244.067059 77.013278 l
244.253108 76.970229 l
244.625204 76.492415 l
245.18335 74.736708 l
245.369398 74.600473 l
246.113592 74.892651 l
246.299641 75.091714 l
247.974077 80.666541 l
249.090367 87.583137 l
249.276416 88.23296 l
249.462464 87.837857 l
249.648513 86.361435 l
249.834561 86.046555 l
250.206658 85.051191 l
250.950852 86.087187 l
251.508997 88.220973 l
251.695046 88.369525 l
251.881094 87.792204 l
252.625288 82.98651 l
252.811336 82.170085 l
252.997385 82.344695 l
253.183433 82.241751 l
253.55553 83.678853 l
253.927627 82.773807 l
254.485772 81.073056 l
255.043918 80.428089 l
255.229966 80.455613 l
255.602063 81.665873 l
256.904402 87.535502 l
257.090451 87.366232 l
257.276499 87.393607 l
257.462548 87.014455 l
257.834644 85.362103 l
258.578838 82.538092 l
258.950935 83.323856 l
259.323032 83.34637 l
259.50908 83.311109 l
259.881177 82.387054 l
260.253274 82.563349 l
260.81142 81.427673 l
261.183517 80.521592 l
261.369565 80.819686 l
262.113759 83.426074 l
262.299807 83.465074 l
262.671904 83.156565 l
263.044001 82.770681 l
263.416098 82.605854 l
263.602146 82.650966 l
263.974243 82.907028 l
265.276582 81.959213 l
265.648679 79.925137 l
266.206825 76.173881 l
266.578922 75.707105 l
266.951018 75.997073 l
267.509164 76.04458 l
267.881261 75.58388 l
268.067309 75.529134 l
268.439406 76.036584 l
268.625455 76.421929 l
268.997551 76.576478 l
270.299891 75.279084 l
270.671987 75.446177 l
270.858036 75.270076 l
271.044084 74.925368 l
271.230133 74.880239 l
271.416181 75.373033 l
271.788278 77.773117 l
271.974327 79.192098 l
272.160375 79.609268 l
272.346424 79.544643 l
272.532472 79.304862 l
272.71852 79.334993 l
272.904569 79.19821 l
273.462714 79.526277 l
273.648763 79.497703 l
273.834811 79.309778 l
274.392956 78.226254 l
274.579005 77.940906 l
274.951102 77.846572 l
275.323199 77.318811 l
275.695296 76.751338 l
276.253441 75.647849 l
276.997635 72.726555 l
277.183683 72.363779 l
277.55578 72.518073 l
277.927877 73.420624 l
278.113926 73.654631 l
278.486022 73.439936 l
278.858119 72.878985 l
279.230216 73.074264 l
279.602313 73.406721 l
279.788362 73.32133 l
280.532555 72.474501 l
280.904652 72.217745 l
281.276749 71.725994 l
281.648846 71.833236 l
281.834895 72.056391 l
282.020943 72.611007 l
282.765137 72.844088 l
282.951185 72.629045 l
283.323282 72.665869 l
283.695379 72.738927 l
283.881427 72.688555 l
284.253524 72.347666 l
284.625621 72.54089 l
284.81167 72.86646 l
285.183767 74.160751 l
285.741912 75.324732 l
286.114009 75.363577 l
287.044251 77.933751 l
287.602396 77.770846 l
288.160542 77.112666 l
288.532639 76.743978 l
288.718687 76.81284 l
289.648929 79.733748 l
290.021026 79.658551 l
290.207075 79.42542 l
290.393123 79.4958 l
290.76522 80.031816 l
291.323365 81.427797 l
292.067559 82.440489 l
292.253608 82.593859 l
292.439656 82.374815 l
292.997802 81.383964 l
293.741995 80.758856 l
293.928044 80.872561 l
294.114092 80.78465 l
294.486189 79.697852 l
294.858286 78.018199 l
295.044334 77.639087 l
295.60248 77.765332 l
295.974577 78.184484 l
296.160625 78.247386 l
296.346674 77.998947 l
296.532722 77.482598 l
296.904819 75.700602 l
297.835061 65.714708 l
298.02111 66.020492 l
298.207158 65.836868 l
298.579255 66.984211 l
298.951352 68.353948 l
299.323449 69.286989 l
299.881594 70.598266 l
300.067643 70.473366 l
300.43974 69.571028 l
300.625788 69.273821 l
300.811836 69.419876 l
300.997885 69.78532 l
301.369982 70.753032 l
301.928127 71.683363 l
302.300224 72.44907 l
302.486272 72.639466 l
303.416515 71.306241 l
303.788612 71.419009 l
304.346757 72.135672 l
304.532805 71.963488 l
304.904902 71.980411 l
305.090951 72.235308 l
306.39329 76.213297 l
306.765387 77.869838 l
306.951435 77.966605 l
307.323532 78.416698 l
308.067726 80.205076 l
308.253774 79.882387 l
308.625871 78.419534 l
308.81192 78.444802 l
309.556114 80.320454 l
309.742162 80.305161 l
309.92821 80.533564 l
310.114259 80.444281 l
310.486356 79.667077 l
310.858453 78.573341 l
311.23055 78.331985 l
311.416598 78.491994 l
312.160792 80.552351 l
312.904986 81.016852 l
313.091034 80.643876 l
313.463131 80.851363 l
313.649179 80.841294 l
313.835228 81.003045 l
314.207325 80.673624 l
314.76547 79.794717 l
315.137567 79.936624 l
316.067809 79.743629 l
316.439906 79.9993 l
316.812003 79.881195 l
317.1841 79.046167 l
317.556197 78.883879 l
318.300391 78.938356 l
318.672488 78.921581 l
319.60273 79.47409 l
319.788778 79.483636 l
319.974827 79.352438 l
320.346924 79.312328 l
321.277166 79.046145 l
321.649263 79.394251 l
322.393457 80.612056 l
322.765554 82.264784 l
323.323699 85.261984 l
323.695796 85.93976 l
324.253941 86.226972 l
324.43999 86.155043 l
324.998135 87.264263 l
325.184183 87.309615 l
325.55628 87.13458 l
325.928377 87.110674 l
326.114426 87.08022 l
326.672571 88.016728 l
327.044668 88.05961 l
327.230716 87.861496 l
327.602813 87.195564 l
327.788862 87.181294 l
327.97491 86.929651 l
328.160959 86.884445 l
328.719104 86.315003 l
329.463298 87.048182 l
329.835395 85.656154 l
330.39354 82.682274 l
330.579588 82.688469 l
330.765637 82.51135 l
331.509831 82.903624 l
332.067976 83.72351 l
332.626121 84.752616 l
332.81217 84.879936 l
333.184267 84.381408 l
333.556364 83.580633 l
333.742412 83.398963 l
334.486606 84.154758 l
334.858703 84.190064 l
335.602897 83.794367 l
335.974993 83.894656 l
336.533139 84.586859 l
337.091284 86.040748 l
337.463381 86.428309 l
337.64943 86.434102 l
338.021526 86.329698 l
338.393623 86.708301 l
338.951769 89.51615 l
339.323866 91.190614 l
339.695962 91.644218 l
341.18435 93.795441 l
341.556447 95.703863 l
342.114592 98.355953 l
342.300641 98.183133 l
342.486689 98.169439 l
343.044835 99.973548 l
343.60298 101.469418 l
343.975077 103.368817 l
344.347174 105.976036 l
344.905319 107.516361 l
345.091368 107.594349 l
345.649513 105.87902 l
345.835561 105.100519 l
346.02161 105.281531 l
346.579755 108.591312 l
346.765804 109.032456 l
346.951852 108.652356 l
347.1379 108.910446 l
347.323949 108.903176 l
347.509997 108.466391 l
347.696046 108.40312 l
348.254191 106.776104 l
348.626288 107.509542 l
348.812337 108.185335 l
349.184433 111.516033 l
349.928627 119.157935 l
350.114676 119.495292 l
350.300724 119.598921 l
350.486773 119.441206 l
350.672821 119.835651 l
352.161209 131.687856 l
353.649596 148.516851 l
353.835645 148.630876 l
354.39379 144.859806 l
354.579838 144.54986 l
354.765887 144.98279 l
354.951935 145.764525 l
355.137984 145.398365 l
355.324032 144.331034 l
355.510081 143.968198 l
356.068226 140.095952 l
356.440323 137.29285 l
356.626371 137.950503 l
356.81242 137.263151 l
356.998468 137.389257 l
357.556614 139.027252 l
357.742662 140.276791 l
358.114759 141.49478 l
358.300808 142.429408 l
359.417098 153.389314 l
359.789195 157.864676 l
360.161292 158.457509 l
360.34734 159.282972 l
360.533389 159.433947 l
360.905486 161.130293 l
361.277583 163.862482 l
361.64968 166.096304 l
361.835728 166.202438 l
362.021777 165.225075 l
362.393873 161.321648 l
362.76597 158.686468 l
362.952019 157.920884 l
363.138067 158.244851 l
363.696213 160.717622 l
363.882261 160.541402 l
364.254358 161.130196 l
364.626455 163.557088 l
365.1846 167.792749 l
365.370649 168.628315 l
365.556697 168.923915 l
365.742746 168.826515 l
365.928794 169.001621 l
366.114842 168.336731 l
366.300891 168.087657 l
366.672988 168.71155 l
367.231133 166.783077 l
367.60323 164.840778 l
367.975327 165.118362 l
368.905569 169.013424 l
369.091618 169.081562 l
369.649763 168.843237 l
369.835811 168.464589 l
370.02186 168.5731 l
370.393957 168.442835 l
370.580005 168.686876 l
371.324199 171.329398 l
371.696296 171.966365 l
372.068393 170.08851 l
373.184684 162.971649 l
373.370732 162.547792 l
373.55678 162.948285 l
373.928877 164.507009 l
374.114926 166.025142 l
374.487023 166.963148 l
374.85912 167.733239 l
375.231216 167.136457 l
375.603313 167.298234 l
375.789362 168.287121 l
375.97541 168.193354 l
376.161459 168.296389 l
376.347507 167.385478 l
377.463798 157.663249 l
378.021943 150.633226 l
378.39404 146.533345 l
378.580089 146.695723 l
378.766137 145.71675 l
379.324282 147.4092 l
380.068476 143.685604 l
380.254525 144.228541 l
380.626622 146.208768 l
380.998718 145.711462 l
381.184767 144.643048 l
381.370815 142.708602 l
381.556864 142.259049 l
381.928961 142.950914 l
383.045251 148.908618 l
383.2313 148.210268 l
384.347591 139.806874 l
384.533639 138.691023 l
385.277833 139.767607 l
385.64993 141.970286 l
385.835978 141.734188 l
386.022027 141.685127 l
386.394123 141.024337 l
386.580172 141.29992 l
386.76622 141.355548 l
387.324366 140.087632 l
387.696463 139.850045 l
387.882511 139.920853 l
388.254608 139.039152 l
388.626705 137.395402 l
388.998802 136.302036 l
389.18485 135.739647 l
389.370899 135.681792 l
389.556947 135.821799 l
389.742996 136.273933 l
389.929044 137.479826 l
391.231383 150.41634 l
391.417432 150.842161 l
391.60348 150.816352 l
391.789529 150.467651 l
392.161625 149.021642 l
392.347674 149.528216 l
393.277916 156.245622 l
393.463965 156.346016 l
393.650013 157.078194 l
393.836061 157.201674 l
394.394207 158.112915 l
394.766304 157.057763 l
394.952352 157.211303 l
395.138401 157.838024 l
395.696546 160.592524 l
396.068643 160.171947 l
396.44074 159.723334 l
396.626788 159.97744 l
396.812837 159.700879 l
396.998885 159.847679 l
397.184934 159.626814 l
397.370982 159.588043 l
397.55703 159.736581 l
398.115176 162.007022 l
398.301224 161.989502 l
398.487273 161.405109 l
398.487273 161.405109 l
stroke
grestore
1.000 0.647 0.000 setrgbcolor
gsave
357.1 266.1 57.6 38.02 clipbox
73.832727 50.114465 m
74.018776 50.112 l
74.204824 50.229008 l
75.135066 50.177244 l
75.87926 50.246609 l
77.553696 50.308579 l
78.29789 50.688026 l
78.669987 50.710056 l
79.228132 50.964446 l
79.600229 50.944187 l
79.972326 51.166995 l
80.158375 51.157173 l
80.344423 51.593699 l
80.530471 51.084958 l
80.71652 51.104139 l
80.902568 50.70813 l
81.460714 50.743641 l
81.646762 50.278268 l
81.832811 50.261707 l
82.018859 50.436448 l
82.390956 50.410489 l
82.577004 50.452662 l
82.763053 50.735129 l
84.065392 50.797253 l
84.25144 50.693555 l
84.623537 50.778304 l
85.367731 50.969553 l
86.297973 51.236706 l
86.484022 51.197975 l
86.856119 51.308998 l
87.042167 51.013448 l
87.414264 51.096204 l
88.530555 51.241058 l
88.902652 51.308764 l
89.0887 51.301411 l
89.274749 51.582254 l
89.646846 51.606216 l
89.832894 51.778979 l
90.204991 51.684632 l
90.391039 51.840162 l
90.763136 51.840694 l
91.135233 52.203695 l
91.879427 52.181972 l
92.065475 51.711682 l
92.437572 51.845315 l
92.623621 51.795515 l
92.809669 51.981675 l
93.181766 52.050525 l
93.553863 52.095314 l
93.92596 50.921511 l
94.112008 50.981046 l
94.484105 51.562387 l
94.670154 51.540703 l
95.228299 50.827911 l
95.414347 50.93905 l
95.600396 51.248874 l
96.34459 51.239287 l
96.716687 51.487433 l
96.902735 51.413566 l
97.088784 51.650856 l
97.46088 51.619773 l
97.646929 51.839015 l
98.019026 51.814272 l
98.391123 51.978295 l
98.577171 51.949305 l
98.76322 51.798842 l
99.507413 51.897483 l
99.693462 51.787081 l
100.065559 52.036334 l
100.251607 52.01686 l
100.623704 52.09912 l
100.809753 52.033074 l
101.181849 52.296014 l
101.367898 52.214787 l
101.553946 52.381457 l
101.926043 52.388026 l
102.29814 52.846645 l
102.484189 52.829212 l
102.856285 53.15961 l
103.042334 53.103436 l
103.228382 53.169367 l
103.414431 53.572812 l
103.600479 53.613178 l
103.972576 54.267507 l
104.158625 54.298355 l
104.344673 54.078513 l
104.71677 54.109633 l
104.902818 53.951846 l
105.088867 54.215491 l
105.274915 54.124962 l
105.647012 55.160736 l
105.833061 54.991003 l
106.019109 55.306139 l
106.205158 56.065063 l
106.391206 55.944165 l
106.577254 56.448269 l
106.763303 55.773378 l
106.949351 56.034674 l
107.1354 55.700216 l
107.321448 56.019695 l
107.693545 56.058222 l
107.879594 56.494627 l
108.065642 56.535789 l
108.251691 56.981924 l
108.623787 56.996425 l
108.809836 58.359012 l
108.995884 57.517878 l
109.181933 57.587625 l
109.367981 58.144013 l
109.55403 58.212884 l
109.740078 58.418002 l
109.926127 57.489971 l
110.112175 57.838568 l
110.298223 57.676093 l
110.484272 56.661155 l
111.042417 56.91115 l
111.228466 57.334122 l
111.414514 57.267838 l
111.786611 57.758084 l
111.97266 57.704902 l
112.344756 56.930319 l
112.716853 56.951644 l
112.902902 57.21141 l
113.08895 57.107231 l
113.274999 56.796577 l
113.461047 56.887279 l
113.647096 56.579426 l
113.833144 57.118499 l
114.019192 57.266797 l
114.391289 57.306228 l
114.577338 56.848802 l
114.949435 57.022264 l
115.135483 56.367249 l
115.321532 56.216733 l
115.50758 56.442655 l
115.879677 56.26064 l
116.251774 54.69203 l
116.437822 54.614021 l
116.623871 56.189897 l
116.809919 55.976693 l
116.995968 55.978404 l
117.182016 57.584411 l
117.368065 58.067441 l
117.554113 58.136383 l
117.740162 57.852572 l
117.92621 57.117622 l
118.112258 57.13034 l
118.670404 57.979589 l
118.856452 57.82998 l
119.042501 58.293991 l
119.228549 58.280389 l
119.414598 57.628466 l
119.600646 58.015476 l
119.786694 57.999617 l
119.972743 59.648489 l
120.158791 59.781162 l
120.34484 59.618004 l
120.530888 60.569989 l
120.716937 60.184657 l
120.902985 60.119003 l
121.275082 62.09297 l
121.461131 62.153504 l
121.647179 63.74983 l
122.019276 63.353044 l
122.205324 63.925972 l
122.391373 63.162281 l
122.577421 63.063182 l
122.76347 63.268265 l
123.135567 62.607053 l
123.507663 63.970614 l
123.693712 63.937697 l
123.87976 64.048401 l
124.251857 63.965736 l
124.437906 65.001532 l
124.810003 64.903453 l
124.996051 66.171434 l
125.1821 64.895239 l
125.368148 64.9152 l
125.554196 63.985179 l
125.740245 64.542186 l
125.926293 64.142788 l
126.112342 65.181292 l
126.29839 63.85674 l
126.670487 63.930706 l
127.042584 63.424758 l
127.228632 62.510732 l
127.414681 60.039471 l
127.600729 59.641999 l
127.786778 61.749508 l
127.972826 61.681856 l
128.158875 61.421763 l
128.344923 62.441953 l
128.530972 62.573474 l
128.71702 62.253488 l
128.903069 61.263747 l
129.089117 61.798656 l
129.275165 61.803405 l
129.461214 62.438647 l
129.833311 62.20157 l
130.019359 63.437849 l
130.391456 63.292576 l
130.577505 64.049208 l
130.949601 64.177643 l
131.13565 63.527149 l
131.321698 63.964973 l
131.507747 63.886896 l
131.693795 64.108786 l
131.879844 64.979561 l
132.065892 64.992576 l
132.251941 65.672822 l
132.624038 65.826457 l
132.810086 68.682848 l
133.182183 69.69264 l
133.55428 68.836546 l
133.740328 68.801679 l
133.926377 69.313822 l
134.112425 70.283724 l
134.484522 70.29807 l
134.67057 69.885559 l
134.856619 69.979959 l
135.042667 69.090395 l
135.228716 69.95126 l
135.414764 69.938479 l
135.600813 69.502789 l
135.786861 70.961483 l
135.97291 70.888521 l
136.903152 75.899488 l
137.0892 75.623902 l
137.275249 74.172213 l
137.647346 74.709756 l
137.833394 74.822978 l
138.019443 73.133573 l
138.205491 72.555167 l
138.391539 69.270178 l
138.577588 72.482018 l
138.763636 72.264035 l
139.135733 77.353369 l
139.321782 77.560344 l
139.50783 77.361494 l
139.693879 78.095252 l
140.065976 78.29609 l
140.252024 79.098101 l
140.438072 78.977492 l
140.624121 79.032408 l
140.810169 80.79033 l
140.996218 81.026782 l
141.182266 84.683733 l
141.368315 85.585801 l
141.554363 85.456742 l
141.740412 86.33631 l
141.92646 89.173071 l
142.112508 89.157542 l
142.484605 91.872636 l
142.670654 91.897247 l
143.228799 112.193181 l
143.414848 105.57618 l
143.600896 104.524617 l
143.786945 105.291617 l
143.972993 113.793518 l
144.34509 109.849292 l
144.717187 122.3526 l
145.089284 120.285028 l
145.275332 115.567961 l
145.461381 114.203879 l
146.019526 100.314209 l
146.391623 101.633023 l
146.577671 100.176827 l
146.76372 107.295813 l
146.949768 102.640388 l
147.135817 101.998842 l
147.321865 98.153396 l
147.507914 101.812296 l
147.693962 100.388889 l
147.88001 105.048615 l
148.066059 105.231194 l
148.252107 105.17719 l
148.438156 113.399615 l
148.624204 113.958379 l
148.810253 113.329634 l
148.996301 106.05019 l
149.554446 98.466213 l
149.740495 100.839057 l
149.926543 100.370364 l
150.112592 100.608115 l
150.29864 101.221562 l
150.484689 99.457373 l
150.670737 90.070597 l
150.856786 90.950568 l
151.042834 90.293495 l
151.228883 97.133602 l
151.414931 91.566051 l
151.600979 91.597602 l
151.787028 90.479305 l
151.973076 90.70729 l
152.159125 91.130072 l
152.345173 89.503924 l
152.531222 91.641342 l
152.71727 91.281589 l
152.903319 90.439215 l
153.089367 86.477619 l
153.275415 86.086535 l
153.461464 82.237909 l
153.647512 81.539419 l
153.833561 81.350036 l
154.019609 79.608857 l
154.205658 73.59351 l
154.391706 73.927215 l
154.577755 78.450759 l
154.763803 78.992192 l
154.949852 79.009691 l
155.321948 79.388579 l
155.507997 78.32775 l
156.624288 89.950752 l
156.810336 90.047559 l
156.996384 91.123762 l
157.182433 90.567565 l
157.368481 85.503236 l
157.55453 86.393099 l
157.740578 86.428468 l
157.926627 84.60015 l
158.112675 87.111346 l
158.298724 86.999102 l
158.484772 87.194391 l
158.670821 89.656314 l
158.856869 89.354892 l
159.042917 90.879412 l
159.415014 91.610736 l
159.787111 86.223408 l
159.97316 85.462366 l
160.345257 80.938976 l
160.531305 81.059789 l
160.717353 82.621457 l
161.08945 82.508597 l
161.275499 79.445067 l
161.461547 80.1086 l
161.833644 78.725972 l
162.39179 81.716016 l
162.577838 80.724859 l
162.763886 80.859513 l
163.135983 80.443272 l
163.322032 79.829592 l
163.50808 77.588941 l
163.694129 77.913177 l
163.880177 77.875548 l
164.066226 73.761877 l
164.252274 73.965806 l
164.438322 73.973817 l
164.624371 74.352372 l
164.810419 75.795081 l
164.996468 75.856878 l
165.182516 73.546112 l
165.368565 72.688646 l
165.554613 72.807284 l
165.740662 74.282307 l
165.92671 73.056064 l
166.298807 73.930321 l
166.484855 77.479752 l
166.856952 78.206394 l
167.043001 79.378154 l
167.229049 79.483498 l
167.415098 77.662974 l
167.601146 78.701024 l
167.787195 78.743477 l
167.973243 81.349991 l
168.159291 81.174698 l
168.34534 81.64995 l
168.531388 81.662512 l
168.717437 84.056895 l
168.903485 84.451933 l
169.275582 81.956989 l
169.461631 81.642055 l
169.647679 83.204718 l
169.833728 82.916968 l
170.205824 82.770057 l
170.391873 84.379364 l
170.76397 85.011153 l
170.950018 84.344193 l
171.136067 84.349214 l
171.322115 82.79772 l
171.508164 83.157576 l
171.694212 83.112623 l
171.88026 79.871295 l
172.066309 79.931219 l
172.252357 79.851006 l
172.438406 80.577078 l
172.624454 80.035637 l
172.810503 79.880046 l
172.996551 78.474484 l
173.1826 78.990337 l
173.368648 78.986582 l
173.554697 80.020034 l
173.740745 79.55073 l
173.926793 79.593381 l
174.112842 76.354719 l
174.484939 76.435754 l
174.670987 75.535004 l
174.857036 75.607887 l
175.043084 75.541365 l
175.229133 75.985504 l
175.415181 75.69864 l
175.601229 75.703743 l
175.973326 76.699066 l
176.159375 76.668228 l
176.345423 76.141091 l
176.531472 76.585738 l
176.71752 76.600019 l
176.903569 76.818943 l
177.089617 76.602805 l
177.275666 76.585037 l
177.461714 73.354995 l
177.647762 73.735482 l
177.833811 73.749469 l
178.019859 71.578743 l
178.205908 72.854786 l
178.391956 72.817799 l
178.578005 72.324875 l
178.950102 72.07978 l
179.13615 73.201367 l
179.322198 73.11555 l
179.508247 73.293147 l
179.880344 70.908224 l
180.438489 71.204746 l
180.624538 70.738198 l
180.810586 70.778392 l
180.996635 70.011204 l
181.368731 71.806188 l
181.55478 72.157885 l
181.740828 72.775548 l
181.926877 72.647869 l
182.112925 72.68672 l
182.298974 72.502363 l
182.485022 72.651691 l
182.671071 73.265144 l
182.857119 73.151452 l
183.229216 71.816237 l
183.415264 71.915669 l
183.601313 71.303969 l
183.97341 71.321233 l
184.345507 73.713269 l
184.531555 75.453013 l
184.903652 75.862905 l
185.0897 75.504507 l
185.275749 75.95243 l
185.461797 76.871371 l
185.647846 76.968489 l
185.833894 79.033127 l
186.019943 78.787246 l
186.205991 77.833953 l
186.39204 78.767709 l
186.764136 78.916601 l
187.136233 76.412988 l
187.322282 76.554841 l
187.880427 74.257748 l
188.252524 74.18932 l
188.624621 71.890991 l
188.810669 71.889921 l
188.996718 70.898034 l
189.182766 71.561148 l
189.368815 71.699563 l
189.554863 71.333905 l
189.740912 71.759673 l
190.113009 71.567381 l
190.299057 72.044851 l
190.485105 71.919071 l
190.671154 72.236882 l
190.857202 71.908221 l
191.043251 72.578311 l
191.229299 71.728449 l
191.601396 73.133693 l
191.787445 73.206258 l
191.973493 73.133065 l
192.159542 74.214457 l
192.34559 74.51545 l
192.531638 73.954955 l
192.903735 74.286634 l
193.089784 75.169219 l
193.461881 75.235251 l
193.647929 74.649786 l
193.833978 72.031566 l
194.020026 72.293152 l
194.392123 71.465994 l
194.578171 71.290961 l
194.76422 71.504104 l
194.950268 71.414814 l
195.136317 71.618567 l
195.322365 72.284958 l
195.694462 72.374803 l
196.066559 71.505301 l
196.438656 71.974915 l
196.624704 72.943283 l
196.810753 73.275007 l
197.368898 72.609974 l
197.554947 72.167754 l
197.740995 72.425206 l
197.927044 73.00525 l
198.113092 72.482968 l
198.485189 72.716159 l
198.671237 72.529831 l
198.857286 72.174575 l
199.043334 72.225905 l
199.229383 72.552583 l
200.159625 72.777127 l
200.345673 71.320447 l
200.903819 71.51596 l
201.275916 72.670519 l
201.648013 72.550625 l
202.020109 72.245531 l
202.206158 72.410281 l
202.578255 72.217031 l
202.764303 72.320574 l
203.508497 72.123764 l
203.880594 71.554682 l
204.066642 71.524475 l
204.624788 71.866524 l
204.810836 71.872122 l
204.996885 72.045791 l
205.182933 72.048853 l
205.368982 72.437967 l
205.927127 71.899698 l
206.113175 71.819723 l
206.299224 71.936275 l
206.485272 71.795824 l
206.671321 71.041289 l
206.857369 69.426041 l
207.043418 68.807581 l
207.229466 68.661421 l
207.415514 68.716099 l
207.601563 67.68199 l
207.787611 65.247967 l
207.97366 64.554741 l
208.159708 64.773572 l
208.345757 63.851299 l
208.531805 64.019387 l
208.717854 61.980155 l
208.903902 62.353844 l
209.089951 61.863989 l
209.462047 63.675848 l
209.648096 63.733569 l
209.834144 63.10966 l
210.020193 63.305196 l
210.206241 63.201411 l
210.578338 62.114331 l
210.764387 61.677693 l
210.950435 60.370748 l
211.50858 60.826441 l
211.694629 60.449883 l
212.066726 60.375059 l
212.252774 59.880575 l
212.438823 59.742099 l
212.624871 59.853092 l
212.996968 60.951922 l
213.369065 62.593845 l
213.555113 63.180575 l
213.741162 62.317011 l
213.92721 62.765727 l
214.113259 62.641292 l
214.299307 61.943059 l
214.671404 62.07528 l
214.857452 61.673553 l
215.043501 62.322066 l
215.229549 61.775443 l
215.415598 61.85704 l
215.601646 61.705777 l
215.787695 62.104821 l
215.973743 62.143018 l
216.159792 61.976747 l
216.531889 62.353536 l
216.717937 62.798907 l
217.090034 62.791378 l
217.462131 61.297438 l
217.648179 61.297807 l
218.020276 60.857253 l
218.206325 61.338013 l
218.578421 61.201844 l
218.76447 61.244075 l
219.136567 61.519783 l
219.322615 60.920677 l
219.508664 60.888296 l
219.694712 61.070586 l
219.880761 60.989898 l
220.252858 61.033766 l
220.624954 60.944065 l
220.811003 60.536118 l
220.997051 60.432205 l
221.1831 60.618616 l
221.369148 60.521598 l
221.741245 60.758116 l
221.927294 60.564772 l
222.29939 60.608371 l
222.485439 60.370967 l
222.671487 60.328831 l
222.857536 61.354555 l
223.229633 61.45165 l
223.415681 61.23281 l
223.787778 61.175153 l
224.159875 61.150889 l
224.345923 61.194603 l
224.531972 61.39176 l
224.71802 62.316344 l
224.904069 62.376927 l
225.090117 62.610519 l
225.276166 62.447602 l
225.462214 62.596269 l
225.648263 63.19756 l
225.834311 61.762079 l
226.020359 62.075742 l
226.392456 62.017585 l
226.578505 62.082483 l
227.13665 61.945755 l
227.322699 61.623773 l
227.508747 62.16787 l
228.066892 62.182159 l
228.252941 62.469478 l
228.997135 62.18913 l
229.183183 62.217785 l
229.55528 62.721326 l
229.927377 62.655158 l
230.299474 62.877118 l
230.485522 62.630393 l
231.043668 62.63721 l
231.229716 62.412977 l
231.415765 62.458617 l
231.601813 62.84673 l
231.787861 62.803824 l
231.97391 63.104932 l
232.346007 63.099579 l
232.532055 63.247359 l
232.718104 66.06028 l
232.904152 66.356574 l
233.090201 66.169508 l
233.276249 66.622171 l
233.462297 66.717495 l
233.834394 67.546293 l
234.020443 67.188491 l
234.206491 67.706013 l
234.39254 66.646243 l
234.578588 66.791944 l
234.764637 66.760246 l
234.950685 67.098752 l
235.136734 66.65071 l
235.322782 67.268756 l
235.50883 67.360113 l
235.694879 67.575564 l
235.880927 67.578375 l
236.066976 67.702547 l
236.253024 67.596824 l
236.625121 68.507042 l
236.81117 68.183634 l
236.997218 67.26475 l
237.183266 67.63919 l
237.369315 67.590507 l
237.555363 67.671773 l
237.741412 67.51525 l
237.92746 67.550452 l
238.299557 68.014054 l
238.671654 69.481155 l
239.043751 69.14758 l
239.229799 69.421997 l
239.787945 71.703222 l
239.973993 75.170662 l
240.160042 74.131997 l
240.34609 77.384486 l
240.718187 78.862642 l
240.904235 77.626551 l
241.090284 75.609382 l
241.276332 75.235135 l
241.462381 78.811802 l
241.648429 78.092848 l
241.834478 77.882828 l
242.020526 76.625053 l
242.392623 78.078328 l
242.578672 78.34096 l
242.76472 80.932883 l
242.950768 81.031635 l
243.322865 80.61922 l
243.508914 79.115144 l
243.694962 80.198755 l
243.881011 80.202568 l
244.067059 80.912124 l
244.439156 76.817126 l
244.625204 77.241712 l
244.811253 77.307919 l
244.997301 78.059187 l
245.18335 77.801331 l
245.369398 76.681593 l
245.555447 78.144266 l
245.741495 77.748334 l
245.927544 78.732308 l
246.113592 78.98196 l
246.299641 80.737152 l
246.671737 81.836323 l
246.857786 83.178521 l
247.043834 82.210647 l
247.415931 83.96372 l
247.788028 88.343919 l
248.160125 89.687582 l
248.532222 97.063338 l
248.71827 90.131849 l
248.904319 94.913448 l
249.090367 93.049452 l
249.276416 88.610056 l
249.462464 87.997634 l
249.648513 88.870685 l
249.834561 93.412954 l
250.02061 90.238303 l
250.206658 89.447481 l
250.578755 91.45737 l
250.764803 94.677468 l
250.950852 95.731616 l
251.322949 90.979249 l
251.508997 92.716647 l
251.695046 91.118788 l
251.881094 86.488782 l
252.067142 89.13297 l
252.253191 83.449048 l
252.439239 84.514211 l
252.625288 88.228106 l
252.811336 87.832136 l
252.997385 88.7147 l
253.369482 87.015124 l
253.55553 85.169038 l
253.741579 84.891231 l
253.927627 85.287932 l
254.113675 85.185792 l
254.299724 83.7428 l
254.485772 83.958521 l
254.671821 83.848099 l
254.857869 84.186258 l
255.229966 87.336914 l
255.416015 87.808257 l
255.788111 89.544037 l
255.97416 92.6551 l
256.160208 91.413695 l
256.346257 93.32075 l
256.532305 93.457824 l
256.718354 92.919504 l
256.904402 90.707143 l
257.090451 91.803348 l
257.276499 91.107849 l
257.648596 85.834032 l
257.834644 86.93251 l
258.020693 87.153084 l
258.206741 86.594929 l
258.39279 86.991938 l
258.578838 89.30151 l
258.764887 88.697985 l
258.950935 86.267092 l
259.136984 86.199999 l
259.323032 87.331676 l
259.50908 86.322553 l
259.695129 86.288891 l
259.881177 87.156319 l
260.067226 86.430972 l
260.439323 83.783472 l
260.625371 84.143353 l
260.81142 84.23159 l
260.997468 84.882065 l
261.183517 87.257844 l
261.369565 88.161591 l
261.741662 87.99409 l
261.92771 86.991437 l
262.113759 87.645186 l
262.485856 86.976763 l
262.671904 86.157825 l
262.857953 86.382328 l
263.044001 87.386945 l
263.230049 87.170261 l
263.416098 87.160363 l
264.160292 86.375664 l
264.34634 86.831255 l
264.532389 86.435439 l
264.718437 85.689718 l
264.904486 85.896002 l
265.090534 84.549259 l
265.276582 80.197985 l
265.462631 79.730493 l
265.648679 78.280068 l
265.834728 78.812572 l
266.020776 78.932353 l
266.206825 78.284305 l
266.392873 79.251024 l
266.578922 79.309489 l
266.76497 79.537149 l
267.137067 78.664599 l
267.323115 78.634596 l
267.509164 77.56408 l
267.695212 78.882361 l
267.881261 78.797552 l
268.067309 80.330128 l
268.253358 80.3262 l
268.439406 79.104629 l
268.625455 79.252064 l
268.811503 79.158666 l
268.997551 79.427421 l
269.369648 78.07544 l
269.555697 78.361488 l
269.741745 77.889183 l
269.927794 77.911868 l
270.113842 78.955693 l
270.299891 78.922802 l
270.485939 78.168838 l
270.671987 76.022799 l
270.858036 75.877676 l
271.230133 82.917854 l
271.416181 84.041481 l
271.60223 82.759789 l
271.788278 83.586276 l
271.974327 82.551271 l
272.160375 82.487182 l
272.532472 83.077228 l
272.71852 82.711261 l
272.904569 83.527349 l
273.090617 83.111929 l
273.276666 83.239606 l
273.462714 82.703866 l
273.648763 81.016152 l
273.834811 81.18319 l
274.02086 82.060209 l
274.206908 80.830396 l
274.392956 81.152802 l
274.579005 81.00221 l
274.951102 79.828552 l
275.323199 80.006644 l
275.509247 78.743593 l
275.881344 78.380861 l
276.253441 75.317171 l
276.439489 75.462295 l
276.625538 73.857657 l
276.811586 74.715957 l
276.997635 74.844519 l
277.183683 76.231818 l
277.369732 75.874286 l
277.55578 77.131676 l
277.927877 75.765251 l
278.113926 75.40668 l
278.299974 75.357304 l
278.486022 74.957059 l
278.858119 76.321789 l
279.044168 76.15864 l
279.230216 76.226272 l
279.602313 75.064554 l
279.97441 74.942847 l
280.160458 75.184373 l
280.346507 74.475202 l
280.532555 74.642355 l
280.904652 72.720395 l
281.090701 75.309237 l
281.276749 74.795336 l
281.462798 74.946737 l
281.648846 74.765834 l
281.834895 76.195538 l
282.020943 75.454784 l
282.39304 74.956558 l
282.579088 74.963029 l
282.951185 75.373865 l
283.137234 75.698505 l
283.323282 75.060086 l
283.509331 74.862544 l
283.695379 74.890929 l
283.881427 73.999892 l
284.067476 75.47123 l
284.439573 75.568364 l
284.81167 78.703075 l
284.997718 78.230038 l
285.183767 77.364497 l
285.369815 78.776985 l
285.555864 78.148541 l
285.741912 78.735813 l
285.92796 78.471101 l
286.114009 81.310327 l
286.300057 81.200445 l
286.486106 80.846649 l
286.672154 81.533405 l
286.858203 81.573883 l
287.044251 80.774742 l
287.2303 80.478603 l
287.416348 80.847535 l
287.602396 80.60366 l
287.788445 79.560566 l
287.974493 79.714856 l
288.160542 79.32659 l
288.532639 81.515842 l
288.718687 83.402715 l
288.904736 82.994922 l
289.090784 83.852105 l
289.276833 83.202747 l
289.462881 83.373444 l
289.648929 83.12876 l
289.834978 82.541719 l
290.021026 82.541719 l
290.207075 84.285511 l
290.393123 84.827643 l
290.579172 85.027458 l
290.76522 85.410987 l
290.951269 86.394229 l
291.137317 85.20944 l
291.323365 86.829329 l
291.509414 87.133287 l
291.695462 86.702423 l
291.881511 87.188093 l
292.067559 85.399625 l
292.253608 85.528649 l
292.439656 84.628407 l
292.625705 86.464479 l
292.811753 84.246303 l
292.997802 84.254545 l
293.18385 84.600099 l
293.369898 84.496301 l
293.555947 85.727847 l
293.928044 83.107924 l
294.114092 81.091179 l
294.300141 81.165127 l
294.486189 80.809367 l
294.672238 80.123112 l
294.858286 81.581471 l
295.044334 81.581471 l
295.230383 80.97109 l
295.416431 80.988653 l
295.60248 82.176793 l
295.788528 82.517648 l
295.974577 81.526819 l
296.160625 78.217443 l
296.532722 77.624625 l
296.718771 77.821782 l
296.904819 65.857423 l
297.090867 68.857025 l
297.276916 67.15171 l
297.462964 67.85337 l
297.649013 66.61285 l
297.835061 67.888688 l
298.02111 68.091353 l
298.207158 71.114641 l
298.393207 71.23496 l
298.579255 71.094035 l
298.765303 69.67966 l
298.951352 72.296888 l
299.1374 73.322649 l
299.323449 73.052931 l
299.509497 73.304393 l
299.695546 71.784373 l
299.881594 71.367875 l
300.067643 69.921494 l
300.253691 71.923796 l
300.43974 72.012341 l
300.811836 73.479096 l
300.997885 73.219353 l
301.183933 73.720121 l
301.369982 73.35712 l
301.55603 75.536127 l
301.742079 75.005973 l
301.928127 75.620205 l
302.114176 75.345441 l
302.300224 73.726091 l
302.672321 73.888353 l
302.858369 73.666085 l
303.044418 73.721122 l
303.230466 72.76538 l
303.416515 74.646708 l
303.602563 74.348681 l
303.788612 75.21322 l
303.97466 74.715148 l
304.160709 73.598992 l
304.346757 73.646288 l
304.718854 76.053765 l
305.090951 76.330763 l
305.463048 77.259506 l
305.649096 77.161948 l
305.835145 81.060791 l
306.021193 80.487461 l
306.39329 81.816411 l
306.579338 81.547308 l
306.765387 81.477905 l
307.137484 82.575034 l
307.323532 85.778263 l
307.509581 85.08238 l
307.695629 83.948468 l
307.881678 80.971552 l
308.067726 80.443092 l
308.253774 81.20291 l
308.625871 84.961097 l
308.81192 83.08651 l
308.997968 83.402754 l
309.184017 84.495416 l
309.556114 84.943496 l
309.742162 83.884072 l
309.92821 82.138971 l
310.114259 82.561439 l
310.300307 82.604036 l
310.486356 80.880157 l
310.672404 81.530786 l
310.858453 81.311984 l
311.23055 84.109537 l
311.416598 83.557891 l
311.602647 84.605953 l
311.788695 83.653638 l
311.974743 86.555297 l
312.160792 83.941459 l
312.532889 84.977466 l
312.718937 84.319596 l
313.649179 85.353253 l
313.835228 83.02038 l
314.021276 83.688802 l
314.207325 83.740913 l
314.393373 83.188497 l
314.76547 83.943115 l
315.323616 83.073261 l
315.509664 83.293873 l
315.695712 83.014063 l
315.881761 84.582074 l
316.067809 84.310892 l
316.253858 82.982481 l
316.439906 82.844868 l
316.625955 82.512101 l
316.812003 81.933534 l
317.1841 82.631112 l
317.370148 82.433223 l
317.556197 82.827652 l
317.742245 82.256094 l
317.928294 82.196165 l
318.114342 82.422978 l
318.300391 82.260369 l
318.486439 83.261058 l
318.672488 82.904104 l
318.858536 83.612158 l
319.044585 82.834046 l
319.230633 83.024154 l
319.416681 82.826035 l
319.60273 83.056892 l
319.788778 82.834392 l
319.974827 82.897518 l
320.346924 82.421784 l
320.905069 82.743998 l
321.091117 82.548382 l
321.463214 83.987022 l
321.649263 84.278616 l
321.835311 84.04048 l
322.207408 85.533117 l
322.393457 89.783483 l
322.579505 89.369604 l
322.765554 90.015611 l
322.951602 90.06283 l
323.13765 90.944624 l
323.323699 92.792598 l
323.509747 89.91971 l
323.695796 90.554432 l
323.881844 90.368329 l
324.067893 92.509861 l
324.253941 92.597136 l
324.43999 91.952631 l
324.626038 92.576569 l
324.812086 92.254817 l
324.998135 93.059659 l
325.184183 91.131613 l
325.55628 92.614429 l
325.742329 92.602682 l
326.114426 93.140462 l
326.300474 94.602904 l
326.672571 92.447159 l
326.858619 92.95486 l
327.044668 91.633729 l
327.230716 92.252429 l
327.416765 92.135267 l
327.602813 92.562434 l
327.788862 90.919667 l
327.97491 91.420242 l
328.160959 90.783363 l
328.347007 91.679754 l
328.533055 91.475203 l
328.719104 92.346174 l
328.905152 92.160495 l
329.091201 93.17605 l
329.277249 91.150909 l
329.463298 86.4909 l
329.649346 87.570775 l
329.835395 86.383483 l
330.207492 87.185051 l
330.39354 86.236742 l
330.951685 87.291736 l
331.137734 87.488161 l
331.323782 87.042662 l
331.509831 88.367067 l
332.067976 89.404075 l
332.254024 89.357472 l
332.440073 89.933806 l
332.626121 89.310715 l
332.81217 87.426615 l
332.998218 87.81854 l
333.184267 86.671804 l
333.370315 88.589643 l
333.556364 88.437164 l
333.928461 88.750673 l
334.114509 88.435199 l
334.300557 89.007027 l
334.486606 88.764847 l
334.672654 88.153695 l
335.044751 87.893837 l
335.416848 88.805826 l
335.602897 88.093998 l
335.788945 88.352277 l
336.34709 90.785905 l
336.533139 91.070683 l
336.719187 91.700128 l
336.905236 91.269534 l
337.091284 91.281397 l
337.277333 91.560282 l
337.463381 90.881807 l
337.64943 91.031783 l
337.835478 91.577498 l
338.207575 93.184562 l
338.393623 96.674378 l
338.579672 97.285568 l
338.76572 97.10944 l
338.951769 97.817879 l
339.137817 97.464738 l
339.323866 97.617256 l
339.509914 99.832237 l
339.695962 98.436194 l
340.254108 100.444042 l
340.440156 100.245923 l
340.626205 99.538369 l
340.812253 101.264367 l
340.998302 101.773839 l
341.18435 107.303779 l
341.370399 107.320649 l
341.556447 104.409207 l
341.742495 106.915589 l
341.928544 106.291382 l
342.114592 106.247128 l
342.672738 110.184447 l
343.044835 108.754897 l
343.60298 115.804203 l
343.789028 115.889398 l
343.975077 119.22816 l
344.161125 119.275533 l
344.347174 118.206865 l
344.533222 118.116857 l
344.719271 121.096392 l
344.905319 119.429784 l
345.091368 113.312264 l
345.277416 113.263851 l
345.649513 117.318408 l
345.835561 123.16544 l
346.02161 119.632833 l
346.393707 122.182583 l
346.579755 119.162839 l
346.951852 121.886482 l
347.1379 121.130631 l
347.323949 117.808585 l
347.509997 118.714759 l
347.882094 116.693546 l
348.254191 121.065426 l
348.626288 122.12562 l
348.998385 135.250311 l
349.184433 136.418577 l
349.370482 139.188284 l
349.55653 137.727268 l
349.742579 134.857538 l
349.928627 139.015238 l
350.114676 136.813661 l
350.300724 138.593656 l
350.486773 142.360586 l
350.672821 149.099232 l
350.858869 148.341918 l
351.603063 158.879461 l
351.789112 160.463147 l
351.97516 171.253847 l
352.161209 174.355512 l
352.347257 170.635956 l
352.719354 189.220759 l
353.091451 203.894242 l
353.277499 202.23992 l
353.835645 178.249502 l
354.207742 198.071667 l
354.39379 189.097936 l
354.579838 186.158032 l
354.765887 185.109701 l
354.951935 188.342393 l
355.324032 184.131312 l
355.510081 165.87111 l
355.696129 174.361675 l
355.882178 170.885184 l
356.068226 171.56728 l
356.254275 171.437947 l
356.440323 172.587765 l
356.626371 164.41252 l
356.81242 175.905305 l
356.998468 179.414341 l
357.184517 179.42913 l
357.370565 174.87808 l
357.556614 176.366442 l
357.928711 192.362942 l
358.114759 189.766436 l
358.486856 198.706351 l
358.672904 197.184404 l
358.858953 225.824701 l
359.045001 226.69236 l
359.23105 220.100917 l
359.417098 232.176082 l
359.789195 228.986334 l
359.975244 234.899033 l
360.161292 231.939102 l
360.34734 236.59264 l
360.533389 247.985787 l
360.719437 246.021229 l
360.905486 262.614708 l
361.091534 262.940927 l
361.277583 268.666753 l
361.64968 235.515499 l
361.835728 242.234041 l
362.021777 227.504404 l
362.393873 225.021939 l
362.579922 221.008901 l
362.76597 238.357883 l
362.952019 233.495827 l
363.138067 241.667336 l
363.324116 233.853513 l
363.510164 235.442129 l
363.696213 235.519967 l
364.254358 258.628514 l
364.626455 269.730297 l
364.812503 267.763275 l
364.998552 283.190143 l
365.370649 261.991617 l
365.556697 266.29625 l
365.742746 274.155636 l
365.928794 269.352468 l
366.114842 270.928489 l
366.300891 270.9697 l
366.486939 268.371383 l
366.672988 256.022764 l
366.859036 257.072289 l
367.231133 245.280861 l
367.417182 259.371655 l
367.60323 262.412236 l
367.789278 262.103271 l
368.161375 273.451318 l
368.533472 273.477469 l
368.719521 274.611342 l
368.905569 267.082374 l
369.277666 274.699078 l
369.463715 270.718045 l
369.649763 262.733217 l
369.835811 270.826387 l
370.02186 271.034328 l
370.207908 277.471751 l
370.393957 278.206881 l
370.580005 277.705689 l
370.766054 292.032 l
370.952102 289.777658 l
371.138151 290.869588 l
371.510247 278.677607 l
371.696296 263.904873 l
371.882344 261.792958 l
372.068393 264.892505 l
372.44049 246.497117 l
372.626538 244.268734 l
372.998635 236.267113 l
373.184684 255.451514 l
373.370732 259.360062 l
373.55678 258.638451 l
373.742829 253.631733 l
373.928877 269.855932 l
374.114926 270.09041 l
374.300974 265.287473 l
374.487023 267.609409 l
374.673071 252.312874 l
374.85912 268.610406 l
375.045168 264.58535 l
375.231216 268.252373 l
375.417265 274.216527 l
375.603313 271.720467 l
375.789362 262.487609 l
375.97541 265.824907 l
376.161459 236.003326 l
376.347507 238.680791 l
376.533556 239.529077 l
376.719604 227.258526 l
376.905653 226.122574 l
377.091701 215.163603 l
377.277749 212.529005 l
377.463798 189.620773 l
377.649846 204.333579 l
377.835895 190.838146 l
378.021943 191.793117 l
378.207992 181.110066 l
378.39404 196.415998 l
378.580089 195.190884 l
378.766137 198.48597 l
378.952185 195.324876 l
379.138234 184.711498 l
379.324282 180.698459 l
379.696379 190.954421 l
379.882428 188.459054 l
380.068476 192.01242 l
380.254525 198.187674 l
380.626622 184.09819 l
380.81267 185.198901 l
380.998718 176.335514 l
381.184767 176.086401 l
381.370815 191.061569 l
381.556864 188.620546 l
381.742912 190.964589 l
381.928961 183.961539 l
382.301058 203.337897 l
382.487106 202.039027 l
382.673154 194.861082 l
382.859203 193.871909 l
383.045251 184.866327 l
383.2313 184.074272 l
383.417348 184.336865 l
383.603397 169.293796 l
383.789445 172.224918 l
384.161542 180.66653 l
384.347591 169.116744 l
384.533639 171.120779 l
384.719687 180.686057 l
384.905736 179.962828 l
385.091784 185.320338 l
385.277833 182.237853 l
385.463881 176.420285 l
385.64993 177.652678 l
386.022027 183.246707 l
386.208075 177.233292 l
386.394123 179.016676 l
386.580172 177.584045 l
386.76622 173.880357 l
386.952269 177.505013 l
387.138317 176.33821 l
387.324366 179.080726 l
387.696463 173.145304 l
387.882511 173.638484 l
388.06856 169.494226 l
388.254608 168.272001 l
388.440656 168.654876 l
388.626705 169.667157 l
388.998802 161.990216 l
389.18485 170.955743 l
389.370899 171.648353 l
389.742996 179.279847 l
389.929044 183.462004 l
390.301141 199.024829 l
390.487189 201.322539 l
390.673238 201.335634 l
390.859286 209.840525 l
391.045335 207.702613 l
391.417432 198.208279 l
391.60348 194.141358 l
392.347674 219.161004 l
392.533722 216.010541 l
392.719771 225.705922 l
392.905819 222.91326 l
393.091868 222.925161 l
393.277916 218.327739 l
393.463965 231.485129 l
393.650013 228.705177 l
393.836061 228.490342 l
394.208158 219.21662 l
394.394207 219.714576 l
394.766304 237.238338 l
394.952352 235.714196 l
395.324449 237.992263 l
395.510498 231.140807 l
395.696546 235.868525 l
395.882594 228.129806 l
396.068643 236.195014 l
396.44074 235.231838 l
396.626788 228.561055 l
396.812837 228.873409 l
396.998885 235.447444 l
397.370982 239.963561 l
397.55703 239.624824 l
397.929127 250.139413 l
398.115176 227.538104 l
398.301224 224.723489 l
398.487273 225.841609 l
398.487273 225.841609 l
stroke
grestore
0.800 setlinewidth
0 setlinejoin
0.000 setgray
gsave
57.6 38.016 m
57.6 304.128 l
stroke
grestore
gsave
414.72 38.016 m
414.72 304.128 l
stroke
grestore
gsave
57.6 38.016 m
414.72 38.016 l
stroke
grestore
gsave
57.6 304.128 m
414.72 304.128 l
stroke
grestore

end
showpage
