%!PS-Adobe-3.0 EPSF-3.0
%%Title: D:/MCM2022/MCM2022/YKCCs_LSTM/required/50-80-GOL.eps
%%Creator: matplotlib version 3.3.4, http://matplotlib.org/
%%CreationDate: Sun Feb 20 14:21:02 2022
%%Orientation: portrait
%%BoundingBox: 75.6 223.20000000000002 536.4 568.8
%%EndComments
%%BeginProlog
/mpldict 8 dict def
mpldict begin
/m { moveto } bind def
/l { lineto } bind def
/r { rlineto } bind def
/c { curveto } bind def
/cl { closepath } bind def
/box {
      m
      1 index 0 r
      0 exch r
      neg 0 r
      cl
    } bind def
/clipbox {
      box
      clip
      newpath
    } bind def
%!PS-Adobe-3.0 Resource-Font
%%Title: DejaVu Sans
%%Copyright: Copyright (c) 2003 by Bitstream, Inc. All Rights Reserved. Copyright (c) 2006 by Tavmjong Bah. All Rights Reserved. DejaVu changes are in public domain 
%%Creator: Converted from TrueType to type 3 by PPR
25 dict begin
/_d{bind def}bind def
/_m{moveto}_d
/_l{lineto}_d
/_cl{closepath eofill}_d
/_c{curveto}_d
/_sc{7 -1 roll{setcachedevice}{pop pop pop pop pop pop}ifelse}_d
/_e{exec}_d
/FontName /DejaVuSans def
/PaintType 0 def
/FontMatrix[.001 0 0 .001 0 0]def
/FontBBox[-1021 -463 1793 1232]def
/FontType 3 def
/Encoding [ /zero /one /two /four /five /six /seven /eight ] def
/FontInfo 10 dict dup begin
/FamilyName (DejaVu Sans) def
/FullName (DejaVu Sans) def
/Notice (Copyright (c) 2003 by Bitstream, Inc. All Rights Reserved. Copyright (c) 2006 by Tavmjong Bah. All Rights Reserved. DejaVu changes are in public domain ) def
/Weight (Book) def
/Version (Version 2.35) def
/ItalicAngle 0.0 def
/isFixedPitch false def
/UnderlinePosition -130 def
/UnderlineThickness 90 def
end readonly def
/CharStrings 9 dict dup begin
/.notdef 0 def
/zero{636 0 66 -13 570 742 _sc
318 664 _m
267 664 229 639 203 589 _c
177 539 165 464 165 364 _c
165 264 177 189 203 139 _c
229 89 267 64 318 64 _c
369 64 407 89 433 139 _c
458 189 471 264 471 364 _c
471 464 458 539 433 589 _c
407 639 369 664 318 664 _c
318 742 _m
399 742 461 709 505 645 _c
548 580 570 486 570 364 _c
570 241 548 147 505 83 _c
461 19 399 -13 318 -13 _c
236 -13 173 19 130 83 _c
87 147 66 241 66 364 _c
66 486 87 580 130 645 _c
173 709 236 742 318 742 _c
_cl}_d
/one{636 0 110 0 544 729 _sc
124 83 _m
285 83 _l
285 639 _l
110 604 _l
110 694 _l
284 729 _l
383 729 _l
383 83 _l
544 83 _l
544 0 _l
124 0 _l
124 83 _l
_cl}_d
/two{{636 0 73 0 536 742 _sc
192 83 _m
536 83 _l
536 0 _l
73 0 _l
73 83 _l
110 121 161 173 226 239 _c
290 304 331 346 348 365 _c
380 400 402 430 414 455 _c
426 479 433 504 433 528 _c
433 566 419 598 392 622 _c
365 646 330 659 286 659 _c
255 659 222 653 188 643 _c
154 632 117 616 78 594 _c
78 694 _l
118 710 155 722 189 730 _c
223 738 255 742 284 742 _c
}_e{359 742 419 723 464 685 _c
509 647 532 597 532 534 _c
532 504 526 475 515 449 _c
504 422 484 390 454 354 _c
446 344 420 317 376 272 _c
332 227 271 164 192 83 _c
_cl}_e}_d
/four{636 0 49 0 580 729 _sc
378 643 _m
129 254 _l
378 254 _l
378 643 _l
352 729 _m
476 729 _l
476 254 _l
580 254 _l
580 172 _l
476 172 _l
476 0 _l
378 0 _l
378 172 _l
49 172 _l
49 267 _l
352 729 _l
_cl}_d
/five{{636 0 77 -13 549 729 _sc
108 729 _m
495 729 _l
495 646 _l
198 646 _l
198 467 _l
212 472 227 476 241 478 _c
255 480 270 482 284 482 _c
365 482 429 459 477 415 _c
525 370 549 310 549 234 _c
549 155 524 94 475 51 _c
426 8 357 -13 269 -13 _c
238 -13 207 -10 175 -6 _c
143 -1 111 6 77 17 _c
77 116 _l
106 100 136 88 168 80 _c
199 72 232 69 267 69 _c
}_e{323 69 368 83 401 113 _c
433 143 450 183 450 234 _c
450 284 433 324 401 354 _c
368 384 323 399 267 399 _c
241 399 214 396 188 390 _c
162 384 135 375 108 363 _c
108 729 _l
_cl}_e}_d
/six{{636 0 70 -13 573 742 _sc
330 404 _m
286 404 251 388 225 358 _c
199 328 186 286 186 234 _c
186 181 199 139 225 109 _c
251 79 286 64 330 64 _c
374 64 409 79 435 109 _c
461 139 474 181 474 234 _c
474 286 461 328 435 358 _c
409 388 374 404 330 404 _c
526 713 _m
526 623 _l
501 635 476 644 451 650 _c
425 656 400 659 376 659 _c
310 659 260 637 226 593 _c
}_e{192 549 172 482 168 394 _c
187 422 211 444 240 459 _c
269 474 301 482 336 482 _c
409 482 467 459 509 415 _c
551 371 573 310 573 234 _c
573 159 550 99 506 54 _c
462 9 403 -13 330 -13 _c
246 -13 181 19 137 83 _c
92 147 70 241 70 364 _c
70 479 97 571 152 639 _c
206 707 280 742 372 742 _c
396 742 421 739 447 735 _c
472 730 498 723 526 713 _c
_cl}_e}_d
/seven{636 0 82 0 551 729 _sc
82 729 _m
551 729 _l
551 687 _l
286 0 _l
183 0 _l
432 646 _l
82 646 _l
82 729 _l
_cl}_d
/eight{{636 0 68 -13 568 742 _sc
318 346 _m
271 346 234 333 207 308 _c
180 283 167 249 167 205 _c
167 161 180 126 207 101 _c
234 76 271 64 318 64 _c
364 64 401 76 428 102 _c
455 127 469 161 469 205 _c
469 249 455 283 429 308 _c
402 333 365 346 318 346 _c
219 388 _m
177 398 144 418 120 447 _c
96 476 85 511 85 553 _c
85 611 105 657 147 691 _c
188 725 245 742 318 742 _c
}_e{390 742 447 725 489 691 _c
530 657 551 611 551 553 _c
551 511 539 476 515 447 _c
491 418 459 398 417 388 _c
464 377 501 355 528 323 _c
554 291 568 251 568 205 _c
568 134 546 80 503 43 _c
459 5 398 -13 318 -13 _c
237 -13 175 5 132 43 _c
89 80 68 134 68 205 _c
68 251 81 291 108 323 _c
134 355 171 377 219 388 _c
183 544 _m
183 506 194 476 218 455 _c
}_e{242 434 275 424 318 424 _c
360 424 393 434 417 455 _c
441 476 453 506 453 544 _c
453 582 441 611 417 632 _c
393 653 360 664 318 664 _c
275 664 242 653 218 632 _c
194 611 183 582 183 544 _c
_cl}_e}_d
end readonly def

/BuildGlyph
 {exch begin
 CharStrings exch
 2 copy known not{pop /.notdef}if
 true 3 1 roll get exec
 end}_d

/BuildChar {
 1 index /Encoding get exch get
 1 index /BuildGlyph get exec
}_d

FontName currentdict end definefont pop
end
%%EndProlog
mpldict begin
75.6 223.2 translate
460.8 345.6 0 0 clipbox
gsave
0 0 m
460.8 0 l
460.8 345.6 l
0 345.6 l
cl
1.000 setgray
fill
grestore
gsave
57.6 38.016 m
414.72 38.016 l
414.72 304.128 l
57.6 304.128 l
cl
1.000 setgray
fill
grestore
0.800 setlinewidth
1 setlinejoin
0 setlinecap
[] 0 setdash
0.000 setgray
gsave
/o {
gsave
newpath
translate
0.8 setlinewidth
1 setlinejoin
0 setlinecap
0 0 m
0 -3.5 l

gsave
0.000 setgray
fill
grestore
stroke
grestore
} bind def
73.8327 38.016 o
grestore
/DejaVuSans findfont
10.000 scalefont
setfont
gsave
70.653040 23.422250 translate
0.000000 rotate
0.000000 0 m /zero glyphshow
grestore
gsave
/o {
gsave
newpath
translate
0.8 setlinewidth
1 setlinejoin
0 setlinecap
0 0 m
0 -3.5 l

gsave
0.000 setgray
fill
grestore
stroke
grestore
} bind def
120.345 38.016 o
grestore
gsave
110.805777 23.422250 translate
0.000000 rotate
0.000000 0 m /two glyphshow
6.362305 0 m /five glyphshow
12.724609 0 m /zero glyphshow
grestore
gsave
/o {
gsave
newpath
translate
0.8 setlinewidth
1 setlinejoin
0 setlinecap
0 0 m
0 -3.5 l

gsave
0.000 setgray
fill
grestore
stroke
grestore
} bind def
166.857 38.016 o
grestore
gsave
157.317890 23.422250 translate
0.000000 rotate
0.000000 0 m /five glyphshow
6.362305 0 m /zero glyphshow
12.724609 0 m /zero glyphshow
grestore
gsave
/o {
gsave
newpath
translate
0.8 setlinewidth
1 setlinejoin
0 setlinecap
0 0 m
0 -3.5 l

gsave
0.000 setgray
fill
grestore
stroke
grestore
} bind def
213.369 38.016 o
grestore
gsave
203.830002 23.422250 translate
0.000000 rotate
0.000000 0 m /seven glyphshow
6.362305 0 m /five glyphshow
12.724609 0 m /zero glyphshow
grestore
gsave
/o {
gsave
newpath
translate
0.8 setlinewidth
1 setlinejoin
0 setlinecap
0 0 m
0 -3.5 l

gsave
0.000 setgray
fill
grestore
stroke
grestore
} bind def
259.881 38.016 o
grestore
gsave
247.162427 23.422250 translate
0.000000 rotate
0.000000 0 m /one glyphshow
6.362305 0 m /zero glyphshow
12.724609 0 m /zero glyphshow
19.086914 0 m /zero glyphshow
grestore
gsave
/o {
gsave
newpath
translate
0.8 setlinewidth
1 setlinejoin
0 setlinecap
0 0 m
0 -3.5 l

gsave
0.000 setgray
fill
grestore
stroke
grestore
} bind def
306.393 38.016 o
grestore
gsave
293.674540 23.422250 translate
0.000000 rotate
0.000000 0 m /one glyphshow
6.362305 0 m /two glyphshow
12.724609 0 m /five glyphshow
19.086914 0 m /zero glyphshow
grestore
gsave
/o {
gsave
newpath
translate
0.8 setlinewidth
1 setlinejoin
0 setlinecap
0 0 m
0 -3.5 l

gsave
0.000 setgray
fill
grestore
stroke
grestore
} bind def
352.905 38.016 o
grestore
gsave
340.186652 23.422250 translate
0.000000 rotate
0.000000 0 m /one glyphshow
6.362305 0 m /five glyphshow
12.724609 0 m /zero glyphshow
19.086914 0 m /zero glyphshow
grestore
gsave
/o {
gsave
newpath
translate
0.8 setlinewidth
1 setlinejoin
0 setlinecap
0 0 m
0 -3.5 l

gsave
0.000 setgray
fill
grestore
stroke
grestore
} bind def
399.418 38.016 o
grestore
gsave
386.698765 23.422250 translate
0.000000 rotate
0.000000 0 m /one glyphshow
6.362305 0 m /seven glyphshow
12.724609 0 m /five glyphshow
19.086914 0 m /zero glyphshow
grestore
gsave
/o {
gsave
newpath
translate
0.8 setlinewidth
1 setlinejoin
0 setlinecap
-0 0 m
-3.5 0 l

gsave
0.000 setgray
fill
grestore
stroke
grestore
} bind def
57.6 69.2045 o
grestore
gsave
25.162500 65.407648 translate
0.000000 rotate
0.000000 0 m /one glyphshow
6.362305 0 m /two glyphshow
12.724609 0 m /zero glyphshow
19.086914 0 m /zero glyphshow
grestore
gsave
/o {
gsave
newpath
translate
0.8 setlinewidth
1 setlinejoin
0 setlinecap
-0 0 m
-3.5 0 l

gsave
0.000 setgray
fill
grestore
stroke
grestore
} bind def
57.6 120.598 o
grestore
gsave
25.162500 116.800712 translate
0.000000 rotate
0.000000 0 m /one glyphshow
6.362305 0 m /four glyphshow
12.724609 0 m /zero glyphshow
19.086914 0 m /zero glyphshow
grestore
gsave
/o {
gsave
newpath
translate
0.8 setlinewidth
1 setlinejoin
0 setlinecap
-0 0 m
-3.5 0 l

gsave
0.000 setgray
fill
grestore
stroke
grestore
} bind def
57.6 171.991 o
grestore
gsave
25.162500 168.193776 translate
0.000000 rotate
0.000000 0 m /one glyphshow
6.362305 0 m /six glyphshow
12.724609 0 m /zero glyphshow
19.086914 0 m /zero glyphshow
grestore
gsave
/o {
gsave
newpath
translate
0.8 setlinewidth
1 setlinejoin
0 setlinecap
-0 0 m
-3.5 0 l

gsave
0.000 setgray
fill
grestore
stroke
grestore
} bind def
57.6 223.384 o
grestore
gsave
25.162500 219.586840 translate
0.000000 rotate
0.000000 0 m /one glyphshow
6.362305 0 m /eight glyphshow
12.724609 0 m /zero glyphshow
19.086914 0 m /zero glyphshow
grestore
gsave
/o {
gsave
newpath
translate
0.8 setlinewidth
1 setlinejoin
0 setlinecap
-0 0 m
-3.5 0 l

gsave
0.000 setgray
fill
grestore
stroke
grestore
} bind def
57.6 274.777 o
grestore
gsave
25.162500 270.979904 translate
0.000000 rotate
0.000000 0 m /two glyphshow
6.362305 0 m /zero glyphshow
12.724609 0 m /zero glyphshow
19.086914 0 m /zero glyphshow
grestore
1.500 setlinewidth
2 setlinecap
0.000 0.000 1.000 setrgbcolor
gsave
357.1 266.1 57.6 38.02 clipbox
73.832727 68.115181 m
74.018776 67.602505 l
74.390873 65.564537 l
74.576921 65.343111 l
74.76297 65.346718 l
74.949018 64.845241 l
75.135066 64.889187 l
75.321115 65.281034 l
75.507163 65.366574 l
76.437406 63.046954 l
76.623454 63.075844 l
77.181599 58.636103 l
77.367648 58.023709 l
77.553696 58.019098 l
77.739745 57.759717 l
78.669987 57.794912 l
79.042084 57.771135 l
79.228132 57.94576 l
79.786278 60.040786 l
80.158375 60.461021 l
80.344423 60.735866 l
80.530471 61.736029 l
80.902568 64.679995 l
81.274665 65.914194 l
81.460714 66.166297 l
81.646762 66.902814 l
81.832811 67.03641 l
82.204908 68.907846 l
82.390956 69.025256 l
82.577004 68.939685 l
82.763053 69.54982 l
83.13515 72.008463 l
83.507247 71.338948 l
83.879344 70.648981 l
84.065392 71.232705 l
84.25144 72.188514 l
84.437489 71.731736 l
85.181683 67.907965 l
85.367731 68.1686 l
85.925877 72.10793 l
86.297973 73.319795 l
86.484022 73.384538 l
86.856119 74.857948 l
87.228216 76.975591 l
87.414264 76.891714 l
88.158458 75.582012 l
88.344506 75.465136 l
89.0887 78.129802 l
89.274749 78.075881 l
89.646846 77.366309 l
89.832894 77.896614 l
90.391039 80.224421 l
90.763136 80.84748 l
91.135233 79.099821 l
91.50733 76.56875 l
91.693378 75.875898 l
91.879427 75.817146 l
92.251524 74.136112 l
92.809669 71.464011 l
92.995718 71.162347 l
93.553863 70.965451 l
94.298057 75.708331 l
94.670154 76.848646 l
95.042251 78.680276 l
95.414347 79.361492 l
95.600396 79.401423 l
95.972493 80.49111 l
96.158541 80.553501 l
96.34459 80.307106 l
96.902735 79.048252 l
97.088784 79.061207 l
97.274832 79.727272 l
97.46088 79.766482 l
97.646929 79.951081 l
98.205074 82.39266 l
98.577171 81.264861 l
98.76322 81.92233 l
99.321365 85.711095 l
99.507413 86.170069 l
99.693462 86.272077 l
100.065559 85.694125 l
100.437656 85.690643 l
100.809753 85.815989 l
101.181849 84.354875 l
101.553946 82.766313 l
101.739995 82.606463 l
102.29814 82.904363 l
102.670237 81.428663 l
103.228382 76.577596 l
103.414431 75.983552 l
103.600479 75.843338 l
103.972576 75.1045 l
104.158625 74.91256 l
105.088867 76.619472 l
105.647012 80.053278 l
105.833061 80.336498 l
106.019109 80.378876 l
106.577254 81.009464 l
106.763303 81.037506 l
107.321448 82.354799 l
107.507497 82.595202 l
107.879594 82.608815 l
108.065642 82.635855 l
108.809836 84.711496 l
109.181933 86.691935 l
109.367981 86.245508 l
109.926127 83.371807 l
110.298223 82.702009 l
110.484272 83.188838 l
111.786611 79.109043 l
111.97266 79.160424 l
112.530805 80.668903 l
113.647096 78.666976 l
113.833144 78.491034 l
114.205241 76.652063 l
114.577338 75.13088 l
114.949435 74.004336 l
115.50758 72.963739 l
115.879677 73.501603 l
116.437822 75.771662 l
116.809919 76.951438 l
117.368065 78.421052 l
118.112258 80.300707 l
118.298307 80.180004 l
118.670404 81.38754 l
119.042501 82.385539 l
119.600646 83.364059 l
119.786694 83.409825 l
120.34484 81.672109 l
120.530888 81.423017 l
120.716937 81.541243 l
120.902985 82.278669 l
121.461131 85.954321 l
121.647179 86.44253 l
121.833227 86.411915 l
122.205324 84.843993 l
122.391373 85.076617 l
122.949518 87.972371 l
123.135567 88.197058 l
123.507663 87.178858 l
124.251857 86.591778 l
124.437906 86.527066 l
124.810003 89.677181 l
125.368148 92.447871 l
125.554196 92.782754 l
126.484439 97.108096 l
126.856536 97.859701 l
127.042584 97.312301 l
127.600729 94.61153 l
127.972826 93.80086 l
128.158875 93.668111 l
128.71702 91.728575 l
129.089117 89.349105 l
129.461214 88.385077 l
129.647262 88.168294 l
129.833311 88.484137 l
130.577505 86.24714 l
130.763553 86.074648 l
131.321698 84.519713 l
131.507747 84.376111 l
132.065892 82.50298 l
132.251941 83.133317 l
132.810086 86.840462 l
133.182183 88.460297 l
133.55428 89.292831 l
134.484522 85.945851 l
134.67057 85.831453 l
135.228716 84.841672 l
135.414764 84.603057 l
135.97291 83.206373 l
136.345007 83.461707 l
136.717103 84.535553 l
136.903152 84.296468 l
137.275249 83.473878 l
137.461297 83.411205 l
137.647346 83.756408 l
138.205491 85.96806 l
138.577588 86.309279 l
139.135733 85.367146 l
139.321782 85.386469 l
140.065976 86.366902 l
140.252024 86.357272 l
140.438072 86.470604 l
140.996218 87.302134 l
141.182266 87.428139 l
141.554363 87.794327 l
141.92646 86.682211 l
142.298557 85.209774 l
142.856702 84.020023 l
143.228799 82.411606 l
143.600896 80.632265 l
144.34509 78.838809 l
144.531138 79.052738 l
145.275332 81.009495 l
146.019526 82.443256 l
146.391623 82.585196 l
146.76372 82.585196 l
146.949768 83.403018 l
147.507914 87.009252 l
147.693962 87.442599 l
147.88001 87.562769 l
148.624204 91.860257 l
148.810253 92.282217 l
149.18235 92.628236 l
149.368398 92.318886 l
149.554446 92.40932 l
149.926543 93.363749 l
150.856786 95.744662 l
151.414931 95.760377 l
151.600979 95.810848 l
151.973076 95.648739 l
152.531222 98.759362 l
152.903319 99.372572 l
153.461464 98.006314 l
153.647512 97.62761 l
154.205658 95.5403 l
154.577755 95.304508 l
154.763803 94.904976 l
155.321948 92.413554 l
155.507997 92.065277 l
155.694045 92.39282 l
155.880094 93.018107 l
156.066142 94.142299 l
156.438239 97.523563 l
156.810336 98.968178 l
156.996384 98.820215 l
157.182433 98.123316 l
157.740578 95.1541 l
158.112675 94.579974 l
158.298724 94.856952 l
158.484772 94.739856 l
158.670821 94.088001 l
158.856869 92.883978 l
159.042917 92.653989 l
159.228966 92.794329 l
159.601063 93.217951 l
159.97316 94.311591 l
160.159208 94.143867 l
160.717353 93.25346 l
160.903402 93.076231 l
161.275499 93.379213 l
161.461547 93.273786 l
162.019693 91.51543 l
162.39179 91.348961 l
162.577838 91.939524 l
162.763886 92.962805 l
163.322032 97.719863 l
163.50808 97.944896 l
163.694129 97.237112 l
164.066226 95.382489 l
164.252274 95.24262 l
164.810419 95.585752 l
164.996468 95.800277 l
165.368565 95.291585 l
165.740662 95.222952 l
165.92671 95.239389 l
166.112759 95.683777 l
166.484855 97.198561 l
166.856952 97.86748 l
167.229049 98.382195 l
167.415098 98.138341 l
167.787195 98.37658 l
167.973243 97.767825 l
168.531388 94.405098 l
168.903485 93.966294 l
169.275582 93.489816 l
170.205824 90.904824 l
170.577921 91.12512 l
171.322115 90.535248 l
171.508164 90.9084 l
172.066309 92.942604 l
172.252357 93.111426 l
172.438406 93.10854 l
173.1826 87.733473 l
173.368648 87.247178 l
173.740745 87.074058 l
173.926793 87.322649 l
174.112842 87.367473 l
174.484939 88.984046 l
174.670987 89.076205 l
175.229133 88.494175 l
175.415181 88.699101 l
175.601229 89.253747 l
175.787278 89.140979 l
176.531472 88.204932 l
176.903569 88.625292 l
177.647762 89.127868 l
177.833811 89.118175 l
178.019859 88.939472 l
178.205908 89.122472 l
179.694295 83.785831 l
180.066392 83.37946 l
180.252441 83.349536 l
180.438489 82.907249 l
181.182683 80.040386 l
181.55478 79.544115 l
181.740828 79.685866 l
182.671071 81.613357 l
182.857119 81.443971 l
183.229216 80.28885 l
183.97341 77.325248 l
184.345507 76.263918 l
184.531555 75.32856 l
184.903652 75.142988 l
185.833894 75.972354 l
187.880427 72.825564 l
188.066476 72.786542 l
188.252524 72.629734 l
188.624621 72.919353 l
189.368815 70.208639 l
189.92696 67.385722 l
190.113009 67.171417 l
191.229299 69.502518 l
191.601396 71.113476 l
191.973493 71.415548 l
192.159542 71.373421 l
192.34559 70.914447 l
192.717687 70.6806 l
193.089784 69.845023 l
193.275832 70.250358 l
193.461881 70.382762 l
193.647929 70.299073 l
194.020026 69.582851 l
194.578171 71.78757 l
194.76422 71.759684 l
195.322365 70.924704 l
195.880511 71.858556 l
196.252607 71.214762 l
196.438656 70.998356 l
196.624704 70.470278 l
197.18285 68.171643 l
197.368898 67.981178 l
197.554947 68.107559 l
198.113092 70.569557 l
198.485189 71.109272 l
198.671237 71.145973 l
199.229383 68.662236 l
199.787528 70.928594 l
200.531722 75.594591 l
200.71777 75.593305 l
201.089867 75.024229 l
201.275916 75.127085 l
201.461964 75.035334 l
201.834061 76.032047 l
202.206158 76.283083 l
202.764303 76.430512 l
202.950352 76.088854 l
203.1364 75.159048 l
203.322449 75.18844 l
204.066642 76.43735 l
204.438739 76.351497 l
204.996885 75.23063 l
205.741078 71.554696 l
205.927127 71.673329 l
206.299224 72.409908 l
206.857369 74.312525 l
207.229466 75.156194 l
207.601563 75.491736 l
207.97366 75.164726 l
208.159708 74.88963 l
208.345757 74.239281 l
208.531805 74.367669 l
208.903902 75.042799 l
209.089951 74.796844 l
209.275999 75.136275 l
209.834144 77.434346 l
210.206241 78.274659 l
210.950435 78.923189 l
211.50858 78.593607 l
211.694629 78.120611 l
211.880677 78.015435 l
212.066726 78.320581 l
212.81092 81.430138 l
212.996968 81.546481 l
213.183016 81.504762 l
213.369065 81.98011 l
213.92721 84.82166 l
214.485356 85.739984 l
214.671404 85.902407 l
214.857452 86.413295 l
215.043501 86.301531 l
215.415598 87.137861 l
215.787695 87.134442 l
216.34584 87.59649 l
216.531889 87.535134 l
217.276082 87.783003 l
217.648179 87.583127 l
218.392373 85.792525 l
218.578421 85.803661 l
218.950518 86.076844 l
219.136567 86.710505 l
220.252858 93.188465 l
220.438906 93.271151 l
221.1831 91.603292 l
221.555197 91.249933 l
221.741245 91.442532 l
222.113342 91.145133 l
222.671487 91.391622 l
222.857536 91.440054 l
223.043584 91.719572 l
223.415681 93.701988 l
223.60173 95.230606 l
223.787778 95.716682 l
223.973827 95.702723 l
224.531972 95.031577 l
224.904069 94.284207 l
225.276166 93.298723 l
225.462214 93.028772 l
225.648263 92.516692 l
226.206408 87.430083 l
226.392456 86.73607 l
226.578505 86.476533 l
226.764553 86.486413 l
227.508747 88.943487 l
227.694796 89.079404 l
228.066892 88.710989 l
228.438989 89.431414 l
228.625038 89.999642 l
228.997135 90.496384 l
229.55528 91.106174 l
229.927377 92.085415 l
230.113425 91.918633 l
230.671571 88.914974 l
231.043668 88.268232 l
231.415765 87.745612 l
231.97391 86.333621 l
232.159958 86.45216 l
232.904152 89.510743 l
233.276249 89.237561 l
233.462297 88.853556 l
233.834394 86.854201 l
234.206491 85.149202 l
234.764637 84.34123 l
234.950685 84.105218 l
235.136734 84.474104 l
235.694879 86.069629 l
236.066976 86.281519 l
236.439073 85.908681 l
236.625121 85.955419 l
237.183266 84.214817 l
237.369315 84.340101 l
237.741412 85.474111 l
238.113509 86.460943 l
238.485606 86.784031 l
238.671654 86.81747 l
239.415848 88.442919 l
239.787945 87.942477 l
240.532139 84.653936 l
240.718187 84.902996 l
241.090284 85.811221 l
241.276332 86.012414 l
241.648429 85.714702 l
241.834478 85.664419 l
242.392623 87.924786 l
242.578672 88.269455 l
242.950768 91.243816 l
243.322865 94.618839 l
243.694962 95.846827 l
243.881011 96.25671 l
244.067059 95.885503 l
244.253108 95.170034 l
244.439156 94.991551 l
244.997301 95.844129 l
245.18335 96.869324 l
245.369398 97.233128 l
245.741495 97.414905 l
246.857786 109.51991 l
247.043834 110.250279 l
247.229883 110.051313 l
247.60198 109.060434 l
247.788028 109.107486 l
248.160125 107.636805 l
248.532222 109.34654 l
248.904319 110.816311 l
249.462464 107.815476 l
249.648513 108.109832 l
250.206658 110.514961 l
250.950852 110.252788 l
251.508997 111.334383 l
251.881094 113.460965 l
252.067142 113.582265 l
252.253191 113.569184 l
252.811336 111.688369 l
253.183433 111.743482 l
253.55553 112.772786 l
254.113675 110.249275 l
254.299724 111.737428 l
255.229966 126.024286 l
255.602063 126.864316 l
255.788111 127.273227 l
255.97416 127.405976 l
256.718354 130.258787 l
256.904402 130.448154 l
257.276499 128.722139 l
257.648596 128.044406 l
258.020693 127.91906 l
258.206741 127.976651 l
258.764887 133.482804 l
258.950935 133.89297 l
259.136984 133.73221 l
259.695129 132.826276 l
259.881177 133.367308 l
260.067226 134.439837 l
260.253274 134.394542 l
260.625371 133.609248 l
260.81142 132.968058 l
261.183517 129.928327 l
261.369565 128.09999 l
261.555613 128.185498 l
261.92771 129.633657 l
262.113759 129.459785 l
262.485856 128.083772 l
262.857953 127.766204 l
263.416098 127.700614 l
263.974243 131.327677 l
264.160292 130.963434 l
264.532389 129.39843 l
265.090534 124.878889 l
265.276582 124.681836 l
265.834728 129.726255 l
266.020776 129.492251 l
266.392873 128.434433 l
266.578922 128.436159 l
267.137067 126.880565 l
267.323115 125.695645 l
267.695212 125.149939 l
267.881261 124.9367 l
268.439406 125.812741 l
268.811503 125.834479 l
268.997551 125.458002 l
269.1836 125.614967 l
269.741745 126.633449 l
269.927794 127.747572 l
270.113842 127.554597 l
270.485939 126.206846 l
271.230133 129.267281 l
271.416181 129.373367 l
272.160375 124.877258 l
272.346424 124.517845 l
273.090617 119.750248 l
273.276666 119.974528 l
273.648763 120.789903 l
274.02086 121.104084 l
274.206908 121.204084 l
274.392956 121.474067 l
274.765053 121.347153 l
275.13715 121.009447 l
275.881344 118.898423 l
276.253441 118.715893 l
276.625538 119.414047 l
276.997635 121.620712 l
277.369732 122.667927 l
277.55578 122.817614 l
277.927877 121.05882 l
278.113926 120.672211 l
278.299974 120.657437 l
278.858119 121.200038 l
279.044168 121.175194 l
279.416265 122.249762 l
279.97441 122.846881 l
280.160458 122.895093 l
280.346507 123.072886 l
280.718604 123.691146 l
281.276749 129.047486 l
281.648846 130.28799 l
282.206991 132.285463 l
283.137234 139.464055 l
283.509331 140.806034 l
284.253524 137.692399 l
284.81167 136.906917 l
285.555864 138.166524 l
285.741912 138.551815 l
285.92796 138.321136 l
286.114009 138.305735 l
286.858203 139.691942 l
287.2303 141.394714 l
288.160542 142.960941 l
288.34659 142.814579 l
288.904736 139.443823 l
289.090784 139.319731 l
289.276833 139.454707 l
289.648929 140.878086 l
289.834978 141.154907 l
290.021026 140.853399 l
290.579172 141.715576 l
291.137317 143.513705 l
292.067559 151.902281 l
292.439656 156.660719 l
292.625705 156.301494 l
293.18385 156.675524 l
293.741995 150.034326 l
293.928044 151.044339 l
294.486189 157.716874 l
294.858286 160.811091 l
295.044334 160.193113 l
295.230383 159.181752 l
295.788528 144.105397 l
295.974577 141.592865 l
296.160625 135.928461 l
296.532722 131.231158 l
296.904819 125.163458 l
297.090867 123.721165 l
297.276916 123.895476 l
297.462964 126.603399 l
298.02111 146.588506 l
298.393207 152.71132 l
298.579255 152.405232 l
298.765303 151.723452 l
298.951352 150.483011 l
299.1374 147.650307 l
299.323449 147.51163 l
299.881594 149.570239 l
300.811836 160.229155 l
300.997885 161.625181 l
301.369982 168.695209 l
301.55603 170.59908 l
301.742079 169.561934 l
302.114176 166.289986 l
302.486272 165.109489 l
302.672321 164.733953 l
302.858369 164.107035 l
303.044418 165.267614 l
303.602563 172.571395 l
303.788612 172.290088 l
303.97466 171.270132 l
304.346757 167.686984 l
304.532805 167.113203 l
304.718854 167.00191 l
304.904902 167.02553 l
305.090951 166.155637 l
305.276999 166.509216 l
305.463048 166.603225 l
305.649096 166.136001 l
306.765387 167.485571 l
307.323532 171.968443 l
307.695629 173.066348 l
308.067726 173.571747 l
308.253774 174.449325 l
308.625871 172.955055 l
308.81192 172.226474 l
308.997968 172.269668 l
309.184017 171.759658 l
309.370065 169.809865 l
309.556114 169.249322 l
310.672404 173.182974 l
311.788695 165.019745 l
311.974743 166.084777 l
312.718937 173.5076 l
312.904986 173.713373 l
313.277083 171.182866 l
313.649179 170.672041 l
314.021276 170.566614 l
314.207325 171.399555 l
314.76547 178.427676 l
314.951519 178.822566 l
315.323616 178.163935 l
315.509664 177.364997 l
316.625955 181.710634 l
316.812003 181.626819 l
317.1841 183.127613 l
317.742245 188.036868 l
317.928294 188.632261 l
318.672488 187.390941 l
319.416681 187.955751 l
319.60273 188.466262 l
319.974827 193.176174 l
320.346924 199.512885 l
320.719021 203.371725 l
321.277166 213.662477 l
321.649263 217.315576 l
322.393457 219.874438 l
323.13765 239.23175 l
323.509747 236.947544 l
324.067893 217.9477 l
324.253941 215.892511 l
324.43999 215.171898 l
324.626038 215.431247 l
324.812086 217.318273 l
325.184183 223.080639 l
325.928377 212.440543 l
326.114426 212.917585 l
326.300474 211.993771 l
326.486523 212.099983 l
327.044668 211.487996 l
327.230716 211.484953 l
327.788862 217.303656 l
327.97491 216.829907 l
328.533055 212.453404 l
328.719104 212.032981 l
328.905152 212.019618 l
329.091201 211.0799 l
329.277249 212.315856 l
329.835395 218.953667 l
330.207492 218.361505 l
330.39354 217.650772 l
330.579588 217.868057 l
331.137734 214.675941 l
331.323782 215.06349 l
331.695879 211.032347 l
332.254024 200.956402 l
332.626121 198.850083 l
332.81217 198.883803 l
333.370315 203.870693 l
333.742412 206.409763 l
334.114509 207.500548 l
334.300557 208.183363 l
334.858703 204.776628 l
335.044751 204.226561 l
335.416848 208.564733 l
335.602897 208.193401 l
335.788945 208.221193 l
336.34709 205.377134 l
336.905236 206.752739 l
337.091284 208.234712 l
337.277333 208.235308 l
337.64943 207.310773 l
337.835478 207.162371 l
338.021526 206.772908 l
338.207575 207.014472 l
338.76572 201.730183 l
338.951769 200.931151 l
339.137817 201.275036 l
339.323866 202.478871 l
340.440156 214.101721 l
340.998302 202.843773 l
341.18435 201.297841 l
341.370399 200.898685 l
341.556447 201.186547 l
341.928544 203.134239 l
342.114592 203.726056 l
342.300641 203.315012 l
342.858786 198.761375 l
343.044835 199.276654 l
343.230883 198.054469 l
343.60298 191.286168 l
343.975077 188.215571 l
344.161125 187.937808 l
344.347174 186.286982 l
344.533222 183.543206 l
344.719271 184.189132 l
345.463464 192.483008 l
345.649513 193.491202 l
346.02161 197.274414 l
346.207658 197.186019 l
347.1379 194.413604 l
347.323949 194.826499 l
347.509997 195.564271 l
348.068143 203.320972 l
348.254191 203.629945 l
348.44024 203.367114 l
348.998385 201.788684 l
349.370482 201.54458 l
349.55653 201.480401 l
349.928627 203.034113 l
350.486773 213.355668 l
350.858869 215.314119 l
351.044918 215.138993 l
351.230966 214.446391 l
351.789112 211.135359 l
351.97516 210.753863 l
352.719354 197.412118 l
353.091451 195.629735 l
353.463548 194.843689 l
353.835645 193.754472 l
354.579838 198.506636 l
355.137984 197.855722 l
355.324032 196.964499 l
355.510081 196.775163 l
355.882178 196.999443 l
356.254275 198.416328 l
356.626371 195.525092 l
357.184517 185.364924 l
357.370565 185.185971 l
358.114759 194.134148 l
358.300808 194.552626 l
358.486856 194.561127 l
359.045001 189.299768 l
359.603147 182.414842 l
359.789195 181.512389 l
359.975244 181.967976 l
360.34734 185.354981 l
360.533389 185.433118 l
361.091534 182.817166 l
362.021777 170.306763 l
362.76597 166.538294 l
362.952019 167.064615 l
363.696213 171.110313 l
363.882261 170.146567 l
364.068309 170.175739 l
364.440406 171.848617 l
364.626455 172.061135 l
364.812503 172.076881 l
364.998552 171.898743 l
365.370649 172.883787 l
365.742746 172.679583 l
366.300891 173.692137 l
366.486939 173.577048 l
366.672988 171.777381 l
367.045085 166.513952 l
367.231133 167.36562 l
368.161375 175.030759 l
368.347424 175.406514 l
368.533472 175.329914 l
368.905569 174.89685 l
369.091618 174.74939 l
369.277666 174.251896 l
369.463715 174.646691 l
369.649763 174.457449 l
370.766054 180.968941 l
371.138151 183.758483 l
371.324199 184.096127 l
371.510247 184.177934 l
371.696296 183.771532 l
371.882344 182.795271 l
372.068393 182.669329 l
372.254441 182.092663 l
372.626538 180.075021 l
372.812587 179.473888 l
372.998635 179.413473 l
373.742829 188.305126 l
374.114926 192.649822 l
374.487023 194.026243 l
374.85912 193.152052 l
375.417265 191.128231 l
375.603313 191.908161 l
375.97541 196.21967 l
376.347507 201.277514 l
376.533556 202.095023 l
376.719604 202.321875 l
376.905653 202.146309 l
377.091701 202.153147 l
377.277749 202.725861 l
377.649846 204.7143 l
377.835895 204.979891 l
378.021943 205.001567 l
378.580089 206.392228 l
378.766137 204.578132 l
378.952185 204.03848 l
379.138234 204.000807 l
380.068476 204.973022 l
380.440573 204.647361 l
380.626622 204.46985 l
380.81267 203.873422 l
381.370815 199.925341 l
381.928961 185.135218 l
382.301058 181.655866 l
382.487106 181.529673 l
382.859203 183.060267 l
383.2313 183.508356 l
383.417348 183.619618 l
383.603397 183.278493 l
383.975494 180.201935 l
384.161542 180.544409 l
384.905736 183.647284 l
385.277833 186.435854 l
385.64993 187.760015 l
385.835978 187.955217 l
386.022027 187.874947 l
386.208075 186.984195 l
386.394123 187.37187 l
386.952269 190.630298 l
387.138317 191.107403 l
387.324366 191.250597 l
387.510414 190.722457 l
387.696463 190.664301 l
388.440656 186.668572 l
388.626705 186.395515 l
388.998802 186.464994 l
389.18485 186.278575 l
389.742996 191.225722 l
389.929044 191.784603 l
390.301141 190.084717 l
390.487189 190.435347 l
391.045335 187.443922 l
391.417432 180.605231 l
391.789529 174.860557 l
391.975577 174.65262 l
392.347674 175.639546 l
393.091868 183.044771 l
393.277916 183.313844 l
393.650013 182.994143 l
393.836061 182.71773 l
394.394207 185.687041 l
394.952352 184.06846 l
395.138401 184.527623 l
395.510498 187.547875 l
396.254691 190.813737 l
396.44074 191.098212 l
396.626788 191.086198 l
396.812837 189.784778 l
397.184934 185.783058 l
397.55703 184.208298 l
398.487273 185.389234 l
398.487273 185.389234 l
stroke
grestore
1.000 0.647 0.000 setrgbcolor
gsave
357.1 266.1 57.6 38.02 clipbox
73.832727 63.576983 m
74.018776 59.401296 l
74.204824 62.394942 l
74.576921 62.394942 l
74.76297 59.491234 l
75.135066 63.461348 l
75.507163 59.850986 l
75.87926 59.850986 l
76.065309 57.923746 l
76.437406 59.504082 l
76.623454 50.433207 l
76.809502 51.628095 l
77.181599 51.628095 l
77.367648 52.822984 l
77.553696 50.112 l
77.739745 52.154874 l
77.925793 51.563854 l
78.856035 51.563854 l
79.042084 52.398991 l
79.228132 55.302699 l
79.972326 55.302699 l
80.158375 56.613223 l
80.530471 63.217231 l
80.71652 62.998811 l
81.088617 62.998811 l
81.274665 63.679769 l
81.460714 66.506387 l
81.646762 63.692617 l
81.832811 70.502198 l
82.018859 66.724808 l
82.390956 66.724808 l
82.763053 73.328817 l
82.949101 72.994762 l
83.13515 68.18951 l
83.321198 69.345854 l
83.693295 69.345854 l
83.879344 72.506528 l
84.065392 73.521541 l
84.25144 67.919697 l
84.623537 65.311499 l
84.995634 65.311499 l
85.181683 67.354373 l
85.367731 72.493679 l
85.55378 70.142447 l
85.739828 74.844912 l
85.925877 73.110396 l
86.297973 73.110396 l
86.484022 76.078346 l
86.67007 77.170448 l
86.856119 80.022763 l
87.042167 78.660847 l
87.228216 76.476642 l
87.600313 76.476642 l
87.786361 74.922002 l
87.972409 77.106207 l
88.158458 75.474477 l
88.344506 79.624467 l
88.530555 79.984218 l
88.902652 79.984218 l
89.274749 77.735772 l
89.460797 78.622302 l
89.832894 82.990713 l
90.204991 82.990713 l
90.391039 83.90294 l
90.577088 83.491795 l
90.763136 79.585922 l
90.949185 78.994902 l
91.135233 76.014104 l
91.50733 76.014104 l
91.693378 77.1576 l
92.065475 71.568604 l
92.623621 69.885481 l
92.809669 69.885481 l
92.995718 70.283778 l
93.181766 70.386564 l
93.367815 68.896165 l
93.553863 76.746455 l
93.92596 76.810697 l
94.112008 76.810697 l
94.298057 77.5302 l
94.670154 81.808672 l
94.856202 81.410376 l
95.414347 81.410376 l
95.600396 83.992877 l
95.786444 83.915788 l
95.972493 82.335451 l
96.158541 81.744431 l
96.34459 80.729418 l
96.716687 80.729418 l
96.902735 81.346135 l
97.088784 84.018574 l
97.274832 80.973535 l
97.46088 82.695203 l
97.646929 86.279869 l
98.019026 86.279869 l
98.205074 82.065637 l
98.391123 82.797989 l
98.76322 90.828155 l
99.507413 90.828155 l
99.693462 89.491935 l
99.87951 89.517632 l
100.065559 90.301376 l
100.437656 90.237135 l
100.623704 90.237135 l
100.809753 87.037916 l
100.995801 86.626772 l
101.181849 85.097828 l
101.367898 85.341945 l
101.553946 86.279869 l
102.112092 86.279869 l
102.856285 76.4124 l
103.228382 76.4124 l
103.414431 76.86209 l
103.600479 74.446616 l
103.786528 75.101877 l
103.972576 75.15327 l
104.158625 77.234689 l
104.530722 77.234689 l
104.902818 77.992737 l
105.088867 83.954333 l
105.274915 83.568885 l
105.460964 82.56672 l
105.833061 82.56672 l
106.019109 84.326932 l
106.205158 84.673835 l
106.391206 82.708051 l
106.577254 83.838698 l
106.763303 85.920117 l
107.321448 85.920117 l
107.507497 85.316249 l
107.693545 86.215627 l
107.879594 85.868724 l
108.065642 88.464074 l
108.437739 88.464074 l
108.623787 89.748901 l
108.809836 93.230781 l
108.995884 92.588367 l
109.181933 87.988688 l
109.367981 86.305565 l
109.926127 86.26702 l
110.112175 85.136373 l
110.298223 88.605405 l
110.484272 83.221981 l
110.67032 83.440402 l
111.042417 83.440402 l
111.414514 80.04846 l
111.600563 80.125549 l
111.97266 83.517492 l
112.344756 83.517492 l
112.530805 80.832204 l
112.716853 81.937155 l
112.902902 81.538859 l
113.08895 80.382515 l
113.274999 80.061308 l
113.647096 80.061308 l
114.019192 75.30745 l
114.205241 74.420919 l
114.391289 75.60296 l
114.577338 73.22603 l
114.949435 73.22603 l
115.135483 72.262411 l
115.321532 72.04399 l
115.50758 74.035471 l
115.693629 74.061168 l
115.879677 76.990572 l
116.251774 76.990572 l
116.437822 77.967041 l
116.623871 79.67586 l
116.809919 80.035611 l
116.995968 79.149081 l
117.182016 81.680189 l
117.554113 81.680189 l
117.740162 83.478947 l
117.92621 83.183437 l
118.112258 81.564555 l
118.298307 84.905104 l
118.484355 85.881572 l
118.856452 85.881572 l
119.228549 87.436213 l
119.600646 86.703861 l
119.786694 84.031422 l
120.34484 84.108512 l
120.530888 85.08498 l
121.089034 91.329237 l
121.461131 91.329237 l
121.647179 90.352769 l
121.833227 87.269185 l
122.019276 87.89875 l
122.391373 93.821801 l
122.76347 93.821801 l
122.949518 93.076601 l
123.135567 90.841003 l
123.507663 92.074437 l
123.693712 91.123665 l
124.251857 91.123665 l
124.437906 99.693458 l
124.623954 97.08526 l
124.810003 97.920398 l
124.996051 100.143148 l
125.368148 100.143148 l
125.554196 103.406607 l
125.926293 104.627193 l
126.29839 106.785701 l
126.670487 106.785701 l
127.042584 101.710636 l
127.228632 101.98045 l
127.600729 100.772713 l
127.972826 100.772713 l
128.158875 98.010336 l
128.344923 97.367922 l
128.530972 97.804763 l
128.71702 92.871029 l
128.903069 93.564836 l
129.275165 93.564836 l
129.461214 93.179388 l
129.647262 94.913903 l
129.833311 90.41701 l
130.019359 90.622583 l
130.391456 90.558341 l
130.577505 90.558341 l
130.763553 88.142867 l
130.949601 87.513302 l
131.13565 88.284198 l
131.321698 88.34844 l
131.507747 85.08498 l
131.879844 85.08498 l
132.251941 92.691153 l
132.437989 92.138678 l
132.624038 92.395643 l
132.810086 94.798269 l
133.182183 94.798269 l
133.368231 95.749041 l
133.55428 90.982334 l
133.740328 89.813142 l
133.926377 91.406327 l
134.112425 90.070107 l
134.484522 90.070107 l
134.67057 88.451226 l
134.856619 88.849522 l
135.228716 88.155716 l
135.414764 86.279869 l
135.786861 86.279869 l
135.97291 87.706026 l
136.158958 87.23064 l
136.345007 89.003701 l
136.531055 89.556177 l
136.717103 86.472593 l
137.0892 86.472593 l
137.461297 88.631101 l
137.647346 90.78961 l
137.833394 90.995182 l
138.205491 90.8667 l
138.391539 90.8667 l
138.763636 88.374136 l
138.949685 90.327072 l
139.135733 89.761749 l
139.321782 90.879548 l
139.693879 90.879548 l
139.879927 91.354934 l
140.065976 90.609734 l
140.438072 92.42134 l
140.996218 92.459885 l
141.182266 93.590532 l
141.368315 92.806788 l
141.740412 89.813142 l
141.92646 88.605405 l
142.298557 88.605405 l
142.484605 88.078626 l
142.670654 86.241324 l
142.856702 85.573214 l
143.228799 82.219817 l
143.600896 82.219817 l
143.786945 81.320438 l
143.972993 79.714405 l
144.159041 80.164094 l
144.531138 83.23483 l
144.903235 83.23483 l
145.089284 84.776622 l
145.275332 84.71238 l
145.461381 85.791635 l
146.577671 85.791635 l
146.949768 92.588367 l
147.693962 92.588367 l
147.88001 97.997487 l
148.066059 98.729838 l
148.252107 98.627052 l
148.438156 99.30801 l
148.810253 99.30801 l
148.996301 100.027513 l
149.18235 97.727674 l
149.368398 99.97612 l
149.740495 101.787726 l
150.112592 101.787726 l
150.29864 104.986944 l
150.484689 103.599331 l
150.670737 104.061869 l
150.856786 103.175338 l
151.042834 103.881993 l
151.414931 103.881993 l
151.600979 103.278125 l
151.787028 103.483697 l
151.973076 108.700093 l
152.159125 109.021299 l
152.345173 108.558762 l
152.71727 108.558762 l
152.903319 106.168984 l
153.089367 106.438798 l
153.275415 106.477343 l
153.461464 105.526571 l
153.647512 102.905525 l
154.019609 102.905525 l
154.205658 103.53509 l
154.391706 102.969766 l
154.949852 98.524266 l
155.321948 98.524266 l
155.507997 100.631382 l
155.694045 101.415126 l
156.066142 108.378886 l
156.252191 108.288948 l
156.624288 108.288948 l
156.996384 105.141123 l
157.182433 102.738497 l
157.368481 102.186022 l
157.740578 102.083236 l
157.926627 102.083236 l
158.112675 103.509393 l
158.670821 96.892536 l
158.856869 100.631382 l
159.228966 100.631382 l
159.415014 100.143148 l
159.601063 102.969766 l
159.787111 102.455836 l
159.97316 100.297327 l
160.345257 100.194541 l
160.531305 100.194541 l
160.717353 99.821941 l
160.903402 100.747016 l
161.08945 100.952588 l
161.275499 99.719155 l
161.461547 97.496405 l
161.833644 97.496405 l
162.019693 98.087425 l
162.205741 97.727674 l
162.949935 106.875639 l
163.135983 108.366038 l
163.694129 101.029678 l
163.880177 103.496545 l
164.624371 103.496545 l
164.810419 104.485862 l
164.996468 102.018995 l
165.182516 102.918373 l
165.368565 103.111097 l
165.740662 103.111097 l
165.92671 104.909854 l
166.112759 107.942045 l
166.298807 105.526571 l
166.484855 106.13044 l
166.670904 107.582294 l
167.043001 107.582294 l
167.229049 105.719295 l
167.415098 108.121921 l
167.601146 107.38957 l
167.973243 101.145312 l
168.34534 101.145312 l
168.531388 102.314505 l
168.717437 100.464354 l
168.903485 100.220237 l
169.089534 100.42581 l
169.275582 98.292997 l
169.647679 98.292997 l
170.019776 95.98031 l
170.205824 98.768383 l
170.577921 96.597026 l
171.136067 96.597026 l
171.694212 101.158161 l
171.88026 100.001817 l
172.252357 100.001817 l
172.438406 93.616229 l
172.810503 92.202919 l
172.996551 91.894561 l
173.554697 91.907409 l
173.740745 93.115146 l
173.926793 92.074437 l
174.112842 96.147337 l
174.29889 95.800434 l
174.484939 93.744711 l
175.043084 93.744711 l
175.415181 96.27582 l
175.601229 93.513442 l
175.787278 93.731863 l
176.159375 93.731863 l
176.345423 92.858181 l
176.531472 94.926752 l
176.71752 94.194401 l
177.275666 94.798269 l
177.461714 94.798269 l
177.647762 94.554152 l
177.833811 93.911739 l
178.019859 95.60771 l
178.205908 91.110817 l
178.391956 90.160045 l
178.764053 90.160045 l
178.950102 88.772432 l
179.13615 88.27135 l
179.322198 86.202779 l
179.508247 86.973675 l
179.880344 86.858041 l
180.066392 86.858041 l
180.438489 83.23483 l
180.624538 82.451085 l
180.810586 82.168424 l
180.996635 81.487466 l
181.368731 81.487466 l
181.740828 83.504643 l
182.112925 83.427554 l
182.298974 85.149221 l
182.485022 85.149221 l
182.671071 83.08065 l
182.857119 82.412541 l
183.229216 79.919977 l
183.415264 79.765798 l
183.601313 77.632986 l
183.97341 77.632986 l
184.345507 73.714265 l
184.531555 76.592276 l
184.717604 75.615808 l
184.903652 76.48949 l
185.275749 76.48949 l
185.461797 77.298931 l
185.833894 75.358843 l
186.019943 75.320298 l
186.205991 74.587947 l
186.578088 74.587947 l
186.764136 74.086864 l
186.950185 73.174637 l
187.136233 73.393058 l
187.322282 71.684239 l
187.50833 72.378045 l
187.880427 72.378045 l
188.066476 71.658542 l
188.252524 72.891976 l
188.438573 72.904824 l
188.624621 69.294461 l
188.810669 68.433627 l
189.182766 68.433627 l
189.368815 64.579147 l
189.740912 63.654072 l
190.113009 66.878987 l
190.485105 66.878987 l
190.671154 68.343689 l
190.857202 67.238739 l
191.043251 68.613503 l
191.229299 72.352348 l
191.415348 70.283778 l
191.973493 70.283778 l
192.159542 68.510717 l
192.34559 69.834088 l
192.531638 69.217372 l
192.717687 66.853291 l
193.089784 70.527895 l
193.275832 68.921861 l
193.461881 68.330841 l
193.647929 66.596325 l
193.833978 68.073876 l
194.020026 71.722783 l
194.392123 71.722783 l
194.578171 69.705606 l
194.76422 69.692757 l
194.950268 69.255916 l
195.136317 70.052509 l
195.322365 71.350184 l
195.694462 71.350184 l
195.880511 68.870468 l
196.066559 69.911178 l
196.252607 69.692757 l
196.624704 65.45283 l
196.996801 65.45283 l
197.368898 66.467843 l
197.554947 70.41226 l
197.740995 69.512882 l
197.927044 70.091054 l
198.485189 70.180991 l
198.671237 65.851126 l
198.857286 65.491374 l
199.043334 66.275119 l
199.229383 70.630681 l
199.60148 70.630681 l
199.973576 76.900635 l
200.159625 77.093359 l
200.345673 76.669366 l
200.531722 75.114726 l
200.903819 75.114726 l
201.089867 76.361007 l
201.275916 74.93485 l
201.461964 78.442426 l
201.648013 77.054814 l
202.020109 77.119055 l
202.206158 77.119055 l
202.392206 77.902799 l
202.578255 77.119055 l
202.764303 75.731442 l
202.950352 73.046155 l
203.1364 77.208993 l
203.508497 77.208993 l
203.694545 77.45311 l
203.880594 77.491655 l
204.066642 77.324627 l
204.252691 76.900635 l
204.438739 75.410236 l
204.810836 75.410236 l
205.182933 70.630681 l
205.368982 69.74415 l
205.55503 70.039661 l
205.741078 72.249562 l
206.113175 72.249562 l
206.299224 74.960546 l
206.485272 74.754974 l
206.671321 75.114726 l
206.857369 75.911318 l
207.043418 76.155435 l
207.415514 76.155435 l
207.601563 75.281753 l
207.787611 75.217512 l
207.97366 74.652188 l
208.159708 72.609314 l
208.345757 75.949863 l
208.717854 75.949863 l
208.903902 73.714265 l
209.275999 79.560226 l
209.462047 78.429578 l
209.648096 80.138398 l
210.020193 80.138398 l
210.206241 80.331122 l
210.39229 80.8579 l
210.578338 80.845052 l
210.764387 80.960687 l
210.950435 80.189791 l
211.322532 80.189791 l
211.50858 78.288247 l
212.252774 84.558201 l
212.624871 84.558201 l
212.81092 84.147057 l
212.996968 84.147057 l
213.369065 89.504783 l
213.92721 89.504783 l
214.113259 90.506948 l
214.485356 90.506948 l
214.671404 92.447036 l
214.857452 89.736052 l
215.043501 92.896726 l
215.229549 92.896726 l
215.415598 91.419175 l
215.973743 92.819636 l
216.159792 92.819636 l
216.34584 92.061588 l
216.717937 93.462049 l
217.090034 92.511278 l
217.462131 92.511278 l
217.834228 89.646114 l
218.020276 90.301376 l
218.206325 89.710356 l
218.392373 90.71252 l
218.76447 90.71252 l
219.136567 95.453531 l
219.508664 97.650584 l
219.694712 100.875499 l
220.066809 100.875499 l
220.438906 98.023184 l
220.624954 98.549963 l
220.997051 97.470708 l
221.369148 97.470708 l
221.555197 98.71699 l
221.741245 96.545633 l
222.113342 98.190211 l
222.29939 97.843308 l
222.671487 97.843308 l
222.857536 99.153831 l
223.415681 106.143288 l
223.60173 102.931221 l
223.973827 102.931221 l
224.159875 102.365898 l
224.345923 102.879828 l
224.531972 101.338036 l
224.71802 100.772713 l
224.904069 99.821941 l
225.276166 99.821941 l
225.462214 97.971791 l
225.648263 91.149362 l
225.834311 90.738217 l
226.020359 91.264996 l
226.206408 91.123665 l
226.578505 91.123665 l
226.764553 94.065918 l
226.950602 93.038057 l
227.13665 94.143007 l
227.322699 96.686964 l
227.508747 93.75756 l
227.880844 93.75756 l
228.066892 95.800434 l
228.438989 96.879688 l
228.625038 95.851827 l
228.811086 97.367922 l
229.183183 97.367922 l
229.369232 97.804763 l
229.55528 99.924727 l
229.741328 99.08959 l
229.927377 97.393619 l
230.113425 93.654773 l
230.671571 93.719015 l
230.857619 93.230781 l
231.043668 92.408492 l
231.229716 92.447036 l
231.415765 90.57119 l
231.787861 90.57119 l
231.97391 91.933106 l
232.159958 94.901055 l
232.532055 96.301516 l
232.718104 94.592697 l
233.090201 94.592697 l
233.276249 93.436353 l
233.648346 88.823825 l
234.020443 88.656798 l
234.39254 88.656798 l
234.578588 87.063613 l
234.764637 87.616088 l
234.950685 89.967321 l
235.136734 90.841003 l
235.880927 90.841003 l
236.066976 89.633266 l
236.439073 90.738217 l
236.625121 87.436213 l
236.997218 87.436213 l
237.183266 89.389149 l
237.741412 91.329237 l
237.92746 91.586203 l
238.485606 91.586203 l
238.671654 93.770408 l
238.857703 94.489911 l
239.043751 94.669786 l
239.229799 92.768243 l
239.601896 92.768243 l
239.787945 89.967321 l
240.160042 87.487606 l
240.34609 88.168564 l
240.532139 90.699672 l
240.904235 90.699672 l
241.090284 90.404162 l
241.276332 89.324908 l
241.462381 90.185742 l
241.648429 90.005866 l
241.834478 93.75756 l
242.392623 93.75756 l
242.578672 99.295162 l
243.136817 104.023324 l
243.508914 104.023324 l
243.694962 105.346695 l
243.881011 102.250263 l
244.067059 101.145312 l
244.439156 104.12611 l
244.811253 104.12611 l
244.997301 108.070528 l
245.18335 105.513723 l
245.369398 105.526571 l
245.555447 106.220378 l
245.741495 115.329798 l
246.113592 115.329798 l
246.671737 128.666298 l
246.857786 121.6126 l
247.043834 121.24 l
247.415931 121.24 l
247.60198 122.910275 l
247.788028 118.05363 l
247.974077 118.297748 l
248.160125 124.066619 l
248.346173 124.42637 l
248.71827 124.42637 l
248.904319 117.681031 l
249.090367 120.623284 l
249.276416 118.42623 l
249.462464 122.730399 l
249.648513 124.13086 l
250.02061 124.13086 l
250.206658 122.550524 l
250.392706 123.783957 l
250.578755 123.128696 l
250.764803 123.257178 l
250.950852 125.081632 l
251.322949 125.081632 l
251.508997 130.79911 l
251.695046 127.728375 l
251.881094 127.163051 l
252.067142 127.522802 l
252.253191 124.734729 l
252.625288 124.734729 l
252.811336 125.83968 l
252.997385 125.492776 l
253.183433 127.252989 l
253.369482 127.676982 l
253.55553 122.344951 l
253.927627 122.344951 l
254.299724 137.364574 l
254.485772 137.364574 l
254.671821 147.848759 l
254.857869 145.202016 l
255.229966 145.202016 l
255.416015 145.703099 l
255.602063 147.501856 l
255.788111 145.882975 l
255.97416 149.69891 l
256.160208 150.315626 l
256.718354 150.21284 l
256.904402 145.420437 l
257.090451 147.463311 l
257.462548 146.820898 l
257.834644 146.820898 l
258.020693 147.270587 l
258.206741 154.761126 l
258.578838 156.624125 l
258.764887 153.591934 l
259.323032 153.591934 l
259.50908 152.962369 l
259.881177 158.14022 l
260.067226 153.77181 l
260.439323 153.77181 l
260.625371 152.384197 l
260.997468 145.84443 l
261.183517 143.891493 l
261.369565 150.199992 l
261.741662 150.199992 l
262.113759 145.574616 l
262.299807 146.833746 l
262.485856 147.193498 l
262.671904 146.473995 l
263.044001 146.473995 l
263.230049 146.782353 l
263.416098 151.973053 l
263.602146 151.600453 l
263.788195 153.681872 l
263.974243 147.938697 l
264.34634 147.938697 l
264.532389 143.698769 l
264.718437 142.516729 l
264.904486 139.47169 l
265.276582 150.688226 l
265.648679 150.688226 l
265.834728 146.075699 l
266.020776 146.615326 l
266.206825 147.797366 l
266.392873 148.157118 l
266.578922 144.957899 l
266.951018 144.957899 l
267.137067 140.936392 l
267.323115 143.878645 l
267.695212 142.465336 l
267.881261 144.405424 l
268.253358 144.405424 l
268.439406 143.724466 l
268.625455 144.148459 l
268.811503 142.529577 l
268.997551 144.867962 l
269.1836 145.407589 l
269.555697 145.407589 l
269.741745 149.750303 l
269.927794 144.341183 l
270.113842 142.889329 l
270.299891 144.264093 l
270.485939 149.107889 l
270.858036 149.107889 l
271.044084 148.555414 l
271.230133 148.722441 l
271.416181 143.454652 l
271.788278 142.246915 l
272.160375 142.246915 l
272.346424 137.081912 l
272.71852 133.972632 l
272.904569 136.760706 l
273.090617 137.724326 l
273.648763 137.788567 l
274.02086 138.186863 l
274.206908 139.022001 l
274.392956 137.827112 l
274.765053 137.827112 l
274.951102 137.159002 l
275.323199 134.640742 l
275.509247 134.563652 l
275.881344 134.640742 l
276.067393 134.640742 l
276.253441 136.054051 l
276.439489 136.311016 l
276.625538 140.461006 l
276.811586 139.895683 l
276.997635 140.114103 l
277.369732 140.114103 l
277.55578 135.925568 l
278.299974 138.019836 l
278.672071 138.019836 l
278.858119 137.711477 l
279.044168 140.615186 l
279.416265 139.625869 l
279.602313 140.306827 l
279.97441 140.306827 l
280.346507 141.69444 l
280.532555 141.69444 l
280.718604 149.24922 l
280.904652 150.084358 l
281.462798 150.084358 l
281.648846 153.257879 l
282.020943 153.257879 l
282.206991 158.821178 l
282.579088 158.821178 l
282.765137 165.078284 l
282.951185 163.729216 l
283.137234 163.729216 l
283.323282 164.782774 l
283.509331 159.335109 l
283.881427 159.335109 l
284.067476 160.06746 l
284.439573 157.883255 l
284.997718 160.311577 l
285.183767 160.311577 l
285.555864 161.750583 l
285.741912 159.47644 l
286.114009 162.457238 l
286.486106 162.457238 l
286.672154 162.816989 l
286.858203 166.877041 l
287.044251 165.309553 l
287.2303 165.168222 l
287.416348 166.401655 l
287.788445 166.401655 l
287.974493 167.930599 l
288.160542 165.502277 l
288.34659 161.288045 l
288.532639 159.990371 l
288.718687 162.560024 l
289.090784 162.560024 l
289.276833 164.96265 l
289.462881 165.10398 l
289.648929 164.410174 l
289.834978 162.66281 l
290.021026 165.579366 l
290.393123 165.579366 l
290.579172 167.211096 l
290.76522 167.056917 l
291.137317 173.069905 l
291.323365 176.872992 l
291.695462 176.872992 l
292.067559 190.402216 l
292.439656 180.958741 l
292.625705 185.352848 l
292.997802 185.352848 l
293.18385 174.521759 l
293.369898 171.900713 l
293.555947 175.973613 l
293.928044 187.305784 l
294.300141 187.305784 l
294.486189 193.4858 l
295.044334 185.802537 l
295.230383 164.461567 l
295.60248 164.461567 l
295.788528 162.431541 l
295.974577 143.133446 l
296.160625 155.596264 l
296.532722 139.677262 l
296.904819 139.677262 l
297.276916 152.821038 l
297.462964 173.468202 l
297.649013 173.391112 l
297.835061 180.933044 l
298.207158 180.933044 l
298.393207 176.436151 l
298.579255 176.693116 l
298.765303 174.290491 l
298.951352 165.964814 l
299.1374 176.307668 l
299.509497 176.307668 l
299.695546 175.356897 l
299.881594 184.402076 l
300.067643 184.646193 l
300.253691 184.273593 l
300.43974 192.714904 l
300.811836 192.714904 l
300.997885 208.45403 l
301.183933 202.479586 l
301.369982 205.26766 l
301.55603 195.772791 l
302.300224 195.772791 l
302.672321 193.074655 l
303.044418 207.002176 l
303.416515 207.002176 l
303.602563 201.772932 l
303.788612 201.528814 l
303.97466 195.515826 l
304.160709 198.548017 l
304.346757 198.393838 l
304.718854 198.393838 l
304.904902 194.15391 l
305.090951 200.025567 l
305.463048 195.502978 l
305.649096 198.727893 l
306.021193 198.727893 l
306.207241 198.393838 l
306.39329 198.3039 l
306.579338 199.845692 l
306.765387 205.807287 l
307.323532 205.807287 l
307.509581 206.770907 l
307.695629 206.60388 l
307.881678 207.439017 l
308.067726 210.098608 l
308.253774 204.085619 l
308.625871 204.085619 l
308.81192 206.308369 l
308.997968 202.890731 l
309.184017 196.29957 l
309.556114 205.062088 l
310.114259 205.062088 l
310.300307 205.550322 l
310.486356 208.518271 l
310.672404 199.061947 l
310.858453 197.700031 l
311.23055 197.700031 l
311.416598 193.434407 l
311.602647 195.207468 l
311.788695 201.156215 l
311.974743 203.353268 l
312.160792 207.516106 l
312.532889 207.516106 l
312.718937 206.295521 l
312.904986 200.372471 l
313.277083 203.944288 l
313.463131 202.698007 l
313.835228 202.698007 l
314.021276 206.616728 l
314.207325 213.580488 l
314.393373 215.392093 l
314.579422 214.659742 l
314.76547 212.218572 l
315.137567 212.218572 l
315.323616 209.918732 l
315.509664 216.0859 l
315.695712 215.186521 l
315.881761 215.944569 l
316.067809 217.589147 l
316.439906 217.589147 l
316.625955 216.419955 l
316.812003 220.274435 l
316.998052 220.698427 l
317.1841 226.23603 l
317.370148 226.492995 l
317.742245 226.492995 l
317.928294 224.180307 l
318.114342 225.310955 l
318.300391 223.871949 l
318.672488 225.362348 l
319.230633 225.27241 l
319.416681 227.405222 l
319.60273 234.317589 l
319.788778 236.848698 l
319.974827 243.504099 l
320.346924 243.504099 l
320.905069 259.590128 l
321.277166 263.894298 l
321.649263 263.894298 l
321.835311 265.757296 l
322.02136 264.125566 l
322.207408 269.097845 l
322.393457 287.149659 l
322.579505 292.032 l
322.951602 292.032 l
323.13765 282.781248 l
323.323699 286.211736 l
323.509747 259.268922 l
323.695796 257.277441 l
323.881844 260.450962 l
324.253941 260.450962 l
324.43999 260.579445 l
324.812086 277.025225 l
324.998135 269.894438 l
325.184183 256.056855 l
325.55628 256.056855 l
325.742329 255.337352 l
325.928377 260.373873 l
326.114426 251.94541 l
326.300474 257.547254 l
326.486523 255.20887 l
327.044668 255.20887 l
327.416765 267.671688 l
327.602813 261.170465 l
327.788862 259.474494 l
327.97491 255.838435 l
328.533055 255.838435 l
328.719104 256.39091 l
328.905152 251.894017 l
329.277249 266.104199 l
329.649346 266.104199 l
329.835395 261.260403 l
330.021443 264.164111 l
330.207492 261.761485 l
330.39354 264.960704 l
330.579588 258.39524 l
330.951685 258.39524 l
331.137734 262.146933 l
331.323782 251.482873 l
331.509831 250.622039 l
331.695879 242.244969 l
331.881928 239.251323 l
332.254024 239.251323 l
332.440073 238.724544 l
332.626121 239.906585 l
332.81217 244.955953 l
332.998218 245.714001 l
333.184267 249.594177 l
333.556364 249.594177 l
333.742412 249.863991 l
334.114509 252.523582 l
334.300557 245.097284 l
334.486606 245.855332 l
334.858703 245.855332 l
335.044751 255.054691 l
335.2308 255.632862 l
335.416848 246.844649 l
335.602897 251.662748 l
335.788945 246.998828 l
336.161042 246.998828 l
336.34709 250.377922 l
336.533139 250.519253 l
336.719187 248.669102 l
336.905236 255.285959 l
337.091284 249.324364 l
337.463381 249.324364 l
337.64943 250.01817 l
337.835478 248.681951 l
338.021526 250.544949 l
338.207575 241.358439 l
338.579672 241.448377 l
338.76572 241.448377 l
339.323866 251.213059 l
339.509914 249.118792 l
339.695962 258.960563 l
340.068059 258.960563 l
340.254108 259.564432 l
340.440156 240.677481 l
340.626205 243.606886 l
340.812253 239.045751 l
340.998302 242.617569 l
341.370399 242.617569 l
341.556447 246.741862 l
341.742495 245.379946 l
341.928544 246.266477 l
342.486689 238.120676 l
342.672738 238.120676 l
342.858786 242.83599 l
343.230883 223.280929 l
343.416931 226.004761 l
343.60298 225.285258 l
343.975077 225.285258 l
344.347174 213.760364 l
344.533222 226.146092 l
344.905319 231.696543 l
345.277416 231.696543 l
345.835561 240.895901 l
346.02161 234.112017 l
346.207658 234.780127 l
346.579755 234.780127 l
346.765804 234.176258 l
346.951852 231.388185 l
347.1379 236.399008 l
347.323949 236.733063 l
347.509997 246.703318 l
347.882094 246.703318 l
348.068143 243.876699 l
348.254191 243.94094 l
348.626288 242.656114 l
349.184433 242.656114 l
349.370482 242.476238 l
349.55653 245.893877 l
349.742579 245.893877 l
349.928627 260.181149 l
350.672821 260.181149 l
350.858869 259.448797 l
351.417015 254.24525 l
351.789112 254.24525 l
351.97516 239.546834 l
352.161209 235.525326 l
352.347257 233.983534 l
352.533306 238.506124 l
352.719354 234.112017 l
353.091451 234.112017 l
353.277499 233.405362 l
353.463548 231.876419 l
353.649596 232.300411 l
353.835645 237.927952 l
354.021693 239.341261 l
354.39379 239.341261 l
354.579838 236.925787 l
354.765887 237.992193 l
354.951935 237.927952 l
355.137984 234.433224 l
355.324032 237.182753 l
355.696129 237.182753 l
355.882178 239.778102 l
356.068226 239.559682 l
356.254275 231.889267 l
356.440323 232.493135 l
356.626371 219.760504 l
356.998468 219.760504 l
357.184517 224.141763 l
357.370565 232.441742 l
357.742662 234.343286 l
357.928711 233.688024 l
358.300808 233.688024 l
358.486856 227.585098 l
358.672904 227.829215 l
359.045001 218.424284 l
359.23105 216.484196 l
359.603147 216.484196 l
359.789195 219.837593 l
359.975244 225.298107 l
360.719437 218.154471 l
360.905486 218.154471 l
361.091534 208.698147 l
361.463631 203.815806 l
361.64968 200.616588 l
361.835728 200.796463 l
362.207825 200.796463 l
362.579922 194.359482 l
362.76597 202.029897 l
362.952019 201.850021 l
363.138067 203.918592 l
363.510164 203.918592 l
363.696213 198.920616 l
364.068309 206.680969 l
364.440406 204.342585 l
364.812503 204.342585 l
364.998552 206.732362 l
365.1846 206.976479 l
365.370649 204.419674 l
365.928794 207.271989 l
366.114842 207.271989 l
366.300891 205.85868 l
366.672988 193.56289 l
366.859036 195.387343 l
367.045085 204.38113 l
367.417182 204.38113 l
367.60323 209.160684 l
367.789278 207.464713 l
367.975327 211.948758 l
368.161375 208.274154 l
368.905569 208.274154 l
369.091618 206.128494 l
369.277666 210.00867 l
369.463715 206.8223 l
369.649763 212.385599 l
370.02186 212.385599 l
370.207908 216.818251 l
370.393957 216.831099 l
370.580005 217.691933 l
370.766054 222.921177 l
370.952102 220.23589 l
371.324199 220.23589 l
371.696296 216.535589 l
371.882344 219.310815 l
372.254441 213.78606 l
372.626538 213.78606 l
372.812587 215.070887 l
372.998635 222.805543 l
373.184684 218.82258 l
373.55678 232.775797 l
374.114926 232.775797 l
374.300974 233.777962 l
374.487023 230.861406 l
374.673071 231.27255 l
374.85912 228.985559 l
375.231216 228.985559 l
375.97541 246.112297 l
376.161459 243.504099 l
376.533556 243.504099 l
376.719604 242.887383 l
376.905653 243.979485 l
377.091701 245.739698 l
377.277749 249.016006 l
377.463798 246.883193 l
377.835895 246.883193 l
378.021943 249.067399 l
378.207992 248.913219 l
378.39404 249.786901 l
378.580089 240.484757 l
378.766137 246.664773 l
379.324282 246.664773 l
379.510331 246.099449 l
379.696379 247.320034 l
379.882428 247.692634 l
380.068476 246.16369 l
380.440573 246.16369 l
380.626622 244.210754 l
380.81267 240.24064 l
380.998718 240.112157 l
381.184767 238.994358 l
381.370815 217.910354 l
381.742912 217.910354 l
381.928961 216.471348 l
382.115009 216.97243 l
382.301058 216.97243 l
382.487106 221.225206 l
382.673154 219.49069 l
383.045251 219.49069 l
383.2313 219.953228 l
383.417348 218.321498 l
383.603397 211.93591 l
383.789445 213.914543 l
383.975494 218.629856 l
384.347591 218.629856 l
384.719687 221.160965 l
384.905736 225.914823 l
385.091784 224.578604 l
385.277833 225.362348 l
385.64993 225.362348 l
385.835978 224.925507 l
386.022027 221.430778 l
386.394123 229.34531 l
386.580172 229.486641 l
386.952269 229.486641 l
387.138317 229.627972 l
387.324366 227.212498 l
387.510414 229.306766 l
387.696463 223.93619 l
387.882511 223.242384 l
388.440656 223.280929 l
388.812753 223.473653 l
388.998802 222.510033 l
389.18485 230.912799 l
389.556947 230.912799 l
389.742996 230.000572 l
389.929044 226.325968 l
390.115092 226.634326 l
390.301141 230.861406 l
390.487189 223.576439 l
390.859286 223.576439 l
391.231383 207.670286 l
391.417432 203.687323 l
391.60348 208.890871 l
391.789529 209.867339 l
392.161625 209.867339 l
392.533722 219.876138 l
392.719771 220.672731 l
392.905819 219.130939 l
393.091868 218.771187 l
393.463965 218.771187 l
393.650013 218.000291 l
393.836061 223.897646 l
394.02211 225.555072 l
394.208158 220.480007 l
394.394207 219.94038 l
394.766304 219.94038 l
395.138401 227.19965 l
395.324449 226.415906 l
395.510498 226.60863 l
395.696546 229.473793 l
396.254691 229.473793 l
396.44074 228.934166 l
396.812837 219.7862 l
396.998885 220.364372 l
397.370982 220.364372 l
397.55703 221.996102 l
398.487273 221.996102 l
398.487273 221.996102 l
stroke
grestore
0.800 setlinewidth
0 setlinejoin
0.000 setgray
gsave
57.6 38.016 m
57.6 304.128 l
stroke
grestore
gsave
414.72 38.016 m
414.72 304.128 l
stroke
grestore
gsave
57.6 38.016 m
414.72 38.016 l
stroke
grestore
gsave
57.6 304.128 m
414.72 304.128 l
stroke
grestore

end
showpage
