date,price
20161010,9.12
20161011,9.15
20161012,9.13
20161013,9.07
20161014,9.09
20161017,9.05
20161018,9.09
20161019,9.08
20161020,9.07
20161021,9.13
20161024,9.24
20161025,9.21
20161026,9.15
20161027,9.16
20161028,9.17
20161031,9.15
20161101,9.14
20161102,9.07
20161103,9.13
20161104,9.11
20161107,9.12
20161108,9.15
20161109,9.07
20161110,9.14
20161111,9.18
20161114,9.22
20161115,9.23
20161116,9.23
20161117,9.21
20161118,9.18
20161121,9.24
20161122,9.36
20161123,9.45
20161124,9.47
20161125,9.62
20161128,9.63
20161129,9.62
20161130,9.55
20161201,9.6
20161202,9.55
20161205,9.46
20161206,9.49
20161207,9.48
20161208,9.52
20161209,9.65
20161212,9.5
20161213,9.42
20161214,9.4
20161215,9.25
20161216,9.25
20161219,9.2
20161220,9.11
20161221,9.16
20161222,9.14
20161223,9.08
20161226,9.12
20161227,9.08
20161228,9.06
20161229,9.08
20161230,9.1
20170103,9.16
20170104,9.16
20170105,9.17
20170106,9.13
20170109,9.15
20170110,9.15
20170111,9.14
20170112,9.15
20170113,9.16
20170116,9.14
20170117,9.15
20170118,9.17
20170119,9.18
20170120,9.22
20170123,9.22
20170124,9.27
20170125,9.26
20170126,9.33
20170203,9.26
20170206,9.31
20170207,9.3
20170208,9.3
20170209,9.31
20170210,9.33
20170213,9.41
20170214,9.4
20170215,9.45
20170216,9.46
20170217,9.39
20170220,9.56
20170221,9.57
20170222,9.57
20170223,9.51
20170224,9.5
20170227,9.43
20170228,9.48
20170301,9.49
20170302,9.43
20170303,9.4
20170306,9.45
20170307,9.45
20170308,9.42
20170309,9.38
20170310,9.4
20170313,9.44
20170314,9.44
20170315,9.48
20170316,9.52
20170317,9.31
20170320,9.25
20170321,9.24
20170322,9.16
20170323,9.2
20170324,9.19
20170327,9.14
20170328,9.12
20170329,9.11
20170330,9.08
20170331,9.17
20170405,9.21
20170406,9.2
20170407,9.2
20170410,9.18
20170411,9.15
20170412,9.12
20170413,9.12
20170414,9.08
20170417,9.1
20170418,9.05
20170419,8.91
20170420,8.92
20170421,8.97
20170424,8.93
20170425,9
20170426,8.99
20170427,8.97
20170428,8.99
20170502,8.94
20170503,8.91
20170504,8.74
20170505,8.63
20170508,8.57
20170509,8.64
20170510,8.67
20170511,8.7
20170512,8.9
20170515,8.86
20170516,8.84
20170517,8.77
20170518,8.73
20170519,8.69
20170522,8.68
20170523,8.79
20170524,8.81
20170525,9.1
20170526,9.1
20170531,9.2
20170601,9.19
20170602,9.17
20170605,9.03
20170606,9.04
20170607,9.13
20170608,9.13
20170609,9.15
20170612,9.11
20170613,9.12
20170614,9.08
20170615,9.04
20170616,9.02
20170619,9.13
20170620,9.12
20170621,9.15
20170622,9.25
20170623,9.25
20170626,9.3
20170627,9.36
20170628,9.43
20170629,9.43
20170630,9.39
20170703,9.4
20170704,9.34
20170705,9.37
20170706,9.4
20170707,9.47
20170710,9.59
20170711,10.25
20170712,10.34
20170713,10.9
20170714,10.9
20170717,10.81
20170718,11.05
20170719,11.09
20170720,10.97
20170721,10.89
20170724,10.95
20170725,11
20170726,10.74
20170727,10.59
20170728,10.74
20170731,10.67
20170801,11.04
20170802,11.15
20170803,11.01
20170804,11.17
20170807,11
20170808,11.05
20170809,10.73
20170810,10.62
20170811,10.02
20170814,10.22
20170815,10.31
20170816,10.34
20170817,10.42
20170818,10.44
20170821,10.46
20170822,10.65
20170823,10.9
20170824,10.93
20170825,11.11
20170828,11.35
20170829,11.67
20170830,11.43
20170831,11.28
20170901,11.21
20170904,11.72
20170905,11.64
20170906,11.7
20170907,11.44
20170908,11.49
20170911,11.38
20170912,11.54
20170913,11.43
20170914,11.32
20170915,11.29
20170918,11.25
20170919,11.13
20170920,11.29
20170921,11.46
20170922,11.44
20170925,11.29
20170926,11.05
20170927,10.93
20170928,10.88
20170929,11.11
20171009,11.3
20171010,11.47
20171011,11.53
20171012,11.55
20171013,11.36
20171016,11.59
20171017,11.51
20171018,11.69
20171019,11.63
20171020,11.48
20171023,11.19
20171024,11.39
20171025,11.27
20171026,11.18
20171027,11.56
20171030,11.56
20171031,11.54
20171101,11.4
20171102,11.54
20171103,11.39
20171106,11.28
20171107,11.92
20171108,12.13
20171109,12.33
20171110,12.3
20171113,12.9
20171114,12.95
20171115,12.9
20171116,13.1
20171117,13.18
20171120,14.25
20171121,14.45
20171122,15.1
20171123,14.35
20171124,14.56
20171127,13.93
20171128,13.7
20171129,13.82
20171130,13.38
20171201,13
20171204,13.3
20171205,13.3
20171206,13.08
20171207,12.83
20171208,13.09
20171211,13.5
20171212,13.02
20171213,13.13
20171214,13
20171215,12.72
20171218,12.75
20171219,13.28
20171220,13.26
20171221,13.54
20171222,13.52
20171225,13.25
20171226,13.66
20171227,13.29
20171228,13.21
20171229,13.3
20180102,13.7
20180103,13.33
20180104,13.25
20180105,13.3
20180108,12.96
20180109,13.08
20180110,13.47
20180111,13.4
20180112,13.55
20180115,14.2
20180116,14.2
20180117,14.23
20180118,14.72
20180119,14.8
20180122,14.44
20180123,14.65
20180124,14.64
20180125,14.2
20180126,14.05
20180129,13.74
20180130,13.65
20180131,14.05
20180201,14.03
20180202,14.05
20180205,14.55
20180206,14
20180207,12.92
20180208,12.54
20180209,11.69
20180212,11.72
20180213,11.94
20180214,12
20180222,12.46
20180223,12.61
20180226,12.63
20180227,12.28
20180228,12.05
20180301,12.04
20180302,11.95
20180305,11.86
20180306,12.1
20180307,12.05
20180308,12.11
20180309,12.09
20180312,12.03
20180313,12.02
20180314,11.92
20180315,11.71
20180316,11.64
20180319,11.83
20180320,11.82
20180321,11.9
20180322,11.66
20180323,11.34
20180326,10.93
20180327,10.94
20180328,10.89
20180329,11.05
20180330,10.9
20180402,10.71
20180403,10.56
20180404,10.87
20180409,11.02
20180410,11.42
20180411,11.83
20180412,11.52
20180413,11.57
20180416,11.1
20180417,11.21
20180418,11.5
20180419,11.47
20180420,11.35
20180423,11.57
20180424,11.86
20180425,11.68
20180426,11.42
20180427,10.85
20180502,10.88
20180503,10.75
20180504,10.68
20180507,10.81
20180508,11.01
20180509,10.97
20180510,11.01
20180511,11.01
20180514,11.18
20180515,11.12
20180516,10.9
20180517,10.82
20180518,10.96
20180521,10.95
20180522,10.86
20180523,10.65
20180524,10.61
20180525,10.59
20180528,10.59
20180529,10.38
20180530,10.08
20180531,10.18
20180601,10.19
20180604,10.27
20180605,10.26
20180606,10.14
20180607,10.37
20180608,10.12
20180611,10.04
20180612,10.06
20180613,9.95
20180614,10.07
20180615,10.17
20180619,9.87
20180620,9.91
20180621,9.86
20180622,9.85
20180625,9.46
20180626,9.36
20180627,9.09
20180628,8.92
20180629,9.09
20180702,8.61
20180703,8.67
20180704,8.61
20180705,8.6
20180706,8.66
20180709,9.03
20180710,8.98
20180711,8.78
20180712,8.88
20180713,8.88
20180716,8.73
20180717,8.72
20180718,8.7
20180719,8.73
20180720,9.11
20180723,9.42
20180724,9.4
20180725,9.38
20180726,9.25
20180727,9.25
20180730,9.39
20180731,9.42
20180801,9.15
20180802,8.94
20180803,8.91
20180806,8.94
20180807,9.17
20180808,9.05
20180809,9.29
20180810,9.23
20180813,9.05
20180814,9
20180815,8.79
20180816,8.78
20180817,8.81
20180820,9
20180821,9.23
20180822,9.29
20180823,9.36
20180824,10.03
20180827,10.43
20180828,10.29
20180829,10.27
20180830,10.12
20180831,10.13
20180903,10.19
20180904,10.43
20180905,10.05
20180906,9.97
20180907,10.01
20180910,9.88
20180911,9.91
20180912,9.88
20180913,9.96
20180914,9.84
20180917,9.69
20180918,10.08
20180919,10.24
20180920,10.23
20180921,10.67
20180925,10.55
20180926,10.71
20180927,10.74
20180928,11.05
20181008,10.45
20181009,10.56
20181010,10.45
20181011,9.86
20181012,10.3
20181015,10.11
20181016,10.37
20181017,10.33
20181018,10.09
20181019,10.76
20181022,11.15
20181023,10.84
20181024,11.04
20181025,11.29
20181026,11.18
20181029,10.75
20181030,10.9
20181031,10.91
20181101,10.83
20181102,11.09
20181105,10.92
20181106,10.84
20181107,10.81
20181108,10.89
20181109,10.55
20181112,10.56
20181113,10.54
20181114,10.44
20181115,10.62
20181116,10.57
20181119,10.85
20181120,10.57
20181121,10.61
20181122,10.55
20181123,10.32
20181126,10.34
20181127,10.18
20181128,10.28
20181129,10.2
20181130,10.36
20181203,10.59
20181204,10.59
20181205,10.45
20181206,10.25
20181207,10.28
20181210,10.17
20181211,10.23
20181212,10.24
20181213,10.39
20181214,10.17
20181217,10.29
20181218,10.12
20181219,9.94
20181220,9.71
20181221,9.45
20181224,9.42
20181225,9.34
20181226,9.3
20181227,9.28
20181228,9.38
20190102,9.19
20190103,9.28
20190104,9.75
20190107,9.74
20190108,9.66
20190109,9.94
20190110,10.1
20190111,10.2
20190114,10.11
20190115,10.24
20190116,10.48
20190117,10.25
20190118,10.43
20190121,10.34
20190122,10.28
20190123,10.35
20190124,10.52
20190125,11
20190128,10.94
20190129,11
20190130,10.95
20190131,11.1
20190201,11.2
20190211,11.21
20190212,11.19
20190213,11.38
20190214,11.25
20190215,10.95
20190218,11.36
20190219,11.27
20190220,11.41
20190221,11.36
20190222,11.54
20190225,12.55
20190226,12.2
20190227,12.4
20190228,12.36
20190301,12.76
20190304,12.99
20190305,13.06
20190306,13.08
20190307,12.74
20190308,12.3
20190311,12.32
20190312,12.36
20190313,12.37
20190314,12.43
20190315,12.5
20190318,12.91
20190319,12.79
20190320,12.75
20190321,12.69
20190322,12.59
20190325,12.11
20190326,12.1
20190327,12.38
20190328,12.22
20190329,12.82
20190401,13.18
20190402,13.36
20190403,13.44
20190404,13.86
20190408,13.96
20190409,13.81
20190410,13.73
20190411,13.54
20190412,13.42
20190415,13.69
20190416,14.58
20190417,14.35
20190418,14.34
20190419,14.73
20190422,14.15
20190423,14.07
20190424,14.44
20190425,14.13
20190426,13.79
20190429,14.1
20190430,13.85
20190506,12.87
20190507,12.95
20190508,12.6
20190509,12.16
20190510,12.68
20190513,12.3
20190514,12.49
20190515,12.92
20190516,12.85
20190517,12.44
20190520,12.38
20190521,12.56
20190522,12.4
20190523,12.29
20190524,12.35
20190527,12.37
20190528,12.49
20190529,12.4
20190530,12.22
20190531,12.18
20190603,11.9
20190604,11.85
20190605,11.97
20190606,11.92
20190610,12.34
20190611,12.65
20190612,12.57
20190613,12.59
20190614,12.49
20190617,12.67
20190618,12.8
20190619,13.07
20190620,13.8
20190621,13.64
20190624,13.69
20190625,13.43
20190626,13.37
20190627,13.71
20190628,13.78
20190701,13.93
20190702,14.18
20190703,14.01
20190704,13.99
20190705,13.92
20190708,13.59
20190709,13.59
20190710,13.56
20190711,13.54
20190712,14.12
20190715,14
20190716,13.75
20190717,13.69
20190718,13.67
20190719,13.99
20190722,13.85
20190723,13.76
20190724,13.88
20190725,14.2
20190726,14.23
20190729,14.29
20190730,14.37
20190731,14.13
20190801,14.1
20190802,13.74
20190805,13.35
20190806,13.37
20190807,13.54
20190808,14.38
20190809,14.52
20190812,15.12
20190813,14.89
20190814,14.97
20190815,14.94
20190816,14.9
20190819,14.92
20190820,14.99
20190821,14.45
20190822,14.31
20190823,14.65
20190826,14.25
20190827,14.31
20190828,14.27
20190829,14.13
20190830,14.16
20190902,14.45
20190903,14.3
20190904,14.44
20190905,14.58
20190906,14.81
20190909,14.69
20190910,14.55
20190911,14.56
20190912,14.68
20190916,14.45
20190917,14.24
20190918,14.41
20190919,14.84
20190920,15.34
20190923,15.38
20190924,15.18
20190925,15.75
20190926,15.71
20190927,15.9
20190930,15.59
20191008,16.2
20191009,16.25
20191010,16.24
20191011,16.81
20191014,17.22
20191015,17.18
20191016,16.79
20191017,16.7
20191018,16.51
20191021,16.89
20191022,16.42
20191023,16.45
20191024,16.87
20191025,16.88
20191028,16.66
20191029,16.91
20191030,16.43
20191031,16.26
20191101,16.86
20191104,16.92
20191105,17.15
20191106,16.96
20191107,16.89
20191108,16.65
20191111,16.28
20191112,16.33
20191113,16.33
20191114,16.32
20191115,16.34
20191118,16.45
20191119,16.41
20191120,15.85
20191121,15.86
20191122,15.59
20191125,15.8
20191126,15.62
20191127,15.47
20191128,15.49
20191129,15.29
20191202,15.36
20191203,15.45
20191204,15.31
20191205,15.43
20191206,15.6
20191209,15.41
20191210,15.33
20191211,15.66
20191212,15.6
20191213,16.12
20191216,16.13
20191217,16.5
20191218,16.46
20191219,16.55
20191220,16.59
20191223,16.24
20191224,16.4
20191225,16.3
20191226,16.47
20191227,16.63
20191230,16.57
20191231,16.45
20200102,16.87
20200103,17.18
20200106,17.07
20200107,17.15
20200108,16.66
20200109,16.79
20200110,16.69
20200113,16.99
20200114,16.76
20200115,16.52
20200116,16.33
20200117,16.39
20200120,16.45
20200121,16
20200122,16.09
20200123,15.54
20200203,13.99
20200204,14.6
20200205,14.63
20200206,14.77
20200207,14.62
20200210,14.5
20200211,14.79
20200212,14.77
20200213,14.65
20200214,15.03
20200217,15.37
20200218,15.2
20200219,15.24
20200220,15.59
20200221,15.58
20200224,15.23
20200225,15.04
20200226,14.99
20200227,15.11
20200228,14.5
20200302,14.79
20200303,14.72
20200304,14.69
20200305,15.39
20200306,15.03
20200309,14.45
20200310,14.76
20200311,14.69
20200312,14.68
20200313,14.52
20200316,13.75
20200317,13.41
20200318,12.71
20200319,12.23
20200320,12.52
20200323,12.15
20200324,12.61
20200325,12.87
20200326,13.06
20200327,13.15
20200330,12.94
20200331,12.8
20200401,12.89
20200402,12.97
20200403,12.61
20200407,12.88
20200408,12.78
20200409,12.74
20200410,12.79
20200413,12.59
20200414,12.86
20200415,12.87
20200416,12.68
20200417,12.89
20200420,12.99
20200421,13.45
20200422,13.23
20200423,13.23
20200424,13.24
20200427,13.5
20200428,13.52
20200429,14.02
20200430,13.93
20200506,13.77
20200507,13.69
20200508,13.95
20200511,14
20200512,13.79
20200513,13.63
20200514,13.3
20200515,13.23
20200518,13.2
20200519,13.36
20200520,13.51
20200521,13.4
20200522,12.92
20200525,12.96
20200526,13.04
20200527,13
20200528,13.07
20200529,13
20200601,13.32
20200602,13.55
20200603,13.54
20200604,13.57
20200605,13.59
20200608,13.62
20200609,13.67
20200610,13.49
20200611,13.08
20200612,12.99
20200615,12.82
20200616,12.89
20200617,12.85
20200618,12.76
20200619,12.8
20200622,12.64
20200623,12.6
20200624,12.8
20200629,12.8
20200630,12.8
20200701,13.12
20200702,13.43
20200703,14.25
20200706,15.68
20200707,15.48
20200708,15.76
20200709,15.53
20200710,14.86
20200713,14.89
20200714,14.68
20200715,14.27
20200716,14.15
20200717,14.14
20200720,14.73
20200721,14.49
20200722,14.41
20200723,14.01
20200724,13.5
20200727,13.24
20200728,13.34
20200729,13.54
20200730,13.37
20200731,13.34
20200803,13.59
20200804,14.04
20200805,13.76
20200806,13.9
20200807,13.7
20200810,13.95
20200811,14.13
20200812,14.38
20200813,14.18
20200814,14.47
20200817,15.19
20200818,15.15
20200819,15.1
20200820,14.59
20200821,14.45
20200824,14.46
20200825,14.6
20200826,14.37
20200827,14.46
20200828,15.13
20200831,15.08
20200901,15.14
20200902,15.32
20200903,14.9
20200904,14.96
20200907,14.94
20200908,15.43
20200909,15.21
20200910,15.34
20200911,15.01
20200914,15.3
20200915,15.35
20200916,15.44
20200917,15.57
20200918,16.07
20200921,15.86
20200922,15.57
20200923,15.63
20200924,15.12
20200925,15.19
20200928,15.31
20200929,14.8
20200930,15.17
20201009,15.18
20201012,15.9
20201013,16.06
20201014,16.03
20201015,16.56
20201016,17.1
20201019,17.48
20201020,17.54
20201021,17.91
20201022,17.56
20201023,18.13
20201026,17.7
20201027,17.76
20201028,17.63
20201029,17.77
20201030,17.75
20201102,17.63
20201103,17.96
20201104,18.32
20201105,17.7
20201106,17.64
20201109,17.84
20201110,18.11
20201111,17.81
20201112,17.66
20201113,17.18